S.No.,Name of the Establishment,Address,Major Activity Description,Broad Activit y Code,NIC,Owner ship Code,"Emplo yment Class Interva
l"
847,SANGTO SCHOOL,4  CHESSORI HQ  798612,EDUCATIONAL INSTITUTE,20,851,2,10-14
848,GOVERNMENT HIGH SCHOOL,68  HUKIR  798612,EDUCATIONAL INSTITUTE,20,852,1,15-19
849,JNV SCHOOL,2  1   CHARE  798612,EDUCATIONAL INSTITUTE,20,851,1,15-19
850,GOVERNMENT HIGH SCHOOL,72  CHARE  798612,EDUCATIONAL INSTITUTE,20,852,1,30-99
851,SHUYONG SCHOOL,124  CHARE HQ  798612,EDUCATIONAL INSTITUTE,20,851,2,15-19
852,LIZI RESIDENTIAL SCHOOL,3  CHARE VILLAGE 798612,EDUCATIONAL INSTITUTE,20,852,2,10-14
853,GOVERNMENT HIGH SCHOOL,25  NEW TSADANG 798612,EDUCATIONAL INSTITUTE,20,852,1,10-14
854,GOVERNMENT HIGH SCHOOL,7  TONGLONGSOR 798612,EDUCATIONAL INSTITUTE,20,852,1,10-14
855,GOVERNMENT HIGH SCHOOL,5  PATHSO  798612,EDUCATIONAL INSTITUTE,20,852,1,15-19
856,HIGHWAY STONE CRUSHING UNIT,2  KUTHUR  798612,STONE CRUSHER,6,239,2,10-14
857,CHURCH,59  KUTHUR  798612,RELIGIOUS SERVICE,23,949,7,10-14
858,GOVERNMENT MIDDLE SCHOOL,176  KUTHUR B  798612,EDUCATION INSTITUTE,20,852,1,10-14
859,GOVERNMENT HIGH SCHOOL,21  KUTHUR  798612,EDUCATIONAL INSTITUTE,20,852,1,20-24
860,GOVERNMENT PRIMARY SCHOOL,55  KUTHUR  798612,EDUCATIONAL INSTITUTE,20,851,1,10-14
861,DISPENSARY  PHC ,52  KUTHUR  798612,PRIMARY HEALTH CENTRE,21,861,1,10-14
862,GOVERNMENT MIDDLE SCHOOL,25  CHINGMELEN  798612,EDUCATIONAL INSTITUTE,20,852,1,10-14
863,CHURCH,253  CHINGMELEN 798612,RELIGIOUS SERVICE,23,949,7,15-19
864,GOVERNMENT PRIMARY SCHOOL,53  HELIPONG  798612,EDUCATION,20,851,1,10-14
865,SIPONGSANG BAPTIST CHURCH,225  SIPONGSANG 798612,RELIGIOUS SERVICE,23,949,7,10-14
866,GOVERNMENT HIGH SCHOOL,48  SOTOKUR  798612,EDUCATIONAL INSTITUTE,20,852,1,20-24
867,COMDT VG  HQ,105  SOTOKUR  798612,SECURITY,19,821,1,30-99
868,SDEO OFFICE,48  SOTOKUR  798612,GOVERNMENT OFFICE,19,821,1,15-19
869,CHURCH OFFICE,32  TUENSANG  798612,RELIGIOUS ACTIVITIES,23,949,7,10-14
870,CHURCH,33  TUENSANG  798612,RELIGIOUS ACTIVITIES,23,949,7,15-19
871,GOVERNMENT PRIMARY SCHOOL,408  TUENSANG  798612,EDUCATIONAL INSTITUTE,20,851,1,10-14
872,GOVERNMENT MIDDLE SCHOOL,294  TUENSANG  798612,EDUCATIONAL INSTITUTE,20,852,1,20-24
873,GOVERNMENT PIGGERY FARM,316  TUENSANG  798612,PIGGERY FARM,2,14,1,10-14
874,GOVERNMENT SCHOOL,90  TUENSANG  798612,EDUCATIONAL INSTITUTE,20,851,1,10-14
875,GOVERNMENT PRIMARY SCHOOL,1  TUENSANG  798612,EDUCATIONAL INSTITUTE,20,851,1,10-14
876,GOVERNMENT PRIMARY SCHOOL,1  TUENSANG  798612,EDUCATIONAL INSTITUTE,20,851,1,10-14
877,GOVERNMENT HIGH SCHOOL,747  CHIMONGER  798612,EDUCATIONAL INSTITUTE,20,852,1,15-19
878,GOVERNMENT PRIMARY SCHOOL,2 1   CHUNGTOR  798612,EDUCATIONAL INSTITUTE,20,851,1,10-14
879,GOVERNMENT MIDDLE SCHOOL,396  CHUNGTOR  798612,EDUCATIONAL INSTITUTE,20,852,1,20-24
880,CHRIST KING SCHOOL,367  ANGANGBA  798612,EDUCATIONAL INSTITUTE,20,851,3,10-14
881,BAPTIST HIGH SCHOOL,379  LONGKHIM HQ 798612,EDUCATIONAL INSTITUTE,20,852,2,15-19
882,GOVERNMENT HIGH SCHOOL,331  LONGKHIM HQ 798612,EDUCATIONAL INSTITUTE,20,852,1,20-24
883,MT  SINAI SCHOOL,544  LONGKHIM HQ 798612,EDUCATIONAL INSTITUTE,20,851,2,10-14
884,GOVERNMENT PRIMARY SCHOOL,286  PHIR AHIR  798612,EDUCATIONAL INSTITUTE,20,851,1,10-14
885,GOVERNMENT  PRIMARY SCHOOL,141  SANGSOMONG 798612,EDUCATIONAL INSTITUTE,20,851,1,10-14
886,GOVERNMENT PRIMARY SCHOOL,154  OLD MANGAKHI 798612,EDUCATIONAL INSTITUTE,20,851,1,10-14
887,PUBLIC HEALTH CENTRE,191  THONOKNYU HQ 798612,HEALTH SERVICE,21,861,1,10-14
888,GOVERNMENT PRIMARY SCHOOL,169  LONGRA  798612,EDUCATIONAL INSTITUTE,20,851,1,10-14
889,GOVERNMENT MIDDLE SCHOOL,345  YANGPI  798612,EDUCATIONAL INSTITUTE,20,852,1,10-14
890,CHURCH,145  LONGRA  798612,RELIGIOUS ACTIVITY,23,949,7,10-14
891,GOVERNMENT PRIMARY SCHOOL,22  LITEM  798612,EDUCATIONAL INSTITUTE,20,851,1,10-14
892,CHURCH,287  NOKSEN  798612,RELIGIOUS ACTIVITY,23,949,7,15-19
893,GOVERNMENT PRIMARY SCHOOL,47  SANGSANGYU 798612,EDUCATIONAL INSTITUTE,20,851,1,10-14
894,CHURCH,156  HAKCHANG  798612,RELIGIOUS ACTIVITY,23,949,7,20-24
895,CHURCH,6  SANGCHEN  798612,RELIGIOUS ACTIVITY,23,949,9,15-19
896,CHURCH,57  MOMCHING  798612,RELIGIOUS ACTIVITY,23,949,9,15-19
897,CHURCH,28  HAK  798612,RELIGIOUS ACTIVITY,23,949,7,10-14
898,CHURCH,74  LONGTANG  798612,RELIGIOUS ACTIVITY,23,949,7,10-14
899,N  A  P CHURCH,2  SHAMATOR  798612,RELIGIOUS ACTIVITY,23,949,7,10-14
900,PUBLIC HEALTH CENTRE,253  SHAMATOR HQ 798612,HEALTH SERVICE,21,861,1,30-99
901,GOVERNMENT PRIMARY SCHOOL,316  SHAMATOR HQ 798612,EDUCATIONAL INSTITUTE,20,851,1,10-14
902,GOVERNMENT HIGH SCHOOL,375  SHAMATOR HQ 798612,EDUCATIONAL INSTITUTE,20,852,1,25-29
903,S  T  B CHURCH,532  SHAMAOTR HQ 798612,RELIGIOUS ACTIVITY,23,949,9,10-14
904,GOVERNMENT PRIMARY SCHOOL,588  SHAMATOR HQ 798612,EDUCATIONAL INSTITUTE,20,851,1,10-14
905,YBBA OFFICE,505  SHAMATOR  798612,RELIGIOUS ACTIVITY,23,949,7,10-14
906,CHRISTIAN HIGH SCHOOL,495  SHAMATOR HQ 798612,EDUCATIONAL INSTITUTE,20,852,2,15-19
907,ST  XAVER SCHOOL,797  SHAMATOR HQ 798612,EDUCATIONAL INSTITUTE,20,851,2,15-19
908,GOVERNMENT MIDDLE SCHOOL,308  SHAMATOR VILL 798612,EDUCATIONAL INSTITUTE,20,852,1,10-14
909,HOLY ANGEL SCHOOL,82  TUENSANG SADAR 798612,EDUCATIONAL INSTITUTE,20,852,2,25-29
910,CHURCH,124  TUENSANG SADAR 798612,RELIGIOUS SERVICE,23,949,7,10-14
911,ENGLISH SCHOOL,111  TUENSAG SADAR 798612,EDUCATIONAL INSTITUTE,20,852,2,20-24
912,SCHOOL,252  TUESANG SADAR 798612,EDUCATIONAL INSTITUTE,20,852,2,25-29
913,MEDICINE CENTRE,274  TUENSANG SADAR 798612,HEALTH SERVICES,21,861,9,25-29
914,LOYIM HIGHER SECONDARY SCHOOL,146  TUENSANG ADAR 798612,EDUCATIONAL INSTITUTE,20,852,2,20-24
915,GOVERNMENT HIGHER SECONDARY SCHOOL,127  TUENSANG SADAR 798612,EDUCATIONAL INSTITUTE,20,852,1,30-99
916,AKUM IMLONG SCHOOL,203  TUENSANG SADAR 798612,EDUCATIONAL INSTITUTE,20,852,2,20-24
917,SCHOOL,332 1   TUENSANG SADAR  798612,EDUCATIONAL INSTITUTE,20,852,2,15-19
918,CHRIST CHURCH,358  TUENSANG SADAR 798612,RELIGIOUS ACTIVITY,23,949,7,10-14
919,ST  JOHN SCHOOL,299  TUENSANG SADAR 798612,EDUCATIONAL INSTITUTE,20,852,2,25-29
920,CHURCH,366  TUENSANG SADAR 798612,RELIGIOUS ACTIVITY,23,949,7,10-14
921,AO CHURCH,375  TUENSANG SADAR 798612,RELIGIOUS ACTIVITY,23,949,7,15-19
922,KHAIMNIUNGAN CHURCH,380  TUENSANG SADAR 798612,RELIGIOUS ACTIVITY,23,949,7,15-19
923,STATION II SCHOOL,3  TUENSANG SADAR 798612,EDUCATIONAL INSTITUTE,20,852,2,30-99
924,CHRIST KING SCHOOL,1  TUENSANG SADAR 798612,EDUCATIONAL INSTITUTE,20,852,2,15-19
925,GOVERNMENT HIGH SCHOOL,247  TUENSANG SADAR 798612,EDUCATIONAL INSTITUTE,20,852,1,15-19
926,MONTESSORI KIDS CARE SCHOOL,434  TUENSANG SADAR 798612,EDUCATIONAL INSTITUTE,20,851,2,15-19
927,ST  JOSEPH S SCHOOL,440  TUENSANG SADAR 798612,EDUCATIONAL INSTITUTE,20,851,2,30-99
928,RAKILA HARDWARE STORE,558  TUENSANG SADAR 798612,SELLING CONSTRUCTION MATERIALS,12,475,2,20-24
929,HOLY CROSS SCHOOL,261  TUENSANG SADAR 798612,EDUCATIONAL INSTITUTE,20,851,2,15-19
930,GOVERNMENT PRIMARY SCHOOL,271  TUENSANG SADAR 798612,EDUCATIONAL INSTITUTE,20,851,1,15-19
931,KHAIMNIUGAN BAPTIST CHURCH,288  TUENSANG SADAR 798612,RELIGIOUS ACTIVITY,23,949,7,25-29
932,SANGTAM BAPTIST CHURCH,286  TUENSANG SADAR 798612,RELIGIOUS ACTIVITY,23,949,7,10-14
933,YIMCHUNGER BAPTIST CHURCH,281  TUENSANG SADAR 798612,RELIGIOUS ACTIVITY,23,949,7,10-14
934,GOVERNMENT COLLEGE,366  TUESANG SADAR 798612,EDUCATIONAL INSTITUTE,20,853,1,30-99
935,EKLAVIYA MODEL RESIDENTIAL SCHOOL,397  TUENSANG SADAR 798612,EDUCATIONAL INSTITUTE,20,852,2,15-19
936,TULIP RESIDENTIAL SCHOOL,349  TUENSANG SADAR 798612,EDUCATIONAL INSTITUTE,20,852,2,15-19
937,LIMAONEN BAKERY,18 1   TUENSANG SADAR 798612,BAKERY PRODUCTION,6,107,2,10-14
938,JUJAM BAPTIST CHURCH,158  TUENSANG SADAR 798612,RELIGIOUS ACTIVITY,23,949,7,20-24
939,GOVERNMENT MIDDLE SCHOOL,188  TUENSANG SADAR 798612,EDUCATIONAL INSTITUTE,20,852,1,30-99
940,FHW SCHOOL OF NURSING,208 2   TUENSANG SADAR  798612,NURSING EDUCATION,20,853,1,10-14
941,GOVERNMENT HIGH SCHOOL,17  NOKLAK VILLAGE 798612,EDUCATIONAL INSTITUTE,20,852,1,20-24
942,SELF HELP GROUP,32  NOKLAK HQ  798612,WEAVING UNIT,6,131,5,10-14
943,LONDON TOWN BAPTIST CHURCH,22  NOKLAK HQ  798612,RELIGIOUS ACTIVITY,23,949,7,10-14
944,CHURCH,19  NOKLAK HQ  798612,RELIGIOUS ACTIVITY,23,949,7,15-19
945,ST  PAUL SCHOOL,41  NOKLAK HQ  798612,EDUCATIONAL INSTITUTE,20,852,9,15-19
946,KBCA OFFICE,165  NOKLAK HQ  798612,CHURCH MONASTERY,23,949,1,10-14
