S.No.,Name of the Establishment,Address,Major Activity Description,Broad Activity Code,NIC,Ownershi p Code,"Employm ent
Class
Interval"
31762,SBI,NAGAHAR RASADA 221712,BANKING,16,641,1,10-14
31763,PRIMARY HEALTH CENTRE,CHILKAHAR   221701,OTHER HEALTH ACT,21,861,1,15-19
31764,HOLI CRAS CONVENT,AMRITPALI   277001,EDUCATION,20,851,7,30-99
31765,GOV HOSPITAL,SIKANDARPUR   277303,HOSPITAL,21,861,1,30-99
31766,SBI,CHITBADAGAW   221713,BANKING,16,641,1,10-14
31767,RAILWAY STATION,CHITBADAGAW   221713,PASSENGER RAIL TRANSPAOT,13,491,1,15-19
31768,SBI,CITY BALLIA   277001,BANKING,16,641,1,15-19
31769,PURWANCHAL BANK,MAAL GODAM ROAD BALLIA   277001,BANKING,16,641,1,15-19
31770,LIC,MAAL GODAM ROAD BALLIA   277001,LIFE INSURANCE,16,651,4,30-99
31771,UNION BANK OF INDIA,CHAUK ROAD BALLIA 277001,BANKING,16,641,1,10-14
31883,INTER COLLEGE,BHIND   221716,EDUCATION,20,852,1,20-24
31884,JYOTI MADAL INTER MEDIATE COLLEGE,SEMARI BALLIA   221716,SEC  EDUCATION,20,852,2,10-14
31885,RADHIKA SANEHI S M VIDHALAYA,ASDHIA BARAULI BALLIA 221716,EDUCATION,20,852,1,10-14
31886,BABA SAHEB AMBEDKAR SHIKSHA SANSTHAN,DHARMPUR RAMPUR MADAI   221716,EDUCATION,20,852,2,10-14
31887,S M VIDHALAYA AMBEDAKAR NAGAR,BARAULI   221716,EDUCATION,20,852,1,10-14
31888,D R R SENIOR MADHYAMIK VIDHALAYA,AWRAI KHURD   221716,EDUCATION,20,852,2,10-14
31889,SHYAM PUBLIC SCHOOL,KHARUPUR   221716,EDUCATION,20,851,2,10-14
31890,INTER COLLEGE,KHARUPUR   221716,EDUCATION,20,852,1,15-19
31891,SENIOR PRATHAMIK VIDHALAYA,AWRAI KALA   221716,EDUCATION,20,852,2,10-14
31892,INTER COLLEGE,BAHRAEICH   221716,EDUCATION,20,852,1,10-14
31893,SISTER CONVENT SCHOOL,BAHARAEICH   221716,EDUCATION,20,851,2,10-14
31894,MATHURA INTER COLLEGE,GAURA   221716,EDUCATION,20,852,1,15-19
31895,TILESHWARI DEVI MAHAVIDHALAYA,GAURA   221716,EDUCATION,20,853,1,20-24
31896,A R SANGIT VIDHALAYA,GAURA   221716,EDUCATION,20,854,2,10-14
31897,T D INTER COLLEGE,GAURA   221716,EDUCATION,20,852,1,15-19
31898,INTER COLLEGE,BHIMPURA NO 1   221716,EDUCATION,20,852,1,15-19
31899,SENIOR PRATHAMIK VIDHALAYA,BHIMPURA NO 1   221716,EDUCATION,20,852,1,10-14
31900,SENIOR PRATHAMIK VIDHALAYA,BABHNAULI   221716,EDUCATION,20,852,1,15-19
31901,INTRER COLLEGE,KASAUNDAR   221716,EDUCATION,20,852,1,15-19
31902,PRATHAMIK VIDHALAYA,KASAUNDAR   221716,EDUCATION,20,851,1,15-19
31903,SENIOR PRATHAMIK VIDHALAYA,KASAUNDAR   221716,EDUCATION,20,852,1,10-14
31904,SENIOR PRATHAMIK VIDHALAYA,MASURIA   221716,EDUCATION,20,852,1,15-19
31905,SHISHU VIHAR ENGLISH SCHOOL,MASURIA   221716,EDUCATION,20,852,2,15-19
31906,RAMCHIJ INTER COLLEGE,RUPWAR BHAGWANPUR 221718,EDUCATION,20,852,1,10-14
31907,SUDHAKAR INTER COLLEGE SHANKARPUR,MAJHUA   277213,EDUCATION,20,852,1,15-19
31908,PRATHAMIK VIDHALAYA,INDASO   221711,EDUCATION,20,851,1,10-14
31909,MA KALAWATI INTER COLLEGE,KHANDAWA   221718,EDUCATION,20,852,1,10-14
31910,KAMALA RAJ INTER COLLEGE,GAUWAPAR   221718,EDUCATION,20,852,1,10-14
31911,SENIOR PRATHAMIK VIDHALAYA,MALIPUR   221718,EDUCATION,20,852,1,15-19
31912,CHANDRASHEKHAR JUNIOR HIGH SCHOOL,BHIMPURA NO 2   221711,EDUCATION,20,852,2,15-19
31913,HIGH SCHOOL,TADIBADA GANW   221711,EDUCATION,20,852,1,10-14
31914,UCHCHA PRATHAMIK VIDHALAYA,TADIBADA GAOW   221711,EDUCATION,20,852,1,10-14
31915,PRATHAMIK VIDHALAYA,PADARI   221711,EDUCATION,20,851,1,10-14
31916,SENIOR PRATHAMIK VIDHALAYA,PADARI   221711,EDUCATION,20,852,1,10-14
31917,MOTHER TERESA CONVENT SCHOOL,PADARI   221711,EDUCATION,20,852,2,10-14
31918,BHIM RAW AMBEDAKAR SCHOOL,PADARI   221711,EDUCATION,20,852,2,10-14
31919,KISAN INTER COLLEGE,PADARI   221711,EDUCATION,20,852,1,15-19
31920,UCHCHA PRATHAMIK VIDHALAYA,SARAYCHAWAT   221711,EDUCATION,20,852,1,20-24
31921,SUNDARM CHIKITSALAYA,NAGARA   221711,HOSPITAL,21,861,2,10-14
31922,SHISHU CONVENT SCHOOL,NAGARA   221711,EDUCATION,20,852,2,15-19
31923,JANATA MAHAVIDHALAYA,NAGARA   221711,EDUCATION,20,853,2,15-19
31924,MALAP DIGREE COLLEGE,MALAP HARSENPUR 221711,EDUCATION,20,853,1,20-24
31925,SENIOR PRATHAMIK VIDHALAYA,DEWDHIA   277202,EDUCATION,20,852,1,10-14
31926,INTER COLLEGE,DEWDHIA   277202,EDUCATION,20,852,1,10-14
31927,SURYANATH PANDEY,SONAPALI BALLIA   221711,EDUCATION,20,854,2,20-24
31928,INTER COLLEGE,RAGHUNATHPUR   277202,EDUCATION,20,852,1,15-19
31929,NIBAHANA BABA S M VIDHALAYA,KHARI   277206,EDUCATION,20,852,2,20-24
31930,AMBEDAKAR CONVENT SCHOOL,DHEKWARI NAGARA 221711,EDUCATION,20,852,2,10-14
31931,PRATHMIK PATHSHALA,BARHUNCHA   221717,EDUCATION,20,851,1,10-14
31932,AA PURV M VIDHALAYA,JAMUI   221717,EDUCATION,20,852,1,10-14
31933,SATYA BHAMA DEVI JUNIOR HIGH SCHOOL,JAMUI   221717,EDUCATION,20,852,1,10-14
31934,PRATHMIK VIDHALAYA,JAMUI   221717,EDUCATION,20,851,1,10-14
31935,BANSHI BAZAR INTER COLLEGE,BANSHI BAZAR   221717,EDUCATION,20,852,1,30-99
31936,SHANTI SINGH MEMORIAL SCHOOL,NAWANAGAR   221717,EDUCATION,20,851,2,30-99
31937,SARSWATI GYAN MANDIR,JAMALPUR   221717,EDUCATION,20,851,2,15-19
31938,SENIOR PRATHAMIK VIDHALAYA,HUSENPUR   221717,EDUCATION,20,852,1,15-19
31939,PRATHAMIK VIDHALAYA,MALEJHHI   221717,EDUCATION,20,851,1,10-14
31940,PRATHAMIK HOSPITAL CENTRE,BAJUDI   221717,HOSPITAL,21,861,1,30-99
31941,JUNIOR HIGH SCHOOL,BADHUDI   221717,EDUCATION,20,852,1,10-14
31942,C H C HOSPITAL,SIKANDARPUR   277303,HOSPITAL,21,861,1,25-29
31943,PRATHAMIK VIDHALAYA,BANHARA   277303,EDUCATION,20,851,1,10-14
31944,SUBHADRA INTER COLLEGE,CHAKBHADIKRA   277303,EDUCATION,20,852,2,15-19
31945,RAMNATH BADAI,CHAKARWAN   277303,CARPENTER,6,310,2,10-14
31946,GANGOTRI INTER COLLEGE,NAHAR PAR   277303,EDUCATION,20,852,2,20-24
31947,AADARSH INTER COLLEGE,SIVAN KALA   277303,EDUCATION,20,852,1,25-29
31948,L N NATIONAL SCHOOL SIWANKALA,BALLIA   277303,EDUCATION,20,851,2,30-99
31949,PURV MADHYMIK VIDHALAYA,SIVAN KALA   277303,EDUCATION,20,852,1,10-14
31950,INDIA MARKA INT BHATTA,SIWAN KALA   277303,INT BHATTA,6,239,3,30-99
31951,NAGESHWARI DEVI INTER COLLEGE,UKCHHI BALLIA   221709,EDUCATION,20,852,2,15-19
31952,TULSI BIDHAPITH,SARAYA BHARTI RASDA   221712,EDUCATION,20,853,1,20-24
31953,SRI NAGA JEE SHIKSHANA SANSTHAN,SABALPUR SILHARA 221712,EDUCATION,20,852,2,15-19
31954,AMBEDKAR VIDHALYA,SILHARA   221712,EDUCATION,20,852,2,20-24
31955,PRATHAMIK VIDHALAYA,SILHRA   221712,EDUCATION,20,851,1,10-14
31956,BALESHWAR INTER COLLEGE,SHAHMUMMADPUR 221712,EDUCATION,20,852,2,15-19
31957,GALU DAS INTER COLLEGE,SHAHMMADPUR   221712,EDUCATION,20,852,2,20-24
31958,INTER COLLEGE,NIYAMATPUR   221712,EDUCATION,20,852,1,30-99
31959,BALIKA VIDHALAYA,NIYAMATPUR   221712,EDUCATION,20,852,1,20-24
31960,DEGREE COLLEGE,NIYAMATPUR   221712,EDUCATION,20,853,1,30-99
31961,INTER COLLEGE,RAJMALPUR   221712,EDUCATION,20,852,1,20-24
31962,MISHAN LODGE AND COLLEGE,PARSIYA   221712,EDUCATION,20,852,2,30-99
31963,MISHAN HOSPITAL FRANSIS HOSPITAL,RASDA BALLIA   221712,HOSPITAL,21,861,2,10-14
31964,CHILDREN SCHOOL,KAMTAILA   221712,EDUCATION,20,851,1,10-14
31965,SARSWATI GYAN MANDIR,CHHITAWANI   221712,EDUCATION,20,851,2,10-14
31966,SHA SHI LO PU  MADHAYMIK,VIDHALAYA JAM RASDA   221712,EDUCATION,20,852,1,10-14
31967,JUNIOR HIGH SCHOOL,AMAHAR PATTI   221712,EDUCATION,20,852,1,15-19
31968,HIGHER PRAMARY PATHSHALA,REKHAHA   221712,EDUCATION,20,852,1,10-14
31969,LAGHU TOST FACTORY,AJANPURA   221712,BREAD BISKUT BANNA,6,107,2,15-19
31970,PRABHAWATI SHIKSHAN SANSTHAN,RASDA   221712,EDUCATION,20,854,2,25-29
31971,MAUNI BABA MAHAVIDHALAYA,ROHNA BASTI RASADA 221712,EDUCATION,20,853,2,15-19
31972,SRI NIWAS HIGH SCHOOL,BASTI MUDERA RASARA BALLIA   221712,EDUCATION,20,852,2,10-14
31973,GAUTAM M VIDHALAYA,BASTI MUDERA RASDA BALLIA   221712,EDUCATION,20,852,1,20-24
31974,JUNIOR HIGH SCHOOL   SENIOR,PRATHMIK VIDHALAYA SARDASPUR   221712,EDUCATION,20,852,1,10-14
31975,KALI JI SANATAN DHARM INTER,COLLEGE RASDA   221712,EDUCATION,20,852,2,30-99
31976,BIHAR TENT HOUSE,SIPAHA RASDA   221712,TENT,19,772,2,10-14
31977,JUNIOR SOCIAL WELFARE HIGH SHOOL,KOTIA KUREM   221712,EDUCATION,20,852,1,10-14
31978,JUNIOR HIGH SCHOOL BALIPUR,KUREM   221712,EDUCATION,20,852,1,10-14
31979,GOVT HOSPITAL,RASDA BALLIA   221712,HOSPITAL,21,861,1,15-19
31980,JUNIOR HIGH SCHOOL,RAMPUR RASDA BALLIA 221712,EDUCATION,20,852,1,10-14
31981,SHIVRAJ MAHAVIDHALAYA RAMPUR,RASDA BALLIA   221712,EDUCATION,20,853,2,20-24
31982,RAJKIYA ASHARAM PADDHTIYA VIDHALAYA,BASTAURA   221712,EDUCATION,20,852,1,20-24
31983,R D INTER COLLEGE,JOGAPUR   221706,EDUCATION,20,852,2,30-99
31984,BADRE ALAM EET BHATTHA,NURPUR BALLIA   277123,MANUFATURE OF BRICK,6,239,2,30-99
31985,SRI RAM COLD STORES,MANPUR   221713,RETAIL SALE OF ICECREAM ETC,12,472,2,10-14
31986,SEVA SANGH ER  COLLEGE,SOHAW BALLIA   277504,HIGHER EDUCATION,20,853,1,20-24
31987,PURW M VIDHALAYA BRC,SOHAW   277504,EDUCATION,20,852,1,10-14
31988,VAYU PURV S M V JUNIOR HIGH SCHOOL,MEDVARA KALAN   277501,SEC  EDUCATION,20,852,1,10-14
31989,S BODING SCHOOL DHARHARA,BALLIA   277001,EDUCATION,20,851,2,30-99
31990,INTER COLLEGE,DEVKALI   221717,EDUCATION,20,852,2,30-99
31991,MESARS MADDESHIYA AUTO SERVICE,BABHNAULI   277203,RETAIL OIL SALE,12,473,2,10-14
31992,RAM DAHIN SINGH INTER COLLEGE,AAMGHAT   277203,EDUCATION,20,852,1,20-24
31993,SECRET HART SCHOOL,SAHASPALI   277001,EDUCATION,20,851,9,15-19
31994,SANVIM SCHOOL,AA MAFI PIPRA BALLIA 277001,EDUCATION,20,852,2,20-24
31995,R V CONVENT SCHOOL,AKHAR   277401,EDUCATION,20,851,2,15-19
31996,JIWAN JYOTI PUBLIC SCHOOL,AKHAR   277401,EDUCATION,20,851,2,15-19
31997,MRIDUL MISHRA,AKHAR   277401,InT NIRMAN,6,239,3,15-19
31998,SARSWATI GYAN MANDIR,SONWANI   277212,PRI  EDUCATION,20,851,2,10-14
31999,RAM SIDDH S M VIDHALAYA,SONAWANI   277212,SEC  EDUCATION,20,852,1,10-14
32000,GYAN DIP CHIDREN AKADEMY,MUDADIH   277209,EDUCATION,20,851,2,10-14
32001,SRI KRISHNA S M VIDHALAYA,PIYRAUOTA   277403,EDUCATION,20,852,1,15-19
32002,KISHAN SHISHU MANDIR,PIYRAUTA   277403,EDUCATION,20,851,2,10-14
32003,SUMESHAR BAL VIDHALAYA   SUSHILA,VIDHALAYA DIGHAR 277403,EDUCATION,20,851,2,10-14
32004,SISTER NIVEDITA DAY,DIGHAR   277403,EDUCATION,20,851,2,15-19
32005,BALRAM SINGH SMARAT DIGREE COLLEGE,DIGHAR   277403,EDUCATION,20,853,1,10-14
32006,B R M CONVENT SCHOOL,DIGHAR   277403,EDUCATION,20,851,2,10-14
32007,ADARSH INTER COLLEGE,MAJHAUA   277403,EDUCATION,20,852,1,15-19
32008,MOTHER TERESA CONVENT SCHOOL,PACHRUKHIA MAJHUA BALLIA   277403,EDUCATION,20,851,2,30-99
32009,SHIWAM CONVENT SCHOOL,MAJHAUA   277403,EDUCATION,20,851,2,10-14
32010,SENT JEVERIOUS SCHOOL,SULTANPUR   221711,EDUCATION,20,851,2,10-14
32011,B N P CONVENT SCHOOL,SULTANPUR   221711,EDUCATION,20,851,2,15-19
32012,DAN BASKO,HALDI   277402,EDUCATION,20,852,2,20-24
32013,MIRA DEVI BALIKA S M VIDHALAYA,HALDI   277402,EDUCATION,20,852,1,15-19
32014,JUNIOR HIGH SCHOOL,HALDI   277402,EDUCATION,20,852,1,15-19
32015,PANJALI SHIKSHA NIKETAN,HALDI   277402,EDUCATION,20,851,2,10-14
32016,KAMALA DEVI YAMUNA SHANKAR S M,JAWAHI   277402,EDUCATION,20,852,1,10-14
32017,LAXMI EET BHATTA,GHANPAR   277213,MANUFACTURE OF BRICKS,6,239,3,30-99
32018,NAIN SINGH,DARANW   277202,COLD STORAGE,13,521,4,>=500
32019,MOTI,DUHIJAAN   277202,MANUFACTURE OF BRICKS,6,239,2,30-99
32020,BRAHMA DEO SINGH,SURHIA   277211,COLD STORAGE,13,521,2,200-499
32021,DIN BANDHU,BALEUR   277211,RICE MILLS,6,106,2,30-99
32022,UMA KANT CHAUBEY,CHAUBEYCHHAPRA 277211,MANUFACTURE OF BRICKS,6,239,2,10-14
32023,PRABHAWATI DEVI,NAUVABARA   277204,MANUFACTURE OF BRICKS,6,239,2,10-14
32024,KASTURI COLD STORAGE,MUNCHHAPRA   277209,COLD STORAGE,13,521,2,30-99
32025,MUHMMAD GULFESH BAIND PARTI,TAHSIL ROAD   277001,BAIND BAJANA,22,932,3,15-19
32026,BALA JI COLD STORAGE,CHANDPUR   277201,COLD STORAGE,13,521,2,30-99
32027,AMAR NATH PG COLLEGE,DUBEYCHHAPRA BALLIA 277205,HIGHER EDUCATION,20,853,1,25-29
32028,P N INTER COLLEGE,DUBEYCHHAPRA BALLIA 277205,SEC  EDUCATION,20,852,1,30-99
32029,BALIKA SENIOR VIDHALAYA,DUBEYCHHAPRA BALLIA 277205,SEC  EDUCATION,20,852,1,10-14
32030,SRIMATI INDU SINGH,NATH BABA ROAD RASADA   221712,RETAIL SALE,12,477,2,10-14
32031,SAMUDAYIK HEALTH CENTRE,RASADA   221712,OTHER HEALTH ACTIVITES,21,861,1,30-99
32032,AMAR SHAHID BHAGAT SINGH INTER COLLEGE,RASADA BALLIA   221712,EDUCATION,20,852,1,30-99
32033,L I C,RASADA   221712,LIC VIMA,16,651,1,30-99
32034,MATHURA P G COLLEGE,RASADA   221712,HIGHER EDUCATION,20,853,1,30-99
32035,SARASWATI SHISHU MANDIR,JAGDISHPUR BALLIA 277001,PRI  EDUCATION,20,851,2,25-29
32036,GYAN PITHIKA SCHOOL,JAGDISHPUR BALLIA 277001,SEC  EDUCATION,20,852,7,15-19
32037,CITY LIFE,STATION CHAUK ROAD BALLIA   277001,CITY LIFE MARKET,12,477,2,25-29
32038,KAMALA BAL VIDHA MANDIR SCHOOL,BALLIA   277001,EDUCATION,20,851,2,10-14
32039,RAJKIYA AYURVED HOSPITAL,CIVIL LINE BALLIA   277001,HOSPITAL,21,861,1,10-14
32040,RAJKIYA BALIKA INTER COLLEGE,SIKANDARPUR ROAD BALLIA   277001,SEC EDUCATION,20,852,1,30-99
32041,DISTRICT SAHKARI BANK LTD,CIVIL LINE BALLIA   277001,BANK,16,641,6,20-24
32042,WARKSHAP PARIWAHAN NIGAM,BALLIA   277001,WORK SHOP,10,452,3,30-99
32043,PARIWAHAN NIGAM UTTAR PRADESH,BALLIA   277001,PARIWAHAN NIGAM,13,522,1,10-14
32044,SMM TOWN DIGREE COLLEGE,BALLIA   277001,HIGHER EDUCATION,20,853,7,100-199
32045,SMM TOWN INTER COLLEGE,BALLIA   277001,SEC  EDUCATION,20,852,7,30-99
32046,INDIAN OIL,BASDIH ROAD BALLIA 277001,RETAIL OIL PETROL,12,473,3,10-14
32047,KUNWAR SINGH INTER COLLEGE,BALLIA   277001,SEC  EDUCATION,20,852,1,30-99
32048,KUNWAR SINGH DIGREE COLLEGE,BALLIA   277001,HIGHER EDUCATION,20,853,1,30-99
32049,DIBYA JUNIOR HIGH SCHOOL,SHASTRI NAGAR BALLIA 277001,SEC  EDUCATION,20,852,2,10-14
32050,BALA JI TREDARS,SHASTRI NAGAR BALLIA 277001,WHOLESALE ITEMS,11,469,2,10-14
32051,VIJAY SINEMA,CHAUK ROAD BALLIA 277001,SINEMA HALL,22,900,3,15-19
32052,IT BHATTA,NAGAR PANCHAYAT REOTI   277209,MANUFACTURE OF BRICKS,6,239,2,30-99
32053,GOPAL JI MAHAVIDHALAYA,REWTI   277209,HIGHER EDUCATION,20,853,1,25-29
32054,REOTI INTER COLLEGE,REOTI   277209,SEC  EDUCATION,20,852,1,30-99
32055,SAMUDAYIK SWASTHYA KENDRA,REOTI   277209,OTHER HEALTH ACTIVITES,21,861,1,20-24
32056,SHYAM CONVENT SCHOOL,REOTI   277209,PRIM EDUCATION,20,851,2,25-29
32057,KASTURABA GANDHI BALIKA VIDHALAYA,REOTI   277209,PRIM EDUCATION,20,851,1,10-14
32058,RANJIT SINGH INTER COLLEGE ,MIDDHA  BALIA   277506,EDUCATIONAL WORK,20,852,2,20-24
32059,DELHI PUBLIC SCHOOL ,MIDDHA  BALIA   277506,EDUCATIONAL WORK,20,851,2,30-99
32060,DELHI PUBLIC SCHOOL ,BAHERI  BALIA   277001,EDUCATIONAL WORK,20,851,2,10-14
