S.No.,Name of the Establishment,Address,Major Activity Description,Broad Activity Code,NIC,Ownershi p Code,"Employm ent
Class
Interval"
28606,SHARDA PUBLIC SCHOOL,71 BALRAMPUR DEHAT 271201,EDUCATION,20,852,2,10-14
28607,SHABA BRICK FIELD,26 BALRAMPUR DEHAT 271201,BRICKS MANUFACTURING,6,239,2,30-99
28608,SUBHASH CHANDRA MISHRA,60 BALRAMPUR   271201,BRICKS MANUFACTURING,6,239,2,30-99
28609,PIONEER PUBLIC SCHOOL,47 2  BALRAMPUR   271201,EDUCATION,20,852,2,10-14
28610,SHAKTI SMARAK COLLEGE,37 GONDA ROAD BALRAMPUR  DULHINPUR 271201,EDUCATION,20,853,2,20-24
28611,BALRAMDAS PANKAJ BRICKS FIELD,139 VILHA BALRAMPUR 271201,BRICKS MANUFACTURING,6,239,2,10-14
28612,DILIP KUMAR MOTI BRICKS FIELDS,88 BALRAMPUR   271201,BRICKS MANUFACTURING,6,239,2,30-99
28613,DR RAM MANOHAR LOHIYA,GIRLS INTER COLLEGE HUSENABAD GRINT BLP 271604,EDUCATION,20,852,2,15-19
28614,RAMDEEN BUDHRAM KRISHAK,INTER COLLEGE HUSENABAD BPL  271201,EDUCATION,20,852,2,20-24
28615,BEGAM HAZI ISMAIL INTER,COLLEGE ITAI RAMPUR BALRAMPUR  271605,EDUCATION,20,852,2,15-19
28616,JANMEJAY SINGH,BALRAMPUR   271201,BRICKS MANUFACTURING,6,239,2,30-99
28617,SHANKAR BRICK FIELD,BALRAMPUR   271201,BRICKS MANUFACTURING,6,239,2,30-99
28618,VIJAY BRICK FIELD,BALRAMPUR   271201,BRICKS MANUFACTURING,6,239,2,100-199
28619,MO YASEEN,KODRI Balrampur  271861,BRICKS MANUFACTURING,6,239,2,100-199
28620,INTER COLLEGE MOTIPUR KALAN,HARRAIYA SATGHARWA 272155,EDUCATION,20,852,1,15-19
28621,SRI S P TIWARI SHIKSHAN,SANSTHAN BALOHAWA BALRAMPUR  271207,EDUCATION,20,852,7,15-19
28622,A T S VIDYALAY,CHANDANPUR ROAD 271208,EDUCATION,20,852,1,10-14
28623,YADAV BRIC FIELD,ACHALPURROOP REHRA BAZAR BALRAMPUR 271307,BRICKS MANUFACTURING,6,239,2,20-24
28624,ABDUL KAREEM BRIC FIELD,BALRAMPUR   271306,BRICKS MANUFACTURING,6,239,2,20-24
28625,BAJAJ HINDUSTAN AND SUGAR,FACTORY ITAI MAIDA BALRAMPUR  271607,BAJAJ HINDUSTAN AND SUGAR,6,107,4,100-199
28626,FAIJAL DEGREE COLLEGE,14 SHEETLAPUR TULSIPUR BALRAMPUR 271208,EDUCATION,20,853,2,10-14
28627,UMMED BRICK FIELD,BALRAMPUR   271208,UMMED BRICK FIELD,6,239,2,20-24
28628,JAMEEL AHMAD,GAIDAHAVA TULSIPUR 271208,JAMEEL AHMAD,6,162,2,10-14
28629,MAKSOOD AHMAD,GAIDAHAVA TULSIPUR 271208,MAKSOOD AHMAD,6,162,2,10-14
28630,RAJIUDDIN S O AJEEJ,NACHAURI LAXMINAGAR BALRAMPUR  271208,RAJIUDDIN S O AJEEJ,6,239,2,100-199
28631,SHIV BRICK FIELD,BHAGWANPUR BALRAMPUR   271205,BRICKS MANUFACTURING,6,239,2,30-99
28632,SHATROHAN PRASAD VERMA,PAWAN BRIC FIELD 271604,SHATROHAN PRASAD VERMA,6,239,2,30-99
28633,PANNALAL SHARAVAGI LAYANS EYEHOSPITAL,TULSIPARK BALRAMPUR 271201,HUMAN HEALTH ACTIVITIES,21,861,1,10-14
28634,PANJAB NATIONAL BANK,TULSIPARK BALRAMPUR 271201,BANKING SERVICES,16,641,1,20-24
28635,BANK OF INDIA,TULSIPARK BALRAMPUR 271201,BANKING SERVICES,16,641,1,10-14
28636,RAGHAV HOSPITAL,BALRAMPUR TULSIPARK 271201,HUMAN HEALTH ACTIVITIES,21,862,2,20-24
28637,PATHIK HOTEL,BAHRAICH ROAD BALRAMPUR   271201,PATHIK HOTEL,14,562,2,30-99
28638,RELIANCE OFFICE,BAHRAICH ROAD BALRAMPUR   271201,RELIANCE OFFICE,16,651,4,10-14
28639,STATE BANK OF INDIA,VEER VINAY CHAURAHA BALRAMPUR   271201,BANKING SERVICES,16,641,1,25-29
28640,POST OFFICE,BALRAMPUR   271201,POST OFFICE,13,531,1,30-99
28641,ADARSH VIDYALAYA,BALRAMPUR BHAGVATIGANJ  271201,EDUCATION,20,853,1,10-14
28642,GOVERNMENT LADIES HOSPITAL,BALRAMPUR   271201,HUMAN HEALTH ACTIVITIES,21,861,1,30-99
28643,SARSWATI SHISHU MANDIR,RAMANA PARK BALRAMPUR   271201,EDUCATION,20,852,1,10-14
28644,SARSWATI VIDYA MANDIR,RAMANA PARK BALRAMPUR   271201,EDUCATION,20,851,1,20-24
28645,CITY MONTESARY INTERCOLLEGE,BALRAMPUR   271201,EDUCATION,20,852,1,30-99
28646,MLK PG COLLEGE,BALRAMPUR   271201,EDUCATION,20,852,1,100-199
28647,BALRAMPUR MODERN SCHOOL,BALRAMPUR   271201,EDUCATION,20,851,1,30-99
28648,BAL BHARTI INTER,COLLEGE BALRAMPUR 271201,EDUCATION,20,852,1,10-14
28649,VIVEKANAND MISSION,SCHOOL BALRAMPUR 271201,EDUCATION,20,852,1,10-14
28650,BHARTIYA STATE BANK,BHAGWATIGANJ BALRAMPUR  271201,BANKING SERVICES,16,641,1,10-14
28651,SARV U P GRAMIN BANK,BHAGWATIGANJ BALRAMPUR   271201,BANKING SERVICES,16,641,1,10-14
28652,JAIDEV PRASAD SINDHI,BALRAMPUR   271201,JAIDEV PRASAD SINDHI,12,471,2,10-14
28653,SINGH OIL,BALRAMPUR   271201,SINGH OIL,12,473,2,10-14
28654,PAHWA AGENCIES,BALRAMPUR   271201,PAHWA AGENCIES,12,471,2,20-24
28655,GIRLS COLLEGE,BALRAMPUR   271201,EDUCATION,20,852,1,30-99
28656,AMAR RESTAURENT,BALRAMPUR   271201,AMAR RESTAURENT,14,561,2,10-14
28657,I C I C I,BALRAMPUR   271201,BANKING SERVICES,16,641,4,10-14
28658,ISHAVASYAM SCHOOL,NAI BASTI   271208,EDUCATION,20,852,1,10-14
28659,STATE BANK OF INDIA,TULSIPUR   271208,BANKING SERVICES,16,641,9,15-19
28660,SUGAR COMPANY LIMITED,TULSIPUR   271208,SUGAR MANUFACTURERS,6,107,4,>=500
28661,VIMLA VIKRAM,PACHPEDWA   271209,EDUCATION,20,851,1,30-99
28662,KGBS,PACHPEDWA   271209,EDUCATION,20,851,1,10-14
28663,KANYA P M SCHOOL,PACHPERWA   271206,EDUCATION,20,851,1,10-14
28664,PREM SEVA HOSPITAL,UTRAULA   271604,HUMAN HEALTH ACTIVITIES,21,861,2,30-99
28665,B S E S SUPPLY CORPORATION,TULSIPUR   271208,B S E S SUPPLY CORPORATION,7,351,1,15-19
28666,AKHILESHWAR TIWARI INTER COLLEGE,TULSIPUR   271208,EDUCATION,20,852,1,30-99
28667,AKHILESH TIWARI GIRLSINTER COLLEGE,LAL CHAURAHA TULSIPUR  271208,EDUCATION,20,852,9,30-99
28668,VIMLA DEVI PRAIMARYSCHOOL,LAL CHAURAHA   271208,EDUCATION,20,851,9,15-19
