S.No.,Name of the Establishment,Address,Major Activity Description,Broad Activity Code,NIC,Ownershi p Code,"Employm ent
Class
Interval"
21427,BALAGI MAHRAJ DEGREE COLLAGE,KHAPATIHA KALAN 158 210001,EDUCATIONAL WORK,20,853,2,10-14
24671,RAJA DEVI DEGREE COLLEGE BANDA,DISTT BANDA  NARENI ROAD BANDA 210001,EDUCATIONAL WORK,20,852,2,30-99
24672,JAWAHAR NAVODAY VIDYALAYA DUREDI,DUREDI BANDA   210001,EDUCATIONAL WORK,20,851,1,25-29
24673,DEEPAK KUMAR TOST FACTORY BANDA,101 Paderi   210001,TOST FACTORY,6,107,2,15-19
24674,AKALAVYA MAHAVIDYALAYA,DUREDI BANDA   210001,EDUCATIONAL WORK,20,853,1,30-99
24675,MAHARSHI SIDDHANATH SCHOOL,BHADEHDU   210001,EDUCATIONAL WORK,20,851,2,10-14
24676,C H C  JASPURA,GAURI TIRAHA JASPURA 210126,HELTH WORK,21,861,1,30-99
24677,KASTURBA GANDHI SCHOOL,JASPURA BANDA   210126,EDUCATIONAL WORK,20,851,1,15-19
24678,JAL SANSTHAN,JASPURA   210126,WOTER SUPPELY,8,360,1,10-14
24679,SHRI M S D INTER COLLEGE JASPURA,BANDA DISTT  BANDA Jaspura  210126,EDUCATIONAL WORK,20,852,1,20-24
24680,SARASWATI SHISHU MANDIR JASPURA,BANDA DISTT BANDA Jaspura  210126,EDUCATIONAL WORK,20,851,9,10-14
24681,33KV 11KV SUB STATION JASPURA BANDA,DISTT BANDA  GAURI ROAD JASPURA BANDA 210126,POWER SUPPELY,7,351,1,10-14
24682,INTER COLLEGE CHANDWARA,DISTT BANDA Chandwara 210126,EDUCATIONAL WORK,20,852,1,25-29
24683,DR BHIMRAV AMBWDKER VIDALAY,DISTT BANDA Amara 210126,EDUCATIONAL WORK,20,852,1,10-14
24684,VINOVA INTER COLLAGE,KAMASIN BANDA   210126,EDUCATIONAL WORK,20,852,2,30-99
24685,INDRAJEET BRICK FEELD,CHARAKA BANDA   210126,BRICK FEELD,6,239,3,30-99
24686,GIRWAN INTER COLLAGE,GIRAWAN BANDA   210126,EDUCATIONAL WORK,20,852,1,15-19
24687,NIRMALA DESH PANDAY VIDYALAY,KHURHAND   210120,EDUCATIONAL WORK,20,851,2,20-24
24688,MINI RICE MILL,KHURHAND   210120,RICS MILL,6,106,2,20-24
24689,LAT KAMTA PRASAD SHASHTRI COLLAGE,BADAUSA BANDA   210202,EDUCATIONAL WORK,20,852,1,25-29
24690,KAMTA PRASAD SHASHTRI DEGREECOLLAGE,BADAUSA BANDA   210202,EDUCATIONAL WORK,20,853,2,15-19
24691,PRO DEENANATH GIRLS INTER COLLAGE,BADAUSA BANDA   210202,EDUCATIONAL WORK,20,852,1,15-19
24692,LAT KAMTA PRASAD SHASHTRIDEGREE COLLAGE,BADAUSA BANDA   210202,EDUCATIONAL WORK,20,853,2,15-19
24693,LAT KAMTA PRASAD SHASHTRI INTER COLLAGE,BADAUSA BANDA 210202,EDUCATIONAL WORK,20,852,2,20-24
24694,PARM HANS SHRI RANCHHORDAS INTERCOLLAGE,KHAPTIHA KALAN BANDA 210001,EDUCATIONAL WORK,20,852,1,30-99
24695,J H S SCHOOL CHILLA,27 BANDA Chilla  210123,EDUCATIONAL WORK,20,852,1,15-19
24696,A H S SCHOOL CHILLA,75 BANDA Chilla  210001,EDUCATIONAL WORK,20,851,2,10-14
24697,LIFE INSURANCE CORPORATION,BANDA Banda  NPP   OG  210001,LIFE INSORENCE,16,651,1,25-29
24698,BANK OF BARODA,55 4  BANDA Banda  NPP   OG   210001,BANK SERVICE,16,641,1,10-14
24699,SHASHVAT MEDICAL CENTRE PVT LTD ,BANDA Banda  NPP   OG  210001,MANAV HEALTH SERVICE,21,861,2,20-24
24700,STATE PROJECT OFFICE TLC NISHTGANJ,LUCKNOW   210001,EDUCATIONAL WORK,20,852,1,10-14
24701,BHART SANCHAR NIGAM LTD ,NEW DELAHI   210001,SANCHAR SERVICE,15,611,1,10-14
24702,DR  MOHD  RAFIK,1220   KHAIPAR ROAD 210001,HOSPITAL,21,861,2,15-19
24703,LIFE INSURANCE CORPORATION OF INDIA,6 7 AWAS VIKAS BANDA 210001,INSURANCE WORKS,16,651,1,25-29
24704,PT JAWAHAR LAL NEHRU P G COLLEGE,BANDA Banda  NPP   OG  210001,TEACHING WORK,20,853,1,30-99
24705,GOVT GIRLS P G COLLEGE,BANDA Banda  NPP   OG  210001,EDUCATIONAL WORK,20,853,1,25-29
24706,D A V INTER COLLEGE,BANDA Banda  NPP   OG  210001,EDUCATIONAL WORK,20,852,1,30-99
24707,ADARSH BAJRANG VIDHYA MANDIR,BANDA Banda  NPP   OG  210001,EDUCATIONAL WORK,20,852,1,10-14
24708,JAGMOHAN VERMA ALIAS JAGGU,BANDA Banda  NPP   OG  210001,BAND,22,932,2,15-19
24709,STATE BANK SITY BRANCH RAMLILA,MAIDAN BANDA   210001,BANKING WORK,16,641,1,10-14
24710,SAMRAT BAIND,BANDA Banda  NPP   OG  210001,BAIND,22,932,2,15-19
24711,GOVT GIRLS INTER COLLEGE PADMAKAR,CHAURAHA BANDA 210001,EDUCATIONAL WORK,20,852,1,30-99
24712,GULAB CHANDARA GUPTA CONTRACTOR,P W D BANDA   210001,CONSTRACTION WORK,9,421,2,10-14
24713,KUANWAR BAHADUR SINGH MIC 38,INDIRA NAGAR BANDA 210001,CONSTRACTION WORK,9,410,2,10-14
24714,ALLAHABAD U P GRAMIN BANK,DR  BHARGAV KI KOTHI CHILLA ROAD BANDA 210001,BANKING WORK,16,641,4,25-29
24715,DHARMENDRA SINGH,LIG 8   INDIRANAGAR 210001,GOVT  BULDING NIRMAN WORK,9,410,1,30-99
24716,INDIAN CONVENT SCHOOL,AZADNAGAR   210001,EDUCATIONAL WORK,20,851,1,10-14
24717,ARYA KANYA INTER COLLEGE,BANDA Banda  NPP   OG  210001,EDUCATIONAL WORK,20,852,1,20-24
24718,SARSWATI GYAN MANDIR SCHOOL,KYOTRA BANDA   210001,EDUCATIONAL WORK,20,851,6,10-14
24719,CONVENT SCHOOL,KYOTRA BANDA   210001,EDUCATIONAL WORK,20,851,6,10-14
24720,COMPHORTIN HOTEL,STATION ROAD CHHAWNI 210001,FOOD   STOP,14,551,2,30-99
24721,MARUTI SUJUKI WORK SHOP,116 MY CAR WORKSHOP TINDWARI ROAD GALI NO  1 210001,MARUTI SUZUKI REPAIRING WORK,10,452,4,20-24
24722,ALLAHABAD U P GRAMIN BANK,MAIN BRANCH BANDA KOTWALI ROAD BANDA 210001,BANKING WORK,16,641,1,10-14
24723,TINDWARI WORKSHOP,51 Banda  NPP   OG  210001,STEEL WORKSHOP,6,259,4,15-19
24724,STATE BANK OF INDIA ,BANDA Banda  NPP   OG  210001,BANKING WORK,16,641,1,15-19
24725,DISTRICT HOSPITAL,BANDA Banda  NPP   OG  210001,TREATMENT WORK,21,861,1,30-99
24726,RAJKIYA MAHILA CHIKITSALAYA,BANDA Banda  NPP   OG  210001,TREATMENT WORK FEMAIL,21,861,1,30-99
24727,DISTRICT INSTITUTE OF EDUCATIONAND TRAINING,Banda  NPP   OG    210001,EDUCATIONAL WORK,20,854,1,25-29
24728,D A V RAJEEV GANDHI DEGREE COLLEGE,BANDA Banda  NPP   OG  210001,EDUCATIONAL WORK,20,853,1,25-29
24729,K G A  SCHOOL,BISANDA   210203,EDUCATIONAL WORK,20,852,1,10-14
24730,GOV GIRLS INTER COLLAGE,BISANDA   210203,EDUCATIONAL WORK,20,852,1,10-14
24731,BRAMH VIGHYAN INTER COLLEGE,ATARRA  BANDA   210201,EDUCATIONAL WORK,20,852,1,15-19
24732,NEHRU CANVENT SCHOOL,ATARRA   210201,EDUCATIONAL WORK,20,851,2,10-14
24733,STATE BANK OF INDIA BANDA ROAD,ATARRA DISTT BANDA 210201,BANKING WORK,16,641,1,10-14
24734,POST GRADUATE COLLEGE ATARRA,DISTT  BANDA Atarra  NPP   210201,EDUCATIONAL WORK,20,853,1,30-99
24735,BUTUBAI INTER COLLEGE ATARRA,SONAR GALI ATARRA 210201,EDUCATIONAL WORK,20,852,1,15-19
24736,NAGER PALIKA PARISHAD ATARRA BANDA,97 DISTT BANDA Atarra  NPP   210201,ISTHANIY NIKAYO SE SAMBANDHIT WORK,19,771,1,20-24
