S.No.,Name of the Establishment,Address,Major Activity Description,Broad Activity Code,NIC,Ownershi p Code,"Employm ent
Class
Interval"
16378,GULARIA CHINI MILLS,GULARIA  262901,SUGAR MANUFACTURING,6,107,4,100-199
16379,EDMANTON PUBLIC SCHOOL,PALIA KALAN DUDHVA ROAD  262902,EDUCATION,20,852,2,30-99
16380,LUCKNOW PUBLIC SCHOOL,GOLA ROAD  262701,TEACHING,20,852,2,30-99
16381,HOSTEL OF LUCKNOW PUBLIC SCHOOL,GOLA ROAD LAKHIMPUR 262701,HOSTEL,14,559,2,10-14
16382,ALLAHABAD U P GRAMIN BANK,101  L R P CHAURAHA 262701,BANKING,16,641,1,10-14
16383,BHARTIYA JIVAN BIMA NIGAM,KHERI ROAD LAKHIMPUR 262701,INSURANCE SERVICES,16,651,1,30-99
16384,BAJAJ ALIANJ BIMA KENDRA,MAHRAJ NAGAR AVAS VIKAS LAKHIMPUR 262701,INSURANCE SERVICES,16,651,9,10-14
16385,BAJAJ CAPITAL INSURANCE,LAKHIMPUR KHERI 262701,FINANCE AND INSURANCE WORK,16,651,4,15-19
16386,INDIAN OVERSEAS BANK,LAKHIMPUR  262701,FINANCE WORK,16,641,1,10-14
16387,ALLAHABAD BANK,LAKHIMPUR  262701,BANKING,16,641,1,15-19
16388,BANK OF INDIA LAKHIMPUR KHERI,STATION ROAD  262701,BANKING,16,641,1,10-14
16389,STATE BANK OF INDIA,HOSPITAL ROAD LAKHIMPUR KHERI 262701,BANKING,16,641,1,30-99
16390,AXIS BANK,HOSPITAL ROAD LAKHIMPUR KHERI 262701,BANKING,16,641,2,10-14
16391,PUNJAB NATIONAL BANK,STATION ROAD LAKHIMPUR KHERI 262701,BANKING,16,641,1,10-14
16392,PUNJAB AND SINDHA BANK,HOSPITAL ROAD LAKHIMPUR KHERI 262701,BANKING,16,641,1,10-14
16393,V MART BAHADUR NAGAR,LAKHIMPUR  262701,RETAIL SALES OF READYMADE GARMENTS,12,475,4,30-99
16394,RELIANCE LIFE INSURANCE,18 8   BAHADUR NAGAR LAKHIMPUR 262701,INSURANCE SERVICES,16,651,4,10-14
16938,ANANT RAM VERMA,IET BHATTA DULLIPUR AMBERPUR BAKEGANG 262802,MANUFACTURE OF BRICKS,6,239,2,10-14
16939,SIDHARTH INTER COLLEGE,BARGADIYA BABARPUR BANKEYGANJ 262802,TEACHING,20,852,1,25-29
16940,GOYAL SUGAR INDUSTRIES,NAWUAKHEDA BANKEGANJ  262802,MANUFACTURE OF SUGAR,6,107,3,30-99
16941,ANJUMAN ISLAHUL MUSALMEEN MADARSA,ARBIA ASHARFUL ULOOM SANSARPUR BANKEGANJ 262802,TEACHING,20,851,9,10-14
16942,RATAN LAL JAGDISH PRASAD IET UDYOG,NAUAKHERA SANSARPUR  262802,MANUFACTURE OF BRICKS,6,239,2,10-14
16943,MAA SARASWATI GYAN MANDIR,SANSARPUR BANKEGANJ  262802,TEACHING,20,851,2,10-14
16944,SOBARAN INTER COLLEGE,SANSARPUR BANKE GANJ  262802,TEACHING,20,852,2,30-99
16945,JAGDISH PRASAD PUBLIC SCHOOL,SANSARPUR BANKEGANJ  262802,TEACHING,20,852,2,10-14
16946,JAGDISH PRASAD KANYA INTER COLLEGE,SANSARPUR BANKEGANJ  262802,TEACHING,20,852,2,15-19
16947,JUBER ALAM TAILOR,SANSARPUR BANKEGANJ  262802,TAILORING,6,141,2,10-14
16948,KASTURBA GANDHI AVASIYA BALIKA VIDY,ALAYA BOJHIA BANKEYGANJ  262802,TEACHING,20,852,1,10-14
16949,RAILWAY STATION,BANKEYGANJ  262801,RAILWAY STATION,13,491,1,10-14
16950,C H C,BANKEYGANJ  262801,HEALTH SERVICES,21,861,1,30-99
16951,JAFAR ULLAH KHAN ET UDYOG,PUNARBHU GRANT BANKEY GANJ  262802,BRICKS MANUFACTURING,6,239,2,30-99
16952,ANAND RICE INDUSTRIES,DAULATGANJ JAMAITPUT  262802,RICE MILL,6,106,3,10-14
16953,RATANLAL AGARVAL AND ASSOCIATES ET,51  BHATTHA KALICHARANPUR JAMAITPUR  262802,BRICKS MANUFACTURING,6,239,2,15-19
16954,SANJAI KUMAR MAHESHWARI RICE MILL G,38  OLA ROAD ALIGANJ 262802,RICE MILL,6,106,2,10-14
16955,D G MEMORIAL PUBLIC SCHOOL SARAIN R,AMVAPUR  262802,TEACHING,20,852,2,30-99
16956,MS BALAJI RICE MILL,SARAIN RAMVAPUR 262802,RICE MILL,6,106,2,10-14
16957,DASHMESH KHALSA INTER COLLEGE,PACHTAUR  262802,TEACHING,20,852,2,15-19
16958,YOGENDRA BRICK FIELD,BAMHNIAR PUR   261501,BRICKS MANUFACTURING,6,239,2,100-199
16959,SARASVATI SUGAR MILL,KHERI  RATASIA   261501,SARASVATI SUGAR MILL,6,107,2,10-14
16960,PANCHVATI VIDYA MANDIT INTER COLLEG,E LAKHANIAPUR  261501,EDUCATION,20,852,1,15-19
16961,KISAN INTER COLLEGE NEEM GAON LAKHI,MPUR KHERI ROAD 261501,EDUCATION,20,852,1,15-19
16962,SHYAM MANOHAR INTER COLLEGE NEEM GA,ON DHAKIA ROAD BEHJAM  261501,EDUCATION,20,852,1,15-19
16963,SHREE DWARIKA DHEESH SUGAR INDUSTRY,LAKHIMPUR  261501,SHREE DWARIKA DHEESH SUGAR INDUSTRY,6,107,3,30-99
16964,SHREE LAXMAN PRASAD RAJ INTER COLLE,GE ALLIPUR BHULANPUR ROAD  261501,EDUCATION,20,852,2,25-29
16965,SRI KAMLA SUGAR INDUSTRIES,UMARPUR   261501,SRI KAMLA SUGAR INDUSTRIES,6,107,2,30-99
16966,PRATHMIK SWASTHY KENDRA,BEHJAM   261501,HUMAN HEALTH ACTIVITIES,21,861,1,30-99
16967,KANHAIYA UCCHATAR MADHYAMIK VIDYALAYA,BEHJAM  261501,EDUCATION,20,852,9,20-24
16968,RAJRANI MATA SHIKSHA NIKETAN SCHOOL,BEHJAM  261501,EDUCATION,20,851,2,10-14
16969,KASTURABA GANDHI BALIKA VIDYALAYA,32 1   BEHJAM  261501,EDUCATION,20,852,1,10-14
16970,A P S SCHOOL,160 BHULANPUR   261501,EDUCATION,20,851,2,10-14
16971,BALAJI BRICK FIELD,LAKHANAPUR GULCHAURA  261501,BRICKS MANUFACTURING,6,239,3,30-99
16972,K A U K INTER COLLEGE,PADARIA TULA  262901,TEACHING,20,852,1,15-19
16973,STATE BANK,BHIRA  262901,BANKING,16,641,1,15-19
16974,SMRITI MAHAVIDYALAY,58  MATEHIA BOJHAVA 262901,TEACHING,20,852,2,20-24
16975,V K ET UDYOG,121  RAHIMNAGAR GRANT 262802,BRICKS MANUFACTURING,6,239,2,100-199
16976,MANMEET NAGAR DIGREE COLLEGE,PARIA TANDA  262901,TEACHING,20,853,1,15-19
16977,CHAUDHRI BECHELAL DEGREE COLLEGE,119 DHURHRA ROAD 262722,COLLEGE,20,853,2,20-24
16978,BBLC INTER COLLEGE,KHAMBHARIA PANDIT 262722,TEACHING,20,852,1,25-29
16979,GOVIND SUGAR MILLS YERA,KHAMBHARIA  262722,MANUFACRURING OF SUGAR,6,107,2,>=500
16980,SRI HARDWARILAL S B VIDYA MANDIR,TAMOLIPUR ALLIPUR 262722,TEACHING,20,852,2,20-24
16981,SRI BABURAM SB VIDYA MANDIR,TAMOLIPUR ALLIPUR 262722,TEACHING,20,852,2,10-14
16982,USMANI DIGREE COLLEGE,OVERAHNA  262701,TEACHING,20,853,2,30-99
16983,NAV BHARAT INTER COLLEGE,OVERAHNA  262701,TEACHING,20,852,2,30-99
16984,MAHAMAYA INTER COLLEGE,MAUJAMABAD  262701,TEACHING,20,852,2,10-14
16985,KRISHAK UCCHTAR MADHYAMIK VIDYALAY,BASAHA  262701,TEACHING,20,852,2,10-14
16986,BAJAJ HI  LI  UNIT,KHAMBHAR KHERA 262701,ALCOHAL MANUFACTURING,6,110,2,30-99
16987,BAJAJ H L  SUGAR MILLS,KHAMBHAR KHERA 262701,SUGAR MANUFACTURING,6,107,2,30-99
16988,SILAI KARAIE KENDRA,KOTVARA GARHI GOLA 262802,TEACHING,20,854,1,15-19
16989,R U K ET UDYOG,LAKHIMPUR ROAD ROSHAN NAGAR  262805,BRICKS MANUFACTURING,6,239,2,25-29
16990,SARDAR PATEL INTER COLLEGE,MOHAMMADI ROAD GOVINDAPUR  262802,TEACHING,20,852,2,25-29
16991,RAM JANKI VIDYA MANDIR,BHARAT BHUSHAN COLONY GOLA  262802,TEACHING,20,851,2,10-14
16992,SARASVATI VIDYA MANDIR,BHARAT BHUSHAN COLONY GOLA  262802,TEACHING,20,851,2,15-19
16993,SRI SHYAMJI RICE INDUSTRIES,MOHAMMADI ROAD GOLA  262802,RICE MILL,6,106,2,15-19
16994,SRI SHYAMJI UDYOG DHAN MILL AND DAL,MOHAMMADI ROAD  MILL GOLA  262802,RICE AND PULSES MILL,6,106,3,15-19
16995,RICE MILL,4  BHUTNATH GALI GOLA 262802,RICE MILL,6,106,2,15-19
16996,SRI SHYAMJI ENTERPRISES,66  MOHAMMADI ROAD GOLA  262802,RICE MILL,6,106,2,15-19
16997,SARASVATI VIDYA NIKETAN INTER COLLEGE,17   HYDEL STATION GOLA 262802,TEACHING,20,852,2,30-99
16998,GOVT HIGHER SECONDARY SCHOOL,TEJAPUR  262802,TEACHING,20,852,1,20-24
16999,KUMBHI SUGAR MILL,KUMBHI  262804,SUGAR MANUFACTURING,6,107,2,100-199
17000,RAJENDR GIRI ACADEMY SCHOOL,LAXMAN JATI MANDIR GALI GOLA  262802,TEACHING,20,852,2,10-14
17001,RANI LAKHMI BAI INTER COLLEGE,SAHABUDDIN PUR 262802,EDUCATION,20,852,2,30-99
17002,SINGH SPUN PIPE FACTORY,26     MANIKAPUR  210208,UN PIPE MANUFACTURE,6,239,2,10-14
17003,DARVESH COAL FIELD,BELVA  261501,COAL FACTORY,6,191,2,30-99
17004,SWASTIK COAL FIELD,BELVA  262701,COAL FACTORY,6,191,2,30-99
17005,ICON ENERGY SOLUTIONS,BELVA  262701,COAL FACTORY,6,191,2,30-99
17006,HEM KUND COAL FIELD,BELVA  262701,COAL FACTORY,6,191,2,25-29
17007,JILA PANCHAYAT INTER COLLEGE,KALA AAM KHERI  262701,TEACHING,20,852,1,30-99
17008,RANI SATI PLY WOOD,12 SITAPUR ROAD  BANS KHERA  262701,MANUFACTURE OF PLY,6,162,3,30-99
17009,KARAN BRICKS FIELD,JAL BHAWAN CRISSING 262701,BRICKS MANUFACTURE,6,239,2,15-19
17010,PAUL INTERNATIONAL SCHOOL,LAKHIMPUR KHERI SITAPUR ROAD   262701,TEACHING,20,852,2,30-99
17011,BALAJI PLY WOOD INDUSTRIES,KHERI ROAD RAJAPUR LAKHIMPUR KHERI 262701,PLY WOOD MANUFACTURING,6,162,3,20-24
17012,LAXMI PLY WOOD INDUSTRIES,KHERI ROAD RAJAPUR LAKHIMPUR KHERI 262701,MANUFACTURING FO PLY WOOD,6,162,3,20-24
17013,AJMANI RICE MILL RAJAPUR,INDUSTRIAL LANE LAKHIMPUR KHERI 262701,RICE MILL,6,106,2,20-24
17014,BABA HARJIMAL INDUSTRIES RAJAPUR,INDUSTRIAL LANE LAKHIMPUR KHERI  262701,RICE MILL,6,106,3,15-19
17015,GANGA MODERN RICE MILL RAJAPUR,INDUSTRIAL LANE LAKHIMPUR KHERI  262701,RICE MILL,6,106,3,10-14
17016,JAIN PLY WOOD INDUSTRIES RAJAPUR,INDUSTRIAL LANE LAKHIMPUR KHERI  262701,PLY WOOD MANUFACTURING,6,162,3,10-14
17017,KAILASH RICE MILL RAJAPUR,INDUSTRIAL LANE LAKHIMPUR KHERI  262701,RICE MILL,6,106,2,10-14
17018,MANSOORI INDUSTRIES RAJAPUR,INDUSTRIAL LANE LAKHIMPUR KHERI  262701,RICE MILL,6,106,2,10-14
17019,TATA MOTORS RAJAPUR,LAKHIMPUR KHERI 262701,SALES AND SERVICE OF MOTOR VEHIVLES,10,451,2,30-99
17020,KHALSA AGRO RICE MILL RAJAPUR,LAKHIMPUR KHERI 262701,RICE MILL,6,106,3,15-19
17021,J K AGRO RICE MILL RAJAPUR,LAKHIMPUR KHERI 262701,RICE MILL,6,106,3,15-19
17022,HANSRAJ AUTOSALES RAJAPUR,LAKHIMPUR KHERI 262701,SERVICE AND SALES OF MOTOR VEHICLES,10,451,3,30-99
17023,DURGA PAPER INDUSTRIES RAJAPUR,L R P ROAD LAKHIMPUR KHIRI  262701,MANUFACTURE OF PAPER,6,170,2,10-14
17024,DURGA RAB INDUSTRY RAJAPUR,LAKHIMPUR KHERI 262701,PRODUCTION OF RAB,6,107,2,30-99
17025,G B INDUSTRIES L R P ROAD,LAKHIMPUR KHIRI  262701,RICE MILL,6,106,3,15-19
17026,AJMANI INTERNATIONAL SCHOOL,L R P ROAD LAKHIMPUR KHIRI 262701,TEACHING,20,851,2,200-499
17027,AJMANI MILL STORE,L R P ROAD LAKHIMPUR KHIRI 262701,SALES OF TRACTORS AND FARM EQUIPMENTS,10,451,2,15-19
17028,GYAN DAINY VIDYA MANDIR,RAJAPUR LAKHIMPUR KHERI  262701,TEACHING,20,851,2,15-19
17029,ANANT RAM INTER COLLEGE,SITAPUR ROAD  262701,TEACHING,20,852,2,15-19
17030,GLOBAL CONVENT SCHOOL,78 STP ROAD L R P CHAURAHA  262701,TEACHING,20,851,2,25-29
17031,DOCTOR RAMAN MISHRA,01  AIRA ROAD NAURANGABAD 262701,PRIVATE NURSING HOME,21,869,2,15-19
17032,SETH SADHARI LAL RAM AUTAR UCCHTAR,103 KHERI ROAD MADHYAMIK VIDYALAYA MOOSEPUR KHURD 262702,TEACHING,20,852,2,20-24
17033,JANKI DEVI PUBLIC SCHOOL,KARANPUR RAJAGANJ 262701,TEACHING,20,851,2,10-14
17034,ADARSH JANTA MAHAVIDYALAYA,DEVKALI  262701,TEACHING,20,852,5,30-99
17035,ADARSH JANTA INTER COLLEGE,DEVKALI  262701,TEACHING,20,852,5,30-99
17036,SARDAR PATEL VIDYA PITH INTER COLLEGE,JODHPUR KHERI 262701,TEACHING,20,852,1,25-29
17037,GUPTA COTTAGE INDUSTRY,GUM CHINI  262701,CANE CRASHING AND SUGAR MANUFACTURING,6,107,2,20-24
17038,SRI GANESH BHATTHA,GUM CHINI  262701,BRICKS MANUFACTURING,6,239,2,20-24
17039,VINAYAK ENTERPRISES,BHANSARIA  262701,PLY MANUFACTURING,6,162,2,10-14
17040,SRI DURGA TIMBER PRODUCT,BHANSARIA  262701,PLY MANUFACTURING,6,162,2,15-19
17041,RAJYA KHADYA BHANDAR NIGAM,BHANSARIA  262701,STORAGE OF FOOD GRAINS,13,521,6,15-19
17042,KENDRAIE UPBHOKTA BHANDAR,UDAIPUR MAHEBA 262701,DISTRIBUTION OF FERTILISERS,12,477,6,20-24
17043,PLY WOOD FACTORY,UDAIPUR MAHEBA 262701,PLY MANUFACTURING,6,162,2,30-99
17044,NAKKI BABA VIDYALAYA,SEHRUA  262701,TERACHING,20,851,9,15-19
17045,BALAJI STRAW MILL,LAKHIMPUR TO YERA ROAD  262701,PLY MANUFACTURING,6,162,3,30-99
17046,CHILDRENS ACADEMY SCHOOL,MEERPUR  262701,TEACHING,20,851,9,30-99
17047,GOVERNMENT POLYTECHNIC,SALEMPUR  262701,TECHNICAL EDUCATION,20,854,1,20-24
17048,MEHTA MILLENIUM HOSPITAL,MEERPUR  262701,HEALTH SERVICES,21,861,2,10-14
17049,BAJRANG BALI UDYOG,DEUVAPUR  262701,PLY MANUFACTURING,6,162,2,20-24
17050,JANTA INTER COLLEGE,KHERI  262701,TEACHING,20,852,1,30-99
17051,ADARSH INTER COLLEGE,MITAULI  261501,TEACHING,20,852,1,10-14
17052,RAJA LONE SINGH INTER COLLEGE,MITAULI  261501,TEACHING,20,852,1,30-99
17053,THAKUR KEDAR SINGH ET UDYOG,LALHAUA  261501,MANUFACTURING OF BRICKS,6,239,2,10-14
17054,BALBIR SINGH ET BHATTHA UDYOG,MITAULI  261501,MANUFACTURING OF BRICKS,6,239,2,30-99
17055,ROOPRAM LAGHU KHANDSARI UDYOG,KHANTA DESHU  261501,MANUFACTURE OF KHANDSARI,6,107,2,10-14
17056,KAMLESH KUMAR LAGHU KHANDSARI UDYOG,KHANTA DESHU  261501,MANUFACTURE OF KHANDSARI,6,107,2,10-14
17057,GANNA KOLHU UDYOG,KALLIA RAMPUR  261501,MANUFACTURING OF KHANDSARI,6,107,2,10-14
17058,KAMLESH KUMAR LAGHU KHANDSARI UDYOG,KHANTA DESHU  261501,KHANDSARI MANUFACTURE,6,107,2,10-14
17059,DINESH GANNA KOLHU,FALLIA RAMPUR  261501,MANUFACTURE OF KHANDSARI,6,107,2,10-14
17060,JILA PANCHAYAT INTER COLLEGE,118 ANDHRAULA KASTA 261501,TEACHING,20,852,1,25-29
17061,LAL BAHADUR SHASTRI SMARAK KUDURTUL,54  LA INTER COLLEGE 262805,TEACHING,20,852,1,10-14
17062,CHANDRIKA SINGH VITAULI DEVI INTER,78  COLLEGE FATTEPUR 261505,TEACHING,20,852,1,30-99
17063,KHIMMA SINGH JUNIOR HIGH SCHOOL,FATTEPUR  261505,TEACHING,20,852,1,10-14
17064,NE CRASHER MA,26  MRI TO PADESAR MARG  262804,CANE CRASHING,6,107,2,10-14
17065,SRI RAM RICE MILL,01  PIPARIA RICE MILL 262804,RICE MILL,6,106,2,10-14
17066,DOON PUBLIC SCHOOL,DILAVARPUR  262804,TEACHING,20,852,2,30-99
17067,MILAN BRICK FIELD,BEHTI AFGAN  262804,BRICKS MANUFACTURING,6,239,2,100-199
17068,RR RICE INDUSTRY,BAUDHI KHURD  262804,RICE MILL,6,106,3,25-29
17069,SAVITRI DEVI INTER COLLEGE CHAKAI K,HIRI  262726,EDUCATION,20,852,7,30-99
17070,RAGHUVEER PRASAD INTER COLLEGE BAJU,DIHA AMARTAGANJ ROAD KHIRI  262701,EDUCATION,20,852,2,30-99
17071,RAJKIY INTER COLLEGE SHARDA NAGAR K,HIRI  262726,EDUCATION,20,852,1,25-29
17072,NARAYAN SUGAR INDUSTRY,10 MATHIAPURVA   262728,NARAYAN SUGAR INDUSTRY,6,107,3,30-99
17073,ALJI PRASAD SARASWATI SHISHU VIDYAMANDIR,2 BAUDHI KHURD  262804,TEACHING,20,851,1,100-199
17074,LALJI PRASAD SARASWATI SHISHU VIDYAMANDIR,Nighasan   262903,TEACHING,20,851,9,15-19
17075,SHANTIDEVI SARASVATI GYANODAYA VIDYALAYA,BAUDHI KHURD  262804,TEACHING,20,852,2,10-14
17076,RAJKIYA ASHRAM PADDHATI VIDYALAYA,BELA PARSUA  262906,TEACHING,20,852,1,15-19
17077,KISAN BRICK FIELD,KARIA ROAD BHEDAURI 262906,BRICKS MANUFACTURING,6,239,3,15-19
17078,SARJU SAHKARI CHINI MILL,STATION ROAD BELRAIN 262906,SUGAR MANUFACTURING,6,107,6,>=500
17079,CHANDRIKA PRASD SARASWATI SHISHU VI,22  DYA MANDIR NIGHASAN  262903,TEACHING,20,852,2,15-19
17080,JILA PANCHAYAT INTER COLLEGE,161  NIGHASAN  262903,TEACHING,20,852,1,20-24
17081,PLY WOOD FACTORY,175  NIGHASAN  262903,PLY MANUFACTURING,6,162,2,30-99
17082,GYATRI VIDYA MANDIR,33 1   NIGHASAN  262903,TEACHING,20,852,2,10-14
17083,RAJA DIGVIJAI MADHYANIK VIDYALAYA,LALPUR  262902,TEACHING,20,852,1,10-14
17084,KANYA PATHSHALA VIDYALAYA,SINGHA  262902,TEACHING,20,851,2,10-14
17085,A R B SINGH VIDYALAY,BHANPURI COLONEY 262904,TEACHING,20,852,2,10-14
17086,PRIMARY SCHOOL,BHANPURI COLONEY 262904,TEACHING,20,851,6,10-14
17087,KISAN SAHKARI SUGAR MILL  GENERAL O,FFICE  SAMPURNANAGAR KHERI 262904,SUGAR MANUFACTURING,6,107,6,15-19
17088,KISAN SAHKARI CHINI MILL,SAMPURNANAGAR KHERI  262904,SUGAR INDUSTRY,6,107,6,15-19
17089,OXFORD PUBLIC SCHOOL,MURAR KHEDA  262904,TEACHING,20,852,2,20-24
17090,HOTEL TIGER AND RISORT,BANSHI NAGAR FARSAHIA  262904,FOODING AND LODGING SERVICES,14,551,2,15-19
17091,DOON SCHOOL NIGHASAN ROAD,VILLEGE TEHRA  262904,TEACHING,20,852,2,10-14
17092,SAINT ANNS COLLEGE,66  PALIA KALAN   262902,TEACHING,20,851,2,30-99
17093,STATE BANK OF INDIA,109 MAIN ROAD   261505,BANKING,16,641,1,10-14
17094,VERMA INDUSTRIES,31  MAKSOODPUR  261505,MANUFACTURING OF SUGAR,6,107,2,20-24
17095,GUPTA GANNA KOLHU,BHAUNAPUR  261505,MANUFACTURE OF GUR,6,107,2,15-19
17096,BHADAURIA ET BHATTA,BHAUNAPUR  261505,BRICKS MANUFACTURING,6,239,2,20-24
17097,MOHAN CHINI UDYOG,GALRAI  261505,MANUFACTURE OF SUGAR,6,107,2,100-199
17098,JILA PANCHAYAT INTER COLLEGE,AURANGABAD  261505,TEACHING,20,852,2,15-19
17099,BEKE INTERNATIONAL SCHOOL,CHAPPARTALLA  261505,TEACHING,20,852,2,10-14
17100,SAHKARI GANNA VIKAS SAMITI,DHARMA KHERA  261505,SALES OF FERTILISERS,12,477,6,15-19
17101,GURUDEV SCHOOL,KHAKHRA  261505,TEACHING,20,851,2,10-14
17102,GHANSHYAM SUGAR INDUSTRIES,LAKHAHI  262724,SUGAR MANUFACTURING,6,107,2,10-14
17103,SARDAR PATEL ACADEMY,LAKHAHI  262724,TEACHING,20,852,2,10-14
17104,GOLDEN FUTURE PUBLIC SCHOOL,RAMIA BEHAR  262724,TEACHING,20,851,2,10-14
17105,VINEET CHOUDHARY PLY WOOD FACTORY,KUSHAHA  262724,PLY MANUFACTURING,6,162,2,30-99
17106,GYAN BHARTI VIDYA MANDIR,ABHAIPUR  262724,TEACHING,20,852,2,15-19
17107,SRI LAXMI SUGAR INDUSTRIES,52  KHARBAHIA NUMBER 2 262907,SUGAR MANUFACTURING,6,107,3,30-99
17108,RADHEY KRISHNA TIMBER PRODUCT,RAULI PURVA GAURIA 262907,PLY MANUFACTURING,6,162,3,15-19
17109,SRI NEHRU SHIKSHA NIKETAN INTER COL,29  LEGE SEMRA 262907,TEACHING,20,852,1,30-99
17110,MADARSA ARABIA JASSURUD FATIMA,WARD 7 MOHALLA P CH  SINGAHI  262905,TEACHING,20,851,7,10-14
17111,BHOJ RAJ PANT VIDYALAYA,18  SINGAHI  262905,TEACHING,20,851,2,10-14
17112,RAM CHARAN SHAH BAL VIDYA MANDIR,15 HANUMAN MANDIR WARD NUMBER 10  262905,TEACHING,20,852,2,10-14
17113,BAJAJ HINDUSTAN LIMITED,44  PALIYA KALA  262902,DISTILLARY,6,110,2,100-199
17114,BAJAJ HINDUSTAN LIMITED,43 PALIA KALAN   262902,DISTILLARY,6,110,2,30-99
17115,ZILA PANCHAYAT BALIKA INTER COLLEGE,PALIA KALAN  262902,TEACHING,20,852,1,10-14
17116,PUJYA THAKKAR BABA SEVA SANSTHAN,ASHRAM  262902,EDUCATION,20,851,2,10-14
17117,IMRAN ALI,16  PALIA KALAN  262902,EDUCATION,20,851,7,10-14
17118,HARVINDER PAL SINGH,157  20   LAL PUR DHAKA PALIA  262902,EDUCATION,20,852,1,30-99
17119,DOCTOR NIRMALA,160 1   PALIA KALAN 262902,HUMAN HEALTH ACTIVITIES,21,861,1,15-19
17120,RAM GOPAL NEKIRAM VIDYALAYA,54 2   PALIA KALAN  262902,EDUCATION,20,852,2,10-14
17121,RAM PALACE HOTEL,PALIA KALAN  262902,RAM PALACE HOTEL,14,551,2,20-24
17122,GAUTAM BUDDHA INTER COLLEGE,PALIA KALAN  262902,EDUCATION,20,852,2,25-29
17123,RAFIN BEGUM KAMAL BAND,PALIA KALAN  262902,RAFIN BEGUM KAMAL BAND,22,932,2,15-19
17124,PARLS OFFICE,PATHAN 3  262902,PARLS OFFICE,17,681,4,10-14
17125,SATNAM ROADWAYS,82 3   PATHAN 3  262902,SATNAM ROADWAYS,13,492,2,10-14
17126,SARASWATI VIDYA MANDIR,PALIA KALAN  262902,EDUCATION,20,852,2,10-14
17127,SARASWATI VIDYA MANDIR  UCHH MADHYA,MIK PALIYA KALA  262902,EDUCATION,20,852,2,10-14
17128,PRIYA BAKERY,PALIYA KALA   262902,PRIYA BAKERY,6,107,2,15-19
17129,SWAMI VIVEKANAND SCHOOL,SUBHASH NAGAR PALIYAKALAN  262902,EDUCATION,20,852,2,10-14
17130,CAMBRIDGE SCHOOL,MEERA ROAD INDIRA NAGAR  262902,EDUCATION,20,851,2,15-19
17131,RAILWAY FUNCTION,L 83  MAILANI  262803,RAIL TRANSPORT,13,491,1,30-99
17132,KISAN RICE MILL,08 KHUTAR ROAD MAILANI 262803,WHOLE SALE OF FOOD GRAINS,11,462,2,10-14
17133,STATE BANK OF INDIA,134  MAILANI  262803,BANKING,16,641,1,10-14
17134,L  I  C  OFFICE,137 LAKHIMPUR ROAD GOLA GOKARAN NATH 262802,INSURENCE SRVICES,16,651,1,30-99
17135,ALLAHABAD BANK,145 LAKHIMPUR ROAD GOLAGOKARAN NATH 262802,BANKING,16,641,1,10-14
17136,SARASWATI VIDYA MANDIR INTER COLLEGE,147 LAKHIMPUR ROAD GOLA GOKARN NATH 262802,TEACHING,20,852,2,30-99
17137,GOLA PUBLIC INTER COLLEGE MOHAMMADI,ROAD GOLA KHERI 262802,EDUCATION,20,852,2,15-19
17138,BAJAJ HINDUSTAN LIMITED,GOLA GOKARAN NATH MILL ROAD GOLA GOKARAN NATH 262802,BAJAJ HINDUSTAN LIMITED,6,110,4,>=500
17139,PUBLIC INTER COLLEGE,1 3  LAKHIMPUR ROAD GOLA KHERI  262802,EDUCATION,20,852,1,30-99
17140,MAHARSHI ARVIND VIDYAPITH SCHOOL,58  CHANDSI DAVAKHANE KE SAMNE  262802,EDUCATION,20,851,1,10-14
17141,CANE SOCIETY OFFICE,87  MILL WARD  262802,OFFICE,19,821,6,100-199
17142,STATE BANK OF INDIA,88 1    GOLA GOKARN NATH  262802,FINANCIAL SERVICES,16,641,1,15-19
17143,GANDHI SMARAK VIDYALAYA,66 1   GOLA GOKARAN NATH  262802,EDUCATION,20,852,1,20-24
17144,BUS STAND,GOLA GOKARAN NATH 262802,BUS STAND,13,492,1,200-499
17145,SANT JONS SCHOOL PANJABI COLONY GOL,A GOKARAN NATH KHERI 262802,EDUCATION,20,851,1,30-99
17146,CUMULATIVE HEALTH CENTRE GOLA GOKAR,AN NATH KHERI  262802,HUMAN HEALTH ACTIVITIES,21,861,1,30-99
17147,PUNJAB NATIONAL BANK MOHAMMADI ROAD,GOLA  262802,FINANCIAL SERVICES,16,641,1,10-14
17148,BASANT RICE MILL,200 2  BHOOT NATH MARG   262802,BASANT RICE MILL,6,106,2,30-99
17149,CANE GOVARS NEHRU P G COLLEGE LAKHI,163  MRUR ROAD GOLA 262802,TEACHING,20,852,1,30-99
17150,SHAKTI GAS AGENCIES,MOHAMMADI LAKHIMPUR KHERI 262804,DISTIBUTION OF COOKING GAS,12,473,2,20-24
17151,SAMUDAIK SWASTHYA KENDRA,50  MOHAMMADI  262804,HEALTH SERVICES,21,861,1,30-99
17152,MANDI SAMIT,11  MOHAMMADI  262804,WHOLE SALES OF FOOD MATERIALS,11,462,1,15-19
17153,TPRS SCHOOL,MOHAMMADI  262804,TEACHING,20,852,2,20-24
17154,SRI KRISHNA INTER COLLEGE,65 BARBAR ROAD MOHAMMADI  262804,TEACHING,20,852,2,30-99
17155,POST OFFICE,MOHAMMADI  262804,POSTAL AND BANKING SERVICES,13,531,1,10-14
17156,BHARTIYA VIDYA MANDIR JUNIOR HIGH S,CHOOL MOHAMMADI 262804,TEACHING,20,852,1,10-14
17157,DOCTOR SHRAF CHARITY HOSPITAL,1 SHAHJAHANPUR ROAD MOHAMMADI  262804,EYE HOSPITAL,21,862,1,30-99
17158,ARIF SAHADAT MEMORIAL INTER COLLEGE,41 1   MOHAMMADI  262804,TEACHING,20,852,1,10-14
17159,JP INTER COLLEGE,MOHAMMADI KHERI 262804,TEACHING,20,852,2,30-99
17160,GANNA KOLHU,WARD PREM NAGAR BARBAR  261505,MANUFACTURE OF GUR,6,107,2,10-14
17161,GANNA KOLHU,PREM NAGAR BARBAR 261505,MANUFACTURE OF GUR,6,107,2,10-14
17162,SARASWATI GYANODAYA SCHOOL,SHIV COLONEY LAKHIMPUR KHERI  262701,TEACHING,20,851,2,25-29
17163,DOCTOR BHIMRAO INTER COLLEGE,KAMLAPUR  262701,TEACHIN,20,852,3,30-99
17164,DHARM SABHA INTER COLLEGE,DEVKALI ROAD  262701,TEACHING,20,852,1,30-99
17165,KRASHAK GANNA SAMIT,TRIPATHI COLONEY 262701,SALES OF FERTILISERS,12,477,6,25-29
17166,RAJESH SAHNI G T HONDA SHOW ROOM,GOLA ROAD  262701,SALES AND SERVICE OF TWO WHLLERS,10,454,2,25-29
17167,SARASWATI GYAN MANDIR SCHOOL,NAHAR ROAD RAMNAGAR  262701,TEACHING,20,852,3,20-24
17168,GREEN FIELD SCHOOL,46  SHYAM NAGAR  262701,TEACHING,20,851,2,20-24
17169,VISHOK AGENCIES L R P ROAD,174  RAM NAGAR  262701,SALES AND SERVICE OF TRACTORS AND MOTORCYCLES,10,454,2,20-24
17170,B K PETROL PUMP L R P ROAD,190  PIPARIA  262701,PETROL PUMP,12,473,2,25-29
17171,RAM SWROOP VIDYALAYA,NIGHASAN ROAD  262701,TEACHING,20,851,9,10-14
17172,KRASHAK SAMAJ INTER COOLEGE,SETH GHAT ROAD 262701,TEACHING,20,852,9,20-24
17173,MAHANT HARI SINGH NIRMAL PUBLIC SCHOOL,ARJUN PURWA SETH GHAT ROAD 262701,TEACHING,20,852,2,25-29
17174,MESSERS LAXMI TRADING COMPANY,SANKATA DEVI STATION ROAD  262701,PETROL PUMP,12,473,2,20-24
17175,DARSGAH ISLAMIA SCHOOL,GOTTAIABAGH MASLID ME  262701,TEACHING,20,851,5,10-14
17176,MUSA RAM AUTO SALES,99  L R P CHAURAHA 262701,SALES OF MOTOR CYCLES,10,454,2,15-19
17177,MUSA RAM ENTERPRISES LIMITED,L R P CHAURAHA  261001,AUTOMOBILE INDUSTRY,10,454,4,100-199
17178,SONI TRACTORS,L R P ROAD LAKHIMPUR 262701,SALES AND SERVICE OF TRACTORS,10,453,2,15-19
17179,SUNIL VERMA MEMORIAL I T I COLLEGE,PATEL NAGAR LAKHIMPUR  262701,TECHNICAL EDUCATION,20,854,2,10-14
17180,ADARSH VIDYA MANDIR KAPOORTHALA,LAKHIMPUR  262701,TEACHING,20,851,3,10-14
17181,CHOPRA NURSHING HOME,SHAHPURA KOTHI CIVIL LINES  262701,HEALTH SERVICES,21,869,2,10-14
17182,JILA MAHILA HOSPITAL,KACHAHARI ROAD LAKHIMPUR 262701,HEALTH SERVICES,21,861,1,30-99
17183,RAJKIYA INTER COLLEGE HOSPITAL ROAD,LAKHIMPUR  262701,TEACHING,20,852,1,25-29
17184,ANUPAM NURSING HOME,KHERI ROAD LAKHIMPUR 262701,HEALTH SERVICES,21,869,2,15-19
17185,ST DON BOSKO SR SEC SCHOOL,KHIRI ROAD LAKHIMPUR 262701,TECHING,20,852,2,30-99
17186,GUPTA NURSING HOME,KHERI ROAD LAKHIMPUR 262701,HEALTH SERVICES,21,869,2,10-14
17187,DR HEDGEVAR SARASVATI VIDYA MANDIR,AVAS VIKAS LAKHIMPUR 262701,TEACHING,20,851,2,25-29
17188,KR  KHUSHVAKT RAI JUNIOR HIGH SCHOO,28  L MAHRAJ NAGAR LAKHIMPUR  262701,TEACHING,20,852,6,10-14
17189,BANK OF BARODA VIVEK COMPLEX,THARVARANGANJ LAKHIMPUR 262701,BANKING,16,641,1,15-19
17190,HOTAL PRATHAM HOSPITAL ROAD,LAKHIMPUR  262701,HOTEL,14,551,2,15-19
17191,PUNJAB NATIONAL BANK MAIN ROAD,LAKHIMPUR  262701,BANKING,16,641,1,10-14
17192,SUMIT MOTORS,D C ROAD LAKHIMPUR 262701,MOTOR VEHICLE REPAIRING,10,452,2,20-24
17193,DHANVANTRI HOSPITAL PYAREPUR,LAKHIMPUR  262701,HOSPITAL,21,869,2,15-19
17194,DR  R C SINGH HOSPITAL PYAREPUR,LAKHIMPUR  262701,HOSPITAL PRIVATE,21,861,2,10-14
17195,NEW SRI NEHRU SHISHU VIDYALAYA,PYAREPUR LAKHIMPUR 262701,TEACHING,20,851,2,10-14
17196,P K INTER COLLEGE,BEHJAM ROAD LAKHIMPUR  262701,TECHING,20,852,1,25-29
17197,SALOOJA NURSHING HOME,MELA MAIDAN LAKHIMPUR 262701,HOSPITAL,21,861,2,25-29
17198,B P S SCHOOL,27  HATHIPUR KOTTHAR LAKHIMPUR 262701,TEACHING,20,851,6,15-19
17199,R K SCHOOL,10  HATHIPUR KOTHAT LAKHIMPUR  262701,TEACHING,20,851,2,10-14
17200,ROD WAYS BUS ADDA,ROADWAYS BUS STAND NAI BASTI LAKHIMPUR 262701,ROADWAYS,13,492,1,10-14
17201,MO  ASIF KHAN ELECTRONIC WORLD,MAIN ROAD LAKHIMPUR 262701,SALES OF ELECTRONIC GOODS,12,475,2,20-24
17202,MAHARAJA AGRASEN VIDYA MANDIR JUNIO,GALLA MANDI R HIGH SCHOOL LAKHIMPUR KHERI  262701,TEACHING,20,852,2,10-14
17203,URBAN COOPRATIVE BANK,MAIN ROAD LAKHIMPUR 262701,BANKING,16,641,6,10-14
17204,SWAMI RAM PRAKASH INTER COLLEGE BAH,ADUR NAGAR LAKHIMPUR KHERI  262701,TEACHING,20,852,1,25-29
17205,JHANDI FUELS,BAHADUR NAGAR LAKHIMPUR 262701,PETROL PUMP,12,473,2,10-14
17206,LA MATINA SCHOOL,HIDAYAT NAGAR LAKHIMPUR 262701,TEACHING,20,852,2,30-99
17207,LIFE LINE HOSPITAL,HIDAYATNAGAR LAKHIMPUR 262701,HEALTH SERVICES,21,861,2,10-14
17208,RAJESH AGARWAL INDANE GAS SERVICE,27 2   KRISHNA TALKIES ROAD LAKHIMPUR 262701,COOKING GAS DISTRIBUTER,12,473,2,25-29
17209,RAJEEV RATN PUBLIC SCHOOL,KRISHNA TALKIES ROAD LAKHIMPUR KHIRI  262701,TEACHING,20,852,2,15-19
17210,HEMRAJ SARASWATI GYAN MANDIR,KRISHNA TALKIES ROAD LAKHIMPUR  262701,TEACHING,20,851,2,15-19
17211,AJMANI T V S,74 NIGHASAN ROAD LAKHIMPUR  262701,SALES OF MOTOR CYCLES,10,451,2,25-29
17212,NEW INDIA INSURANCE,56 UNION BANK VALI GALI LAKHIMPUR  262701,INSURANCE SERVICES,16,651,1,10-14
17213,TATA MOTORS,66 MELA MAIDAN ROAD LAKHIMPUR  262701,SALES OF MOTOR VEHICLES,10,451,2,30-99
17214,JILA PANCHAYAT INTER COLLEGE,100 31   KHERI  262702,TEACHING,20,852,1,25-29
17215,KAISHAR PAHALVAN MEMORIAL DARSGAH,86 LAHARPUR ROAD KHERI   262702,TEACHING,20,851,2,10-14
17216,SHRI DURGE SHISHU VIDYA MANDIR,BAGIA OYAL  262725,EDUCATION,20,851,9,25-29
17217,STATE BANK OF INDIA,95  DHAURAHRA BAJAR WARD  262723,FINANCIAL SERVICES,16,641,1,10-14
17218,MADARSA ANVARUL ULUM,MADARSA VALI GALI DHAURAHRA  262723,EDUCATION,20,851,7,25-29
17219,KRISHAK SAMAJ INTER COLLEGE,SETH GHAT ROAD FATTEPUR LAKHIMPUR KHERI  262701,TEACHING,20,852,1,30-99
17220,MAHARAJA AGRA SEN VIDYA MANDIR,AGRASEN GALI TIKUNIA KHERI  262906,TEACHING,20,851,9,30-99
17221,RN INTERNATIONAL SCHOOL,48  2   SUTHANA BARSOLA 262906,TEACHING,20,852,7,15-19
17222,JASNAGAR SADHAN SAHKARI SAMIT,52 1   MAIN ROAD TIKUNIA 262906,RETAIL SALE OF FERTILISERS,12,477,6,10-14
17223,M A E COLLEGE,SUTHANA BARSOLA 262906,TEACHING,20,852,1,20-24
