S.No.,Name of the Establishment,Address,Major Activity Description,Broad Activity Code,NIC,Ownershi p Code,"Employm ent
Class
Interval"
28754,LIFE INSURANCE CORPORATION OF INDIA,27   BANJARIYA WEST 272175,LIFE INSURANCE,16,651,1,30-99
28755,STATE BANK OF INDIA AGRICULTURE,4   TRIPATHI NAGAR 272175,BANKING WORK,16,641,1,10-14
28756,STATE BANK OF INDIA KLD ,BANJARIYA EAST 272175,BANKING WORK,16,641,1,25-29
28757,GOYAL ADVILLS LTD ,B 1 3 INDUSTRIAL AREA GALI NO 1 272175,FLOUR MILL,6,106,2,30-99
28758,FIE REFINIERIES AND CHEMICAL LTD ,B 35   INDUSTRIAL AREA KLD  272175,FLOUR MILL,6,106,2,30-99
29388,BENI MADHAB GOPI NATH INTER COLLEGE,BAKHIRA SKN 272199,TECHING WORK,20,852,1,30-99
29389,SARDAR PALEL DEGREE COLLAGE,BARGADVA SKN 272199,TECHING WOORK,20,853,2,10-14
29390,BHUNESWAR PARSAD INTER COLLAGE,PARSA KALLA SKN 272175,TECHING WOORK,20,852,2,10-14
29391,MADARSHA PARSA KALLA,PARSA KALLA SKN 272175,TECHING WOORK,20,853,3,20-24
29392,NINKUZLAL SAMBHUNATH MEMORIAL,BANDWA SKN 272175,HOSPITAL,21,861,2,15-19
29393,BRICK FIELD BUWAR,BUWAR 272175,BRICK WOORK,6,239,2,30-99
29394,JANKY DEVI BALIKA PRATHAMIK VIDHYAL,LY ASHARF PUR HAIHER BAZAR SKN   272162,TEACHING WORK,20,852,7,15-19
29395,DR INDIRJEET SINGH SARASWATI SHISHU MANDIR,ASHRAF PUR HAISHER SKN   272162,TEACHING WORK,20,852,7,10-14
29396,SMT ARTI DEVI LAGHU MADHAMIC VIDHALAY,AHARFPUR SKN   272162,TEACHING WORK,20,852,2,10-14
29397,SRI TARACHAND POST GRADUATE MAHA VE,MITHNA DADNGATASKN 272165,TEACHING WORK,20,852,1,25-29
29398,NEW SCIENCE INTER COLLAGE,BHAISA TUCHER SKN 272165,TEACHING WORK,20,852,2,25-29
29399,SHRI RAM SHANKER VERMA LAXHMI DEVI,UTTAR MADHIMIC VIHALAY DIAHAYA BAZA R GHORANG SKN  272165,TEACHING WOK,20,852,1,15-19
29400,VIDHAVTI SHARMA,SKN  PRAJAPATIPUR 272176,TEACHIMG WORK,20,852,7,15-19
29401,SHRI LAL BADHUAR SHASTRI INTER COLL,AGE TAUMPAR   272175,TEACHING WORK,20,852,1,10-14
29402,ANJU SURC VANSHI SCH00L,SHAKIRY SKN   272175,TEACHING WORK,20,852,2,10-14
29403,VAKIL KHAN SCHOOL,GHARSARPAR SKN 272175,TEACHING WORK,20,852,2,10-14
29404,MAYUR GAS FACTORY SHARMA,MAGHAR SKN 272173,MEDICAL OXYZEN,6,201,2,20-24
29405,STAR HOSPITAL MAILANI KLD,SKN   272175,HOSPITAL,21,861,2,10-14
29406,R A C CHILDREN ACDEMY,SARIYA KLD SKN   272175,TEACHING WORK,20,851,2,15-19
29407,RADHAY SHYAM GAUND,SARIYA KLD SKN   272175,STICHING TRAINING CENTRE,6,141,2,10-14
29408,H R P G  COLLAGE,KLD SKN   272175,TEACHING WORK,20,852,1,30-99
29409,S M B VIDHAPITH BALICA INTER COLLZG,ESARIYA SKN   272175,TEACHING WORK,20,852,2,10-14
29410,SWATI FILLING STATION,BUZANI SKN   272175,PETROL PUMP,12,473,2,10-14
29411,SATVART SHARMA GANAK DARULI INTERCOLLAGE,BUJANI SKN   272175,TEACHING WORK,20,852,2,20-24
29412,SHAPRSH HOSPITAL,BUJANI KLD SKN   272175,HOSPITAL,21,861,2,15-19
29413,SATYAVATRA SHARMA JANAKDURALI INTER,COLLAGE BUJANI KLDSKN  272175,TAECHING WORK,20,852,2,30-99
29414,RAYAN PAPER MILL,DHAURAHARA KLD 272175,PAPAR MACKING,6,170,2,30-99
29415,VIRENDRA VIDHA SINGH J SINGH P  COL,LAGE CONI SKN   272175,TEACHING WORK,20,852,2,10-14
29416,REKHA PATHAK INTERCOLLAGE PATHKHUKA,LI KLD SKN   272175,TEACHING WORK,20,852,2,20-24
29417,METHILASH RESTORANT RASULABAD MAGHA,R KLD SKN   272175,RESTORENT,14,561,2,15-19
29418,VANISH PAL SCHOOL,SHAKIRI SKN  272175,TEACHING WORK,20,852,2,30-99
29419,PRALADH BARTI INTER COLLAGE,TAMA SKN   272175,TEACHING WORK,20,852,2,30-99
29420,PROMAD  BRICK FIELD RAMPUR ,KLD SKN   272164,BRICK FIELD,6,239,2,10-14
29421,SHYAMLAL CHOUDHRY,BHUJAINI KHALILABAD SANT KABIR NAGAR 272175,HOSPITAL WORK,21,861,2,15-19
29422,SHYAM JAISWAL BRICK FIELD,4   KUCHTAHA SKN 272271,BRICK MANUFACTURING,6,239,2,10-14
29423,PREM LATA MAHILAMAHA VIDHYLYA,ACHIA SKN 272271,TECHING WORK,20,853,1,10-14
29424,PARWATI KANYA INTERMEDIATE COLLAGE,SONAURA MEHADWAL SKN 272271,TECHING WORK,20,852,1,30-99
29425,BRICK FIELD EKLA SHUKLA,MEHDAWAL SKN 272271,BRICK FIELD,6,239,2,100-199
29426,MAHAMANAJOTIBHARAOP HOOLA PUR MADHIMICVIDHLAY,BHITINY NATH NAGAR 272176,TECHING WORK,20,853,1,20-24
29427,PT SURAYNARAYAN CHUVEDHEY MAHA VIDHLAY,NATH NAGAR SANT KABIR NAGAR   272176,TECHING WORK,20,853,1,20-24
29428,SRIMATI RAM DULARI DEVI BALIKA INTER COLLAGE,126  BHOGIPUR   272172,TEACHING WORK,20,852,2,10-14
29429,PRABHA JUNIOUR HIGHSCHOOL,GHITHANI BAZAR SANT KABIR NAGAR   272164,TEACHING WORK,20,851,2,10-14
29430,PRABHA ACDEMY,GHITHANY BAZAR SANT KABIR NAGAR   272164,TEACHING WORK,20,851,2,10-14
29431,CHC NATH NAGAR,67 SANT KSABIR NAGAR 272164,GOVERNMENT HOSPITAL,21,861,1,30-99
29432,KASTURBA GANDHI AAVASHIV BALICA VIDHALAY,NATHNAGARSANT KABIR NAGAR   272176,TEACHING WORK,20,852,1,10-14
29433,BABULAL YADAV,114   JAY RAM PATTY 272176,TEACHING WORK,20,852,2,20-24
29434,BABU LAL YADAV,115   JAI RAM PUTTY 272176,TEACHING WORK,20,852,2,15-19
29435,FULMATI DEVI BALICA LAGHU MADHIMIC VIDHALAY,KALI JADISHPUR   272176,TEACHING WORK,20,852,1,10-14
29436,SARDAR PATEL PURV MADHIMIC VIDHALAY,KALI GADIHPUR SKN 272176,TEACHING WORK,20,852,1,10-14
29437,JANTA ADRASH INTER COLLAGE,AJAY MAHULI SKN 272172,TEACHING WORK,20,852,2,25-29
29438,GANGA PRADESH CHARUGHYA,KHURDHSKN 272176,BRICK BUILDING,6,239,2,30-99
29439,SHIV MURAT KHARIYA,KURDH SKN   272176,BRICK BUILDING,6,239,2,30-99
29440,PREM CHANDRA UCHACHATER MADHAMIC VIDHALAY,GORYA GHAT SKN 272176,TEACHING WORK,20,852,2,10-14
29441,BALIKA INTER COLLAGE,KALI JAGDISH PUR 272176,TECHING WORK,20,852,1,25-29
29442,RAHUL GENERAL STORES,124 MEHDAWAL  IN FRONTOFBLOCK 272271,KIRANA STORE,12,472,2,10-14
29443,SARVODYA BALRAM VIDYALAYA,72 MEHDAWAL  IN FRONT OF BLOCK 272271,TEACHING WORK,20,851,2,10-14
29444,SHIVANSHU GAS SERVICE,115 MEHDAWAL  NEAR BLOCK 272271,GAS SUPPLY,12,477,2,10-14
29445,BABU CHANDRA SHEKHAR BALIKA VADYALA,70   NEAR ROAD WAYS 272271,TECHING WORK,20,852,2,25-29
29446,MAHAVEER FOOD PRODUCT LTD,INDISTRUIAL AREA KLD 272175,SUZI MAIDA NIRMAN,6,106,3,100-199
29447,SHIKHA HOSPITAL,27   BANJARIYA WEST 272175,NURSING HOME,21,861,2,15-19
29448,JAGAT NARAYAN PANDEY COLD STORAGE,107   INDUSTRIAL AREA KLD 272175,COLD STORAGE,13,521,2,15-19
29449,ABBASI CLINIC,2 2    TRIPATHI MARKET KLD 272175,HOSPITAL WORK,21,861,2,10-14
29450,GORAKHNATH FOOD PRODUCT LTD,D 20 21   ROAD NO 1 272175,FFLOUR MILL,6,106,3,30-99
29451,MAHESH KUMAR RUNGUTA,INDUSTRIAL AREA LKD  272175,BISCUIT FACTORY,6,107,2,100-199
29452,ASHOK CHAPADIYA,98   BANK ROAD 272175,FOOTWEAR SHOP,12,477,2,15-19
29453,SUBHAWATI DEVI,123   BANK ROAD KLD  272175,READY MADE GARMENT SHOP,12,477,2,15-19
29454,ISTHIAQ AHAMAD KHAN,E 23 SANT KABIR NAGAR 14 272175,JENIUM BREAD NIRMAN,6,107,2,15-19
29455,MADHUKUNJ SWEETS,57   MOTINAGAR SOUTH 272175,SWEET SHOP,6,107,2,10-14
29456,GURUKULAM ACADEMY,E 144   ROAD NO 18 272175,TEACHING WORK,20,852,2,10-14
29457,SAI KRIPA FOOD PRODUCT,F 30   ROAD NO 21 272175,MANUFACTURING OF BAKERY PRODUCT,6,107,2,25-29
29458,MADARSA JAMIA ISLAMIYA DARUL ULUM,NEAR N H 28 KLD    272175,TEACHING WORK,20,852,5,15-19
29459,DEVENDRA ELECTRICALS,D 52 INDUSTRIAL AREA KLD    272175,REPAIR OF ELECTRICAL GOODS,6,331,2,10-14
