District_name,1,2,3,4,5,6,7,8,9,10,11,12,13,14,15,16,17,18,19
North Tripura,1,0,0,0,0,0,0,0,0,0,0,0,0,0,0,0,0,0,0
Patna,224,44,189,67,101,18,28,604,4,48,262,28,63,26,0,496,344,227,328
Khammam,26,16,9,3,3,2,0,9,0,1,3,2,1,4,0,5,25,9,10
Satna,11,1,1,0,9,10,0,3,0,6,0,5,0,0,0,26,2,6,1
Mayurbhanj,8,0,1,1,0,1,0,1,0,1,0,0,1,0,0,4,14,0,2
Bhagalpur,28,2,27,4,8,9,0,13,0,7,3,5,0,0,0,8,38,0,23
Buxar,9,0,2,5,2,0,0,1,0,0,1,0,10,0,0,0,11,0,27
Thrissur,31,9,25,2,6,0,3,27,1,14,25,2,3,0,0,17,28,14,15
Arwal,0,0,0,0,0,0,0,0,0,0,0,0,0,0,0,6,1,0,0
Perambalur,62,3,23,0,20,1,0,18,0,0,20,0,0,2,0,8,13,0,3
Vaishali,27,2,14,0,7,0,0,8,0,2,0,0,1,0,0,5,10,0,8
East Delhi,0,0,0,0,0,0,0,0,0,0,0,0,0,0,0,0,2,0,0
Udalguri,2,0,0,0,0,0,0,0,0,0,1,0,0,0,0,0,2,0,2
Etawah,3,1,9,5,0,0,0,9,0,1,2,1,0,0,0,1,17,0,3
Chittoor,44,0,20,2,7,5,5,20,0,7,6,1,0,6,0,13,30,4,14
Basti,5,0,0,0,0,0,0,9,0,7,1,0,0,0,0,0,18,0,2
Villupuram,53,24,18,0,9,11,0,7,0,4,15,0,4,0,0,38,42,4,7
Ghazipur,3,0,7,3,5,3,0,20,0,0,8,0,0,0,0,9,3,0,9
Sheopur,0,0,0,0,3,1,0,0,0,0,0,0,0,0,0,0,0,0,0
Malappuram,23,7,8,2,4,3,0,6,0,1,7,2,0,1,0,13,29,5,10
Coimbatore,595,70,551,189,151,111,76,738,19,149,314,40,161,14,0,605,728,260,296
Tarn Taran,9,0,0,0,0,0,0,0,0,0,0,0,0,0,0,0,0,0,24
Una,0,0,0,0,0,0,0,6,0,0,3,0,0,0,0,0,0,2,5
Bharuch,6,0,1,6,10,4,0,17,0,0,5,0,6,0,0,3,18,5,4
Kishtwar,0,0,0,0,0,0,0,0,0,0,0,0,0,0,0,0,0,0,1
Belagavi,12,1,9,0,2,0,0,7,0,0,1,1,0,0,0,3,2,1,0
Thane,68,13,30,11,27,7,1,33,0,14,36,5,1,3,0,27,98,11,8
Khandwa,1,0,0,0,3,0,0,1,0,0,0,0,2,0,0,10,0,0,2
Sidhi,1,2,3,1,0,0,0,1,0,0,0,0,0,0,0,2,0,0,0
Yavatmal,60,13,20,3,10,1,0,2,0,0,3,0,0,0,0,3,21,0,3
Dadra and Nagar Haveli,3,0,7,0,2,0,2,0,0,0,11,0,1,0,0,23,7,2,0
Parbhani,0,0,0,0,14,0,0,9,0,1,0,0,0,0,0,0,6,0,0
Chirang,2,0,13,0,0,0,0,0,0,0,0,0,0,0,0,1,1,1,1
Bastar,0,3,2,0,1,0,0,0,0,0,0,0,0,0,0,0,2,0,0
Thoothukudi,0,2,1,1,0,0,0,7,0,0,1,0,0,0,0,10,10,0,4
Satara,83,1,24,1,24,0,5,10,1,0,16,0,0,0,0,16,44,12,3
Wayanad,57,5,3,1,3,2,0,4,1,4,3,0,5,0,0,6,18,1,9
Dewas,27,1,25,3,3,0,0,4,0,0,6,0,0,0,0,0,13,0,0
Purulia,0,2,2,2,0,1,0,0,0,1,0,0,0,0,0,1,2,1,4
Katni,2,2,0,0,0,0,0,0,0,0,0,0,0,0,0,1,2,0,0
Dausa,4,1,3,2,0,0,0,1,0,0,1,0,0,8,0,3,12,0,1
Udhampur,0,0,0,0,0,0,0,0,0,0,0,0,0,0,0,0,1,0,0
Ashoknagar,8,0,2,0,0,0,0,0,0,0,0,0,0,0,0,0,0,0,1
Jhajjar,2,0,0,1,2,0,0,2,0,0,4,0,0,0,0,9,5,0,4
Subarnapur,0,0,0,0,0,2,0,0,0,0,0,0,0,0,0,0,0,0,0
Kodagu,23,3,6,1,9,1,1,2,0,0,0,0,0,0,0,3,9,3,2
Hyderabad,462,175,609,162,162,95,100,1064,30,297,539,64,209,33,0,498,806,698,517
Uttar Dinajpur,1,0,0,0,0,0,0,0,0,0,0,0,0,0,0,4,0,0,1
Godda,4,4,4,0,4,2,0,0,0,0,1,0,0,0,0,1,0,0,0
Bhiwani,2,6,2,0,3,0,0,5,0,0,6,0,1,6,0,2,2,3,1
Kamrup,15,0,17,1,1,0,0,10,0,0,5,2,0,0,0,1,13,0,0
East Singhbhum,5,3,1,1,5,1,0,13,0,0,3,1,0,0,0,8,14,3,13
Wokha,1,0,1,0,0,0,0,0,0,0,0,0,0,0,0,0,0,0,0
Karimganj,8,1,2,0,0,0,0,0,0,0,0,0,0,0,0,0,4,0,3
Golaghat,34,0,2,0,0,0,0,2,0,1,3,0,1,0,0,1,0,0,0
Mahoba,0,0,5,0,0,0,0,7,0,4,1,0,0,0,0,0,1,0,0
Uttarkashi,1,0,0,0,0,0,0,0,0,0,0,0,0,0,0,0,2,0,0
Hooghly,9,0,8,0,0,0,1,1,0,0,5,0,0,0,0,1,2,0,5
Jhalawar,11,0,2,0,1,0,0,1,0,3,0,0,0,0,0,0,17,0,0
Ajmer,1,6,0,5,0,0,4,22,0,6,4,0,0,0,0,98,57,2,28
Tikamgarh,0,0,0,0,0,0,0,0,0,0,0,0,0,0,0,1,0,0,0
Anantnag,0,0,0,0,0,0,0,0,0,0,0,0,0,0,0,0,0,3,4
Gurdaspur,19,0,0,0,2,1,0,0,0,0,0,0,0,0,0,6,4,6,16
Bardhaman,4,0,0,0,0,0,0,1,0,0,1,0,1,0,0,0,0,0,0
Ambala,0,2,4,10,2,2,0,10,0,0,4,0,0,0,0,6,4,3,4
Lakshadweep,0,0,0,0,0,2,0,3,0,0,0,0,0,0,0,3,2,0,0
Nanded,24,0,28,2,1,0,0,26,0,0,7,0,0,0,0,23,38,0,14
Dima Hasao,1,1,1,0,0,1,0,0,0,0,0,0,0,0,0,0,0,1,1
Sitapur,10,0,4,1,0,0,0,3,0,0,4,0,0,0,0,0,5,0,0
Kolhapur,48,5,28,3,7,3,2,26,1,3,35,1,1,1,0,93,30,12,12
Pondicherry,24,7,46,11,11,7,16,50,3,11,9,5,25,1,0,91,86,64,72
Pratapgarh,2,5,0,5,0,0,0,11,0,1,5,0,0,0,0,0,37,0,7
Angul,6,11,8,8,2,1,0,4,0,0,2,0,0,0,0,0,23,1,0
Kanpur Nagar,0,0,0,0,0,0,0,0,0,0,0,0,0,0,0,0,8,0,2
Umaria,0,2,2,0,0,0,0,0,0,0,0,0,0,0,0,0,0,0,0
Jamnagar,12,3,27,0,16,8,0,13,0,6,8,7,0,0,0,4,13,9,15
Hoshiarpur,15,3,0,0,0,0,0,0,0,0,2,0,0,0,0,0,2,11,10
Pathanamthitta,12,5,0,0,8,1,0,1,0,4,3,0,0,0,0,1,19,0,5
Siddharthnagar,0,0,0,0,0,0,0,1,0,0,0,0,0,0,0,0,3,0,0
Kozhikode,30,8,17,3,8,4,5,51,4,11,24,2,6,3,0,32,40,11,13
Raisen,4,1,0,0,0,0,0,1,0,0,0,0,0,0,0,3,2,0,0
Rewari,11,5,0,2,7,0,3,0,0,0,4,0,0,5,0,0,10,0,12
Sikar,17,5,0,0,1,0,0,3,0,0,2,0,8,0,0,30,23,6,0
Rohtas,6,2,0,3,3,0,0,2,0,0,2,0,3,0,0,0,5,0,18
Yadgir,31,6,10,5,9,4,0,9,0,0,1,0,0,0,0,7,6,0,6
Jammu,11,10,26,6,0,0,26,117,0,16,35,0,8,0,0,37,22,4,9
Tiruvallur,22,6,8,2,5,8,1,3,0,0,6,0,0,1,0,20,34,2,1
Harda,8,0,1,0,0,0,0,0,0,0,0,0,0,0,0,6,2,0,0
Banda,4,2,2,0,0,2,0,2,0,6,0,0,0,0,0,4,17,0,0
Seoni,1,0,0,0,2,0,0,2,0,0,1,0,0,0,0,0,4,0,1
Bundi,0,1,0,0,0,0,0,0,0,0,0,0,0,0,0,0,3,0,1
Phek,0,0,0,0,0,0,0,0,0,0,0,0,0,0,0,0,1,0,0
Sirsa,5,0,0,0,0,0,0,2,0,0,10,0,0,0,0,0,2,2,40
Beed,12,2,2,0,14,0,2,7,0,0,6,0,0,4,0,2,32,5,6
Kaithal,1,0,0,0,2,0,0,0,0,1,6,0,0,0,0,0,2,0,4
Ranga Reddy,38,4,22,10,13,19,1,40,0,4,20,0,1,5,0,33,84,0,16
Dahod,12,0,0,0,2,0,0,0,0,0,3,0,0,0,0,0,14,0,3
Meerut,75,14,80,41,39,5,38,177,0,17,91,14,10,1,0,91,76,47,79
Jalore,0,0,0,0,2,0,0,3,0,0,3,0,0,4,0,0,1,0,0
Sehore,6,5,5,0,1,0,0,6,0,0,1,0,0,0,0,4,4,3,1
Virudhunagar,50,13,29,5,6,1,2,23,0,0,32,13,16,0,0,21,88,15,20
West Siang,2,0,1,1,0,0,0,0,0,0,0,0,0,0,0,0,0,0,0
Patiala,28,4,17,0,3,2,8,47,0,5,5,0,10,0,0,32,34,49,28
Ranchi,50,35,49,32,32,1,2,90,3,8,25,2,22,3,0,31,31,67,29
Namakkal,57,1,39,7,15,9,0,25,0,4,14,9,0,1,0,27,46,7,15
Balangir,5,0,1,2,0,1,0,2,0,0,6,0,1,0,0,2,3,0,4
Ernakulam,42,9,17,7,13,8,10,31,1,8,38,0,6,2,0,16,36,6,14
Dumka,1,1,4,0,1,0,0,3,0,0,4,0,3,0,0,0,2,0,5
Faridkot,13,0,0,0,0,0,0,3,0,0,0,0,0,0,0,1,16,0,23
Sangli,65,0,20,0,16,6,0,10,0,0,17,0,0,7,0,23,26,8,1
Chikkamagaluru,8,1,1,0,0,0,0,0,0,0,0,0,0,0,0,0,4,0,3
Narsinghpur,3,7,7,3,0,0,0,0,0,0,0,0,0,0,0,1,0,0,0
Krishna,156,22,62,28,36,16,1,51,1,17,41,2,8,10,0,38,66,12,103
Akola,11,3,7,2,10,0,0,8,0,1,4,0,1,3,0,7,20,6,6
Erode,100,5,70,30,15,12,0,70,2,5,35,24,9,0,0,32,94,5,28
Rajsamand,0,5,0,0,1,0,0,0,0,0,1,0,0,0,0,0,1,1,0
West Singhbhum,0,6,2,0,0,0,0,2,0,0,0,0,0,0,0,0,2,0,1
Sonepat,5,0,0,2,2,5,0,3,0,2,6,0,0,1,0,2,1,5,0
Barpeta,8,0,3,0,0,0,0,0,0,0,4,0,1,0,0,0,1,1,0
Anand,49,0,15,1,3,2,0,7,0,0,4,1,1,0,0,4,24,2,20
Bargarh,4,0,10,0,0,2,0,0,0,0,1,0,2,0,0,1,3,9,1
Etah,0,1,1,1,0,0,0,5,0,0,4,0,0,0,0,10,0,0,1
Rae Bareli,4,0,2,0,0,0,0,2,0,0,0,0,0,0,0,0,0,0,0
Madhepura,0,0,3,0,0,0,0,0,0,0,0,0,0,0,0,1,0,0,0
Nabarangpur,3,0,0,0,0,0,0,0,0,0,1,0,0,0,0,0,0,0,0
Gonda,0,0,0,0,0,0,0,20,0,0,2,0,0,0,0,1,25,0,0
Imphal West,1,0,1,0,0,0,0,0,0,0,0,0,0,0,0,0,0,0,1
Puri,6,3,3,0,0,1,0,10,0,1,4,0,7,0,0,10,2,3,10
Chennai,177,71,311,52,62,60,87,793,27,192,440,55,175,21,0,354,454,350,102
Ramanathapuram,59,2,19,8,11,1,1,13,1,3,16,1,5,0,0,17,36,9,21
Nagapattinam,37,5,9,0,13,9,1,8,0,1,6,10,0,0,0,14,20,6,4
Kannur,17,9,18,1,12,1,1,11,0,1,7,0,2,0,0,5,22,3,10
Osmanabad,15,0,5,0,20,0,0,8,1,0,6,0,0,0,0,0,6,0,0
Vadodara,59,16,52,32,33,12,17,146,6,21,74,8,21,7,0,73,91,42,77
Moradabad,10,0,2,4,2,0,0,14,0,0,7,0,0,0,0,2,6,0,10
Buldhana,7,0,4,0,30,0,0,11,0,0,30,0,1,0,0,5,14,0,0
Mon,7,0,0,0,0,0,0,0,0,0,0,0,0,0,0,0,0,0,0
Champawat,0,0,0,0,0,0,0,0,0,2,0,0,0,0,0,0,0,0,0
Chamarajanagar,22,2,10,0,1,0,0,4,1,0,0,0,1,0,0,4,9,3,7
Deoria,4,0,0,0,0,0,0,0,0,0,0,0,0,0,0,8,15,0,4
Chandel,1,0,2,0,0,0,0,0,0,0,0,0,0,0,0,0,0,0,0
Kheda,18,0,14,0,4,1,0,3,0,0,2,0,0,0,0,11,13,3,10
Gautam Buddh Nagar,0,5,0,0,0,0,0,1,0,0,0,0,0,0,0,0,0,0,0
Dang,0,0,8,0,0,0,2,0,0,0,2,0,0,1,0,3,0,0,8
Araria,3,0,1,0,0,0,0,0,0,1,0,0,1,0,0,1,3,0,2
Kurukshetra,2,1,0,5,2,0,1,0,0,0,0,0,0,2,0,5,1,1,10
South Goa,7,9,3,2,5,5,0,10,2,0,3,1,0,0,0,0,10,2,0
Bidar,40,2,15,0,9,0,0,9,0,0,5,0,0,0,0,16,17,1,14
Budgam,2,0,3,0,0,0,0,0,0,1,1,0,0,0,0,0,2,0,0
Sant Kabir Nagar,0,2,0,2,0,0,0,0,0,0,0,0,0,0,0,0,32,0,0
Leh,0,0,0,3,0,0,0,10,0,4,0,0,9,0,0,0,5,0,3
Thiruvarur,1,0,0,0,0,0,0,0,0,0,0,0,0,0,0,0,0,0,1
Siwan,6,0,8,0,1,1,0,3,0,0,0,0,0,0,0,0,4,0,0
Yamuna Nagar,0,0,0,0,0,0,0,0,0,0,0,0,0,7,0,0,0,1,3
Mathura,24,0,10,11,3,0,0,45,0,7,4,0,12,0,0,22,12,4,29
Chandrapur,34,25,21,4,16,2,0,2,0,0,12,0,4,0,0,5,19,3,1
Hanumangarh,3,0,1,0,0,0,0,1,0,0,2,0,0,9,0,0,0,1,0
Jashpur,0,1,0,0,0,0,0,0,0,0,2,0,0,0,0,0,0,0,0
Cachar,16,0,0,0,0,1,0,1,0,1,0,0,0,0,0,2,6,0,1
Gopalganj,2,0,13,0,0,0,0,3,0,0,3,0,0,2,0,0,15,0,12
Mainpuri,0,0,0,0,0,0,0,4,0,0,0,0,0,0,0,0,6,0,0
Kanshiram Nagar,0,0,0,0,0,0,0,0,0,0,0,0,0,0,0,0,7,0,0
Sitamarhi,0,0,4,2,7,0,0,0,0,0,0,0,0,0,0,0,4,0,0
Panipat,8,0,10,0,6,0,0,15,0,0,13,0,0,0,0,0,3,1,0
East Siang,0,0,0,0,0,0,0,0,0,1,1,0,0,0,0,0,1,0,0
Palakkad,69,7,12,14,7,8,1,19,0,0,6,1,3,1,0,8,29,6,3
Haridwar,3,0,2,0,7,0,5,6,0,1,5,3,9,0,0,0,9,1,90
Tamenglong,2,0,0,0,0,1,0,0,0,0,0,0,0,0,0,0,0,0,0
Auraiya,5,0,4,0,0,0,0,0,0,0,0,0,0,0,0,0,3,0,1
Imphal East,0,0,0,0,0,0,0,0,0,0,0,0,0,0,0,0,0,0,2
Pune,340,71,254,122,142,59,86,584,23,219,366,51,112,28,0,480,617,294,177
Banswara,0,5,0,0,3,0,0,0,0,0,0,1,0,0,0,0,10,0,2
Shivpuri,0,0,0,3,0,0,0,0,0,0,1,0,0,0,0,0,0,0,0
West Garo Hills,1,0,0,0,0,0,0,2,0,0,0,0,0,0,0,0,0,0,0
East Kameng,0,0,0,1,0,0,0,0,0,0,0,0,0,0,0,0,0,0,0
West Medinipur,0,0,0,0,0,0,0,0,0,0,0,0,0,0,0,0,0,0,1
Sheikhpura,10,0,0,0,4,0,0,0,0,0,2,0,0,0,0,0,0,0,0
Baksa,3,0,3,0,0,0,0,1,0,1,0,0,0,0,0,0,0,0,3
Mehsana,7,1,1,3,2,0,0,3,0,1,4,0,0,0,0,1,10,2,17
Koppal,25,3,1,1,7,1,0,7,0,0,1,0,0,0,0,9,8,3,4
Barabanki,0,1,1,0,5,0,1,2,0,1,8,0,0,0,0,4,9,0,3
Jaisalmer,4,1,0,6,9,0,0,2,0,0,1,3,5,10,0,0,12,3,5
Dhemaji,3,0,0,2,0,0,0,0,0,0,0,0,0,0,0,0,1,0,0
Sundargarh,5,7,5,4,2,0,0,0,0,1,4,0,0,0,0,1,4,1,1
Mandla,0,1,0,4,5,5,0,2,0,0,0,0,0,0,0,0,3,0,0
Almora,0,0,1,0,0,2,0,0,0,1,0,0,0,0,0,0,0,1,0
Sahibganj,0,0,8,0,3,0,0,0,0,0,0,0,0,0,0,0,0,0,0
Sultanpur,6,0,2,0,0,0,0,1,0,2,4,0,0,0,0,0,1,0,0
Hailakandi,7,0,1,0,0,0,0,0,0,0,0,0,0,0,0,2,0,0,2
Kurung Kumey,0,0,0,0,0,0,0,0,0,0,0,0,0,0,0,0,0,1,0
Hassan,56,6,16,8,7,1,0,11,0,4,7,0,3,2,0,17,11,4,19
Ambedkar Nagar,0,0,0,0,0,0,0,3,0,0,6,0,0,0,0,0,0,0,0
Kurnool,29,9,17,12,9,8,1,15,0,8,22,1,0,0,0,6,35,12,20
Supaul,1,0,2,1,1,0,0,0,0,0,0,0,0,0,0,0,2,0,0
Ri-Bhoi,0,0,0,0,0,0,0,1,0,0,0,0,0,0,0,0,0,0,1
Kupwara,0,0,0,0,0,0,3,0,0,0,0,0,0,0,0,0,2,0,0
Amroha,3,0,2,0,0,0,0,0,0,0,0,0,0,0,0,0,0,0,0
Hamirpur,6,0,3,0,4,0,0,0,0,2,1,0,0,0,0,0,4,1,2
Ratlam,0,1,0,2,1,0,0,0,0,3,1,0,0,0,0,13,2,3,0
Purba Medinipur,0,1,0,1,0,1,0,0,0,0,0,0,0,0,0,0,0,0,0
Kota,12,13,5,1,9,2,7,27,0,7,11,7,0,0,0,28,48,0,5
Mahabubnagar,11,3,2,3,17,6,0,31,0,1,4,1,2,0,0,4,13,2,12
Saharanpur,18,0,9,0,0,2,0,6,0,0,3,7,0,0,0,1,7,0,3
Karaikal,0,0,0,0,4,0,0,6,0,2,1,0,0,0,0,0,2,0,0
Hazaribagh,6,1,7,1,2,0,1,0,0,1,4,0,0,0,0,1,1,6,0
Nalanda,34,3,9,1,16,1,6,7,0,0,0,1,0,2,0,7,18,2,9
Kasaragod,24,0,13,1,4,2,0,5,0,0,2,0,0,0,0,3,10,5,1
Gwalior,1,3,10,13,20,5,0,12,0,8,7,2,4,0,0,25,23,11,4
Darrang,11,0,10,0,0,0,0,0,0,0,1,0,0,0,0,0,0,0,2
Nawada,6,2,2,4,3,0,0,3,0,0,3,0,0,0,0,4,5,0,32
Panna,0,10,0,0,0,0,0,0,0,0,0,0,0,0,0,0,0,0,0
Karimnagar,44,20,37,6,19,3,3,3,0,5,7,0,3,1,0,21,41,1,21
Gondia,27,5,4,1,8,0,0,8,0,0,6,0,0,0,0,3,16,0,3
Allahabad,33,11,41,16,38,3,2,88,5,19,54,8,29,4,0,90,76,32,131
Rajkot,109,19,107,27,52,11,13,115,4,28,70,3,15,8,0,69,130,73,58
Tawang,1,0,1,0,0,0,0,0,0,0,0,0,0,0,0,0,0,0,4
Kokrajhar,8,0,8,0,1,1,0,0,0,0,1,0,0,0,0,4,4,3,10
Nellore,20,6,18,4,7,1,4,43,2,2,7,2,6,2,0,20,15,14,10
Baramulla,0,0,0,0,0,0,0,0,0,1,0,0,0,0,0,0,4,0,4
Dhule,79,0,52,2,14,0,0,28,0,1,12,0,0,0,0,11,93,4,3
Ghaziabad,15,3,18,17,11,4,13,86,0,12,17,6,7,6,0,13,34,12,0
Aligarh,14,0,0,0,3,0,2,17,0,4,4,0,0,0,0,45,4,5,17
Balasore,5,0,2,0,0,1,0,1,0,0,4,1,0,0,0,7,17,1,3
Sheohar,0,0,0,0,0,0,0,0,0,0,0,0,0,0,0,1,0,0,0
Agra,118,2,102,69,29,24,28,306,18,31,57,12,114,13,0,78,137,52,78
Tinsukia,21,4,4,2,0,0,0,0,0,0,2,0,1,0,0,1,0,0,0
Darjeeling,10,0,2,0,0,0,0,1,2,1,0,0,6,0,0,0,0,2,6
Dungarpur,3,0,0,0,0,0,0,0,0,0,0,0,0,0,0,0,0,0,3
Kannauj,7,0,1,0,2,0,0,1,0,0,0,0,0,0,0,1,0,0,8
Lakhimpur Kheri,7,0,1,0,0,0,0,0,0,0,0,0,0,0,0,0,0,0,0
Begusarai,3,0,0,1,8,1,0,0,0,0,0,0,0,0,0,4,3,0,4
Narayanpur,0,0,0,0,0,0,0,0,0,0,0,0,0,0,0,0,0,0,2
Ferozepur,18,1,2,0,1,0,0,6,0,1,3,0,0,0,0,1,4,7,18
Amritsar,117,9,91,10,13,5,31,236,16,23,51,5,38,6,0,27,80,67,603
Latehar,5,4,0,0,2,0,0,2,0,1,1,0,0,0,0,3,4,0,2
West Kameng,1,0,0,0,0,0,0,0,0,0,0,0,0,0,0,0,0,0,1
Tiruppur,30,0,9,11,0,0,0,5,0,0,9,6,0,0,0,2,15,4,0
Dhalai,1,0,0,0,0,0,0,0,0,0,0,0,0,0,0,0,4,0,0
Bongaigaon,1,0,1,0,0,0,0,1,0,0,0,0,0,0,0,0,0,0,0
Lucknow,136,47,347,92,103,18,65,628,17,133,256,40,106,25,0,297,436,253,240
Shahdara,0,0,0,0,0,0,0,0,0,0,0,0,0,0,0,0,0,5,3
Ukhrul,0,0,0,0,0,0,0,0,0,0,0,0,0,0,0,0,1,0,0
Dindigul,103,11,45,9,31,6,6,28,3,3,26,8,13,2,0,18,79,25,20
Kishanganj,4,0,1,0,0,0,0,1,0,0,0,0,0,0,0,2,6,1,0
Jharsuguda,2,7,2,0,0,0,0,0,0,0,0,3,0,0,0,0,0,0,1
Nalgonda,29,5,13,6,9,10,0,21,0,2,4,0,3,2,0,15,21,3,15
Mahe,0,0,1,0,0,0,0,0,0,0,0,0,0,0,0,0,0,0,1
Srinagar,22,11,42,4,14,20,3,134,4,26,26,2,27,1,0,11,47,46,74
Idukki,75,4,11,5,2,1,0,11,0,3,2,0,2,3,0,2,16,2,1
Alirajpur,1,2,1,0,0,0,0,3,0,0,0,0,0,0,0,0,0,0,0
Udaipur,12,15,14,4,1,0,0,34,4,2,4,4,11,0,0,52,58,6,22
Solan,1,2,1,1,2,0,0,5,0,2,0,0,0,0,0,4,5,1,21
Dehradun,11,4,18,6,6,1,4,33,4,21,14,0,4,0,0,34,38,7,6
Bokaro,34,17,16,13,3,2,2,8,0,7,19,3,1,0,0,9,23,0,6
Jhunjhunu,5,3,0,0,2,0,0,4,0,1,0,4,0,0,0,5,18,1,6
Kolar,42,3,6,6,7,1,0,5,0,1,4,2,2,0,0,25,18,7,6
Badaun,2,0,1,0,1,0,0,0,0,0,0,0,1,0,0,0,1,5,1
Darbhanga,23,0,13,0,8,1,0,5,0,9,1,0,5,0,0,2,29,0,8
Rajgarh,8,0,0,0,0,0,0,0,0,1,0,0,0,0,0,3,3,0,0
Khunti,5,0,0,0,0,0,0,0,0,0,1,0,0,0,0,0,2,0,4
Bhavnagar,15,5,18,18,8,19,0,11,0,7,8,8,0,0,0,13,36,10,16
Koraput,11,5,2,4,7,2,0,2,0,3,7,0,0,0,0,1,10,4,5
Shajapur,4,0,0,0,0,0,0,5,0,0,4,0,0,0,0,0,0,0,1
Sambalpur,1,4,13,2,1,3,0,0,0,0,0,1,1,0,0,1,5,0,0
Maharajganj,2,0,0,0,3,0,0,0,0,0,0,0,0,0,0,0,3,0,0
Rewa,7,0,0,1,6,6,0,0,0,2,0,0,0,0,0,11,4,0,0
Kullu,7,0,2,5,0,1,0,0,1,1,0,0,4,0,0,1,5,1,8
Raichur,24,9,2,4,16,4,0,7,0,0,11,0,1,0,0,18,24,6,9
Palamu,0,0,1,0,0,0,0,0,0,1,0,0,0,0,0,0,0,0,4
Rajnandgaon,1,0,1,1,1,0,0,0,0,0,0,0,0,0,0,0,1,0,0
Pakur,7,2,1,1,11,0,0,1,0,0,0,0,0,0,0,0,0,0,0
Pudukkottai,16,0,5,0,0,6,3,1,0,0,0,6,0,0,0,1,2,6,2
Hisar,6,0,0,0,3,2,0,0,0,0,2,0,0,0,0,9,2,0,8
Howrah,12,2,6,10,1,1,1,19,0,1,2,0,5,0,0,9,24,3,32
East Khasi Hills,0,3,0,1,1,1,0,2,0,1,0,0,1,0,0,0,1,0,2
Murshidabad,1,0,6,0,0,0,0,0,0,0,2,0,1,0,0,4,3,1,0
Bhind,0,0,0,0,4,0,0,1,0,0,0,0,0,0,0,2,4,0,0
Shopian,0,0,0,0,0,0,0,0,0,1,0,0,0,0,0,0,0,0,1
Gadchiroli,35,6,8,0,3,0,0,3,0,0,14,1,0,0,0,9,44,0,3
Ujjain,15,0,7,0,4,0,0,16,0,6,3,0,0,0,0,43,18,10,39
Amravati,70,0,23,1,29,2,0,21,0,0,0,4,0,1,0,106,35,3,5
Jalpaiguri,19,0,2,3,2,0,0,0,0,0,1,0,0,3,0,2,3,0,5
Durg,1,0,0,0,2,0,0,0,0,0,1,0,0,0,0,0,12,0,0
Uttara Kannada,24,9,7,9,2,2,0,4,0,0,5,0,8,0,0,5,12,6,9
Kottayam,25,3,14,0,4,3,2,4,1,1,10,2,2,0,0,10,13,3,3
Chhatarpur,0,1,0,0,1,0,0,0,0,0,4,0,0,0,0,0,1,0,1
Bhojpur,32,5,10,2,1,0,0,2,0,0,2,1,0,0,0,1,20,0,6
Sagar,14,1,2,0,0,0,0,2,0,1,8,0,1,0,0,28,5,0,2
North Goa,0,1,1,0,0,0,0,3,1,0,3,0,1,0,0,0,7,1,0
Kangra,10,1,2,2,4,1,0,1,2,0,3,3,0,0,0,6,9,3,6
Bhopal,106,42,141,49,80,9,21,179,6,60,171,20,22,0,0,130,263,167,134
Varanasi,58,12,135,18,61,3,3,205,1,26,44,14,48,8,0,73,86,36,200
Senapati,2,0,0,0,0,0,0,0,0,0,0,0,0,0,0,0,0,0,0
Kolkata,175,70,346,65,30,22,64,527,14,231,311,33,132,56,0,225,364,294,136
Narmada,1,0,0,1,8,9,0,1,0,0,0,0,0,0,0,0,2,0,0
Nayagarh,0,0,0,0,0,0,0,1,0,1,0,0,0,0,0,5,1,0,2
Gumla,8,0,0,0,3,0,0,1,0,0,1,0,0,0,0,1,1,0,2
Singrauli,1,2,3,1,0,1,0,1,0,0,0,0,0,0,0,0,0,1,0
Bikaner,0,1,1,2,1,0,0,7,0,1,44,4,5,0,0,10,31,7,7
Kargil,0,0,1,1,0,0,0,0,0,0,0,0,0,0,0,0,0,0,1
Nagpur,257,108,215,84,167,30,27,456,10,87,228,33,72,17,0,331,517,152,143
Ramban,0,0,0,0,0,0,0,1,0,0,0,0,0,0,0,0,0,0,0
Chittaurgarh,0,0,0,0,0,0,0,0,0,0,0,0,0,0,0,0,1,0,0
Kinnaur,8,0,3,2,0,0,0,1,0,0,1,4,1,0,0,0,0,0,1
Nagaur,8,4,2,0,1,0,0,1,0,0,1,1,0,0,0,0,22,0,0
Munger,29,0,33,1,25,4,0,2,0,6,3,1,0,0,0,0,27,0,11
Pulwama,5,0,0,0,0,0,0,0,0,0,0,0,0,0,0,0,0,0,0
Washim,3,0,1,0,20,0,0,1,0,0,2,0,0,0,0,0,13,0,0
Fatehgarh Sahib,9,0,0,0,0,0,0,1,0,0,2,0,0,0,0,0,6,0,8
Chhindwara,0,0,4,0,2,0,0,7,0,2,2,0,0,0,0,0,1,0,6
Bellary,34,114,10,1,10,4,0,10,0,0,10,6,2,0,0,8,23,5,9
Ludhiana,89,8,95,11,33,6,31,125,5,15,71,4,9,7,0,40,91,116,179
North Sikkim,0,0,0,0,0,0,0,0,0,1,0,0,0,0,0,0,0,0,0
Tirunelveli,96,26,26,63,17,4,3,58,4,1,30,4,7,2,0,104,133,8,31
Shimla,7,0,7,3,0,1,0,20,0,9,8,2,3,2,0,6,12,12,7
Dhanbad,39,49,57,22,20,5,7,66,3,10,43,4,6,1,0,90,53,15,85
Dantewada,0,0,0,0,0,0,0,1,0,0,2,0,0,0,0,0,3,0,0
Tumkur,38,17,18,6,6,2,1,6,0,2,8,1,1,0,0,24,11,7,10
Thoubal,3,0,4,0,0,0,0,0,0,1,0,0,0,0,0,0,1,2,0
Simdega,2,0,0,0,0,0,0,0,0,0,0,0,0,0,0,0,1,0,0
Lalitpur,2,3,8,0,0,0,0,0,0,0,2,3,0,0,0,0,0,0,4
Vishakhapatnam,7,9,11,9,13,0,0,15,0,5,0,0,2,0,0,3,4,5,0
Birbhum,0,1,1,1,0,0,0,0,0,0,0,0,0,0,0,4,4,0,5
Shimoga,33,0,20,6,7,0,0,4,0,2,3,6,4,0,0,12,14,6,8
Madhubani,9,0,3,2,0,0,0,4,0,0,2,1,0,0,0,3,9,0,2
Koderma,0,1,0,1,0,0,0,0,0,1,0,0,0,0,0,1,0,0,0
Mandi,6,0,0,7,0,2,0,1,0,0,1,2,1,0,0,35,5,2,8
Thanjavur,102,12,44,7,26,8,3,43,0,3,17,3,22,0,0,42,87,29,25
Faizabad,2,0,1,0,0,0,0,2,0,1,2,0,0,0,0,9,7,0,24
Bulandshahar,0,0,0,0,1,0,0,0,0,0,0,0,0,0,0,0,0,0,0
Chitrakoot,6,4,1,0,6,1,0,3,0,0,4,0,0,0,0,0,14,0,1
Kollam,64,5,7,5,5,2,0,15,0,2,10,1,1,0,0,1,20,2,5
Dhubri,5,0,9,0,0,0,0,3,0,1,3,0,0,0,0,1,3,1,5
Indore,96,25,115,33,51,25,30,288,9,45,119,12,39,17,0,158,191,88,98
Surat,110,81,241,43,64,29,40,273,8,31,144,22,48,6,0,64,197,59,86
Shahjahanpur,5,1,2,1,0,0,0,0,0,0,0,0,0,0,0,0,0,0,6
Dhenkanal,1,9,4,1,1,3,0,0,0,1,1,0,0,0,0,1,2,3,9
Dimapur,4,0,1,0,0,0,0,0,0,0,0,0,0,0,0,0,0,5,3
Khagaria,0,0,5,0,2,0,0,3,0,1,0,0,0,0,0,1,5,0,1
Palwal,5,3,1,4,9,0,0,3,0,0,1,4,0,1,0,5,3,0,0
Kawardha,0,0,0,0,1,0,0,0,0,0,0,0,0,0,0,0,1,0,0
Bijnor,0,3,1,0,1,0,0,0,0,0,0,0,0,0,0,1,0,0,4
Guna,0,0,1,0,0,0,0,0,0,0,0,0,0,0,0,4,0,0,0
Sonbhadra,8,7,8,5,6,0,0,10,0,0,6,4,0,0,0,0,13,0,1
Bishnupur,3,0,0,0,0,0,0,0,0,0,0,0,0,0,0,0,0,2,0
Muzaffarnagar,13,1,4,0,4,0,0,11,0,0,7,0,0,0,0,0,2,4,11
Churachandpur,0,0,0,0,1,0,0,0,0,0,0,0,0,0,0,0,3,0,0
Udupi,46,12,21,11,8,2,1,10,1,4,12,2,5,0,0,25,41,25,45
Muzaffarpur,36,0,9,0,9,5,1,4,0,3,8,1,3,0,0,7,14,0,10
Mansa,12,1,3,0,0,0,0,0,0,0,0,0,0,0,0,0,9,11,2
Mokokchung,1,0,0,0,0,0,0,0,0,0,0,0,0,0,0,0,1,0,0
Tapi,10,2,3,4,1,2,1,5,0,0,1,0,0,0,0,0,4,0,1
Jalgaon,15,0,38,0,11,0,0,6,0,0,3,0,0,0,0,21,55,5,0
Nagaon,5,1,0,0,0,0,0,2,0,0,3,0,0,0,0,0,2,2,5
West Godavari,90,5,41,7,20,6,1,5,1,1,19,2,2,7,0,11,13,10,12
Mandya,63,3,34,3,15,2,1,7,0,2,11,4,2,0,0,8,12,2,24
Lakhisarai,4,2,0,3,0,0,0,0,0,0,1,0,0,0,0,3,1,0,0
Malkangiri,2,0,1,2,1,1,0,0,0,0,4,0,0,0,0,1,5,0,3
Nicobar,0,0,4,3,0,0,0,0,0,0,0,0,0,0,0,0,0,0,0
Chitradurga,24,30,15,7,5,0,0,6,0,0,9,0,0,1,0,3,9,4,5
Sindhudurg,11,0,0,0,14,0,0,3,0,0,2,0,0,1,0,3,15,0,4
Haveri,26,3,9,0,8,0,0,4,0,1,7,1,0,1,0,3,1,0,2
Nilgiris,18,3,14,7,0,0,0,1,0,0,11,0,4,0,0,0,64,0,5
Prakasam,129,14,91,4,9,3,0,21,0,8,24,0,1,15,0,12,34,8,47
Chandauli,20,0,34,1,15,0,0,5,0,0,6,0,4,0,0,1,36,2,3
Nandurbar,11,3,16,1,5,0,0,0,0,0,5,0,0,0,0,7,23,0,2
Karbi Anglong,7,0,0,0,0,1,0,0,0,0,0,0,0,0,0,1,0,1,0
Nainital,1,5,5,0,0,5,0,5,0,0,0,0,0,0,0,0,0,0,1
Sivaganga,59,2,28,16,8,7,4,13,2,3,26,0,4,1,0,20,29,24,24
Ganjam,63,8,52,6,12,11,0,15,0,1,14,1,3,1,0,6,49,5,22
Unnao,8,1,10,4,4,0,0,9,0,1,2,0,0,0,0,9,13,2,4
East Garo Hills,2,0,0,0,0,1,0,0,0,0,0,0,0,0,0,0,0,0,0
Goalpara,3,0,2,0,0,0,0,2,0,0,0,0,0,0,0,5,1,0,3
Alappuzha,17,2,3,5,8,0,0,4,0,1,12,1,1,0,0,0,19,0,5
Ahmedabad,73,40,137,42,60,11,25,268,12,48,106,14,56,4,0,110,183,77,54
Ramgarh,6,6,6,3,2,0,0,1,0,0,0,0,0,0,0,0,5,0,1
Hathras,4,0,0,3,0,0,0,0,0,0,3,4,0,0,0,27,0,0,0
Dibrugarh,22,0,20,2,1,0,0,7,0,0,1,0,1,0,0,0,15,1,4
South Garo Hills,0,6,2,2,0,0,0,0,0,0,0,0,0,0,0,0,0,0,0
Solapur,73,1,22,0,26,0,0,18,0,0,4,0,4,0,0,26,56,6,8
Tiruvannamalai,35,1,16,2,4,6,6,5,0,0,9,0,0,1,0,10,23,2,10
Bharatpur,6,7,9,1,0,1,0,2,0,0,5,0,0,6,0,11,5,0,9
Gorakhpur,1,0,1,11,5,0,1,24,0,0,8,0,3,0,0,13,16,7,11
Upper Subansiri,0,0,0,0,0,0,0,0,0,0,1,0,0,0,0,0,0,0,0
Kendrapara,3,0,4,0,0,0,0,1,0,0,5,0,0,0,0,1,0,1,0
Warangal,14,4,23,12,5,0,2,6,1,2,7,4,1,2,0,19,36,5,15
Panchkula,3,3,6,2,2,3,0,5,2,1,4,2,3,0,0,35,9,8,4
Farrukhabad,4,0,0,0,0,0,0,2,0,0,1,0,0,0,0,0,0,0,8
Kanyakumari,115,18,27,26,8,2,0,44,3,2,18,0,12,0,0,29,40,4,41
West Tripura,1,0,0,0,0,0,0,0,0,0,0,0,0,0,0,0,1,0,0
Valsad,28,0,2,1,0,2,0,4,0,0,0,0,2,0,0,9,4,2,7
Latur,1,0,15,1,17,4,6,36,0,0,6,0,0,0,0,95,10,0,1
Mandsaur,1,0,0,0,0,0,0,0,0,0,0,0,0,0,0,0,0,0,1
Sant Ravidas Nagar,0,0,0,0,0,0,0,5,0,0,0,0,0,0,0,0,0,0,0
Barmer,0,1,2,1,5,0,0,0,0,1,2,0,1,7,0,0,9,1,1
Jehanabad,1,2,0,0,10,0,0,2,0,0,0,0,0,0,0,3,2,0,2
Gadag,12,3,10,1,7,2,0,1,0,1,3,0,0,0,0,2,4,5,4
Gurgaon,43,27,77,36,42,25,14,259,6,53,116,40,55,4,0,86,49,83,39
Jagatsinghpur,17,5,10,1,2,0,0,2,0,0,3,0,0,0,0,6,8,0,2
Kapurthala,13,4,1,1,1,0,0,2,0,0,2,0,0,0,0,0,0,6,19
Medak,73,3,29,9,26,3,0,32,1,3,14,0,3,0,0,23,38,5,31
Cooch Behar,0,0,1,0,0,0,0,1,0,0,2,0,0,0,0,0,0,0,1
Srikakulam,30,23,17,41,14,2,3,14,0,4,16,1,2,0,0,11,12,1,21
Porbandar,2,2,4,0,0,0,1,6,0,0,1,0,1,0,0,1,2,0,2
Moga,13,0,4,0,0,0,0,0,0,0,0,0,0,0,0,0,9,0,18
Bareilly,3,0,0,7,2,2,0,37,0,8,13,0,0,0,0,19,24,0,18
Jalaun,5,1,10,2,0,0,0,1,0,0,0,0,0,0,0,0,0,0,1
Bhilwara,1,9,9,0,0,0,0,2,0,1,0,0,0,0,0,11,9,1,2
Balrampur,0,0,0,0,0,0,0,0,0,0,0,0,0,0,0,0,6,0,1
Bangalore Rural,0,0,0,0,0,0,0,0,0,0,0,0,0,0,0,0,2,0,0
Hardoi,7,0,3,0,0,0,0,4,0,0,7,0,1,0,0,0,19,0,1
Yanam,0,0,0,0,0,0,0,0,0,0,0,0,0,0,0,0,0,14,0
Tiruchirappalli,0,0,0,0,0,0,0,8,0,0,0,1,0,0,0,7,0,2,0
Changlang,0,1,1,1,0,0,0,0,0,0,0,0,0,0,0,1,0,0,0
Pilibhit,8,0,0,0,0,0,0,0,0,0,0,0,0,0,0,0,1,0,0
Jorhat,38,2,7,2,0,0,0,1,1,4,2,0,0,0,0,9,9,1,1
Ratnagiri,21,0,8,15,1,1,0,8,0,0,0,0,0,1,0,3,10,8,6
Sirmaur,0,0,0,0,0,0,0,0,0,0,0,0,0,0,0,0,1,0,4
Theni,115,13,21,11,6,3,10,17,0,2,30,0,11,1,0,33,75,20,15
Junagadh,18,1,19,0,10,0,0,6,4,4,6,4,5,0,0,14,17,12,9
Rampur,1,0,0,0,1,1,0,0,0,0,0,0,1,0,0,0,2,0,1
Mau,6,0,16,2,0,0,0,1,0,0,10,0,1,0,0,23,34,0,0
Mahendragarh,0,0,0,0,3,0,0,0,0,0,0,0,0,0,0,0,0,0,0
Katihar,4,0,7,1,2,0,0,0,0,0,0,0,3,0,0,0,4,0,4
Bankura,6,0,1,0,1,0,0,1,0,0,1,0,0,0,0,7,0,0,3
Deogarh,2,0,0,0,0,0,0,3,0,0,0,0,0,0,0,1,0,0,1
Boudh,0,0,0,4,1,0,0,0,0,0,0,0,0,0,0,1,1,0,0
Jalna,38,0,12,0,21,0,0,4,2,0,24,0,0,0,0,2,8,0,6
Aizawl,2,0,0,0,0,0,0,0,0,0,0,0,0,0,0,0,5,2,0
Barwani,1,0,0,0,0,0,0,3,0,0,1,0,0,0,0,0,3,0,2
Bhadrak,5,1,2,2,1,0,0,2,0,0,2,0,0,0,0,0,2,2,1
Jamui,1,1,3,0,0,0,0,0,0,0,2,0,0,0,0,1,3,0,2
Azamgarh,8,0,43,12,4,0,0,18,0,3,0,0,4,1,0,30,29,0,14
Tonk,10,4,2,2,2,2,0,0,0,0,0,0,0,0,0,6,23,1,2
Jodhpur,13,12,19,12,9,1,1,32,0,4,5,3,9,7,0,26,44,13,7
Sirohi,0,1,1,0,0,0,0,3,0,0,0,0,1,1,0,0,1,0,0
Morigaon,5,0,1,0,0,0,0,0,0,2,0,0,0,0,0,0,3,1,0
Cuttack,5,0,7,3,5,3,0,6,0,1,3,0,10,13,0,13,45,5,13
Korba,0,1,1,2,0,0,0,0,0,0,0,0,0,0,0,0,0,4,2
Shahdol,0,1,1,0,0,0,0,0,0,0,0,0,0,0,0,6,1,0,0
Faridabad,28,35,65,28,47,9,3,183,1,7,72,8,12,4,0,45,92,29,29
Dakshin Dinajpur,1,0,0,0,0,0,0,0,0,0,0,0,0,0,0,0,0,0,0
Karauli,0,3,0,0,0,1,0,0,0,1,0,0,0,0,0,0,8,0,2
Bhandara,58,14,9,1,16,3,0,1,0,1,20,0,5,0,0,0,23,3,5
Jaipur,196,108,673,75,72,31,65,942,44,103,255,46,247,19,0,220,439,445,401
Wardha,42,4,12,2,15,4,0,14,0,0,53,0,2,0,0,6,40,10,6
Jhansi,0,1,15,4,5,0,0,30,0,4,11,3,2,0,0,22,11,4,12
Kohima,0,0,0,3,0,0,0,1,0,0,0,0,0,0,0,0,2,0,0
Vellore,166,13,57,5,27,11,2,34,0,4,37,25,13,8,0,79,177,13,18
Sonitpur,6,0,1,0,0,1,0,1,0,0,0,0,0,0,0,0,1,1,1
Pali,8,3,2,0,0,0,0,0,0,0,0,0,1,0,0,2,33,0,4
Sangrur,23,2,2,0,2,0,3,7,4,0,4,0,0,0,0,0,7,2,11
Morena,0,5,3,0,0,0,0,0,0,0,0,0,0,0,0,0,1,0,2
Giridih,0,2,9,2,0,0,0,0,0,1,1,0,0,0,0,2,2,0,4
Lohardaga,1,1,0,0,1,0,0,0,0,0,2,0,0,0,0,1,3,0,2
Dakshina Kannada,39,10,35,6,8,1,1,9,0,3,16,0,1,2,0,31,50,16,55
Diu,0,0,1,0,0,0,0,2,0,0,0,0,0,0,0,1,0,4,0
Churu,0,0,0,0,1,0,0,0,0,2,0,0,2,0,0,2,3,4,1
Aurangabad,46,5,33,3,17,2,2,46,0,4,12,1,1,3,0,80,97,9,39
Damoh,9,0,1,0,9,7,0,0,0,2,1,0,0,0,0,0,9,0,1
Alwar,6,16,10,1,1,0,0,25,0,1,6,1,1,1,0,14,14,0,8
Surendranagar,11,0,9,0,10,0,0,0,0,0,7,0,0,0,0,0,7,0,5
Surguja,0,1,1,1,0,0,0,0,0,0,0,0,0,0,0,0,0,0,1
Bandipora,0,0,0,0,0,0,0,0,0,0,0,0,0,0,0,0,0,2,0
Jalandhar,24,4,18,2,1,3,8,21,8,2,7,0,4,2,0,2,11,30,51
Nizamabad,18,2,3,0,8,0,0,2,0,4,7,0,3,0,0,1,12,2,2
Kanchipuram,2,0,10,0,0,0,0,0,0,0,2,0,2,0,0,2,6,0,8
Banka,1,0,7,0,11,0,0,2,0,0,0,0,4,0,0,0,5,0,1
Amreli,13,4,7,2,3,0,0,4,0,0,8,0,6,1,0,6,30,7,4
Kaimur,3,0,4,0,0,0,0,1,0,1,0,0,0,0,0,1,0,0,13
Navsari,23,3,2,0,0,1,0,5,0,0,0,0,3,0,0,2,2,0,6
Baran,2,0,1,0,0,0,0,0,0,0,0,0,0,0,0,2,5,0,3
Datia,0,1,0,0,2,0,0,0,0,0,0,0,0,0,0,0,0,0,0
Gulbarga,42,4,18,4,19,11,1,5,0,2,6,2,1,0,0,29,20,4,10
Chamoli,0,0,0,0,0,3,0,2,0,0,1,0,0,0,0,0,0,0,0
Kalahandi,4,42,4,2,0,0,0,0,0,0,1,0,2,0,0,4,2,0,8
Bangalore Urban,3,3,4,0,4,0,0,1,0,0,2,0,1,0,0,3,8,0,2
Daman,14,0,8,0,0,0,0,8,0,0,6,0,0,0,0,0,2,4,0
Kadapa,13,18,10,13,6,8,0,10,0,0,7,1,3,0,0,7,13,6,27
Fatehpur,1,0,1,3,4,0,0,21,0,0,2,0,0,0,0,2,19,0,1
Jabalpur,13,23,7,5,5,4,3,31,2,6,21,0,10,1,0,44,102,11,32
Adilabad,55,12,21,7,16,2,0,13,0,1,12,1,2,1,0,12,19,3,24
Nalbari,3,0,2,0,0,1,0,0,0,0,0,0,0,0,0,2,4,3,0
Kandhamal,18,1,8,0,1,1,0,1,0,0,6,0,2,0,0,4,11,5,43
Ramanagara,1,1,4,0,2,0,0,0,0,0,1,0,0,0,0,0,5,0,2
Lohit,0,0,0,0,0,0,0,0,0,0,0,0,0,0,0,0,0,0,2
Samastipur,23,0,7,0,2,0,2,0,0,1,1,0,2,0,0,0,6,0,0
Bijapur,22,3,8,14,6,1,0,6,0,1,7,0,1,0,0,8,8,4,6
Ballia,3,2,1,4,0,0,0,4,0,0,0,0,0,0,0,4,2,0,0
Hoshangabad,20,0,10,0,0,0,0,0,0,5,0,3,0,0,0,14,8,0,0
Fatehabad,0,0,0,4,0,0,0,0,0,0,0,0,1,0,0,0,3,2,1
Ganderbal,0,0,0,0,0,0,0,0,0,0,0,0,0,0,0,0,0,0,2
Raigad,17,17,10,7,14,5,0,13,0,4,4,1,3,0,0,6,29,6,13
Lakhimpur,1,0,1,1,0,0,0,1,0,0,0,0,0,0,0,2,3,0,0
Bathinda,21,2,11,0,2,0,0,8,0,0,0,3,0,0,0,0,16,18,15
Patan,4,0,2,7,1,1,0,0,0,0,1,0,0,0,0,10,20,0,1
Garhwa,2,0,0,0,1,0,0,1,0,4,0,0,0,0,0,3,2,0,0
Guntur,68,13,41,7,12,6,3,43,2,17,33,3,3,6,0,18,65,30,42
Bagalkot,17,2,11,5,10,4,0,0,0,2,2,0,0,0,0,1,11,5,5
Vidisha,17,6,6,0,0,0,0,4,0,2,0,0,0,0,0,0,1,0,1
Jaunpur,4,1,10,0,0,0,0,19,0,0,3,0,0,0,0,10,15,1,8
Bilaspur,0,4,2,0,7,0,0,11,0,7,2,0,0,0,0,0,16,4,0
Mirzapur,11,4,33,0,23,3,0,18,0,0,6,2,0,0,0,3,41,0,2
Hingoli,2,0,0,0,6,1,0,1,0,0,1,0,0,0,0,0,17,0,0
Mysuru,39,8,22,1,16,1,3,4,0,1,17,0,2,0,0,12,26,5,11
Chamba,6,0,0,0,0,5,0,2,0,0,0,5,1,0,0,0,0,2,0
Barnala,5,1,1,0,1,0,1,2,0,0,0,0,0,0,0,0,2,2,0
Burhanpur,1,0,0,0,1,0,0,2,0,0,0,0,0,0,0,0,0,0,0
Nashik,212,13,79,8,50,10,12,140,0,11,128,7,11,12,0,84,144,53,81
Jhabua,4,1,0,0,0,0,0,6,0,0,0,0,0,0,0,0,0,0,0
Gaya,10,3,8,2,4,4,0,27,0,2,3,2,4,1,0,12,12,0,61
Jind,3,0,6,0,1,0,0,2,0,0,3,0,0,0,0,1,1,0,3
Deoghar,4,0,11,0,1,0,0,0,0,1,2,0,1,0,0,4,4,1,1
Balaghat,0,3,0,0,0,0,0,2,0,1,0,0,0,0,0,0,0,0,4
Dindori,0,0,0,0,4,2,0,3,0,0,1,0,0,0,0,0,0,0,0
Gandhinagar,12,0,12,8,10,6,0,12,0,8,12,6,14,0,0,34,23,11,5
Mewat,9,11,3,0,7,0,2,6,0,0,2,0,0,0,0,6,3,4,0
Firozabad,2,0,10,0,0,0,0,4,0,0,0,6,0,0,0,1,6,0,3
Salem,125,22,88,17,21,11,9,68,3,7,51,12,12,0,0,90,107,43,44
Nuapada,0,8,0,2,3,1,0,1,0,1,0,0,0,0,0,4,5,6,3
Gajapati,3,3,9,0,0,2,0,3,0,0,8,0,0,0,0,7,7,0,6
Kushinagar,2,0,0,0,1,0,0,0,0,0,0,0,7,0,0,0,3,1,7
Banaskantha,11,0,3,2,4,2,0,1,0,0,12,0,0,0,0,3,4,0,3
Khargone,2,0,0,1,0,0,0,1,0,0,4,0,0,0,0,6,2,0,1
Dharmapuri,47,14,11,22,13,0,0,7,0,4,17,0,0,0,0,18,53,3,5
Cuddalore,74,1,20,6,13,5,0,5,0,4,20,0,7,0,0,22,40,1,4
Saharsa,0,0,1,0,0,0,0,0,0,4,0,0,0,0,0,0,2,0,0
Dhar,4,5,5,0,9,8,0,5,0,0,2,0,0,0,0,2,7,1,11
Ariyalur,46,7,15,1,5,2,0,5,0,0,7,0,0,0,0,6,9,6,1
Nadia,4,0,6,0,3,0,0,0,0,0,2,0,0,0,0,0,6,2,14
Dhamtari,0,0,0,0,0,0,0,0,0,0,0,0,0,0,0,0,3,0,0
Jajpur,4,6,4,1,1,1,0,0,0,0,4,2,0,0,0,3,10,1,0
Rohtak,11,0,10,0,0,0,0,7,0,1,6,0,2,0,0,7,8,5,8
Tirap,0,0,0,0,0,0,0,2,0,0,0,0,0,0,0,0,0,0,0
Karnal,24,5,3,10,9,3,0,25,0,0,11,0,2,4,0,0,8,3,20
Jamtara,5,0,0,0,5,0,0,0,0,0,0,0,0,0,0,0,0,0,1
Panchmahal,5,0,2,0,5,0,0,3,0,0,0,0,0,0,0,4,6,0,4
Purnia,13,0,2,0,17,0,0,4,0,3,0,0,0,0,0,1,3,0,1
East Godavari,78,6,38,11,17,3,1,9,0,4,21,4,5,1,0,11,33,4,39
Ahmednagar,87,0,49,0,28,0,4,9,0,1,18,1,2,0,0,46,57,8,18
Chatra,4,2,4,3,0,0,0,0,0,0,0,0,0,0,0,0,1,0,0
Krishnagiri,39,17,5,10,7,1,0,7,0,2,20,3,2,0,0,18,25,0,3
Kanker,0,1,0,0,3,0,0,0,0,0,0,0,0,0,0,0,3,0,0
Raipur,20,2,12,0,3,1,29,69,7,1,14,2,36,11,0,44,35,6,5
Bahraich,6,0,1,0,4,0,0,1,0,0,4,0,0,0,0,0,26,0,2
Betul,2,5,2,0,6,0,0,4,0,0,5,0,0,0,0,7,15,0,4
Thiruvananthapuram,20,10,22,6,18,8,5,65,2,8,15,1,4,1,0,16,44,22,6
West Jaintia Hills,0,1,0,0,0,0,0,0,0,0,1,0,0,0,0,0,0,0,0
Delhi,1158,561,1968,716,634,330,323,5895,154,1013,2181,377,765,227,0,1364,2403,3001,1780
Sawai Madhopur,2,0,0,0,0,0,0,0,1,0,0,0,2,0,0,2,9,0,1
Davanagere,5,0,1,0,1,0,0,1,0,0,0,0,0,0,0,4,2,0,1
Madurai,626,227,425,101,205,70,75,685,12,106,289,41,135,13,0,584,999,200,371
Kaushambi,4,7,6,5,2,0,0,8,0,0,0,0,0,0,0,20,16,0,1
Raigarh,0,1,1,1,0,0,0,0,0,0,1,0,0,0,0,1,0,0,2
Mumbai,690,306,1293,324,246,200,244,2875,140,617,1937,232,520,168,0,712,1343,1646,884
Karur,62,14,32,5,23,1,4,47,0,2,14,1,2,1,0,17,31,3,5
Neemuch,1,0,0,1,0,0,0,0,0,0,0,1,0,0,0,0,0,0,1
Saran,10,5,10,1,12,1,0,2,0,0,1,0,0,0,0,14,5,0,1
Malda,3,0,1,0,1,1,0,3,0,0,2,0,2,0,0,1,1,0,4
Vizianagaram,10,5,1,2,6,0,1,9,1,1,12,0,1,1,0,7,23,12,11
Dharwad,39,17,12,1,13,2,0,15,0,5,5,1,1,4,0,19,14,5,13
Mahasamund,0,0,0,0,0,0,0,0,0,0,0,0,0,0,0,0,1,0,1
Kanpur Dehat,2,0,0,0,3,0,0,0,0,0,1,0,0,0,0,0,5,0,0
Sivasagar,17,0,4,0,0,0,0,0,0,0,3,0,1,0,0,0,1,0,4
Rayagada,3,10,1,0,4,2,0,0,0,0,2,0,0,0,0,6,10,0,2
Chandigarh,39,8,120,16,4,14,27,138,4,13,85,15,41,1,0,65,130,109,33