Mean Accuracy : 0.646666666667
STD Accuracy : 0.107703296143
3 : ['AGRICULTURE  FORESTRY AND FISHING', 'WATER SUPPLY SEWERAGE WASTE MANAGEMENT AND REMEDIATION ACTIVITIES', 'ACCOMODATION AND FOOD SERVICE ACTIVITIES', 'FINANCIAL AND INSURANCE ACTIVITIES', 'PROFESSIONAL  SCIENTIFIC AND TECHNICAL ACTIVITIES', 'ADMINISTRATIVE AND SUPPORT SERVICE ACTIVITIES', 'HUMAN HEALTH AND SOCIAL WORK ACTIVITIES']
6 : ['MINING AND QUARRYING']
1 : ['MANUFACTURING']
0 : ['ELECTRICITY GAS STEAM AND AIRCONDITION SUPPLY', 'CONSTRUCTION', 'TRANSPORT AND STORAGE']
5 : ['WHOLESALE AND RETAIL TRADE REPAIR OF MOTORVEHICLES AND MOTORCYCLES', 'REAL ESTATE ACTIVITIES']
7 : ['INFORMATION AND COMMUNICATION']
8 : ['EDUCATION']
2 : ['ARTS ENTERTAINMENT AND RECREATION']
4 : ['OTHER SERVICE ACTIVITIES']


Socio-Economic Variable : MSL
Counter({3: 42, 2: 26, 1: 22})

Accuracy : 0.733333333333
P-Values between cluster and variable
{3: (0.053928789992577129, 0.30753357565698375), 6: (0.16132008189892755, 0.0021382771641646914), 1: (0.22811395976896637, 1.2375382470095663e-05), 0: (0.4293150526668239, 1.4112343285287886e-17), 5: (0.35467332003541635, 4.1285064912604323e-12), 7: (0.32385098956708902, 3.1002167541696618e-10), 8: (-0.60655802479446275, 1.5096510513952821e-37), 2: (0.27869679014985799, 7.5988984195087955e-08), 4: (0.40970780797789191, 5.2667459825527219e-16)}
              precision    recall  f1-score   support

           1       0.88      1.00      0.94        22
           2       0.56      0.54      0.55        26
           3       0.75      0.71      0.73        42

   micro avg       0.73      0.73      0.73        90
   macro avg       0.73      0.75      0.74        90
weighted avg       0.73      0.73      0.73        90


Socio-Economic Variable : MSW
Counter({3: 40, 2: 27, 1: 23})

Accuracy : 0.655555555556
P-Values between cluster and variable
{3: (-0.33610350207108647, 5.8960480368232945e-11), 6: (-0.15399889456644078, 0.0033977574748777725), 1: (0.32097185801182287, 4.5305569892687616e-10), 0: (-0.24406959085195926, 2.7881025946599407e-06), 5: (-0.14686851445712795, 0.0052367358396067307), 7: (-0.067313221425160774, 0.20259877119742176), 8: (0.0038004652073210534, 0.94271472519169297), 2: (0.018899285109618282, 0.72081217433505185), 4: (-0.31460949389699022, 1.0329911643119484e-09)}
              precision    recall  f1-score   support

           1       0.50      0.65      0.57        23
           2       0.79      0.85      0.82        27
           3       0.68      0.53      0.59        40

   micro avg       0.66      0.66      0.66        90
   macro avg       0.66      0.68      0.66        90
weighted avg       0.67      0.66      0.65        90


Socio-Economic Variable : CHH
Counter({3: 41, 2: 26, 1: 23})

Accuracy : 0.7
P-Values between cluster and variable
{3: (-0.13594301665854866, 0.0098125570428187966), 6: (0.11106222377323391, 0.0351653115041584), 1: (0.40506729648627077, 1.1988196093718292e-15), 0: (0.35449853152945621, 4.2366276577608207e-12), 5: (0.32660299386613634, 2.1491867505417871e-10), 7: (0.30850905853553634, 2.2358706022622917e-09), 8: (-0.66112870779915123, 1.3529519973947488e-46), 2: (0.067392814112316721, 0.20206424666579567), 4: (0.2386984805684958, 4.6586330860731588e-06)}
              precision    recall  f1-score   support

           1       0.94      0.70      0.80        23
           2       0.49      0.85      0.62        26
           3       0.89      0.61      0.72        41

   micro avg       0.70      0.70      0.70        90
   macro avg       0.77      0.72      0.71        90
weighted avg       0.79      0.70      0.71        90


Socio-Economic Variable : FC
Counter({3: 39, 1: 27, 2: 24})

Accuracy : 0.811111111111
P-Values between cluster and variable
{3: (-0.061675204158262248, 0.24311083826151478), 6: (-0.075746562070995907, 0.15150009589078781), 1: (0.28539270175440096, 3.5649942090924196e-08), 0: (-0.21712904995598697, 3.2517105766079333e-05), 5: (-0.031893595864524171, 0.54638405180532779), 7: (0.22967563322888965, 1.0744882660080494e-05), 8: (-0.26149954569603234, 4.8493538034108071e-07), 2: (0.081364013981029076, 0.12332638082870039), 4: (-0.22727783506321006, 1.3342378315835597e-05)}
              precision    recall  f1-score   support

           1       0.79      0.81      0.80        27
           2       0.73      1.00      0.84        24
           3       0.93      0.69      0.79        39

   micro avg       0.81      0.81      0.81        90
   macro avg       0.81      0.84      0.81        90
weighted avg       0.83      0.81      0.81        90


Socio-Economic Variable : BF
Counter({3: 38, 2: 27, 1: 25})

Accuracy : 0.611111111111
P-Values between cluster and variable
{3: (0.062194284121223867, 0.23915981111305168), 6: (-0.19259321587956224, 0.00023695435865551736), 1: (0.147096214005422, 0.0051663365347078922), 0: (0.0014929304696862788, 0.97748041159219357), 5: (0.15196997987987709, 0.0038499110201919442), 7: (0.22409777207238016, 1.7716896705942353e-05), 8: (-0.34348598322457402, 2.0921845191506845e-11), 2: (0.057009776463806242, 0.28067681323437793), 4: (0.057962709461534326, 0.27270140008472737)}
              precision    recall  f1-score   support

           1       0.67      0.72      0.69        25
           2       0.54      0.52      0.53        27
           3       0.62      0.61      0.61        38

   micro avg       0.61      0.61      0.61        90
   macro avg       0.61      0.61      0.61        90
weighted avg       0.61      0.61      0.61        90


Socio-Economic Variable : EMP_AG_NONAG
Counter({3: 42, 2: 30, 1: 18})

Accuracy : 0.622222222222
P-Values between cluster and variable
{3: (-0.0098141658483110808, 0.85278388451766662), 6: (-0.007406319858374766, 0.8886297736517178), 1: (0.18141633219644432, 0.00054237318572699636), 0: (0.1592175479090035, 0.0024472848623561753), 5: (0.20354289240284038, 0.00010052779024463893), 7: (0.31656542862481091, 8.0343760733906086e-10), 8: (-0.42895319969043527, 1.511985655410939e-17), 2: (0.031092046569690633, 0.55651843799528655), 4: (0.12689066005042604, 0.015998360874970797)}
              precision    recall  f1-score   support

           1       0.40      0.44      0.42        18
           2       0.58      0.63      0.60        30
           3       0.78      0.69      0.73        42

   micro avg       0.62      0.62      0.62        90
   macro avg       0.59      0.59      0.59        90
weighted avg       0.64      0.62      0.63        90


Socio-Economic Variable : Asset
Counter({3: 40, 2: 30, 1: 20})

Accuracy : 0.777777777778
P-Values between cluster and variable
{3: (0.17139707202659565, 0.0010949746447480684), 6: (-0.13598529820002472, 0.0097895274598554863), 1: (0.3492175614471219, 9.1832385418898022e-12), 0: (-0.22086963415240057, 2.3528819963927942e-05), 5: (0.4048137883842382, 1.253453572570393e-15), 7: (0.4990228970792947, 4.5718210393861716e-24), 8: (-0.71122405713593939, 9.4160777588232779e-57), 2: (0.23580609022293358, 6.1119391829754117e-06), 4: (0.16741063503422843, 0.0014332328958699626)}
              precision    recall  f1-score   support

           1       0.70      0.80      0.74        20
           2       0.67      0.67      0.67        30
           3       0.92      0.85      0.88        40

   micro avg       0.78      0.78      0.78        90
   macro avg       0.76      0.77      0.76        90
weighted avg       0.79      0.78      0.78        90


Socio-Economic Variable : EMP_MAIN_MARG
Counter({2: 33, 3: 32, 1: 25})

Accuracy : 0.488888888889
P-Values between cluster and variable
{3: (0.090948079064360823, 0.084854175994648881), 6: (-0.019468833658416531, 0.71276484469866563), 1: (-0.39708002799705855, 4.7938588907161094e-15), 0: (0.39043958166893133, 1.4753790126033441e-14), 5: (-0.17271369062251304, 0.00100053638638745), 7: (-0.11831582213427567, 0.02477015845232719), 8: (0.38423175280909766, 4.1254025435074058e-14), 2: (0.011460502524631521, 0.82844321750593353), 4: (-0.041548105010894044, 0.43191571530135908)}
              precision    recall  f1-score   support

           1       0.16      0.16      0.16        25
           2       0.69      0.67      0.68        33
           3       0.55      0.56      0.55        32

   micro avg       0.49      0.49      0.49        90
   macro avg       0.46      0.46      0.46        90
weighted avg       0.49      0.49      0.49        90


Socio-Economic Variable : EMP_FEMALE
Counter({3: 34, 2: 30, 1: 26})

Accuracy : 0.466666666667
P-Values between cluster and variable
{3: (-0.017124859967658314, 0.7460780125826697), 6: (0.36972578072668327, 4.194800668741458e-13), 1: (-0.15013601135858007, 0.0043047329483555594), 0: (0.36249904560979818, 1.2764393033573506e-12), 5: (-0.087170325122073969, 0.098670540733862819), 7: (-0.23091976089162794, 9.594307662937927e-06), 8: (0.089522780936834065, 0.089871666083811821), 2: (-0.14335205146298174, 0.0064391135514082947), 4: (0.10310178374220537, 0.050627074208542032)}
              precision    recall  f1-score   support

           1       0.52      0.42      0.47        26
           2       0.33      0.30      0.32        30
           3       0.52      0.65      0.58        34

   micro avg       0.47      0.47      0.47        90
   macro avg       0.46      0.46      0.45        90
weighted avg       0.46      0.47      0.46        90


Socio-Economic Variable : LITERACY
Counter({3: 41, 2: 27, 1: 22})

Accuracy : 0.6
P-Values between cluster and variable
{3: (0.057632885393343596, 0.27544415158351404), 6: (-0.36145496805012584, 1.4956294898183401e-12), 1: (0.10519692850079465, 0.046090104181601699), 0: (0.09544007373417053, 0.070500571768098125), 5: (0.25596424228784392, 8.5697338169538113e-07), 7: (0.22132569125166043, 2.2610131657814515e-05), 8: (-0.22539350495298779, 1.5791420344149399e-05), 2: (-0.038930807054239819, 0.46150529572222776), 4: (0.094941455701672506, 0.071988835420862554)}
              precision    recall  f1-score   support

           1       0.48      0.64      0.55        22
           2       0.42      0.30      0.35        27
           3       0.76      0.78      0.77        41

   micro avg       0.60      0.60      0.60        90
   macro avg       0.56      0.57      0.56        90
weighted avg       0.59      0.60      0.59        90


