Mean Accuracy : 0.756666666667
STD Accuracy : 0.0928891547046
12 : ['AGRICULTURE  FORESTRY AND FISHING']
6 : ['MINING AND QUARRYING']
1 : ['MANUFACTURING']
11 : ['ELECTRICITY GAS STEAM AND AIRCONDITION SUPPLY', 'TRANSPORT AND STORAGE']
3 : ['WATER SUPPLY SEWERAGE WASTE MANAGEMENT AND REMEDIATION ACTIVITIES', 'PROFESSIONAL  SCIENTIFIC AND TECHNICAL ACTIVITIES', 'HUMAN HEALTH AND SOCIAL WORK ACTIVITIES']
0 : ['CONSTRUCTION']
5 : ['WHOLESALE AND RETAIL TRADE REPAIR OF MOTORVEHICLES AND MOTORCYCLES']
10 : ['ACCOMODATION AND FOOD SERVICE ACTIVITIES']
7 : ['INFORMATION AND COMMUNICATION']
13 : ['FINANCIAL AND INSURANCE ACTIVITIES']
9 : ['REAL ESTATE ACTIVITIES']
14 : ['ADMINISTRATIVE AND SUPPORT SERVICE ACTIVITIES']
8 : ['EDUCATION']
2 : ['ARTS ENTERTAINMENT AND RECREATION']
4 : ['OTHER SERVICE ACTIVITIES']


Socio-Economic Variable : MSL
Counter({3: 42, 2: 26, 1: 22})

Accuracy : 0.866666666667
P-Values between cluster and variable
{12: (0.31095178741555562, 1.6446871730089638e-09), 6: (0.16132008189892755, 0.0021382771641646914), 1: (0.22811395976896637, 1.2375382470095663e-05), 11: (0.37305588146818924, 2.4883135115706355e-13), 3: (0.0076126390973007925, 0.88554830141070984), 0: (0.36722317719813635, 6.1865328090178561e-13), 5: (0.36628891104377431, 7.1460346784676601e-13), 10: (0.21718377119713891, 3.236486111159104e-05), 7: (0.32385098956708902, 3.1002167541696618e-10), 13: (-0.21987033534520251, 2.5666985051331104e-05), 9: (-0.05910539377483634, 0.26334328253158984), 14: (-0.14605504721719839, 0.0054953441012104672), 8: (-0.60655802479446275, 1.5096510513952821e-37), 2: (0.27869679014985799, 7.5988984195087955e-08), 4: (0.40970780797789191, 5.2667459825527219e-16)}
              precision    recall  f1-score   support

           1       0.96      1.00      0.98        22
           2       0.73      0.92      0.81        26
           3       0.94      0.76      0.84        42

   micro avg       0.87      0.87      0.87        90
   macro avg       0.87      0.89      0.88        90
weighted avg       0.88      0.87      0.87        90


Socio-Economic Variable : MSW
Counter({3: 40, 2: 27, 1: 23})

Accuracy : 0.8
P-Values between cluster and variable
{12: (0.086880010996160398, 0.099802324544627036), 6: (-0.15399889456644078, 0.0033977574748777725), 1: (0.32097185801182287, 4.5305569892687616e-10), 11: (-0.17569107851681701, 0.00081400207804024449), 3: (-0.41516236515441007, 1.9701905775691274e-16), 0: (-0.25142360272933401, 1.3539275634857565e-06), 5: (-0.14286184145954808, 0.0066250528158461591), 10: (-0.2135061930037942, 4.4248862243304385e-05), 7: (-0.067313221425160774, 0.20259877119742176), 13: (-0.19566882975143254, 0.00018710647268070662), 9: (-0.046432490028530518, 0.3797242377725436), 14: (0.0064269596420567761, 0.903279056217002), 8: (0.0038004652073210534, 0.94271472519169297), 2: (0.018899285109618282, 0.72081217433505185), 4: (-0.31460949389699022, 1.0329911643119484e-09)}
              precision    recall  f1-score   support

           1       0.81      0.91      0.86        23
           2       0.73      0.89      0.80        27
           3       0.87      0.68      0.76        40

   micro avg       0.80      0.80      0.80        90
   macro avg       0.80      0.83      0.81        90
weighted avg       0.81      0.80      0.80        90


Socio-Economic Variable : CHH
Counter({3: 41, 2: 26, 1: 23})

Accuracy : 0.744444444444
P-Values between cluster and variable
{12: (0.15464809354172757, 0.0032635929055186341), 6: (0.11106222377323391, 0.0351653115041584), 1: (0.40506729648627077, 1.1988196093718292e-15), 11: (0.31486182844308652, 1.0001391070661657e-09), 3: (-0.11183033437491367, 0.033912571602478292), 0: (0.1897863760996506, 0.00029302826324611271), 5: (0.33174763894586579, 1.0727564727540508e-10), 10: (0.17305847830008089, 0.00097707765327966346), 7: (0.30850905853553634, 2.2358706022622917e-09), 13: (-0.3666667061592247, 6.7416843047671694e-13), 9: (-0.0084992732100172483, 0.87232619380801668), 14: (-0.17377420278795147, 0.0009299917686803761), 8: (-0.66112870779915123, 1.3529519973947488e-46), 2: (0.067392814112316721, 0.20206424666579567), 4: (0.2386984805684958, 4.6586330860731588e-06)}
              precision    recall  f1-score   support

           1       0.89      0.70      0.78        23
           2       0.55      0.85      0.67        26
           3       0.91      0.71      0.79        41

   micro avg       0.74      0.74      0.74        90
   macro avg       0.78      0.75      0.75        90
weighted avg       0.80      0.74      0.75        90


Socio-Economic Variable : FC
Counter({3: 39, 1: 27, 2: 24})

Accuracy : 0.844444444444
P-Values between cluster and variable
{12: (-0.19146422287127385, 0.00025818128014196503), 6: (-0.075746562070995907, 0.15150009589078781), 1: (0.28539270175440096, 3.5649942090924196e-08), 11: (-0.19840573206749593, 0.00015117712766256651), 3: (0.008598220391804124, 0.87085275546090157), 0: (-0.12527600256603222, 0.017404271273005024), 5: (-0.036887472506545164, 0.48536858231112789), 10: (-0.0039759161153215868, 0.94007496168466265), 7: (0.22967563322888965, 1.0744882660080494e-05), 13: (-0.019910500688364516, 0.70654618525072355), 9: (0.078977167799252637, 0.13475480213286761), 14: (0.1535904253409151, 0.0034847153528187844), 8: (-0.26149954569603234, 4.8493538034108071e-07), 2: (0.081364013981029076, 0.12332638082870039), 4: (-0.22727783506321006, 1.3342378315835597e-05)}
              precision    recall  f1-score   support

           1       0.83      0.74      0.78        27
           2       0.80      1.00      0.89        24
           3       0.89      0.82      0.85        39

   micro avg       0.84      0.84      0.84        90
   macro avg       0.84      0.85      0.84        90
weighted avg       0.85      0.84      0.84        90


Socio-Economic Variable : BF
Counter({3: 38, 2: 27, 1: 25})

Accuracy : 0.777777777778
P-Values between cluster and variable
{12: (-0.010422648386881747, 0.84377005957751716), 6: (-0.19259321587956224, 0.00023695435865551736), 1: (0.147096214005422, 0.0051663365347078922), 11: (-0.08808375917332327, 0.095175981426198666), 3: (0.073729671766056951, 0.16272726280395886), 0: (0.12466747837117743, 0.017961462819745682), 5: (0.14775775991042722, 0.0049666079248762663), 10: (0.10158487267765436, 0.054139528408975186), 7: (0.22409777207238016, 1.7716896705942353e-05), 13: (-0.0010445826491181471, 0.9842422941781962), 9: (0.071454232032656148, 0.17613122442429172), 14: (0.14181899916654847, 0.0070366845008787279), 8: (-0.34348598322457402, 2.0921845191506845e-11), 2: (0.057009776463806242, 0.28067681323437793), 4: (0.057962709461534326, 0.27270140008472737)}
              precision    recall  f1-score   support

           1       0.70      0.92      0.79        25
           2       0.77      0.85      0.81        27
           3       0.89      0.63      0.74        38

   micro avg       0.78      0.78      0.78        90
   macro avg       0.78      0.80      0.78        90
weighted avg       0.80      0.78      0.77        90


Socio-Economic Variable : EMP_AG_NONAG
Counter({3: 42, 2: 30, 1: 18})

Accuracy : 0.655555555556
P-Values between cluster and variable
{12: (-0.10833265240061127, 0.039940014474137149), 6: (-0.007406319858374766, 0.8886297736517178), 1: (0.18141633219644432, 0.00054237318572699636), 11: (0.08179063990225463, 0.12136547098366121), 3: (-0.043232923730116377, 0.41346185381874845), 0: (0.16480661769284863, 0.0017034167815477691), 5: (0.20286671564247905, 0.0001061361690666768), 10: (0.12595817904606071, 0.016797638886693136), 7: (0.31656542862481091, 8.0343760733906086e-10), 13: (0.011827922153523627, 0.82303246604092606), 9: (0.03943581697408912, 0.45570969699533925), 14: (0.10498541160152669, 0.046532094535436136), 8: (-0.42895319969043527, 1.511985655410939e-17), 2: (0.031092046569690633, 0.55651843799528655), 4: (0.12689066005042604, 0.015998360874970797)}
              precision    recall  f1-score   support

           1       0.33      0.33      0.33        18
           2       0.60      0.70      0.65        30
           3       0.86      0.76      0.81        42

   micro avg       0.66      0.66      0.66        90
   macro avg       0.60      0.60      0.60        90
weighted avg       0.67      0.66      0.66        90


Socio-Economic Variable : Asset
Counter({3: 40, 2: 30, 1: 20})

Accuracy : 0.844444444444
P-Values between cluster and variable
{12: (-0.034367768192903519, 0.51568782924189205), 6: (-0.13598529820002472, 0.0097895274598554863), 1: (0.3492175614471219, 9.1832385418898022e-12), 11: (-0.3125629707210989, 1.3410642362121119e-09), 3: (0.010008316837658435, 0.8499056679057897), 0: (0.10834776919201523, 0.03991213386328011), 5: (0.40933233997761631, 5.6318593606644886e-16), 10: (0.32958946999200606, 1.4380759959383305e-10), 7: (0.4990228970792947, 4.5718210393861716e-24), 13: (0.13764949042063845, 0.0089203472551206628), 9: (-0.026341073752784407, 0.61838887186879554), 14: (0.033914155061886046, 0.52124820504498004), 8: (-0.71122405713593939, 9.4160777588232779e-57), 2: (0.23580609022293358, 6.1119391829754117e-06), 4: (0.16741063503422843, 0.0014332328958699626)}
              precision    recall  f1-score   support

           1       0.74      1.00      0.85        20
           2       0.79      0.73      0.76        30
           3       0.97      0.85      0.91        40

   micro avg       0.84      0.84      0.84        90
   macro avg       0.83      0.86      0.84        90
weighted avg       0.86      0.84      0.84        90


Socio-Economic Variable : EMP_MAIN_MARG
Counter({2: 33, 3: 32, 1: 25})

Accuracy : 0.788888888889
P-Values between cluster and variable
{12: (-0.11252931960318836, 0.032805791214056371), 6: (-0.019468833658416531, 0.71276484469866563), 1: (-0.39708002799705855, 4.7938588907161094e-15), 11: (0.4703332664211306, 3.2512404026422471e-21), 3: (0.3629102244778814, 1.199021858984553e-12), 0: (-0.084826284457354378, 0.10810585280088299), 5: (-0.21843805228090832, 2.9054636821377498e-05), 10: (0.16284059375173751, 0.0019374797925403222), 7: (-0.11831582213427567, 0.02477015845232719), 13: (-0.23804172144738098, 4.9563853460148558e-06), 9: (0.45113141776858406, 1.8885919283303804e-19), 14: (-0.021745179877830895, 0.68092623855886081), 8: (0.38423175280909766, 4.1254025435074058e-14), 2: (0.011460502524631521, 0.82844321750593353), 4: (-0.041548105010894044, 0.43191571530135908)}
              precision    recall  f1-score   support

           1       0.59      0.80      0.68        25
           2       0.86      0.58      0.69        33
           3       0.94      1.00      0.97        32

   micro avg       0.79      0.79      0.79        90
   macro avg       0.80      0.79      0.78        90
weighted avg       0.81      0.79      0.79        90


Socio-Economic Variable : EMP_FEMALE
Counter({3: 34, 2: 30, 1: 26})

Accuracy : 0.555555555556
P-Values between cluster and variable
{12: (0.24315908600634592, 3.0441645975097917e-06), 6: (0.36972578072668327, 4.194800668741458e-13), 1: (-0.15013601135858007, 0.0043047329483555594), 11: (0.39534575287790236, 6.4454508163034117e-15), 3: (-0.087165640786085394, 0.098688721182054268), 0: (0.088137936853904711, 0.094971853491186087), 5: (-0.077162922538376921, 0.14397398402201869), 10: (0.085875913016015909, 0.10379645953655943), 7: (-0.23091976089162794, 9.594307662937927e-06), 13: (-0.14105240795432983, 0.0073537051377033915), 9: (-0.19755867771186905, 0.00016153981419445463), 14: (-0.16196740369678914, 0.0020505768589559755), 8: (0.089522780936834065, 0.089871666083811821), 2: (-0.14335205146298174, 0.0064391135514082947), 4: (0.10310178374220537, 0.050627074208542032)}
              precision    recall  f1-score   support

           1       0.62      0.62      0.62        26
           2       0.48      0.43      0.46        30
           3       0.57      0.62      0.59        34

   micro avg       0.56      0.56      0.56        90
   macro avg       0.55      0.56      0.55        90
weighted avg       0.55      0.56      0.55        90


Socio-Economic Variable : LITERACY
Counter({3: 41, 2: 27, 1: 22})

Accuracy : 0.688888888889
P-Values between cluster and variable
{12: (0.036996520360939665, 0.48407847709154406), 6: (-0.36145496805012584, 1.4956294898183401e-12), 1: (0.10519692850079465, 0.046090104181601699), 11: (0.092373421717506454, 0.080064653808857009), 3: (0.053621728156169612, 0.31030009081845938), 0: (0.04144731675529123, 0.43303451051371955), 5: (0.25436207750153811, 1.00805826052054e-06), 10: (0.057087027341365129, 0.28002446025879318), 7: (0.22132569125166043, 2.2610131657814515e-05), 13: (-0.014455015462173489, 0.78460333531610826), 9: (0.062094473693860681, 0.23991600384297412), 14: (0.031344678938704178, 0.55331445303368154), 8: (-0.22539350495298779, 1.5791420344149399e-05), 2: (-0.038930807054239819, 0.46150529572222776), 4: (0.094941455701672506, 0.071988835420862554)}
              precision    recall  f1-score   support

           1       0.55      0.73      0.63        22
           2       0.60      0.44      0.51        27
           3       0.83      0.83      0.83        41

   micro avg       0.69      0.69      0.69        90
   macro avg       0.66      0.67      0.66        90
weighted avg       0.69      0.69      0.68        90


