S.No.,Name of the Establishment,Address,Major Activity Description,Broad Activity Code,NIC,Ownershi p Code,"Employm ent
Class
Interval"
2776,GOVT SR SEC SCHOOL,B 49 STATION ROAD SANDAWA 223 NOKHA JAIPUR ROAD 331517,EDUCATION,20,852,1,15-19
2777,SAMUDAIK SWASTHYA KENDRA,SANDAWA 7   1  331517,HUMAN HEALTH,21,861,1,25-29
2778,VEER TEJA SHIKSHAN SANSTHAN,GIRVARASAR 90 331517,EDUCATION,20,852,2,20-24
2779,GOVT SEC SCHOOL,DUNKAR SUJANGARH 331503,EDUCATION,20,852,1,10-14
2780,GOVT SR SEC SCHOOL,CHARWAS SUJANGARH 331503,EDUCATION,20,852,1,10-14
2781,DHAPU DEVI GOVT HAIR SECONDARY SCHOOL,BIDASAR BIDASAR 331501,EDUCATION,20,852,1,10-14
2782,GOVT  BANTHIYA SECONDARY SCHOOL,BIDASAR BIDASAR 331501,EDUCATION,20,852,1,10-14
2783,GOVT HOSPITAL,CHHAPAR CHHAPAR 2 331502,HUMAN HEALTH,21,861,1,10-14
2784,GOVT SRI SECONDRY SCHOOL,JODI JODI 161 JODI 331304,EDUCATION,20,852,1,10-14
2785,GOVT SENIOR SECONDRY SCHOOL,PITHISAR PITHISAR PITHISAR 331001,EDUCATION,20,852,1,10-14
2786,GOVT SEONDARY SCHOOL,DHADHRIYA CHARANAN DHADHRIYA CHARANAN 119 DHADHRIYA CHARANAN 331001,EDUCATION,20,852,1,10-14
2787,PHC SIRSALA,SIRSALA SIRSALA 110 SIRSALA 331029,HUMAN HEALTH,21,861,1,10-14
2788,GOVT SEC  SCHOOL,LALASAR BANIROTAN LALASAR BANIROTAN 51 LALASAR BANIROTAN 331001,EDUCATION,20,852,1,10-14
2789,PHC LALASAR,POST OFFICE BHAMASI POST OFFICE BHAMASI POST OFFICE BHAMASI 331001,HUMAN HEALTH,21,861,1,10-14
2790,GOVT SECONDARY SCHOOL,SAHAJUSAR SAHAJUSAR SAHAJUSAR 331001,EDUCATION,20,852,1,10-14
2791,GOVT SEC SCHOOL,DHODHALIA DHODHALIA 88 DHODHALIA 331001,EDUCATION,20,852,1,10-14
2792,GOVT SECONDARY SCHOOL,RAIPURIYA RAIPURIYA 107 RAIPURIYA 331031,EDUCATION,20,852,1,15-19
2793,GOVT SR SEC SCHOOL,SATARA SATARA 133 SATARA 331001,EDUCATION,20,852,1,20-24
2794,GOVT SECONDARY SCHOOL,MOLISAR BARA MOLISAR BARA 30 MOLISAR BARA 331031,EDUCATION,20,852,1,10-14
2795,GOVT SECONDARY SCHOOL,CHHAJUSAR CHHAJUSAR CHHAJUSAR 331031,EDUCATION,20,852,1,10-14
2796,JHANKAR HOTEL,CHURU CHURU 42 NH 66 331001,ACCOMODATION   FOOD SERVICES,14,562,2,10-14
2797,SAHEED BHINWARAS RANWA GOVT SECONDARY SCHOOL,MEGHSAR MEGHSAR 91 MEGHSAR 331021,EDUCATION,20,852,1,10-14
2798,GOVT SR SEC SCHOOL,LAKHAU LAKHAU 1  1   LAKHAU 331001,EDUCATION,20,852,1,15-19
2799,GOVT SEC SCHOOL,LOHASANA BARA LOHASANA BARA 4 LOHASANA BARA 331029,EDUCATION,20,852,1,10-14
2800,RADIO AND DO RDARSHA CENTER,CHURU CHURU 2 CHURU 331001,INFORMATION,15,612,1,25-29
2801,GOVT  SECONDARY SCHOOL PARAKH,CHURU CHURU 64 CHURU 331001,EDUCATION,20,852,1,15-19
2802,DISTRICT NURSING TRAINING CENTER,CHURU CHURU CHURU 331001,EDUCATION,20,854,1,20-24
2803,STATE BANK OF BIKANER   JAIPUR,CHURU CHURU CHURU 331001,FINANCIAL SERVICES,16,641,1,20-24
2804,LITTLE FLOWER SCHOOL,CHURU CHURU CHURU 331001,EDUCATION,20,851,2,15-19
2805,CENTRAL SCHOOL,CHURU CHURU 1 PANKHA ROAD 331001,EDUCATION,20,852,1,10-14
2806,HEAD POST OFFICE,CHURU CHURU 1 STATION ROAD 331001,TRANSPORATION,13,531,1,10-14
2807,GOVT  D B  G  HOSPITAL,CHURU CHURU 100 STATION ROAD 331001,HUMAN HEALTH,21,861,1,10-14
2808,SHEELA MATERNITY HOME AND RECEARCH CENTER,CHURU CHURU 22 NEAR DHARM STOOP 331001,HUMAN HEALTH,21,861,2,15-19
2809,GRAMIN BARODA BANK RAJASTHAN,CHURU CHURU 24 11  CHURU 331001,FINANCIAL SERVICES,16,641,1,15-19
2810,ASSISTANT ENGINEER PUBLIC HEALTH BLOCK OFFICE,CHURU CHURU WARD NO  1 RIICO 331001,WATER SUPPLY,8,360,1,10-14
2811,GOVT  L N  GIRLS BAGLA SR  SECONDARY SCHOOL,CHURU CHURU WARD NO  43 SUBHASH CHWOOK 331001,EDUCATION,20,852,1,30-99
2812,STATE BANK OF INDIA,CHURU CHURU 43 SARARA CHOUCK 331001,FINANCIAL SERVICES,16,641,1,15-19
2813,ORIANTAL BANK OF COMMERCE,CHURU CHURU 43 SARARA CHOUCK 331001,FINANCIAL SERVICES,16,641,1,10-14
2814,BIRLA LIFE INSURANCE,CHURU CHURU 64  VII  CHURU 331001,FINANCIAL SERVICES,16,651,4,10-14
2815,RELINACE LIFE INSURANCE,CHURU CHURU 65  V  CHURU 331001,FINANCIAL SERVICES,16,651,4,15-19
2816,BANK OF BORDA,CHURU CHURU 107  i  CHURU 331001,FINANCIAL SERVICES,16,641,1,10-14
2817,MADHUAR SISU ADMICY,CHURU CHURU 121 CHURU 331001,EDUCATION,20,851,2,25-29
2818,SBBJ,CHURU CHURU 123 CHURU 331001,FINANCIAL SERVICES,16,641,1,15-19
2819,AIRTAL OFFICE,CHURU CHURU 64  VII  CHURU 331001,OFFICE,19,821,2,10-14
2820,SHILA HOSPITAL,CHURU CHURU 51 CHURU 331001,HUMAN HEALTH,21,861,2,10-14
2821,RASHIKUL ARSARM,CHURU CHURU 10 1  CHURU 331001,EDUCATION,20,852,2,15-19
2822,BHUNESAWAR SHARMA,RAJALDESAR RAJALDESAR 24 WARD NO 7 331802,EDUCATION,20,852,2,15-19
2823,GOVT SENIOR SECONDARY SCHOOL,RAJALDESAR RAJALDESAR 12 MAIN ROAD 331802,EDUCATION,20,852,1,20-24
2824,GOVT COMMUNITY HEALTH CENTER,RAJALDESAR RAJALDESAR RAJALDESAR 331802,HUMAN HEALTH,21,861,1,20-24
2825,PHED OFFICE,RAJALDESAR RAJALDESAR 74 RAJALDESAR 331802,WATER SUPPLY,8,360,1,20-24
2826,JVVNL OFFICE,RURAL RAJALDESAR 126 RAJALDESAR 331802,ELECTRICITY,7,351,1,10-14
2827,GOVT UPPER PRIMARY SCHOOL,THIMAOO BARI THIMAOO BARI MANDRELA ROAD 331303,EDUCATION,19,821,1,10-14
2828,PUMP HOUSE,SANKHU SANKHU SANKHU 331303,WATER SUPPLY WORK,8,360,1,10-14
2829,GOVT UPPER PRIMARY SCHOOL,SANKHU SANKHU SANKHU 331303,EDUCATION,19,821,1,10-14
2830,NIFA RSLDC SCHOOL,RAJGARH RAJGARH 4 RAJGARH 331023,EDUCATION,20,852,2,10-14
2831,DRPS SCHOOL,RAJGARH RAJGARH 98 RAJGARH 331023,EDUCATION,20,852,2,10-14
2832,RAJASTHAN COLLEGE,RAJGARH RAJGARH 40 RAJGARH 331023,EDUCATION,20,853,2,30-99
2833,GOVT SANCHIYALAL BAID INDUST  PRASHIKSHAN SANSTHAN,RATANGARH RATANGARH 204 331022,EDUCATION,20,854,1,15-19
2834,GOVT  SAITH MOHANLAL JALAN COLLEGE,RATANGARH RATANGARH 291 331022,EDUCATION,20,853,1,20-24
2835,SBN SCHOOL,RATANGARH RATANGARH 123 331022,EDUCATION,20,852,2,10-14
2836,SAINIK SR  SECONDARY SCHOOL,RATANGARH RATANGARH 139 NEAR ANJNI MATA TEMPLE 331022,EDUCATION,20,852,2,10-14
2837,KRISHANA GAIS AJENCI,RATANGARH RATANGARH 164 LINK ROAD 331022,RETAIL TRADE,7,352,2,10-14
2838,M D S  SR  SECONDARY SCHOOL,RATANGARH RATANGARH 165 LINK ROAD 331022,EDUCATION,20,852,2,10-14
2839,GOVT BHAGWANI DEVI HAIR SECONDARY SCHOOL,RATANGARH RATANGARH 67 RATANGARH 331022,EDUCATION,20,852,1,20-24
2840,SAITH BANSHIDHAR JALAN GOVT HAIR SECONDARY SCHOOL,RATANGARH RATANGARH 80 RATANGARH 331022,EDUCATION,20,852,1,30-99
2841,NAGARMAL BAJORIYA SCHOOL,RATANGARH RATANGARH 121 RATANGARH 331022,EDUCATION,20,852,1,10-14
2842,GANGARAM HOSPITAL,RATANGARH RATANGARH 139 DHANWANTRI GALI 331022,HUMAN HEALTH,21,861,2,20-24
2843,BAIJNATH BHARATIYA GOVT SECONDARY SCHOOL NO  7,RATANGARH RATANGARH 59 RATANGARH 331022,EDUCATION,20,852,1,15-19
2844,GOVT PHED OFFICE,RATANGARH RATANGARH 1 CHURU ROAD 331022,WATER SUPPLY,8,360,1,20-24
2845,GOVT GIRLS MAHAVIDHALAY,RATANGARH RATANGARH 146 CHURU ROAD 331022,EDUCATION,20,853,1,10-14
2846,INDARCHAND BHARGAV,RATANGARH RATANGARH 82 RATANGARH 331022,MANUFECTURING,6,120,2,10-14
2847,GOVT PRAKASH SECONDARY SCHOOL,RATANGARH RATANGARH 23 RATANGARH 331022,EDUCATION,20,852,1,15-19
2848,WOMEN AND CHILD DEVELOPMENT PROJECT RURAL,SUJANGARH SUJANGARH 3 2  CHHAPAR RAOD 331507,HUMAN HEALTH,21,869,1,10-14
2849,AEN C M RRVPNPL,SUJANGARH SUJANGARH 36 SUJANGARH 331507,ELECTRICITY,7,351,1,10-14
2850,AEN 132 KV GSS RRVPNL,SUJANGARH SUJANGARH 36 20  SUJANGARH 331507,ELECTRICITY,7,351,1,10-14
2851,INDIAN PUBLIC SEC  SCHOOL,SANDAWA SANDAWA 2 SUDHAR GALI 331517,EDUCATION,20,852,2,10-14
2852,JASVEER MEMORIAL EDUCATION,NOKHA JAIPUR ROAD SANDAWA NOKHA JAIPUR ROAD 331517,FINANCIAL SERVICES,20,852,2,30-99
2853,JASVEER MEMORIAL EDUCATION INSTITUTE,SANDWA SANDAWA NOKHA JAIPUR ROAD 331517,EDUCATION,20,853,2,20-24
2854,ABHILASHA SHIKASHAN SANSTHAN,SANDAWA SANDAWA NEAR WATER BOX 331517,EDUCATION,20,853,2,30-99
2855,SWAMI KESHWANAND SHIKHSHAN,SANDAWA SANDAWA 6 NEAR KISHAN HOSTAL 331517,EDUCATION,20,852,2,25-29
2856,SHAHID RAJENDRA SR SEC SCHOOL,LALGARH LALGARH 331518,EDUCATION,20,852,1,10-14
2857,GURUKUL VIDHYAPEETH SR SEC SCHOOL,BADHSAR BADHSAR 331518,EDUCATION,20,852,1,15-19
2858,VEER BIGAJI INDUSTRIJ,BADSAR BADHSAR 331518,MANUFACTURING,6,106,2,10-14
2859,TILAK SR SEC SCHOOL,KANDHALSAR KANDHALSAR 47 331517,EDUCATION,20,852,2,10-14
2860,VIVEKANAND VIDHYA AASHRAM,KATAR CHHOTI KATAR CHHOTI 2 331517,EDUCATION,20,852,2,25-29
2861,ELECTRICITY POWER HOUSE OFFICE,TEHANDESAR TEHANDESAR 21 SADU ROAD 331517,ELECTRICITY,7,351,1,20-24
2862,ADARSH VIDHYA MANDIR SR SEC SCHOOL,SHIVPURI SHIVPURI 331517,EDUCATION,20,852,2,15-19
2863,GOVT SEC SCHOOL,KATAR BARI KATAR BARI 138 331517,EDUCATION,20,852,1,10-14
2864,OFF ICE AEN ELECTRICITY DEPARTMENT,BIDASAR BIDASAR 331501,ELECTRICITY,7,351,1,15-19
2865,PRINCE PUBLIC SCHOOL,DUNKAR DUNKAR 331501,EDUCATION,20,852,2,10-14
2866,GUPTA MARBAL,DUNKAR SUJANGARH SUJANGARH 331503,MINING   QUARRYING,5,81,2,30-99
2867,BIDASAR GOSHALA,BIDASAR BIDASAR 125 331501,LIVESTOCK,2,14,7,10-14
2868,BIDASAR GOSHALA,BIDASAR BIDASAR 331501,LIVESTOCK,2,14,7,10-14
2869,S D S  GOVT  SR  SEC  SCHOOL,BIDASAR BIDASAR 331501,EDUCATION,20,852,1,15-19
2870,GOVT  CHC,BIDASAR BIDASAR 331501,HUMAN HEALTH,21,861,1,15-19
2871,ANUWARAT BAL BHARATI VIDHYA MANDIR HIGHER SECONDARY SCHOOL,CHHAPAR CHHAPAR 88 331502,EDUCATION,20,852,2,15-19
2872,SARSWATI BAL VIDHA TEMPLE SCHOOL,CHHAPAR CHHAPAR 331502,EDUCATION,20,852,2,10-14
2873,ADARSH VIDHA MANDIR SECONDARY SCHOOL,CHHAPAR CHHAPAR 12 331502,EDUCATION,20,852,9,20-24
2874,SARSWATI VIDHA TEMPLE,CHHAPAR CHHAPAR 15 331502,EDUCATION,20,852,1,10-14
2875,GOVT HAIR SECONDARY SCHOOL,CHHAPAR CHHAPAR WARD NO  4 331502,EDUCATION,20,852,1,15-19
2876,FOREST DEPARTMENT,CHHAPAR CHHAPAR WARD NO  4 331502,FORESTRY,3,21,2,15-19
2877,PHED OFFICE,CHHAPAR CHHAPAR 41  1  BIDASAR ROAD 331502,WATER SUPPLY,8,360,1,10-14
2878,GOVT JAN KALYAN GIRLS HAIR SECONDARY SCHOOL,CHHAPAR CHHAPAR 78 STADIAM MARG 331502,EDUCATION,20,852,1,10-14
2879,TOLARAM BHANSALI BAL TEMPLE SECONDARY SCHOOL,CHHAPAR CHHAPAR 80 POLIC THANA ROAD 331502,EDUCATION,20,852,7,10-14
2880,TAIGOR INDIAN SANSTHAN SECONDARY SCHOOL,CHHAPAR CHHAPAR 331502,EDUCATION,20,852,2,10-14
2881,MARUDHAR SHIKSHAN SANSTHAN SENIOR SECONDARY SCHOOL,CHHAPAR CHHAPAR 107 331502,EDUCATION,20,852,2,10-14
2882,GOVT SEC SCHOOL,KOTWAD TAL KOTWAD TAL 5 331304,EDUCATION,20,852,1,10-14
2883,GOVT SR SEC SCHOOL,KHANDWA CHURU KHANDWA CHURU 1 KHANDWA CHURU 331001,EDUCATION,20,852,1,15-19
2884,GOVT  SECONDRY SCHOOL,CHALKOI CHALKOI 77 CHALKOI 331304,EDUCATION,20,852,1,10-14
2885,NAV JYOTI PABLIC SR  SECONDRY,KHINWASAR KHINWASAR KHINWASAR 331001,EDUCATION,20,852,2,10-14
2886,GOVT SECONDRY SCHOOL,KHINWASAR KHINWASAR KHINWASAR 331001,EDUCATION,20,852,1,10-14
2887,MAHADEV SEINOR SECONDRY SCHOOL,KHINWASAR KHINWASAR KHINWASAR 331001,EDUCATION,20,852,2,10-14
2888,GOVERNMENT SECONDARY SCHOOL,RIRKHALA RIRKHALA 84 1  RIRKHALA 331001,EDUCATION,20,852,1,10-14
2889,GOLDEN SIKHSAN SANSTHAN,PITHISAR PITHISAR PITHISAR 331001,EDUCATION,20,852,1,10-14
2890,GOVT SENIOR SECONDARY SCHOOL,BALARASAR ATHUNA BALARASAR ATHUNA 331001,EDUCATION,20,852,1,10-14
2891,GOVT SECONDRY SCHOOL,DUDHWA MITTHA DUDHWA MITTHA 331001,EDUCATION,20,852,1,15-19
2892,GOVT GIRLS UPPER PRIMARY SCHOOL,GHANTEL CHURU GHANTEL CHURU 46 331001,EDUCATION,20,851,1,10-14
2893,SMT RUKMANI DEVI CHAUDHARY GOVT SR SEC SCHOOL,GHANTEL GHANTEL 8 331001,EDUCATION,20,852,1,10-14
2894,GOVT SENIOR SECONDARY SCHOOL,SOMASI SOMASI 11 2  331001,EDUCATION,20,852,1,10-14
2895,GOVT SECONDARY SCHOOL,ASALKHERE ASALKHERE 37 331001,EDUCATION,20,852,1,10-14
2896,GOVT SR  SECONDARY SCHOOL,JHARIYA JHARIYA 331001,EDUCATION,20,852,1,10-14
2897,CHC DUDWAKHARA,DUDHAWAKHARA DUDHAWAKHARA 331029,HUMAN HEALTH,21,861,1,15-19
2898,GOVT SARSWATI DEVI SEINOR SECONDARY SCHOOL,DUDHAWAKHARA DUDHAWAKHARA NEAR BAS STAND 331029,EDUCATION,20,852,1,15-19
2899,GOVT HARIYA DEVI GIRLS SEC SCHOOL,DUDHAWAKHARA DUDHAWAKHARA 331029,EDUCATION,20,852,1,10-14
2900,IR MEORIAL SR SEC SCHOOL,DUDHWAKHARA STATION DUDHWAKHARA STATION NEAR STATION DUDHWAKHARA 331029,EDUCATION,20,852,2,15-19
2901,GOVT SR SEC SCHOOL,SIRSALA SIRSALA 52 SIRSALA 331029,EDUCATION,20,852,1,10-14
2902,GOVT SR SEC SCHOOL,BHAMASI BHAMASI BHAMASI 331001,EDUCATION,20,852,1,10-14
2903,GOVT SEC SCHOOL,KARWASAR KARWASAR KARWASAR 331001,EDUCATION,20,852,1,10-14
2904,RAJA MODERAN SECONDARY PUBLIC SCHOOL,SAHAJUSAR SAHAJUSAR SAHAJUSAR 331001,EDUCATION,20,852,2,10-14
2905,CJRM SCHOOL,GAJSAR GAJSAR GAJSAR 331001,EDUCATION,20,852,1,30-99
2906,GOVT POLOTECNICAL COLLAGE,GAJSAR GAJSAR GAJSAR 331001,EDUCATION,20,853,1,25-29
2907,GOVT SECONDARY SCHOOL,GAJSAR GAJSAR GAJSAR 331001,EDUCATION,20,852,1,15-19
2908,GOVT SR SEC SCHOOL,JASARASAR JASARASAR 89 JASARASAR 331001,EDUCATION,20,852,1,15-19
2909,GOVT SECONDARY SCHOOL,POTI POTI POTI 331031,EDUCATION,20,852,1,10-14
2910,GOVT SECONDARY SCHOOL,SAHANALI CHOTTI SAHANALI CHOTTI SAHANALI CHOTTI 331022,EDUCATION,20,852,1,10-14
2911,PRIMARY HEALTH CENTER,SAHANALI CHOTTI SAHANALI CHOTTI SAHANALI CHOTTI 331001,HUMAN HEALTH,21,861,1,10-14
2912,JAINITH PUBLIC SECONDARY SCHOOL,BINASAR BINASAR BINASAR 331031,EDUCATION,20,852,2,10-14
2913,GOVT SECONDARY SCHOOL,BINASAR BINASAR BINASAR 331031,EDUCATION,20,852,1,10-14
2914,PRIMARY HEALTH CENTER,BINASAR BINASAR BINASAR 331031,HUMAN HEALTH,21,861,1,10-14
2915,GOVT  SECONDARY SCHOOL,DEPALSAR DEPALSAR DEPALSAR 331021,EDUCATION,20,852,1,15-19
2916,BABA BAL MANDIR SR  SECONDARY SCHOOL,MEGHSAR MEGHSAR 45 MEGHSAR 331021,EDUCATION,20,852,2,15-19
2917,GOVT SEC SCHOOL,DHANI DS PURA DHANI DS PURA DHANI DS PURA 331021,EDUCATION,20,852,1,10-14
2918,GOVT SEC SCHOOL,RAMSARA RAMSARA 26 RAMSARA 331001,EDUCATION,20,852,1,15-19
2919,GOVT SEC SCHOOL,UTWALIYA UTWALIYA 112 UTWALIYA 331021,EDUCATION,20,852,1,10-14
2920,GOVT SEC SCHOOL,KHASAOLI KHASAOLI MAIN ROAD JHUNJHUNU 331001,EDUCATION,20,852,1,10-14
2921,GOVT SECIOR SCE PUBLIK SCHOOL,KHASOLI KHASOLI MAIN ROAD JHUNAJHUNU 331001,HEALTH,20,852,2,10-14
2922,PRIMARY HEALTH CENTER,KHASOLI KHASOLI 147 KHASOLI 331001,HUMAN HEALTH,21,861,1,15-19
2923,LAXIPAT SIGHANIYA ACADMEY SHIK SANSTHAN,BALRASAR TAWARAN BALRASAR TAWARAN BALRASAR TAWARAN 313031,EDUCATION,20,852,3,30-99
2924,GOVT SEC SCHOOL,RANASAR RANASAR RANASAR 333707,EDUCATION,20,852,1,15-19
2925,GOVT GIRLS UPPER PRIMARY SCHOOL,RANASAR RANASAR RANASAR 333707,EDUCATION,20,851,1,10-14
2926,GOVT SECONDARY SCHOOL,DHADHAR DHADHAR DHADHAR 331001,EDUCATION,20,852,1,10-14
2927,BPS SR SEC SCHOOL,BHUTIYA BHUTIYA 81  2   BHUTIYA ROAD 331001,EDUCATION,20,852,2,10-14
2928,GOVT SEC SCHOOL,BHUNTIYA BHUTIYA 85 BHUTIYA ROAD 331001,EDUCATION,20,852,1,10-14
2929,NEW INDIAN SR SEC SCHOOL,GHANGHU GHANGHU 89 2  GHANGHU 331001,EDUCATION,20,852,2,10-14
2930,GOVT SR SEC SCHOOL,GHANGHU GHANGHU 117 GHANGHU 331001,HEALTH,20,852,1,20-24
2931,GOVT SEC SCHOOL,DHANDHU DHANDHU DHANDHU 331001,EDUCATION,20,852,1,10-14
2932,SHAKTI SASRWATI GIRLS SR SEC SCHOOL,CHURU CHURU 23 2  CHURU 331001,EDUCATION,20,852,1,20-24
2933,INDIAN PUBLIC SEC  SCHOOL,CHURU CHURU 28 2  CHURU 331001,EDUCATION,20,852,1,20-24
2934,LIBERTY SHIKSAN SECONDARY SCHOOL,CHURU CHURU 13 CHURU 331001,EDUCATION,20,852,2,10-14
2935,NEW GYAN JOTI SENIOR SECONDARY SCHOOL,CHURU CHURU 52 USMANA BAD GALI 331001,EDUCATION,20,852,2,20-24
2936,NEW RAJASTHAN PUBLIC SECONDARY SIKSHAN SANSTHAN,CHURU CHURU 49 SAINIK BASTI 331001,ELECTRIC SUPLY,20,852,2,15-19
2937,SANJAY PUBLIC SECONDARY SCHOOL,CHURU CHURU 16 SAINIK BASTI 331001,EDUCATION,20,852,2,15-19
2938,INDIAN SIKSHAK PRAKSHISHAN COLLEGE,CHURU CHURU 118 CHURU 331001,EDUCATION,20,852,2,25-29
2939,MAHINDARA AND MAHINDARA FINANCE,CHURU CHURU 155 3 CHURU 331001,FINANCIAL SERVICES,16,643,2,10-14
2940,A U  FINANCE LTD ,CHURU CHURU 158 2 SAINIK BASTI 331001,FINANCIAL SERVICES,16,643,2,10-14
2941,CHOUDHARY HOSPITAL,CHURU CHURU 164 SAINIK BASTI 331001,HUMAN HEALTH,21,861,2,10-14
2942,M B H  SENIOR SECONDARY SCHOOL,CHURU CHURU 10 SAINIK BASTI 331001,EDUCATION,20,852,2,15-19
2943,LOHIYA COLLEGE,CHURU CHURU NEAR RAILWAY STATION 331001,EDUCATION,20,853,1,30-99
2944,HOTAL SUN CITY PLACE,CHURU CHURU NEAR LOHIYA COLLEGE 331001,ACCOMODATION   FOOD SERVICES,14,551,2,15-19
2945,H N  MUMTAZ HOSPITAL,CHURU CHURU 13 1  NEW ROAD 331001,HUMAN HEALTH,21,861,2,20-24
2946,GUEST HOUSE,CHURU CHURU 15 1  NEW ROAD 331001,ACCOMODATION   FOOD SERVICES,14,551,2,10-14
2947,Jr EN,CHURU CHURU MOCHIWARA 331001,ELECTRICITY,7,351,1,10-14
2948,GOVT  M C  W  CENTER,CHURU CHURU 72 FORT PRISAR 331001,HUMAN HEALTH,21,861,1,10-14
2949,GOVT  S H B SECONDARY,CHURU CHURU 98 FORT PRISAR 331001,EDUCATION,20,852,1,15-19
2950,B N  BANK,CHURU CHURU 62 6  CHURU 331001,FINANCIAL SERVICES,16,641,1,10-14
2951,S K  M  SECONDARY SCHOOL,CHURU CHURU 128 BACK IN FORT 331001,EDUCATION,20,852,2,10-14
2952,MARRY GOLD WORLD SCHOOL,CHURU CHURU 48 CHURU 331001,EDUCATION,20,852,9,10-14
2953,SMT MDGD SINGHI BALIKA SECONDARY ADRASH VIDYA MANDIR,CHURU CHURU 02 1  CHURU 331001,EDUCATION,20,852,9,10-14
2954,SMT MDGD SINGHI BALIKA PRIMARY ADRASH VIDYA MANDIR,CHURU CHURU 02 1  CHURU 331001,EDUCATION,20,851,9,10-14
2955,F C I,CHURU CHURU BHALERI ROAD 331001,TRANSPORATION,13,521,1,30-99
2956,M S P  COLLEGE,CHURU CHURU CHURU 331001,EDUCATION,20,854,2,15-19
2957,SMT KESHAR DEVI ADDARSH VIDHA MANDIR SCHOOL,CHURU CHURU CHURU 331001,EDUCATION,20,852,9,20-24
2958,DIET,CHURU CHURU RATANGARH ROAD 331001,EDUCATION,20,854,1,30-99
2959,ITI,CHURU CHURU HANUMANGARI ROAD 331001,EDUCATION,20,854,1,10-14
2960,LOK SHAKTI VIDHA PITH SECONDARY SCHOOL,CHURU CHURU WARD NO  1 GAYATRI NAGAR 331001,EDUCATION,20,852,2,15-19
2961,BAJORIYA PRODUCT,CHURU CHURU GALI NO 5 G 45 IND AREA 331001,MANUFECTURING,6,161,2,10-14
2962,ADDRASH NURSING INSSTITUTE INDUSTRIAL AREA,CHURU CHURU GALI NO2 ROAD NO  2 331001,EDUCATION,20,854,2,15-19
2963,R S P P,CHURU CHURU GALI NO2 NEAR RIICO 331001,ARTS,22,900,2,15-19
2964,RAJ EXPORT,CHURU CHURU WARD NO  1 ENDUSTRIES ARIA 331001,MANUFECTURING,6,161,2,10-14
2965,GOVT  PUSPKUMAR BAGLA BALIKA SCHOOL,CHURU CHURU B 2 TARANAGAR ROAD 331001,EDUCATION,20,852,1,10-14
2966,GOVT  P V U  S  SCHOOL,CHURU CHURU 68 TARANAGAR ROAD 331001,EDUCATION,20,851,1,10-14
2967,M V M  SR  SECONDARY SCHOOL,CHURU CHURU GAYATRI NAGAR 331001,EDUCATION,20,852,2,15-19
2968,THE WOLDEN POND SINIOR SECONDARY SCHOOL,CHURU CHURU JAIPUR ROAD 331001,EDUCATION,20,852,5,10-14
2969,MADRASA DARUL ULUM,CHURU CHURU JAIPUR ROAD 331001,EDUCATION,20,852,9,10-14
2970,J H  SENIOR SECONDARY SCHOOL,CHURU CHURU JAIPUR ROAD 331001,EDUCATION,20,852,9,15-19
2971,SINGHI VINAYAK FOOD PRODUCTS INDU ,CHURU CHURU E147 IND  ARIA 331001,MANUFACTURING,6,107,2,15-19
2972,GOVT  GOPIRAM GOYNKA SENIOR SECONDARY SCHOOL,CHURU CHURU TARANAGAR ROAD 331001,EDUCATION,20,852,1,30-99
2973,NAWANKUR SR  SECONDARY SCHOOL,CHURU CHURU WARD NO  32 AGUNA MOHALA 331001,EDUCATION,20,852,7,15-19
2974,JAIN SWETAMBER SENIOR SECONDARY SCHOOL,CHURU CHURU 110 OLD ROAD 331001,EDUCATION,20,852,6,30-99
2975,JAIN SEATTANBER BALL VIHAR,CHURU 110 1 OLD ROAD 331001,EDUCATION,20,851,6,10-14
2976,LITTLE ANGLIS CANWAT SCHOOL,CHURU CHURU 42 4  VASUNDARA APAETMANT 331001,EDUCATION,20,851,2,10-14
2977,URO KIDS SCHOOL,CHURU CHURU 62 CHURU 331001,EDUCATION,20,851,2,10-14
2978,S K MEMORIAL SCHOOL,CHURU CHURU 18 NIM KI GALI 331001,EDUCATION,20,852,2,20-24
2979,KASER BALIKA SEC SCHOOL,CHURU CHURU 1 CHURU 331001,EDUCATION,20,852,6,15-19
2980,MAHDAVE SR  SEC SCHOOL,CHURU CHURU 60 CHURU 331001,EDUCATION,20,852,2,20-24
2981,RAJ MOTERS,CHURU CHURU 82 3 CHURU 331001,WHOLE SALE TRADE,10,451,2,15-19
2982,ELE  OFFICE 01 DHARMSTOOP,CHURU CHURU 65 CHURU 331001,ELECTRICITY,7,351,1,15-19
2983,AEN OFFICE SUPPLY JVNLL DHARMSTOOP,CHURU CHURU 68 CHURU 331001,ELECTRICITY,7,351,1,30-99
2984,CCCB CHURU,CHURU CHURU 69 NEAR BY DHARMSTTOP 331001,FINANCIAL SERVICES,16,641,1,20-24
2985,RAJEEV PUBLIC SCHOOL,CHURU CHURU 68 GOYSI KI CHATRI KA PASS 331001,EDUCATION,20,852,2,15-19
2986,132 K U G S S  POWER HOUSE,CHURU CHURU BHALERI ROAD 331001,ELECTRICITY,7,351,1,10-14
2987,MAHALAXMI JAWELLERS,CHURU CHURU PANKHA ROAD 331001,MANUFECTURING,6,321,2,10-14
2988,BRGB MAIN BRANCH,CHURU CHURU 05 6  NEW ROAD 331001,FINANCIAL SERVICES,16,641,1,15-19
2989,ADD  CMHO,CHURU CHURU PANKHA ROAD 331001,HUMAN HEALTH,21,861,1,10-14
2990,SASTRI BALL NIKTEN SEC SCHOOL,CHURU CHURU PANKHA ROAD 331001,EDUCATION,20,852,2,15-19
2991,ELECITY OFFICE,CHURU CHURU SUBHESH CHWOOK 331001,ELECTRICITY,7,351,1,10-14
2992,CHURU DISTRICK SAHAKARI BHOOMI VIKASH BANK,CHURU CHURU 8 CHURU 331001,FINANCIAL SERVICES,16,641,6,10-14
2993,GOVT GIRLS SENIOR SECONDARY SCHOOL,RAJALDESAR RAJALDESAR FRIENDS SOSAYATI MARG 331802,EDUCATION,20,852,1,10-14
2994,BHARATI VIDYA PEETH COLLEGE,RAJALDESAR RAJALDESAR 77 STADIAM ROAD 331802,EDUCATION,20,853,3,15-19
2995,GOVT PRIMARY HEALTH CENTER,RAMPURA BERI RAMPURA BERI RAMPURA BERI 331301,HUMAN HEALTH,21,861,1,10-14
2996,GOVT SR SEC SCHOOL,DHIGARLA DHIGARLA 52 2  GAUSHALA GALI 331023,EDUCATION,20,852,1,10-14
2997,LORDS INTERNATIONAL SCHOOL,SADULPUR SADULPUR 1 NH 65 HISAR ROAD 331023,EDUCATION,20,852,2,30-99
2998,RENUKA GUM AND CHEMICAL INDUSTRY,RAJGARH RAJGARH 170 TARANAGAR ROAD 331023,MANUFECTURING,6,202,2,20-24
2999,HDFC BANK,RAJGARH RAJGARH 307 BUL STAND ROAD 331023,FINANCE,16,641,4,10-14
3000,JODHPUR VIDUT VITRAN NIGAM,RAJGARH RAJGARH 315 NEAR SACHIWALAI 331023,ELECTRICITY,7,351,4,20-24
3001,JODHPUR VIDUT VITRAN NIGAM URBAN,RAJGARH RAJGARH 315 NEAR SACHIWALAI 331023,ELECTRICITY,7,351,4,15-19
3002,DAL FACTORY,RAJGARH RAJGARH 92 INDUSTRY ARIYA 331023,MANUFECTURING,6,106,2,15-19
3003,BHUMI GUM FACTORY,RAJGARH RAJGARH 93 INDUSTRIES ARIYA 331023,MANUFACTURING,6,201,2,15-19
3004,RS MEMORIAL HAIR SECONDARY PUBLIC SCHOOL,RAJGARH RAJGARH 38 RAJGARH 331023,EDUCATION,20,852,2,15-19
3005,IDEAL SR  SEC PUBLIC SCHOOL,RAJGARH RAJGARH 20 RAJGARH 331023,EDUCATION,20,852,2,30-99
3006,GOVT SECONDARY SCHOOL,RAJGARH RAJGARH MP CHOCK 331023,EDUCATION,20,852,1,20-24
3007,SARVODAY PUBLIC SCHOOL,RAJGARH RAJGARH 116 AMBEDKAR CHOUK 331023,EDUCATION,20,852,2,30-99
3008,YUKTA BINDAL PUBLIC SCHOOL,RAJGARH RAJGARH 2 RAJGARH 331023,EDUCATION,20,852,2,20-24
3009,KESHAV INDUSTRIES,RAJGARH RAJGARH 62 INDUSTRIES ARIYA 331023,MANUFACTURING,6,106,2,20-24
3010,TRISHALA DAL FACTORY,RAJGARH RAJGARH 66 INDUSTRIES ARIYA 331023,MANUFACTURING,6,106,2,10-14
3011,CHOUDHARY MS MEMORIAL HAIR SECONDARY SCHOOL,RAJGARH RAJGARH 166 2 331023,EDUCATION,20,852,2,10-14
3012,PRERANA PUBLIC HAIR SECONDARY SCHOOL,RAJGARH RAJGARH 76 BACK OF BSNL OFFICE 331023,EDUCATION,20,852,2,20-24
3013,GOVT MOHTA GIRLS HAIR SECONDARY SCHOOL,RAJGARH RAJGARH 1 RAJGARH 331023,EDUCATION,20,852,1,25-29
3014,BRIGHT PUBLIC SECONDARY SCHOOL,RAJGARH RAJGARH 9 RAJGARH 331023,EDUCATION,20,852,2,10-14
3015,MITAL COMMUNITY CENTER,RAJGARH RAJGARH 107 RAJGARH 331023,EDUCATION,20,852,2,15-19
3016,STATE BANK OF BIKANER AND JAIPUR,RAJGARH RAJGARH 146 RAJGARH 331023,FINANCE,16,641,1,15-19
3017,GEETA DEVI GIRLS HAIR SECONDARY SCHOOL,RAJGARH RAJGARH 260 RAJGARH 331023,EDUCATION,20,852,2,20-24
3018,BANK OF BARODA,RAJGARH RAJGARH 299 RAJGARH 331023,FINANCE,16,641,1,10-14
3019,MOHTA COLLEGE,RAJGARH RAJGARH RAJGARH 331023,EDUCATION,20,853,2,30-99
3020,COMMUNITY HEALTH CENTERS   CHC ,RAJGARH RAJGARH 253 RAJGARH 331023,HUMAN HEALTH,21,861,1,30-99
3021,MOHTA INDUSTRIALIZED TRAINING INSTITUTE,RAJGARH RAJGARH 232 7 RAJGARH 331023,EDUCATION,20,854,2,20-24
3022,GDM PUBLIC SCHOOL,RAJGARH RAJGARH 112 RAJGARH 331023,EDUCATION,20,852,2,10-14
3023,VIDHA BHARATI SCHOOL,RAJGARH RAJGARH RAJGARH 331023,EDUCATION,20,851,2,30-99
3024,MAHATMA JYOTIRAO FULE SCHOOL,RAJGARH RAJGARH RAJGARH 331023,EDUCATION,20,852,2,30-99
3025,GOVT HAIR SECONDARY SCHOOL,RAJGARH RAJGARH 81 RAJGARH 331023,EDUCATION,20,852,2,30-99
3026,PUNJAB NATIONAL BANK,RAJGARH RAJGARH 48 RAJGARH 331023,FINANCE,16,641,1,10-14
3027,SHREE RAM TRANSPORT FINANCE CO  LTD,RAJGARH RAJGARH 289 RAJGARH 331023,FINANCE,16,649,4,30-99
3028,STATE BANK OF BIKANER AND JAIPUR,RAJGARH RAJGARH 304 RAJGARH 331023,FINANCE,16,641,1,10-14
3029,ABHILASHA SR SECONDARY SCHOOL,RAJGARH RAJGARH 85 RAJGARH 331023,EDUCATION,20,852,2,25-29
3030,BALAJI SCHOOL OF NURSING,RAJGARH RAJGARH 85 RAJGARH 331023,EDUCATION,20,854,2,10-14
3031,SMT RAMA DEVI WOMEN S TEACHER TRAINING INSTITUTE,RAJGARH RAJGARH 8 RAJGARH 331023,EDUCATION,20,853,2,10-14
3032,SMT RAMA DEVI SR SECONDARY SCHOOL,RAJGARH RAJGARH 8 RAJGARH 331023,EDUCATION,20,852,2,10-14
3033,CHURU DISTICS URBAN COOPERATIVE BANK LTD ,RAJGARH RAJGARH RAJGARH 331023,FINANCE,16,641,6,10-14
3034,MOHTA PUBLIC SCHOOL,RAJGARH RAJGARH RAJGARH 331023,EDUCATION,20,852,7,30-99
3035,BHARAT TRACTOR COMPANY,RAJGARH RAJGARH 42 HOSPITAL ROAD 331023,WHOLE SALE TRADE,10,452,3,15-19
3036,SHEKHAWATI GIRLS SECONDARY EDU  SASTHAN,RAJGARH RAJGARH 106 NEAR SHYAM TEMPLE 331023,EDUCATION,20,852,2,10-14
3037,HAD POST OFFICE,RAJGARH RAJGARH 102 RAJGARH 331023,TRANSPORATION,13,531,1,15-19
3038,SADBHAWANA PUBLIC SCHOOL,RATANGARH RATANGARH 69 WARD NO  2 331022,EDUCATION,20,852,2,10-14
3039,BALAJI PETROL PUMP,RATANGARH RATANGARH 119 NEAR SANGAM CHOUCK 331022,RETAIL TRADE,12,473,2,10-14
3040,JHUNJHUNU BALAJI MOTARS,RATANGARH RATANGARH 37 1 3  SUJANGARH ROAD 331022,WHOLE SALE TRADE,10,452,2,15-19
3041,AMRIT WATER SUPPLY,RATANGARH RATANGARH RATANGARH 331022,WATER SUPPLY,8,360,2,15-19
3042,MARUTI PRIVATE SIKSHAN SANSTHAN,RATANGARH RATANGARH 37 RATANGARH 331022,EDUCATION,20,852,2,10-14
3043,POWER OFFICE,RATANGARH RATANGARH 78 RATANGARH 331022,ELECTRICITY,7,351,1,10-14
3044,POWER OFFICE,RATANGARH RATANGARH 105 RATANGARH 331022,ELECTRICITY,7,351,1,25-29
3045,LIC OFFICE,RATANGARH RATANGARH 141 RATANGARH 331022,FINANCE,16,651,1,15-19
3046,INDIAN STATE BANK GROUP,RATANGARH RATANGARH 143 RATANGARH 331022,FINANCE,16,641,1,15-19
3047,ADARSH VIDHA TEMPLE SCHOOL,RATANGARH RATANGARH 78 RATANGARH 331022,EDUCATION,20,852,2,20-24
3048,GOVT SANCHIYALAL BAID GIRLS HAIR SECONDARY SCHOOL,RATANGARH RATANGARH 79 RATANGARH 331022,EDUCATION,20,852,1,10-14
3049,SHREE HANUMAN GIRLS HAIR SECONDARY SCHOOL,RATANGARH RATANGARH 140 RATANGARH 331022,EDUCATION,20,852,2,100-199
3050,STATE BANK BIKANER AND JAIPUR,RATANGARH RATANGARH 88 GALI NO  9 331022,OTHER SERVICES,16,641,1,20-24
3051,J K  JAWAILERS HOUSE,RATANGARH RATANGARH 223 GALI NO  9 331022,MANUFECTURING,6,321,2,10-14
3052,AMIT JEWELLERS,RATANGARH RATANGARH 115 RATANGARH 331022,MANUFECTURING,6,321,2,20-24
3053,GOVT HOSPITAL  MALE ,RATANGARH RATANGARH 49 STATION ROAD 331022,HUMAN HEALTH,21,861,1,30-99
3054,GANDHI BAL NIKETAN SCHOOL,RATANGARH RATANGARH 189 STATION ROAD 331022,EDUCATION,20,851,2,25-29
3055,GANDHI BAL NIKETAN SECONDARY SCHOOL,RATANGARH RATANGARH 189 STATION ROAD 331022,EDUCATION,20,852,2,30-99
3056,NAGARPALIKA,RATANGARH RATANGARH 202 BACK OF BUS STAND 331022,EDUCATION,20,852,1,30-99
3057,MAIN POST OFFICE,RATANGARH RATANGARH 203 BACK OF NAGARPALIKA 331022,TRANSPORATION,13,531,1,30-99
3058,BHARAT SANCHAR NIGAM LIMITED,RATANGARH RATANGARH 209 NEAR POST OFFICE 331022,INFORMATION,15,611,4,10-14
3059,RAGHUNATH SCHOOL,RATANGARH RATANGARH 216 STATION ROAD 331022,EDUCATION,20,852,2,30-99
3060,MAKADINATH HAIR SECONDARY SCHOOL,RATANGARH RATANGARH 84 SALASAR RAW ROAD 331022,EDUCATION,20,852,1,25-29
3061,GOVT JYOTI SECONDARY SCHOOL,RATANGARH RATANAGRH 1 RATANAGRH 331022,EDUCATION,20,852,1,10-14
3062,JAI SHREE PUBLIC SECONDARY EDUCATION SANSTHAN,RATANGARH RATANGARH 91 RATANAGRH 331022,EDUCATION,20,852,2,10-14
3063,RAGHUNATH INTERNATIONAL SCHOOL,RATANGARH RATANGARH STATION ROAD 331022,EDUCATION,20,852,2,15-19
3064,MANGAL DAT UPPER PRIMARY SCHOOL,RATANGARH RATANGARH STATION ROAD 331022,EDUCATION,20,851,2,10-14
3065,JK MASUN JEWELLERS AND SONS,RATANGARH RATANGARH STATION ROAD 331022,MANUFECTURING,6,321,2,20-24
3066,PUNJAB NATIONAL BANK,RATANGARH RATANGARH STATION ROAD 331022,FINANCE,16,641,1,10-14
3067,MAHADEV JALAN GOVT UPPER PRIMARY SCHOOL,RATANGARH RATANGARH 54 NEAR SHYAM TEMPLE 331022,EDUCATION,20,851,1,10-14
3068,GOOD SHAIFARD SCHOOL,RATANGARH RATANGARH 83 EAST MARKET 331022,EDUCATION,20,852,9,20-24
3069,SAITH DURGA PRASAD DHANUKA ADARSH VIDHA TEMPLE,RATANGARH RATANGARH 20 NEAR DHANUKA WELL 331022,EDUCATION,20,852,9,30-99
3070,BAL BHARATI SECONDARY SCHOOL,RATANGARH RATANGARH 3 SASTRI NAGAR 331022,EDUCATION,20,852,2,10-14
3071,GAYATRI ADARSH VIDHA TEMPLE,RATANGARH RATANGARH 160 BAPU NAGAR 331022,EDUCATION,20,852,2,10-14
3072,PHED OFFICE,RATANNAGAR RATANNAGAR RATANNAGAR 331304,WATER SUPPLY,8,360,1,15-19
3073,MAHARSHI DAYANAND SARASWATI SCHOOL,RATANNAGAR RATANNAGAR RATANNAGAR 331021,EDUCATION,20,852,2,10-14
3074,TODI SARASWATI VIDHA MANDIR,RATANNAGAR RATANNAGAR RATANNAGAR 331304,EDUCATION,20,851,2,10-14
3075,GOVT BRIJLAL BUDHIYA GIRLS SENIOR SECONDARY SCHOOL,RATANNAGAR RATANNAGAR RATANNAGAR 331021,EDUCATION,20,852,1,15-19
3076,GANDHI BAL VIDYA MANDIR SR SC  SCHOOL,RATANNAGAR RATANNAGAR 1 HOSPITAL ROAD 331021,EDUCATION,20,852,7,15-19
3077,COMMUNITY HOSPITAL CENTER,RATANNAGAR RATANNAGAR 36 HOSPITAL ROAD 331021,HUMAN HEALTH,21,869,1,25-29
3078,GOVT SENIOR SECONDARY SCHOOL,RATANNAGAR RATANNAGAR RATANNAGAR 331021,EDUCATION,20,852,1,30-99
3079,ADARSH BAL BHARATI SECONDARY SCHOOL,RATANNAGAR RATANNAGAR RATANNAGAR 331021,EDUCATION,20,852,2,10-14
3080,GOVT PREVESHIKA SANSKRIT SCHOOL,RATANNAGAR RATANNAGAR RATANNAGAR 331021,EDUCATION,20,852,1,10-14
3081,TAINI KIDS PUBLIC SCHOOL,RATANNAGAR RATANNAGAR 73 RATANNAGAR 331021,EDUCATION,20,852,2,10-14
3082,BSNL,SARDARSHAR SARDARSHAR 7 RAILWAY SATATION 331403,INFORMATION,15,611,1,15-19
3083,UPP PRIMARY ARDSH VIDHY MANDHAR GINAGAR BHAWAN,SARDARSHAR SARDARSHAR RAILWAY STATION 331403,EDUCATION,20,851,7,25-29
3084,ARUYAVIDE VIWASBHARTI,COLLAGE SARDARSHAHAR 156 331403,EDUCATION,20,853,9,30-99
3085,MAHARDA RESEACH AND DEVELOPMENT SANSTHAN,SUJANGARH SUJANGARH INDARA COLONY 331507,EDUCATION,20,852,7,10-14
3086,A E N JVVNL  SUJANGARH,SUJANGARH SUJANGARH OLD PAWER HOUSE 331507,ELECTRICITY,7,351,4,30-99
3087,LIC OF INDIA,SUJANGARH SUJANGARH SUJANGARH 331507,INSURANCE RELATED SERVICES,16,651,1,30-99
3088,SATATE BANK OF BIKANER AND JAIPUR,SUJANGARH SUJANGARH SABJI MANDI KE PASS 331507,FINANCE,16,641,1,15-19
3089,UPPER PRIMARY ADARSH VIDHA TEMPLE,SUJANGARH SUJANGARH SEVA BASTI 331507,EDUCATION,20,851,9,10-14
3090,BANECHAND SARAOGI ADARAS SHIKSHAN INSTITUTE,TARANAGAR TARANAGAR WARD NO 23 331304,EDUCATION,20,852,7,30-99
3091,GOVT SR SEC SCHOOL,CHANDGOTHI CHANDGOTHI 0 CHANDGOTHI 331305,EDUCATION,20,852,1,20-24
3092,GOVT SR  SEC  SCHOOL,RAMPURA RAMPURA 12 RAMPURA 331301,EDUCATION,20,852,1,10-14
3093,GOVT SEC SCHOOL,GULPURA GULPURA 72 RAJGARH ROAD 331023,EDUCATION,20,852,1,15-19
3094,GOVT SEC SCHOOL,JASWANTPURA JASWANTPURA 24 1  JASWANTPURA 331303,EDUCATION,20,852,1,10-14
3095,GYAN BHARTI SCHOOL,JASWANTPURA JASWANTPURA 30 JASWANTPURA 331303,EDUCATION,20,851,2,10-14
3096,AJJAD PUBLIC SCHOOL,JASWANTPURA JASWANTPURA 50 JASWANTPURA 331303,EDUCATION,20,852,2,10-14
3097,GOVT BALIKA UPPER PRIMARY SCHOOL,CHANDGOTHI CHANDGOTHI 170 CHANDGOTHI 331305,EDUCATION,20,851,1,10-14
3098,132 K V ELECTRIC STATION,CHANDGOTHI CHANDGOTHI 174 CHANDGOTHI 331305,ELECTRICITY,7,351,1,15-19
3099,33 KV ELECTRIC STATION,CHANDGOTHI CHANDGOTHI 50 2  CHANDGOTHI 331305,ELECTRICITY,7,351,1,10-14
3100,SHAHID MAHENDRA SINGH,GOVT SR SEC SCHOOL SURATPURA RAJGARH 129 SURATPURA RAJGARH 331023,EDUCATION,20,852,1,10-14
3101,GOVT SEC SCHOOL,KHYALI RAJGARH KHYALI RAJGARH 71 STATION ROAD NARVASI 331023,EDUCATION,20,852,1,10-14
3102,GOVT SR SEC SCHOOL,HARPALU HARPALU 114 WARD NO 12 331305,EDUCATION,20,852,1,20-24
3103,GOVT SEC SCHOOL,BHIMSANA BHIMSANA 1 SIDHMUKH ROAD 331701,EDUCATION,20,852,1,10-14
3104,GOVT SEC SCHOOL,DHANI BARI DHANI BARI 1 DHANI BARI 331701,EDUCATION,20,852,1,10-14
3105,GOVT SR SEC SHOOL,SIDHMUKH SIDHMUKH 24 SIDHMUKH 331701,EDUCATION,20,852,1,25-29
3106,GOVT SR SEC SCHOOL,NOOHAND NOOHAND 1 NOOHAND 331305,EDUCATION,20,852,1,10-14
3107,GOVT SR SEC SCHOOL,MUNDI TAL MUNDI TAL 30 MUNDI TAL 331023,EDUCATION,20,852,1,10-14
3108,GOVT SR UPPADYAYA SCHOOL,BEWAD BEWAD 156 BEWAD 331301,EDUCATION,20,852,1,10-14
3109,GOVT SR SEC SCHOOL,BHOJAN BHOJAN 102 BHOJAN 331301,EDUCATION,20,852,1,15-19
3110,SAMUDAIK HEALTH CENTER,SANKHU FORT SANKHU FORT 0 SANKHU FORT 331303,HUMAN HEALTH,21,861,1,20-24
3111,GOVT SEC SCHOOL,KALANA TAL KALANA TAL 0 KALANA TAL 331303,EDUCATION,20,852,1,10-14
3112,GOVT SEC SCHOOL,DOKWA DOKWA 28 DOKWA 331023,EDUCATION,20,852,1,15-19
3113,GOVT  HIGHER SECONDARY SCHOOL,DAUDSAR DAUDSAR 40 DAUDSAR 331022,EDUCATION,20,852,1,10-14
3114,GOVT  PRAMARY HEALTH CENTER,DAUDSAR DAUDSAR 42 DAUDSAR 331022,HUMAN HEALTH,21,861,1,10-14
3115,GOVT  GIRLS UPPER PRIMARY SCHOOL,SEHALA SEHALA 0 SEHALA 331022,EDUCATION,20,851,1,10-14
3116,GOVT  SEC  SCHOOL,ABSAR ABSAR 0 ABSAR 331505,EDUCATION,20,852,1,10-14
3117,GOVT  GIRLS UPPER PRIMARY SCHOOL,BANDWA BANDWA 0 BANDWA 331802,EDUCATION,20,851,1,10-14
3118,GOVT  UPPER PRIMARY SCHOOL,BANDWA BANDWA 109 BANDWA 331802,EDUCATION,20,851,1,10-14
3119,GOVT  SEC  SCHOOL,PAYALI PAYALI 58 PAYALI 331022,EDUCATION,20,852,1,10-14
3120,GOVT  SEC  SCHOOL,BHARPALSAR LADKHANIYA BHARPALSAR LADKHANIYA 65 BHARPALSAR LADKHANIYA 331802,EDUCATION,20,852,1,10-14
3121,GOVT  SEC  SCHOOL,NOSARIYA NOSARIYA 0 NOSARIYA 341022,EDUCATION,20,852,1,10-14
3122,GOVT  SEC  SCHOOL,KHARIYA KHARIYA 0 KHARIYA 331022,EDUCATION,20,852,1,10-14
3123,VIDYUT GREED STATION,RATANGARH RURAL RATANGARH RURAL 11 RATANGARH RURAL 331022,ELECTRICITY,7,351,1,30-99
3124,GOVT  HIGHER SECONDARY SCHOOL,LOHA LOHA 0 LOHA 331022,EDUCATION,20,852,1,15-19
3125,GOVT   UPPER PRIMARY SCHOOL,LOHA LOHA 0 LOHA 331022,EDUCATION,20,851,1,10-14
3126,GOVT  SEC  SCHOOL,BHOJASAR BHOJASAR 0 BHOJASAR 331022,EDUCATION,20,852,1,10-14
3127,GOVT  SEC  SCHOOL,RATNADESAR RATNADESAR 0 RATNADESAR 331022,EDUCATION,20,852,1,10-14
3128,GOVT  UPPER PRIMARY SCHOOL,PARIHARA PARIHARA 0 PARIHARA 331505,EDUCATION,20,851,1,10-14
3129,GOVT  SEC  SCHOOL,KADIYA KADIYA 0 KADIYA 331022,EDUCATION,20,852,1,10-14
3130,POST OFFICE,SARDARSHAHAR SARDARSHAHAR 74 GANDI CHOCK 331408,TRANSPORATION,13,531,1,20-24
3131,GOVT SR SEC SCHOOL,JAITASAR JAITASAR 0 JAITASAR 331411,EDUCATION,20,852,1,10-14
3132,GOVT SR SEC SCHOOL,JAITSISAR JAITSISAR 39 JAITSISAR 331411,EDUCATION,20,852,1,10-14
3133,GOVT UPPER PRIMARY SCHOOL,RAJAS RAJAS 14 RAJAS 332317,EDUCATION,20,851,1,10-14
3134,GOVT SEC SCHOOL,RATUSAR RATUSAR 0 RATUSAR 331403,EDUCATION,20,852,1,10-14
3135,GOVT SR SEC SCHOOL,JAISANGSAR JAISANGSAR 0 JAISANGSAR 331402,EDUCATION,20,852,1,10-14
3136,GOVT SEC SCHOOL,MELUSAR MELUSAR 93 MELUSAR 331022,EDUCATION,20,852,1,10-14
3137,GOVT SEC SCHOOL,DHANI PANCHERA DHANI PANCHERA DHANI PANCHERA 331403,EDUCATION,20,852,1,10-14
3138,GOVT  SEC SCHOOL,BIKAMSARA BIKAMSARA 69 BIKAMSARA 331403,EDUCATION,20,852,1,10-14
3139,CAMBRIDGE SCHOOL,JEEVANDESAR JEEVANDESAR 21 JEEVANDESAR 335061,EDUCATION,20,852,2,30-99
3140,GOVT SEC SCHOOL,UDSAR LODERA UDSAR LODERA 0 UDSAR LODERA 331403,EDUCATION,20,852,1,10-14
3141,PHC ASALSAR,ASALSAR ASALSAR 83 ASALSAR 331504,HUMAN HEALTH,21,861,1,10-14
3142,GOVT SEC SCHOOL,SARSAR SARSAR 15 SARSAR 331402,EDUCATION,20,852,2,10-14
3143,GOVT SEC SCHOOL,BIDASAR BIDAUTAN BIDASAR BIDAUTAN 0 BIDASAR BIDAUTAN 331402,EDUCATION,20,852,1,10-14
3144,SARSWATI SR  SEC SCHOOL,SALASAR SALASAR 91 SALASAR 331506,EDUCATION,20,852,2,20-24
3145,GOVT SEC SCHOOL,KOLASAR KOLASAR 169 KOLASAR 331507,EDUCATION,20,852,1,10-14
3146,GOVT UPP SEC SCHOOL,MALSISAR MALASISAR 163 MALASISAR 331507,EDUCATION,20,851,1,15-19
3147,GOVT UPP PRI SCHOOL,MALSISAR MALASISAR 1 MALASISAR 331507,EDUCATION,20,851,1,10-14
3148,MILE MOTORS CHAPPER,GULARYA GULARYA 0 MAGA HIGHWAY ROAD 331507,WHOLE SALE TRADE,10,452,1,15-19
3149,GOVT SR SEC SHHOOL,GOPALPURA SUJANGARH GOPALPURA SUJANGARH 8 CHARWAS ROAD 331503,EDUCATION,20,852,1,10-14
3150,GOVT SEC SCHOOL,LIKHMANSAR LIKHMANSAR 0 LIKHMANSAR 331518,EDUCATION,20,852,1,10-14
3151,GOVT SR SEC SCHOOL,BHASINA BHASINA 132 BHASINA 331518,EDUCATION,20,852,1,10-14
3152,GOVT SEC SCHOOL,SAROTHIYA SAROTHIYA 7 SAROTHIYA 331518,EDUCATION,20,852,1,10-14
3153,RAJ JHHANWAR GIRLS SECONDARY SCHOOL,SUJANGARH SUJANGARH 0 JHHANWAR RAOD 331507,EDUCATION,20,852,1,15-19
3154,GOVT BHINWASARIYA GIRLS SECONDARY SCHOOL,SUJANGARH SUJANGARH 0 STATION RAOD 331507,EDUCATION,20,852,1,10-14
3155,BAND BAZA,SUJANGARH SUJANGARH 120 1  SUJANGARH 331507,AMUSEMENT,22,932,2,20-24
3156,KEJADIWAL BARTHERS,SUJANGARH SUJANGARH 13 CHHAPAR RAOD 331507,RETAIL TRADE,12,473,3,10-14
3157,RAYAL CAREER INSTITIUTE,SUJANGARH SUJANGARH 98 2  J  B  ROAD 331507,EDUCATION,20,854,3,15-19
3158,RAGHUNATH ROY JAJODIYA HAIR SECONDARY SCHOOL,SUJANGARH SUJANGARH 6 SUJANGARH 331507,EDUCATION,20,852,1,25-29
3159,BAL BHARATI HAIR SECONDARY SCHOOL,SUJANGARH SUJANGARH 7 SUJANGARH 331507,EDUCATION,20,852,3,25-29
3160,RATHI HOSPITAL,SUJANGARH SUJANGARH 191 1  STATION ROAD 331507,HUMAN HEALTH,21,861,2,30-99
3161,GOVT SECONDARY SCHOOL,BHANIN BHANIN 96 BHANIN 331304,EDUCATION,20,852,1,15-19
3162,PHC,BHALERI BHALERI 180  1  BHALERI 331304,HUMAN HEALTH,21,861,1,10-14
3163,GOVT PRIMARY HELTH CENTER,BUCHAWAS BUCHAWAS 0 BUCHAWAS 331304,HUMAN HEALTH,21,861,1,10-14
3164,SWAMI VIVEKANAND PABLIC SCHOOL,DHANI KUMHARAN DHANI KUMHARAN 0 DHANI KUMHARAN 331304,EDUCATION,20,852,2,10-14
3165,GOVT SECONDARY SCHOOL,DHANI KUMHARAN DHANI KUMHARAN 0 DHANI KUMHARAN 331304,EDUCATION,20,852,1,10-14
3166,GYAN JYOTI SENIOR SECONDARY SCHOOL,DHANI KUMHARAN DHANI KUMHARAN 0 DHANI KUMHARAN 331304,EDUCATION,20,852,2,10-14
3167,GOVT SECONDARY SCHOOL,DHANI KUMHARAN DHANI KUMHARAN 0 DHANI KUMHARAN 331304,EDUCATION,20,852,1,10-14
3168,RANVEER SINGH,ALAYALA ALAYALA 0 ALAYALA 331304,CARE CENTER,21,869,2,10-14
3169,GOVT SECONDARY SCHOOL,RAMPURA RAMPURA 18 RAMPURA 331304,EDUCATION,20,852,1,10-14
3170,GOVT SECONDARY SCHOOL,HADIYAL HADIYAL 9 HADIYAL 331029,EDUCATION,20,852,1,10-14
3171,SARSWATI SR  SEC  SCHOOL,CHANDGOTHI CHANDGOTHI 0 CHANDGOTHI 331305,EDUCATION,20,852,2,30-99
3172,GOVT SEC SCHOOL,THIRPALI BADI THIRPALI BADI 43 1  THIRPALI BADI 331305,EDUCATION,20,852,1,10-14
3173,ACADEMIC SIKSHAN SANSTHAN,JANAU KHARI JANAU KHARI 0 JANAU KHARI 331303,EDUCATION,20,852,2,20-24
3174,SHRI RAM BRIKS UDHOG,JANAU KHARI JANAU KHARI 0 JANAU KHARI 331303,MANUFECTURING,6,239,2,30-99
3175,BALAJI BRIKS UDHOG,JANAU KHARI JANAU KHARI 86 JANAU KHARI 331303,MANUFECTURING,6,239,3,100-199
3176,JANU BRIKS UDHOG,BASS BHARAMNAN BASS BHARAMNAN 21 BASS BHARAMNAN 331303,MANUFECTURING,6,239,3,30-99
3177,KISHAN BRIKS UDHOG,BASS BHARAMNAN BASS BHARAMNAN 24 1  BASS BHARAMNAN 331303,MANUFECTURING,6,239,2,30-99
3178,UJALA BRIKS UDHOG,BASS BHARAMNAN BASS BHARAMNAN 24 3  BASS BHARAMNAN 331303,MANUFECTURING,6,239,2,30-99
3179,RAGUVIR SINGH MEMORIYAL,PUBLIC SR SEC SCHOOL RAMPURA 93 BAHAL ROAD 331301,EDUCATION,20,852,2,30-99
3180,BABA LALGIRI SR SEC,SCHOOL RAMPURA RAMPURA 112 RAMPURA 331301,EDUCATION,20,852,2,25-29
3181,SARSWATI VIDHYA MANDIR SANSTHAN,LAMBOR BADI LAMBOR BADI 0 LAMBOR BADI 331023,EDUCATION,20,852,6,30-99
3182,GOVT SEC SCHOOL,LAMBOR BADI LAMBOR BADI 0 LAMBOR BADI 331023,EDUCATION,20,852,1,10-14
3183,S S ENT BHATTA,LUDI KHUBA LUDI KHUBA 45 1  HISAR SARAK PAR 331023,MANUFECTURING,6,239,3,100-199
3184,K B C ENT BHATTA,LUTANA RAJU TEH RAJGARH LUTANA RAJU 28 1  LUTANA RAJU 331023,MANUFECTURING,6,239,3,100-199
3185,GOVT NARAYANI DEVI BALIKA SEC SCHOOL,DADREWA DADREWA 0 DADREWA 331023,EDUCATION,20,852,1,10-14
3186,P H C DHADREVA,DADREWA DADREWA 0 DADREWA 331023,HUMAN HEALTH,21,861,1,10-14
3187,GOVT SR SEC SCHOOL,DADREWA DADREWA 0 DADREWA 331023,EDUCATION,20,852,1,15-19
3188,B R J D PUBLIC SCHOOL,NAYAGAL BARI NAYAGAL BARI 7 1  NAYAGAL BARI 331023,EDUCATION,20,852,2,30-99
3189,GOVT SEC SCHOOL,NAYAGAL BARI NAYAGAL BARI 39 NAYAGAL BARI 331023,EDUCATION,20,852,1,10-14
3190,GOVT SEC SCHOOL,NYANGAL CHHOTI NYANGAL CHHOTI 47 NYANGAL CHHOTI 331023,EDUCATION,20,852,1,10-14
3191,JYOTI VIDHYA MANDIR SANSTHAN,DHUMKI DHUMKI 0 DHUMKI 331506,EDUCATION,20,852,2,10-14
3192,BALAJI BRIKS COMPANY,DHANOTHI CHHOTI DHANOTHI CHHOTI 0 DHANOTHI CHHOTI 331701,MANUFECTURING,6,239,1,10-14
3193,GURU KRIPA ENT UDHOG,TAMBA KHERI TAMBA KHERI 89 TAMBA KHERI 331701,MANUFECTURING,6,239,2,30-99
3194,SHRI RAM ENT UDHOG,TAMBA KHERI TAMBA KHERI 90 TAMBA KHERI 331701,MANUFECTURING,6,239,2,100-199
3195,B B C ENT BHATTA,RAMSARA TAL RAMSARA TAL 81 RAMSARA TAL 331701,MANUFECTURING,6,239,2,100-199
3196,K B C ENT BHATTA,RAMSARA TAL RAMSARA TAL 82 RAMSARA TAL 331701,MANUFECTURING,6,239,2,100-199
3197,GOVTT SEC SCHOOL,RAMSARA TAL RAMSARA TAL 104 RAMSARA TAL 331701,EDUCATION,20,852,1,10-14
3198,GOVT SEC SCHOOL,KHERU BADI KHERU BADI 1 1  KHERU BADI 331301,EDUCATION,20,852,1,15-19
3199,D N PUBLIC SCHOOL,GULPURA GULPURA 48 MAIN CHOWK 331023,EDUCATION,20,852,2,10-14
3200,GOVT SEC SCHOOL,LAKHLAN BARI LAKHLAN BARI 20 LAKHLAN BARI 331023,EDUCATION,20,852,1,10-14
3201,SAINIK INT UDYOG,NORANGPURA NORANGPURA 0 NORANGPURA 331305,MANUFECTURING,6,239,3,30-99
3202,SARSWATI SR SEC VIDHYA MANDIR,NORANGPURA NORANGPURA 23 NORANGPURA 331303,EDUCATION,20,852,7,30-99
3203,INDIAN CHILDREN ACADAMY SR SEC SCHOOL,NORANGPURA NORANGPURA 63 NORANGPURA 331303,EDUCATION,20,852,7,15-19
3204,GOVT SR SEC SCHOOL,NORANGPURA NORANGPURA 89 NORANGPURA 331303,EDUCATION,20,852,1,10-14
3205,HEALTH CENTER,SULKANIYA BARA SULKANIYA BARA 16 SULKANIYA BARA 331303,HUMAN HEALTH,21,861,1,10-14
3206,GOVT SEC SCHOOL,SULKANIYA BARA SULKANIYA BARA 35 SULKANIYA BARA 331303,EDUCATION,20,852,1,10-14
3207,SHRI GAYATRI NIKETAN SR SEC SCHOOL,CHANDGOTHI CHANDGOTHI 30 CHANDGOTHI 331305,EDUCATION,20,852,2,25-29
3208,GOVT SEC SCHOOL,KANDHRAN KANDHRAN 26 KANDHRAN 331023,EDUCATION,20,852,1,15-19
3209,GOVT GIRLS UPS,KANDHRAN KANDHRAN 13 KANDHRAN 331023,EDUCATION,20,852,1,10-14
3210,BALAJI OIL MILL,RADWA RADWA 64 PILANI RAJGARH ROAD 331023,WHOLE SALE TRADE,11,461,2,10-14
3211,GOVT SEC SCHOOL,KISHANPURA KISHANPURA 0 KISHANPURA 331023,EDUCATION,20,852,1,10-14
3212,GRAMOTHAN SR SEC SCHOOL,SHAUWA SHAUWA 10 SHAUWA 331304,EDUCATION,20,852,2,15-19
3213,RAJASTHAN PUBLIC SEC SCHOOL,CHANANA CHANANA 136 WARD NO 10 331023,EDUCATION,20,852,2,10-14
3214,P H C,PAHARSAR PAHARSAR 118 PAHARSAR 331023,HUMAN HEALTH,21,861,1,10-14
3215,ADARSH PUBLIC SCHOOL,PAHARSAR PAHARSAR 28 PAHARSAR 331023,EDUCATION,20,852,2,10-14
3216,GOVT SR SEC SCHOOL,PAHARSAR PAHARSAR 10 PAHARSAR 331023,EDUCATION,20,852,1,10-14
3217,SMT DHABWANTI DEVI,GIRLS SR SEC SCHOOL DHANDHANL LEKHU 54 DHANDHANL LEKHU 331023,EDUCATION,20,852,2,15-19
3218,GRAMIN VIDHYA PEETH,HARPALU SANWAL HARPALU SANWAL 71 HARPALU SANWAL 331305,EDUCATION,20,852,3,15-19
3219,GOVT SR SEC SCHOOL,GHANAU GHANAU 2 1  GHANAU 331023,EDUCATION,20,852,1,15-19
3220,PHC GHANAU,GHANAU GHANAU 0 GHANAU 331023,HUMAN HEALTH,21,861,1,10-14
3221,MODERN PUBLIC SR SEC SCHOOL,GHANAU GHANAU 0 GHANAU 331023,EDUCATION,20,852,2,15-19
3222,GOVT SEC SCHOOL,KANJAN KANJAN 39 KANJAN 331023,EDUCATION,20,852,1,10-14
3223,GOVT SEC SCHOOL,BAS KANJAN BAS KANJAN 106 BAS KANJAN 331023,EDUCATION,20,852,1,10-14
3224,SHRI BALAJI ENT UDHOG,SADPURA SADPURA 0 SADPURA 331701,MANUFECTURING,6,239,2,30-99
3225,BHAKAR ENT UDHOG,SADPURA SADPURA 0 SADPURA 331701,MANUFECTURING,6,239,2,30-99
3226,CHAUDHARI ENT UDHOG,SADPURA SADPURA 0 SADPURA 331701,MANUFECTURING,6,239,2,30-99
3227,S B N COLLAGE,SIDHMUKH SIDHMUKH 7 SIDHMUKH 331701,EDUCATION,20,853,2,10-14
3228,GOVT HOSPITAL,SIDHMUKH SIDHMUKH 20 3  SIDHMUKH 331701,HUMAN HEALTH,21,861,1,10-14
3229,NEW HIND SR SEC SCHOOOL,SIDHMUKH SIDHMUKH 35 SIDHMUKH 331701,EDUCATION,20,852,2,20-24
3230,GOVT BALIKA SR SEC SCHOOL,SIDHMUKH SIDHMUKH 91 SIDHMUKH 331701,EDUCATION,20,852,1,10-14
3231,INDIAN PUBLIC SCHOOL,SIDHMUKH SIDHMUKH 24 SIDHMUKH 331701,EDUCATION,20,852,3,10-14
3232,OASIS PUBLI,SR SEC SCHOOL SIDHMUKH 47 SIDHMUKH 331701,EDUCATION,20,852,3,10-14
3233,PARTIBHA PUBLIC SR SEC SCHOOL,SIDHUMUKH SIDHMUKH 110 BHADRA ROAD 331701,EDUCATION,20,852,1,10-14
3234,ASHOKA PUBLIC SCHOOL,SIDHMUKH SIDHMUKH 137 SIDHMUKH 331701,EDUCATION,20,852,1,10-14
3235,GOVT SEC SCHOOL,BIRMI BARI BIRMI BARI 126 BIRMI BARI 331701,EDUCATION,20,852,1,10-14
3236,GOVT SEC SCHOOL,RAGHA CHHOTI RAGHA CHHOTI 0 BAHAL ROAD 331023,EDUCATION,20,852,1,10-14
3237,GOVT SR SEC SCHOOL,NAWA NAWA 2 NAWA 331301,EDUCATION,20,852,1,15-19
3238,GOVT SEC SCHOOL,GOTHYAN BARI GOTHYAN BARI 43 GOTHYAN BARI 331023,EDUCATION,20,852,1,10-14
3239,S B P S S SEC SCHOOL,CHAINPURA CHHOTA CHAINPURA CHHOTA 0 CHAINPURA CHHOTA 331023,EDUCATION,20,852,2,10-14
3240,GOVT SEC SCHOOL,CHAINPURA CHHOTA CHAINPURA CHHOTA 0 CHAINPURA CHHOTA 331023,EDUCATION,20,852,1,10-14
3241,VINAYAK ENT UDHOG,CHAINPURA BADA CHAINPURA BADA 0 CHAINPURA BADA 331701,MANUFECTURING,6,239,2,25-29
3242,GANESH ENT UDHOG,CHAINPURA BADA CHAINPURA BADA 0 CHAINPURA BADA 331701,MANUFECTURING,6,239,2,25-29
3243,KARANI ENT UDHOG,CHAINPURA BADA CHAINPURA BADA 0 CHAINPURA BADA 331701,MANUFECTURING,6,239,2,25-29
3244,GOVT SEC SCHOOL,CHUBKIYA TAL CHUBKIYA TAL 0 CHUBKIYA TAL 331023,EDUCATION,20,852,1,10-14
3245,GOVT SEC SCHOOL,RAWATSAR KUNJLA RAWATSAR KUNJLA 77 RAWATSAR KUNJLA 331303,EDUCATION,20,852,1,15-19
3246,SHIV ENT UDHOG,NESHAL NESHAL NANDE KA BASS 331303,MANUFECTURING,6,239,3,30-99
3247,GOVT UPPER PRIMARY SCHOOL,NESHAL NESHAL 24 NESHAL 331303,EDUCATION,20,851,1,10-14
3248,GOVT SR SEC SCHOOL,NESHAL NESHAL 25 NESHAL 331303,EDUCATION,20,852,1,15-19
3249,BALAJI ENT UDHOG,NEEMA NEEMA 0 NEEMA 331305,MANUFECTURING,6,239,3,100-199
3250,GOVT SEC SCHOOL,NEEMA NEEMA 0 NEEMA 331305,EDUCATION,20,852,1,15-19
3251,GOVT U P GIRLS SCHOOL,HAMEERWAS BADA HAMEERWAS BADA 0 HAMEERWAS BADA 331023,EDUCATION,20,852,1,10-14
3252,PHC HAMEERWAS BADA,HAMEERWAS BADA HAMEERWAS BADA 0 HAMEERWAS BADA 331305,HUMAN HEALTH,21,861,1,10-14
3253,GAYATRI SR SEC SHIKSAHN SANSTHAN,HAMEERWAS HAMEERWAS 0 HAMEERWAS 331305,EDUCATION,20,852,2,15-19
3254,GOVT SR SEC SCHOOL,HAMEERWAS HAMEERWAS 0 HAMEERWAS 331305,EDUCATION,20,852,1,20-24
3255,SAHEED RAJKUMAR GOVT SR SEC SCHOOL,BHAISALY BHAISALY 14 MAIN ROAD 331301,EDUCATION,20,852,1,10-14
3256,BCM SR SEC SCHOOL,BHAISALY BHAISALY 116 MAIN ROAD 331301,EDUCATION,20,852,2,15-19
3257,GOVT PHC,BHAINSALI BHAINSALI 58 BHAINSALI 331301,HUMAN HEALTH,21,861,1,10-14
3258,APPAX SEC SHIKSHAN SANSTHAN,GUGLAWA GUGLAWA 26 GUGLAWA 331301,EDUCATION,20,852,2,10-14
3259,S B SR SEC SHIKSHAN SANSTHAN,GUGLAWA GUGLAWA 79 GUGLAWA 331301,EDUCATION,20,852,2,10-14
3260,GOVT SEC SCHOOL,GUGLAWA GUGLAWA 97 GUGLAWA 331301,EDUCATION,20,852,1,15-19
3261,P H C KALRI,KALRI KALRI 0 KALRI 331301,HUMAN HEALTH,21,861,1,10-14
3262,GOVT SEC SCHOOL,KALRI KALRI 0 KALRI 331301,EDUCATION,20,852,1,15-19
3263,GOVT BALIKA UPPER PRIMARY SCHOOL,KALRI KALRI 0 KALRI 331301,EDUCATION,20,851,1,10-14
3264,GOVT SEC SCHOOL,BAIRASAR CHHOTA BAIRASAR CHHOTA 133 BAIRASAR CHHOTA 331023,EDUCATION,20,852,1,10-14
3265,CHANDGIRAM COLLAGE,BAIRASAR CHHOTA BAIRASAR CHHOTA 53 BAIRASAR CHHOTA 331023,EDUCATION,20,853,2,15-19
3266,GOVT SR SEC SCHOOL,BAIJUA BAIJUA 41 BAIJUA 331303,EDUCATION,20,852,1,10-14
3267,GOVT SR SEC SCHOOL,SANKHU FORT SANKHU FORT 0 SANKHU FORT 331303,EDUCATION,20,852,1,15-19
3268,GOVT SEC SCHOOL,VIJAYPURA VIJAYPURA VIJAYPURA 331303,EDUCATION,20,852,2,10-14
3269,GOVT SEC SCHOOL,MITHADI KESHRI SINGH MITHADI KESHRI SINGH 88 MITHADI KESHRI SINGH 331023,EDUCATION,20,852,1,15-19
3270,GOVT SEC SCHOOL,DEVIPURA DEVIPURA 41 DEVIPURA 331023,EDUCATION,20,852,1,15-19
3271,GOVT SEC SCHOOL,BHUWARI BHUWARI 64 BHUWARI 331023,EDUCATION,20,852,1,15-19
3272,SAHID SHAMSHER SINGH GOVT SR SEC SCHOOL,RATANPURA RATANPURA 156 RATANPURA 301402,EDUCATION,20,852,1,10-14
3273,GOVT SR SEC SCHOOL,RAGHA BARI RAGHA BARI 0 RAGHA BARI 331023,EDUCATION,20,852,1,15-19
3274,SHIV BRIKS UDHOG,LILKI LILKI 24 LILKI 331023,MANUFECTURING,6,239,2,100-199
3275,GOVT SEC SCHOOL,LASERI LASERI 37 LASERI 331023,EDUCATION,20,852,1,10-14
3276,GOVT SEC SCHOOL,SEUWA SEUWA SEUWA 331304,EDUCATION,20,852,1,15-19
3277,RIDI SIDI UDYOG,LACHHARSAR LACHHARSAR 11 3  LACHHARSAR 331802,MANUFECTURING,6,104,2,15-19
3278,GOVT  HIGHER SECONDARY SCHOOL,BHANUDA BHANUDA 67 BHANUDA 331022,EDUCATION,20,852,1,10-14
3279,GOVT  SEC  SCHOOL,SIKRALI SIKRALI 128 SIKRALI 331022,EDUCATION,20,852,1,10-14
3280,GOVT  HIGHER SECONDARY SCHOOL,PABUSAR PABUSAR 0 PABUSAR 331022,EDUCATION,20,852,1,10-14
3281,GYAN DEEP SIKSHAN SANSTHAN SEC  SCHOOL,PABUSAR PABUSAR 0 PABUSAR 331022,EDUCATION,20,852,2,10-14
3282,GOVT  GIRLS UPPER PRIMARY SCHOOL,PABUSAR PABUSAR 0 PABUSAR 331022,EDUCATION,20,851,1,10-14
3283,GOVT  UPPER PRIMARY SCHOOL,MELUSAR MELUSAR 0 MELUSAR 331022,EDUCATION,20,851,1,10-14
3284,GOVT  UPPER PRIMARY SCHOOL,MALASAR MALASAR 0 MALASAR 331022,EDUCATION,20,851,1,10-14
3285,BHARAT PUBLIC SCHOOL,SEHALA SEHALA 0 SEHALA 331022,EDUCATION,20,852,2,10-14
3286,GOVT  HIGHER SECONDARY SCHOOL,SEHALA SEHALA 0 SEHALA 331022,EDUCATION,20,852,1,15-19
3287,GOVT  SEC  SCHOOL,GORISAR GORISAR 0 GORISAR 331022,EDUCATION,20,852,1,10-14
3288,GOVT  HIGHER SECONDARY SCHOOL,GOGASAR GOGASAR 0 GOGASAR 331504,EDUCATION,20,852,1,10-14
3289,GOVT  SUB HEALTH CENTER,GOGASAR GOGASAR 0 GOGASAR 331504,HUMAN HEALTH,21,861,1,10-14
3290,GOVT  SEC  SCHOOL,GOLSAR GOLSAR 0 GOLSAR 331022,EDUCATION,20,852,1,10-14
3291,GOVT  SEC  SCHOOL,BINADESAR BINADESAR 0 BINADESAR 331802,EDUCATION,20,852,1,10-14
3292,Marudhar HIGHER SEC  SCHOOL,PARSNEU PARSNEU 121 PARSNEU 331802,EDUCATION,20,852,2,15-19
3293,PHOOSRAJ TODI TECHNICAL TRAINING INSTITUTE,RAJALDESAR RAJALDESAR 451 RAJALDESAR 331802,EDUCATION,20,852,2,20-24
3294,INDANE GAS AGENCY,RAJALDESAR RAJALDESAR 0 RAJALDESAR 331802,RETAIL TRADE,7,352,2,10-14
3295,GOVT  GIRLS UPPER PRIMARY SCHOOL,NUWAN NUWAN 58 NUWAN 331022,EDUCATION,20,851,1,10-14
3296,GOVT  SEC  SCHOOL,NUWAN NUWAN 0 NUWAN 331022,EDUCATION,20,852,1,10-14
3297,GOVT  SEC  SCHOOL,JALEU BARI JALEU BARI 0 JALEU BARI 331022,EDUCATION,20,852,1,10-14
3298,SADAFAL AGRO INDUSTRIES,JALEU JALEU 0 JALEU 331022,MANUFACTURING,6,106,2,10-14
3299,SANKAT MOCHAN  HANDY CRAFT,JALEU JALEU 0 MEGA HIGHWAY 331022,MANUFECTURING,6,310,2,25-29
3300,GOVT  SEC  SCHOOL,KUDERA BARA KUDERA BARA 0 KUDERA BARA 331022,EDUCATION,20,852,1,10-14
3301,SARSWATI PUBLIC SEC  SCHOOL,JANDWA JANDWA 0 JANDWA 331022,EDUCATION,20,852,2,10-14
3302,GOVT  HIGHER SECONDARY SCHOOL,JANDWA JANDWA 0 JANDWA 331022,EDUCATION,20,852,1,10-14
3303,JHUNJHUNU  BALAJI MOTARS,RATANGARH RURAL RATANGARH RURAL 57 SUJANGAH ROAD 331022,WHOLE SALE TRADE,10,452,2,15-19
3304,GOVT  HIGHER SECONDARY SCHOOL,PARIHARA PARIHARA 0 PARIHARA 331505,EDUCATION,20,852,1,10-14
3305,GRAMOTHAN SR SEC SCHOOL,PARIHARA PARIHARA 0 PARIHARA 331505,EDUCATION,20,852,2,10-14
3306,GOVERNMENT HOSPITAL,TIDIYASAR TIDIYASAR 0 TIDIYASAR 331022,HUMAN HEALTH,21,861,1,10-14
3307,GOVT  HIGHER SECONDARY SCHOOL,TIDIYASAR TIDIYASAR 0 TIDIYASAR 331022,EDUCATION,20,852,1,10-14
3308,GOVT  HIGHER SECONDARY SCHOOL,BIRAMSAR BIRAMSAR 51 BIRAMSAR 331022,EDUCATION,20,852,1,15-19
3309,SHANTI NIKETAN HIGHER SEC  SCHOOL,THATHAWATA THATHAWATA 2 THATHAWATA 331022,EDUCATION,20,852,1,10-14
3310,GOVT  GIRLS UPPER PRIMARY SCHOOL,MAINASAR MAINASAR 10 MAINASAR 331022,EDUCATION,20,851,1,10-14
3311,GOVT  HIGHER SECONDARY SCHOOL,MAINASAR MAINASAR 1 MAINASAR 331506,EDUCATION,20,852,1,10-14
3312,GOVT  HIGHER SECONDARY SCHOOL,KUSUMDESAR KUSUMDESAR 46 KUSUMDESAR 331022,EDUCATION,20,852,1,15-19
3313,GOVT  HOSPITAL,KUSUMDESAR KUSUMDESAR 6 KUSUMDESAR 331022,HUMAN HEALTH,21,861,1,10-14
3314,SANT NEKIRAM SIKSHAK PRASHIKSHAN COLLEGE,SITSAR SITSAR 1 SITSAR 331506,EDUCATION,20,853,2,15-19
3315,SANT NEKIRAM  MAHILA COLLEGE,SITSAR SITSAR 1 2  SITSAR 331506,EDUCATION,20,853,2,10-14
3316,SANT NEKIRAM HIGHER SEC  SCHOOL,SITSAR SITSAR 1 3  SITSAR 331506,EDUCATION,20,852,2,25-29
3317,SANSKAR ACEDEMY,SARDARSHAR SARDARSHAR 0 SARDARSHAR 331403,EDUCATION,20,852,2,20-24
3318,NIEL KHANT FACTORY,SARDARSHAR SARDARSHAR 208 SARDARSHAR 331403,MANUFACTURING,6,106,4,20-24
3319,MATSWARI ART MILS,SARDARSHAR SARDARSHAR H 25 26 INSD  LAIN 331403,MANUFECTURING,6,310,2,10-14
3320,SARAF IND  RIICO AREA,SARDARSHAR SARDARSHAR J 1 170   171 POWAR HOUSE 331403,MANUFECTURING,6,310,2,10-14
3321,SARAF IND  RIICO AREA,SARDARSHAR SARDARSHAR J 1 172 173 RIICO IND ROAD 331403,MANUFECTURING,6,310,2,15-19
3322,RAJ HANDICARFT,SARDARSHAR SARDARSHAR G 1 69 RAIICO AREA 331403,MANUFECTURING,6,310,2,10-14
3323,NAVINE LAGU UDYOG RIICO AREA,SARDARSHAR SARDARSHAR J 1 30 31 RIICO INDU  AREA 331001,MANUFECTURING,6,310,2,20-24
3324,NARAYAN HANDICRAFT,SARDARSHAR SARDARSHAR 0 RAIICO IND  AREA 331403,MANUFECTURING,6,310,2,20-24
3325,SARAF SIJ NING UDYOG,SARDARSHAR SARDARSHAR J 1 168 169 RAIICO IND  AREA 331403,MANUFECTURING,6,310,2,200-499
3326,BANSAL HANDICRAFT,SARDARSHAR SARDARSHAR J 1 70 RIICO AREA 331403,MANUFECTURING,6,310,2,15-19
3327,SRIRAM HANDICRAFT,SARDARSHAR SARDARSHAR H 1 289 RIICO AREA 331403,MANUFECTURING,6,310,2,15-19
3328,SHANKAR AND SHANKAR PLASTAR,SARDARSHAR SARDARSHAR J 1 328 POWER HOUSE KA PASS 331403,MANUFECTURING,6,239,2,10-14
3329,TIGER PLASTER RIICO AREA,SARDARSHAR SARDARSHAR J 1 329 POWER HOUSE KA PASS 331403,MANUFECTURING,6,239,2,10-14
3330,THE SARDARSHAHAR HANDICARFT,SARDARSHAR SARDARSHAR J 1 330 POWER HOUSE KE PASS 331403,MANUFECTURING,6,310,2,20-24
3331,SHANKAR AND SHANKAR PLASTAR,SARDARSHAR SARDARSHAR J 1 331 POWER HOUSE KE PASS 331403,MANUFECTURING,6,310,3,10-14
3332,VISHWAKARMA HANDICARFT,SARDARSHAR SARDARSHAR J 1  25 RIICO AREA 331403,MANUFECTURING,6,310,2,10-14
3333,BABA IND ,SARDARSHAR SARDARSHAR H 1 203 RIICO AREA 05 331403,MANUFECTURING,6,310,2,10-14
3334,GANPATI HANDICARFT,SARDARSHAR SARDARSHAR J 1 139 140 RIICO AREA 331403,MANUFECTURING,6,310,2,30-99
3335,JALAN TIMBER,SARDARSHAR SARDARSHAR J 1 144 145 POWER HOUSE ROAD 331403,MANUFECTURING,6,310,2,15-19
3336,SHAKAMBARI VIDHYAPEETH,SARDARSHAR SARDARSHAR 02 2  SARDARSHAR 331403,EDUCATION,20,852,2,20-24
3337,SATH SAMPAT RAM DUGGAR SR SEC SCHOOL,SARDARSHAHAR SARDARSHAHAR 103 1  GHANTAR MARGA 331403,EDUCATION,20,852,2,30-99
3338,BAL MANDIR SR SEC SCHOOL,SARDARSHAHAR SARDARSHAHAR 105 1  GHANTAGHAR MARGA 331403,EDUCATION,20,852,7,30-99
3339,SBBJ BANK,SARDARSHAHAR SARDARSHAHAR 15 6  SARDARSHAHAR 331403,FINANCE,16,641,1,20-24
3340,PNB BANK,SARDARSHAHAR SARDARSHAHAR 16  4  MAIN MARKET 331403,FINANCE,16,641,1,10-14
3341,BANK OF BARODA,SARDARSHAHAR SARDARSHAHAR 52 SOUTH MARKET 331403,FINANCE,16,641,1,10-14
3342,UPNAYAN SHIKSHAN SANSTHAN,SARDARSHAHAR SARDARSHAHAR 185 SARDARSHAHAR 331403,EDUCATION,20,852,2,10-14
3343,SHRI BHARTIYA ADARS VIDYA SR SEC SCHOOL,SARDARSHAHAR SARDARSHAHAR 68 SARDARSHAHAR 331403,EDUCATION,20,852,2,20-24
3344,L I C INDIA,SARDARSHAHAR SARDARSHAHAR 0 SARDARSHAHAR 331403,FINANCE,16,651,1,20-24
3345,JAKHAR TRACTOR AGANCY,SARDARSHAHAR SARDARSHAHAR 42 SARDARSHAHAR 331403,WHOLE SALE TRADE,10,451,2,10-14
3346,JAIKISHAN TRADERS,SARDARSHAHAR SARDARSHAHAR 0 SARDARSHAHAR 331403,WHOLE SALE TRADE,10,451,2,10-14
3347,I A S E UNIVERSITY,SARDARSHAHAR SARDARSHAHAR 7 SARDARSHAHAR 331403,EDUCATION,20,853,9,100-199
3348,AXEN OFFICE 132 KV GSS,SARDARSHAHAR SARDARSHAHAR 48 SARDARSHAHAR 331403,ELECTRICITY,7,351,4,15-19
3349,SARSAWATI SASHIK TRANING COLLAGE,SARDARSHAHAR SARDARSHAHAR 66 SARDARSHAHAR 331403,EDUCATION,20,853,2,10-14
3350,RUPARAM PATROL PUMP,SARDARSHAHAR SARDARSHAHAR 150 SARDARSHAHAR 331403,ELECTRICITY,7,351,3,10-14
3351,JHAWAHAR NODHYA SCHOOL,SARDARSHAHAR SARDARSHAHAR 0 SARDARSHAHAR 331403,EDUCATION,20,852,1,30-99
3352,SATH BUDHMAL DUGGAR GOVT COLLAGE,SARDARSHAHAR SARDARSHAHAR 0 SARDARSHAHAR 331403,EDUCATION,20,853,1,30-99
3353,VIR VIJAYPAL SASKTIN SANTHAN,SARDARSHAHAR SARDARSHAHAR WARD NO 19 SARDARSHAHAR 331403,EDUCATION,20,853,2,25-29
3354,RODWAYS BUS DIPO WORKSHOPE,SARDARSHAHAR SARDARSHAHAR WARD NO 19 SARDARSHAHAR 331403,MANUFECTURING,6,310,1,30-99
3355,VEER VIJAYPAL GODARA SR SEC SCHOOL,SARDARSHAHAR SARDARSHAHAR 134 BUKLSAR BASS 331403,EDUCATION,20,852,2,30-99
3356,SARDARSHAHAR ACEDAMY SR SEC SCHOOL,SARDARSHAHAR SARDARSHAHAR 49 BUKLSAR BASS 331403,EDUCATION,20,852,2,25-29
3357,SARDAR BHAGTI SINGH S S SR SEC SCHOOL,SARDARSHAHAR SARDARSHAHAR 67 BUKLSAR BASS 331403,EDUCATION,20,852,2,20-24
3358,MEERA NIKTEN SR SEC SCHOOL,SARDARSHAHAR SARDARSHAHAR 188 GHANDI VIDHY MANDIR 331403,EDUCATION,20,852,7,10-14
3359,BALBARI VISHST MONTANSI SCHOOL,SARDARSHAHAR SARDARSHAHAR 189 GANDHI VIDHY MANDIR 331403,HEALTH,20,851,7,30-99
3360,FACAULTY OF ENG COLLAGE,SARDARSHAHAR SARDARSHAHAR 194 GANDI VIDHYA MANDIR 331403,EDUCATION,20,853,7,30-99
3361,BSTC COLLAGE,SARDARSHAHAR SARDARSHAHAR 195 2  GANDI VIDHYA MANDIR 331403,EDUCATION,20,852,7,30-99
3362,B S T C COLLAGE,SARDARSHAHAR SARDARSHAHAR 196 GANDI VIDHYA MANDIR 331403,EDUCATION,20,852,7,10-14
3363,GANPATI NURSING HOME,SARDARSHAHAR SARDARSHAHAR 076 2  RADIO J KI HAWALI 331403,HUMAN HEALTH,21,861,2,15-19
3364,RNT SEC SCHOOL,SARDARSHAHAR SARDARSHAHAR 101 BUKLSAR BASS 331403,EDUCATION,20,852,2,15-19
3365,GOVT SR SEC ANJUMAN SCHOOL,SARDARSHAHAR SARDARSHAHAR 1 SARDARSHAHAR 331403,EDUCATION,20,852,1,15-19
3366,SAIYAD ENT CHUNA BHATA,SARDARSHAHAR SARDARSHAHAR 0 MAGA HAIWAY 331403,MANUFECTURING,6,239,2,10-14
3367,P H C,SARDARSHAHAR SARDARSHAHAR 76 WARD NO 28 331403,HUMAN HEALTH,21,861,1,10-14
3368,O B C BANK,SARDARSHAHAR SARDARSHAHAR 27 SARDARSHAHAR 331403,FINANCE,16,641,1,10-14
3369,SS D T BAL BHARTI,SARDARSHAHAR SARDARSHAHAR 123 SARDARSHAHAR 331403,EDUCATION,20,852,2,15-19
3370,SH GIRLS SR SEC SCHOOL,SARDARSHAHAR SARDARSHAHAR 127 SARDARSHAHAR 331403,EDUCATION,20,852,2,30-99
3371,GOVT TANTIA GIRALS SR SEC SCHOOL,SARDARSHAHAR SARDARSHAHAR 83 SARDARSHAHAR 331403,EDUCATION,20,852,1,20-24
3372,SHRI RAM SEC SCHOOL,SARDARSHAHAR SARDARSHAHAR 66 SARDARSHAHAR 331403,EDUCATION,20,852,2,15-19
3373,GOVT HOSPITAL,SARDARSHAHAR SARDARSHAHAR 125 1  TAL GROUND 331403,HUMAN HEALTH,21,861,1,30-99
3374,GOVT SR SEC SCHOOL,SARDARSHAHAR SARDARSHAHAR 121 TEL GROUND 331403,EDUCATION,20,852,1,25-29
3375,MITAL EYE HOSPITAL,SARDARSHAHAR SARDARSHAHAR 131 1  TAL GROUND 331403,HUMAN HEALTH,21,861,2,10-14
3376,KKC COLLAGE,SARDARSHAHAR SARDARSHAHAR 11 3  SARDARSHAHAR 331403,EDUCATION,20,853,2,30-99
3377,MITAL MAHILA COLLAGE,SARDARSHAHAR SARDARSHAHAR 131 SARDARSHAHAR 331403,EDUCATION,20,853,2,20-24
3378,BABA PUBLIC SCHOOL,SARDARSHAHAR SARDARSHAHAR 60 SARDARSHAHAR 331403,EDUCATION,20,852,2,10-14
3379,MAHAVEER COLLAGE,SARDARSHAHAR SARDARSHAHAR 134 SARDARSHAHAR 331403,EDUCATION,20,852,2,15-19
3380,SHRI BALAJI ENT,JAITSISAR JAITSISAR 107 JAITSISAR 331411,MANUFACTURING,6,239,2,100-199
3381,KAPIL BALIKA SR SEC SHIKSHAN SANSTHAN,JAITSISAR JAITSISAR 17 JAITSISAR 331411,EDUCATION,20,852,2,10-14
3382,GOVT SEC SCHOOL,MEHRASAR UPADHIYAN MEHRASAR UPADHIYAN 111 MEHRASAR UPADHIYAN 331302,EDUCATION,20,852,1,10-14
3383,SHRI SHIV KRISI SR SEC SCHOOL LUKSA,BILUE MAHIYAN BILUE MAHIYAN 80 BILUE MAHIYAN 331403,EDUCATION,20,852,2,15-19
3384,GOVT SEC SCHOOL,BARANJASAR BARANJASAR 132 BARANJASAR 331411,EDUCATION,20,852,1,10-14
3385,KASTURBA GANDHI BALIKA VIDHAYALAY,HARDESAR POST BHANIPURA HARDESAR POST BHANIPURA 0 HARDESAR POST BHANIPURA 331411,EDUCATION,20,852,1,10-14
3386,VIJAY BHARTI SEC,SHIKSHAN SANSTHAN MALAKSAR 61 BAYALA MARG 331411,EDUCATION,20,852,2,10-14
3387,GOVT SR SEC SCHOOL,MALSAR MALSAR 72 MALSAR 331411,EDUCATION,20,852,1,10-14
3388,GOVT SEC SCHOOL,ASPALSAR BADA ASPALSAR BADA 68 ASPALSAR BADA 331403,EDUCATION,20,852,1,10-14
3389,GOVT SEC SCHOOL,GAJUSAR GAJUSAR 27 1  AATHUNA BASS 331403,EDUCATION,20,852,1,10-14
3390,GOVT SEC SCHOOL,HARIYASAR GHADSOTAN HARIYASAR GHADSOTAN 0 HARIYASAR GHADSOTAN 331403,EDUCATION,20,852,1,10-14
3391,GOVT SEC SCHOOL,RAMSISAR CHHAJLANIA RAMSISAR CHHAJLANIA 109 RAMSISAR CHHAJLANIA 331403,EDUCATION,20,852,1,10-14
3392,KRISHANA SEC SCHOOL,RAMSISAR BHEDWALIA RAMSISAR BHEDWALIA 46 STREET NO  5 331403,EDUCATION,20,852,2,10-14
3393,GOVT SEC SCHOOL,RAJASAR BIKAN RAJASAR BIKAN 60 RAJASAR BIKAN 331403,EDUCATION,20,852,1,10-14
3394,GOVT SEC SCHOOL,BHOJUSAR UPADHIYAN BHOJUSAR UPADHIYAN 33 BHOJUSAR UPADHIYAN 331403,EDUCATION,20,852,1,10-14
3395,A M GOVT SR SEC SCHOOL,BANDNAU UTRADA BANDNAU UTRADA BANDNAU UTRADA 331403,EDUCATION,20,852,1,10-14
3396,ABHYUDAY SIKSHAN SANSTHAN,BIKAMSARA BIKAMSARA 72 BIKAMSARA 331403,EDUCATION,20,852,2,15-19
3397,NIKUNJ ARTS,SAWAI SAWAL SAWAI SAWAL 0 RAILWAY STATION 331403,MANUFACTURING,6,310,3,10-14
3398,GOVT SEC SCHOOL,SAWAI BADI SAWAI BADI 5 1  SAWAI BADI 331403,EDUCATION,20,852,1,10-14
3399,GOVT SR SEC SCHOOL,PULASAR PULASAR 95 PULASAR 331402,EDUCATION,20,852,1,15-19
3400,GOVT GIRLS SEC SCHOOL,PULASAR PULASAR 74 2  PULASAR 331402,MANUFACTUREROF PLASTER,20,852,1,10-14
3401,GOVT HOSPITAL,PULASAR PULASAR 45 PULASAR 331402,HUMAN HEALTH,21,861,1,10-14
3402,GOVT SEC SCHOOL,BARLAJSAR BARLAJSAR 1 MEGHA HIGH WAY 331403,EDUCATION,20,852,1,15-19
3403,GOVT SEC SCHOOL,KALYANPURA PUROHITAN KALYANPURA PUROHITAN 0 KALYANPURA PUROHITAN 331403,EDUCATION,20,852,1,10-14
3404,GOVT SR SEC SCHOOL,DULRASAR DULRASAR 119 DULRASAR 331403,EDUCATION,20,852,1,15-19
3405,GOVT PUBLIC SCHOOL,RANASAR BIKAN RANASAR BIKAN 0 RANASAR BIKAN 331504,EDUCATION,20,852,2,10-14
3406,GOVT SR SEC SCHOOL,AJITSAR AJITSAR 25 MALASAR KACCHI ROAD 331504,EDUCATION,20,852,1,15-19
3407,STATE BANK OF BANK OF BIKANER AND JAIPUR,SALASAR SALASAR 55 SALASAR 331506,FINANCE,16,641,1,10-14
3408,GBH HOTAL,SALASAR SALASAR 41 BAJALA JI MARGA 331506,FOOD,14,551,2,15-19
3409,MANDER BALAJI,SALASAR SALASAR 43 SALASAR 331506,OTHER SERVICES,23,949,7,100-199
3410,GOVT  SR  SEC  SCHOOL SALASAR,SALASAR SALASAR 135 SALASAR 331506,EDUCATION,20,852,1,15-19
3411,GOVT GIRLS UPP  PRI  SCHOOL,GUDABARI GUDABARI 121 GUDABARI 331506,EDUCATION,20,851,1,10-14
3412,HOSPITAL,SALASAR SALASAR 102 1  SALASAR 331506,HUMAN HEALTH,21,861,1,15-19
3413,OFFICE OF ELE BOARD,SALASAR SALASAR 104 1  SALASAR 331506,ELECTRICITY,7,351,1,25-29
3414,GOVT UPP SANKARIT SCHOOL,SALASAR SALASAR 140 SALASAR 331506,EDUCATION,20,852,1,10-14
3415,NAV PERANA SCHOOL,SALASAR SALASAR SALASAR 331506,EDUCATION,20,851,2,15-19
3416,GOSALA,SALASAR SALASAR 3 SALASAR 331506,LIVESTOCK,2,14,1,30-99
3417,R N UPP SEC SCHOOL,SALASAR SALASAR 4 2  SALASAR 331506,EDUCATION,20,851,2,25-29
3418,GOVT SR SEC SCHOOL,SOBHASAR SOBHASAR 0 SOBHASAR 331506,EDUCATION,20,852,1,15-19
3419,GOVT SEC SCHOOL,BAGASARA PURVI BAGASARA PURVI BAGASARA PURVI 365440,EDUCATION,20,852,1,10-14
3420,VIDHYA BHARTI SR SEC SCHOOL,SADHAN SADHAN 64 SADHAN 331506,EDUCATION,20,852,2,10-14
3421,AJAD BAL BHARTI EDU,INS SEN SEC SCHOOL NYAMA 01 520 NYAMA 331506,EDUCATION,20,852,3,10-14
3422,GOVT GIRLS U P S,NYAMA NYAMA 148 520 NYAMA 331506,EDUCATION,20,852,1,10-14
3423,SHRIBALAJI ADARSH VIDYA,MANDIR SR SEC SCHOOL NAYAMA 149 520 NYAMA 331506,EDUCATION,20,852,3,20-24
3424,GOVT SEC SCHOOL,MALASI MALASI 0 MALASI 331506,EDUCATION,20,852,1,10-14
3425,GOVT SEC SCHOOL,BHAMANYA BHAMANYA C 2 SATI MANDIR KA PASS 331506,EDUCATION,20,852,1,10-14
3426,GOVT SEC SCHOOL,TOLIYASAR TOLIYASAR 0 TOLIYASAR 331506,EDUCATION,20,852,1,15-19
3427,GOVT SEC SCHOOL,PARWATISAR PARWATISAR 0 PARWATISAR 331506,EDUCATION,20,852,1,10-14
3428,GOVT UPP SEC SCHOOL,BHIMSAR BHIMSAR 0 BHIMSAR 331506,EDUCATION,20,852,1,15-19
3429,INDRA BAL SHIKNA SASTHAN UPP SEC SCHOOL,MALASISAR MALASISAR 0 MALASISAR 331507,EDUCATION,20,852,2,15-19
3430,P H C,BADABAR BADABAR 0 BADABAR 331507,HUMAN HEALTH,21,861,4,10-14
3431,GOVT SR SEC SCHOOL,HARASAR HARASAR 55 HARASAR 331505,EDUCATION,20,852,1,10-14
3432,GOVT UPP SEC SCHOOL,RAJYASAR MITHA RAJYASAR MITHA 0 RAJYASAR MITHA 331505,EDUCATION,20,852,1,10-14
3433,GOVT SR SECSCHOOL,ABSAR ABSAR 39 CHAPAR ROAD 331505,EDUCATION,20,852,1,10-14
3434,GHANDI BAL NIKTHAN SEC SCHOOL,ABSAR ABSAR 84 ABSAR 331505,EDUCATION,20,852,2,10-14
3435,SARAWATI VIDYA MANDIRE SEC  SCHOOL,ABSAR ABSAR 9 BEHIND SENIOR SEHOOL 331505,EDUCATION,20,852,2,10-14
3436,GOVT SEC SCHOOL,DEWANI DEWANI 1 DEWANI 331502,EDUCATION,20,852,1,10-14
3437,P H C,GOPALPURA GOPALPURA 17 GOPALPURA 331503,HUMAN HEALTH,21,861,1,10-14
3438,MADHUDHARVIDYA MANDIR SCHOOL,MUNDARA MUNDARA 152 OSUWATIO KA MOHILA 331518,EDUCATION,20,852,2,10-14
3439,GOVT UPP SEC SCHOOL,KUNTA KUNTA 0 KUNTA 331507,EDUCATION,20,852,2,10-14
3440,SUBHOD SR SEC SCHOOL,KUNUTA KUNTA 0 KUNTA 331507,EDUCATION,20,852,2,25-29
3441,SHRI GURKUK SHIKSAN SASTHAN SR SEC SCHOOL,KUNUTA KUNATA 0 KUNTA 331507,EDUCATION,20,852,2,15-19
3442,PHC,KUNATA KUNATA 0 KUNTA 331507,HUMAN HEALTH,21,861,1,10-14
3443,SHRI SARSWATI BAL NIKTHAN SR SEC SCHOOL,SAROTHIA SAROTHIA 0 SAROTHIA 331518,EDUCATION,20,852,2,20-24
3444,GOVT SEC SCHOOL,JATASAR JATASAR 0 JATASAR 331802,EDUCATION,20,852,1,10-14
3445,OFFICE OF HUNUMAN SAVA SAMITI,SALASAR SALASAR 51 SALASAR 331506,AGENCY,19,821,7,30-99
3446,JAI JAGADANMA INTUDHYOG,JEELI JEELI 0 JEELI 331518,MANUFACTURER,6,239,2,10-14
3447,BAL BHARTI HAIR SECONDARY SCHOOL,SUJANGARH SUJANGARH 28 INDUSTRIES AREA 331507,EDUCATION,20,852,3,30-99
3448,BAL BHARTI UPPER PRIMARY SCHOOL,SUJANGARH SUJANGARH 74 3  BHOJLAI ROAD 331507,EDUCATION,20,851,3,10-14
3449,MADAR INTERNATIONAL SECONDARY SCHOOL,SUJANGARH SUJANGARH 252 1  NEW BASS 331507,EDUCATION,20,852,3,15-19
3450,POST OFFICE,SUJANGARH SUJANGARH 0 GHANDHI CHOUCK 331507,TRANSPORATION,13,531,1,15-19
3451,GANDHI GIRLS HAIR SECONDARY SCHOOL,SUJANGARH SUJANGARH 0 GANDHI CHOUCK 331507,EDUCATION,20,852,7,20-24
3452,EXCELLENCE PUBLIC SCHOOL,SUJANGARH SUJANGARH 0 NES BASS 331507,EDUCATION,20,852,1,15-19
3453,EVERY GREEN SECONDARY SCHOOL,SUJANGARH SUJANGARH 128 NEW BASS 331507,EDUCATION,20,852,1,15-19
3454,VENCTESWAR FOUNDATION TIRUPATI TEMPLE,SUJANGARH SUJANGARH 0 STATION RAOD 331507,OTHER SERVICES,23,949,7,10-14
3455,KALA BAL TEMPLE UPPER PRIMARY SCHOO,SUJANGARH SUJANGARH 80 SUJANGARH 331507,EDUCATION,20,851,5,30-99
3456,BSNL OFFICE,SUJANGARH SUJANGARH 88 SUJANGARH 331507,INFORMATION,19,821,1,15-19
3457,PHED OFFICE,SUJANGARH SUJANGARH 115 1  GANESH TEMPLE 331507,WATER SUPPLY,8,360,1,30-99
3458,GANDHI BAL NIKETAN SR  SECONDARY SCHOOL,SUJANGARH SUJANGARH SUJANGARH SUJANGARH 331507,EDUCATION,20,852,2,15-19
3459,DR  JAKIR HUSAIN SIKSHAN SANSTHAN SR  SECONDARY SCHOOL,SUJANGARH SUJANGARH SUJANGARH SUJANGARH 331507,EDUCATION,20,852,2,15-19
3460,GOVT SECONDARY SCHOOL TELIYAN,SUJANGARH SUJANGARH SUJANGARH SUJANGARH 331507,EDUCATION,20,852,1,10-14
3461,PARMANAND TRILOKCHAND MANAV DEVELOMENT TECHING R SAMITI,SUJANGARH SUJANGARH 58 LADNU BAI PASS NEAR 331507,EDUCATION,20,853,1,10-14
3462,GOPAL KRISHAN SHASTRI TEMPLE,SUJANGARH SUJANGARH 44 WARD NO 01 331507,EDUCATION,20,852,2,30-99
3463,GOVT GIRLS SECONDARY SCHOOL,SUJANGARH SUJANGARH 31 GANDHI COLONY 331507,EDUCATION,20,852,1,15-19
3464,SUJANGARH SIKSHAN SANSTHAN UPPER,PRIMARY SCHOOL SUJANGARH 144 HOLI DHORA 331507,EDUCATION,20,851,2,10-14
3465,SONA DEVI SETHIYA GIRLS PG COLLEGE,SUJANGARH SUJANGARH 90 SUJANGARH 331507,EDUCATION,20,853,2,15-19
3466,GOVT KONOI GIRLS HAIR SECONDARY SCHOOL,SUJANGARH SUJANGARH 127 SUJANGARH 331507,EDUCATION,20,852,1,25-29
3467,GOVT UPPER PRIMARY ADARSH VIDHA TEMPLE,SUJANGARH SUJANGARH 47 1  SUJANGARH 331507,EDUCATION,20,851,9,10-14
3468,SHREE GANESH INDUSTRIES,SUJANGARH SUJANGARH 112 SUJANGARH 331507,MANUFACTURING,6,106,2,10-14
3469,GOVT HAIR SECONDARY ADARSH VIDHYA MANDIR,SUJANGARH SUJANGARH 43 SUJANGARH 331507,EDUCATION,20,852,9,30-99
3470,BABY GARDAN ADARSH VIDHA TEMPLE,SUJANGARH SUJANGARH 47 SUJANGARH 331507,EDUCATION,20,852,9,15-19
3471,MS  SU KU  GA  HAIR SECONDARY ADARSH VIDHA TEMPLE,SUJANGARH SUJANGARH 30 SUJANGARH 331507,EDUCATION,20,852,9,25-29
3472,GOVT GO GA PRIMARY ADARSH VIDHA TEMPLE,SUJANGARH SUJANGARH 35 SUJANGARH 331507,EDUCATION,20,851,9,10-14
3473,DD  SPRINGDALE PABLIC SCHOOL,GOPALPURA RAOD NANIYA BASS SUJANGARH 0 SUJANGARH 331507,EDUCATION,20,852,2,15-19
3474,SHREE MAAN PUBLIC SECONDARY SCHOOL,SUJANGARH SUJANGARH 0 GOPALPURA ROAD 331507,EDUCATION,20,852,2,15-19
3475,BALAJI SIKSHAN SANSTHAN,SUJANGARH SUJANGARH 77 BHOJLAI ROAD 331507,EDUCATION,20,852,2,20-24
3476,CHHINPA TEXTILE,SUJANGARH SUJANGARH 269 INDUSTRIES ARIA 331507,MANUFACTURER,6,131,2,10-14
3477,BHARAT HOSPITAL,SUJANGARH SUJANGARH 6  1  STATION ROAD 331507,HUMAN HEALTH,21,861,2,25-29
3478,JANGIRH HOSPITAL,SUJANGARH SUJANGARH 24 1  STATION OF NEAR 331507,HUMAN HEALTH,21,861,2,15-19
3479,GOVT UPPER PRIMARY SCHOOL,BANIYALA BANIYALA 0 BANIYALA 332713,EDUCATION,20,852,1,10-14
3480,GOVT  PHC,SAHAWA SAHAWA 0 SAHAWA 331302,HUMAN HEALTH,21,861,1,10-14
3481,GOVT  SEC SCHOOL,SAHAWA SAHAWA 125 SAHAWA 331302,EDUCATION,20,852,1,20-24
3482,SUBHASH CHANDAR BOS TEACHERS TRANING COLLEGE,SAHAWA SAHAWA 87 SAHAWA 331302,EDUCATION,20,853,3,10-14
3483,GOVT  GIRLS SEC  SCHOOL,SAHAWA SAHAWA 115 SAHAWA 331302,EDUCATION,20,852,1,10-14
3484,SHIVA SMART COLLAGE,SAHAWA SAHAWA 0 SAHAWA 331302,EDUCATION,20,853,3,20-24
3485,NATIONAL ACADMI,SAHAWA SAHAWA 0 NOHAR BY PASS 331302,EDUCATION,20,852,2,10-14
3486,SHIVA CHILDREN HIER SECONDARY SCHOOL,SAHAWA SAHAWA 0 SAHAWA 331302,EDUCATION,20,852,2,10-14
3487,BALAJI SCHOOL,DHIRWAS BADA DHIRWAS BADA 23 DHIRWAS BADA 331302,EDUCATION,20,852,3,15-19
3488,SWAMI PLASTER INDUSTRY,DHIRWAS BADA DHIRWAS BADA 109 1  DHIRWAS BADA 331302,MANUFACTURER,6,239,2,10-14
3489,JAI SHREE PLASTER,DHIRWAS BADA DHIRWAS BADA 110 MAIN ROAD 331302,MANUFACTURER,6,239,2,15-19
3490,SHRI RAM  PLASTER INDUSTRY,DHIRWAS BADA DHIRWAS BADA 111 MAIN ROAD 331302,MANUFACTURER,6,239,2,10-14
3491,INDAR  PLASTER INDUSTRY,DHIRWAS BADA DHIRWAS BADA 112 MAIN ROAD 331302,MANUFACTURER,6,239,2,15-19
3492,HIER SECONDARY SCHOOL,DHIRWAS BADA DHIRWAS BADA 1 NEAR BUS STAND 331302,EDUCATION,20,852,1,10-14
3493,GOVT SEC SCHOOL,DHIRWAS CHHOTA DHIRWAS CHHOTA 75 1 DHIRWAS CHHOTA 331304,EDUCATION,20,852,1,10-14
3494,GOVT SECONDARY SCHOOL,KALWAS KALWAS 120 KALWAS 331304,EDUCATION,20,852,1,10-14
3495,GOVT SECONDARY SCHOOL,BHADANG BHADANG 89 BHADANG 331304,EDUCATION,20,852,1,10-14
3496,GOVT  HIER SECONDARY SCHOOL,RADI BHURAWAS RADI BHURAWAS 0 RADI BHURAWAS 331304,EDUCATION,20,852,1,10-14
3497,GOVT GIRLS SECONDARY SCHOOL,BANYAN BANYAN 0 BANYAN 331304,EDUCATION,20,852,1,10-14
3498,VIDHYA BHARTI SR SEC SCHOOL,BANYAN BANYAN 0 BANYAN 331304,EDUCATION,20,852,2,15-19
3499,GOVERNMENT HIGHER SECONDARY SCHOOL,BANYAN BANYAN 0 BANYAN 331304,EDUCATION,20,852,1,10-14
3500,GOVERNMENT  HIGHER SECONDARY SCHOOL,JHOTHADA JHOTHADA 0 JHOTHADA 331304,EDUCATION,20,852,1,10-14
3501,ALOK SIKSHAN SANSTHAN,JHOTHADA JHOTHADA 0 JHOTHADA 331304,EDUCATION,20,852,7,10-14
3502,SARDAR BHAGATSINGH HIGHER SECONDR SCHOOL,JHOTHADA JHOTHADA 0 JHOTHADA 331304,EDUCATION,20,852,7,10-14
3503,GOVERNMENT SECONDRY SCHOOL,PANDREU TIBBA PANDREU TIBBA 0 PANDREU TIBBA 331304,EDUCATION,20,852,1,10-14
3504,GOVT SECONDARY SCHOOL,BHALAU TAL BHALAU TAL 11 BHALAU TAL 331304,EDUCATION,20,852,1,15-19
3505,GOVT SECONDARY SCHOOL,BHALAU TIBA BHALAU TIBA 0 BHALAU TIBA 331304,EDUCATION,20,852,1,10-14
3506,GOVT SECONDARY SCHOOL,NETHWA NETHWA 105 NETHWA 331304,EDUCATION,20,852,1,15-19
3507,GOVERNMENT  HIGHER SECONDARY SCHOOL,KOHINA KOHINA 0 KOHINA 331304,EDUCATION,20,852,1,10-14
3508,GOVERNMENT  HIGHER SECONDARY SCHOOL,BHALERI BHALERI 0 BHALERI 331304,EDUCATION,20,852,1,10-14
3509,SARSWATI  VIDYA MANDIR SECONDARY SCHOOL,BUCHAWAS BUCHAWAS 104  1  BUCHAWAS 331304,EDUCATION,20,852,2,10-14
3510,VIDHA BHARTI HAIR SECONDARY SHIKSHAN SANSTHAN,GAJUWAS GAJUWAS 0 GAJUWAS 331304,EDUCATION,20,852,2,10-14
3511,ADARSH BAL NIKETAN HAIR SECONDARY SHIKSHAN SANSTHAN,GAJUWAS GAJUWAS 0 GAJUWAS 331304,EDUCATION,20,852,2,10-14
3512,WOOD CRAFT UDYOG,KIRSALI KA NDHLAN KIRSALI KA NDHLAN 0 KIRSALI KA NDHLAN 331304,MANUFACTURER,6,310,2,20-24
3513,CHETNA WOOD CRAFT,KIRSALI KA NDHLAN KIRSALI KA NDHLAN 0 KIRSALI KA NDHLAN 331304,MANUFACTURER,6,310,2,15-19
3514,GOVT HAIR SECONDARY SCHOOL,CHANGOI CHANGOI 0 CHANGOI 331304,EDUCATION,20,852,1,10-14
3515,SHIV BRICS BHATTA,JIGSANA TAL JIGSANA TAL 0 JIGSANA TAL 331304,MANUFACTURER,6,239,2,100-199
3516,GOVT HAIR SECONDARY SCHOOL,SATYU SATYU 0 SATYU 331304,EDUCATION,20,852,1,10-14
3517,GOVT SECONDARY SCHOOL,RAJPURA RAJPURA 0 RAJPURA 331304,EDUCATION,20,852,1,10-14
3518,ANJUMAN EDUCATION INSTITUTE SENIOR SECONDARY SCHOOL,RAJPURA RAJPURA 0 RAJPURA 331029,EDUCATION,20,852,2,15-19
3519,BDS HAIR SECONDARY SCHOOL,RAJPURA RAJPURA 0 RAJPURA 331029,EDUCATION,20,852,2,25-29
3520,SARVODAYA SECONDARY SCHOOL,TARANAGAR TARANAGAR 0 RAM DEV ROAD 331304,HUMAN HEALTH,21,861,1,10-14
3521,STATE BANK OF BANK OF BIKANER AND JAIPUR,TARANAGAR TARANAGAR 0 TANWAR MARKET 331304,FINANCE,16,641,1,15-19
3522,SARSWATI MAHILA MAHAVIDYALYA,TARANAGAR TARANAGAR 0 MOCHIWARA 331304,EDUCATION,20,853,7,15-19
3523,AEN  JVVNL,TARANAGAR TARANAGAR 43 1  WARD NO 15 331304,ELECTRICITY,7,351,4,30-99
3524,COMMUNITY HEALTH CENTER,TARANAGAR TARANAGAR 75 1  WARD NO 15 331304,HUMAN HEALTH,21,861,1,20-24
3525,FOREST DEPARTMENT,TARANAGAR TARANAGAR 23 WARD NO 15 331304,FOREST OFFICE,19,802,1,30-99
3526,PHED OFFICE,TARANAGAR TARANAGAR 28 1  WARD NO 15 331304,WATER SUPPLY,8,360,1,100-199
3527,ASSISTANT ENGINEER,TARANAGAR TARANAGAR 19 1  WARD NO 15 331304,ELECTRICITY,7,351,4,15-19
3528,SHRI LAXMI FACTORY,TARANAGAR TARANAGAR 22 1  WARD NO 15 331304,MANUFACTURING,6,106,2,10-14
3529,EXEN 10 PART,TARANAGAR TARANAGAR 101 WARD NO 15 331304,WATER SUPPLY,8,360,1,10-14
3530,SANSKAR HR SECONDARY SCHOOL,TARANAGAR TARANAGAR 72 1  WARD NO 15 331304,EDUCATION,20,852,2,25-29
3531,SHRI NEHRU PUBLIC SR  SECONDARY SCHOOL,TARANAGAR TARANAGAR 0 NEAR NEW BUS STAND 331304,EDUCATION,20,852,2,25-29
3532,TEGOR PUBLIC COLLEGE,TARANAGAR TARANAGAR 0 TARANAGAR 331304,EDUCATION,20,853,2,25-29
3533,TEGOR PUBLIC HR SECONDARY SCHOOL,TARANAGAR TARANAGAR 0 TARANAGAR 331304,EDUCATION,20,852,2,30-99
3534,MORDEN PUBLIC SENIAR SECONDARY SCHOOL,TARANAGAR TARANAGAR 107 NEAR BUS STAND 331304,EDUCATION,20,852,2,30-99
3535,GOVT  HIGHER SECONDARY SCHOOL,TARANAGAR TARANAGAR 96 WARD NO 17 331304,EDUCATION,20,852,1,30-99
3536,MAIN POST OFFICE,TARANAGAR TARANAGAR 97 NEAR BUS STAND 331304,TRANSPORATION,13,531,1,10-14
3537,DAYANAND SENIOR SECONDARY SCHOOL,TARANAGAR TARANAGAR 11 2  WARD NO 18 331304,EDUCATION,20,852,2,15-19
3538,CHOUDHARY COLLEGE,TARANAGAR TARANAGAR 167 1  0 331304,EDUCATION,20,853,2,30-99
3539,GOVT  SANTI DEVI GIRLS SR SECONDARY SCHOOL,TARANAGAR TARANAGAR 0 TARANAGAR 331304,EDUCATION,20,852,1,20-24
3540,DEV PUBLIC SENIOR SECONDARY SCHOOL,TARANAGAR TARANAGAR 0 TARANAGAR 331304,EDUCATION,20,852,2,20-24
3541,PILANIYA ENGLISH MEDIAM SCHOOL,TARANAGAR TARANAGAR 0 TARANAGAR 331304,EDUCATION,20,852,2,15-19
3542,AADARSH GIRLS COLLEGE,TARANAGAR TARANAGAR 0 RAJGARH ROAD 331304,EDUCATION,20,853,2,15-19
