S.No.,Name of the Establishment,Address,Major Activity Description,Broad Activity Code,NIC,Ownershi p Code,"Employm ent
Class
Interval"
18436,SUB POST OFFICE ,SHEOGANJ 175 1  307027,POST OFFICE,13,531,1,10-14
18437,BLOCK ELEMENTARY EDUCATION OFFICER ,SUBHASH CIRCLE  SHEOGANJ 520 2  307027,GOVERNEMNT EDUCATION DEPARTMENT  SUPERVISION OF SCHOOL,19,821,1,10-14
18438,GOVERNMENT UPPER PRIMARY SCHOOL ,SHEOGANJ MAIN ROAD 138 307027,UPPER PRIMARY EDUCATION,20,851,1,10-14
18439,GOVERNMENT HIGHER SECONDARY SCHOOL ,OLD BUILDING  SHEOGANJ OPPOSITE OF HOSPITAL 1 307027,SENIOR SECONDARY EDUCATION,20,852,1,10-14
18440,ASSISTANT ENGINEER  WATER RESOURCE ,DIVISION SHEOGANJ N H   14 9 307027,GOVERNMENT WATER RESOURCE IRRIGATIO N DEPARTMENT,8,360,1,10-14
18441,STATE BANK OF BIKANER   JAIPUR ,SHEOGANJ KHERATIYO KA VAS 250 307027,BANKING SERIVCE,16,641,1,15-19
18442,GOVERNMENT SECONDARY SCHOOL ,SHEOGANJ 307027,SECONDARY EDUCATOION,20,852,1,15-19
18443,AASHAPURNA GES SERVICE ,SHEOGANJ AGRASEN ROAD 310 14  307027,L P G  GES SUPPLIERS,7,352,2,15-19
18444,ANJALI DAIMOND WORK SHOP ,SHEOGANJ BACK SIDE OF DARGAH 405 1  307027,DAIMOND SKIVE   POLISH,6,321,2,15-19
18445,ADARSH VIDHYA MANDIR  SECONDARY  ,SHEOGANJ ARYA SAMAJ ROAD 231 307027,SECONDARY EDUCATION,20,852,5,30-99
18446,GOVERNMENT SENIOR SECONDARY SCHOOL ,SHEOGANJ COLLEGE ROAD 205 307022,GOVERNMENT SENIOR SECONDARY EDUCATION,20,852,1,30-99
18447,ANAND BAL VIDHYA MANDIR ,SHEOGANJ RANAVAT COLONY 32 307027,PRIMARY EDUCATION,20,851,5,30-99
18448,MUNCIPILITY ,SHEOGANJ 307027,CITY SANITY MANAGE   CITY SERVICE,19,821,1,30-99
18449,ASSISTANT ENGINEER ,PUBLIC HEALTH   ENGINEERING DEPARTMENT  SHEOGANJ 91 3  N H  14 307027,GOVERNMENT WATER SUPPLY DEPARTMENT,19,821,1,30-99
18450,JODHPUR VIDYUT VITRAN NIGAM LTD  ,SHEOGANJ 307027,GOVERNMENT DEPARTMEN OF ELECTRICY SUPPLY,19,821,1,100-199
18451,EDUCATE GIRLS,SIROHI MAHADEV GALI 307001,EDUCATIONAL ACTIVITIES,20,855,2,10-14
18452,PROJECT MANAGER  L T ,SIROHI 307001,HIGHWAY ROAD CONSTRUCTION,9,421,4,10-14
18453,PUNJAB NATIONAL BANK ,SUNARWARA  SIROHI 203 SUNARWARA 307001,BANKING,16,641,1,10-14
18454,STATE BANK OF INDIA ,SIROHI CINEMA HALL GALI 79 307001,BANKING,16,641,1,15-19
18455,GOVERNMENT SECONDARY SCHOOL ,BHATKADA  SIROHI BHATKADA 307001,SECONDARY EDUCATION,20,852,9,15-19
18456,STATE BANK OF BIKANER   JAIPUR ,SIROHI OPP  AURVEDIC HOLPITAL 37 1  307001,BANKING,16,641,1,20-24
18457,TEAM LEADER   EGIS INDIA CONSULTING ENGINEERING PRIVATE LIMITED ,SIROHI 307001,CONSTRUCTION WORK,9,421,4,20-24
18458,PRINCIPAL  EMMANNUEL MISSION SR SEC SCHOOL ,GOYALI ROAD SIROHI 307001,EDUCATION,20,852,7,20-24
18459,AJIM PREMAJI FOUNDATION ,BHATKADA CHOURAHA  SIROHI 307001,EDUCATIONAL ACTIVITIES,20,855,9,25-29
18460,ADARSH VIDHAYA MANDIR GIRLS ,SIROHI 307001,SECONDARY EDUCATION,20,852,9,30-99
18461,ADARSH CREDIT CO  OPERATIVE SOCIETY LTD  ,SIROHI JHUPADI ROAD 19 307001,BANKING WORK,16,641,6,30-99
18462,SENT POL SCHOOL ,SIROHI 307001,SECONDARY EDUCATION,20,852,9,30-99
18463,GOVERNMENT GENERAL HOSPITAL ,SIROHI 307001,MEDICAL FACILITY,21,861,1,100-199
18464,RAJASTHAN RAJAY VIDHUT DEPARTMENT ,SIROHI OPPOSITE LIC CIRCLE 157 1  307001,ELECTRICITY SUPPLY OFFICE,7,351,1,100-199
18465,R S R T C  ,SIROHI 307001,TRANSPORT WORK,13,492,1,100-199
18466,DEPUTY POST OFFICE ,PINDARA MEN ROAD 307022,POST OFFICE,13,531,1,10-14
18467,MINPRO INDUSTRIES ,NATIONAL HIGHWAY 14  N H  14 307022,KELSITE   VOLESTONITE POWDER MANUFACTURE,6,202,2,10-14
18468,NAVIN ADARSH VIDHYA MANDIR  SECONDARY  ,PINDWARA NEAR OF RAM TEMPLE 5 307022,SECONDARY EDUCATION,20,852,9,15-19
18469,STATE BANK OF BIKANER   JAPUR ,PINDWARA MAIN ROAD 4 307022,BANKING,16,641,1,15-19
18470,JUNIOR ENGINEER  PUBLIC HEALTH   ENGINEEING DEPARTMENT,MAIN ROAD PINDWARA 307022,WATER SUPPLY GOVERNMENT OFFICE,8,360,1,30-99
18471,RAJASTHAN VANVASI KALYAN PARISHAD,ADARSH VIDHYA MANDIR  SECONDARY   PINDWARA 174 1  UDAIPUR ROAD 307022,SECONDARY EDUCATION,20,852,7,30-99
18472,HARSHAD CHAVADA DEVINE STONE ,RICCO AREA  SIROHI ROAD F 12 307022,STONE ARTICLES MANUFACTURE,6,239,2,100-199
18473,WOLKEM INDIA LIMITED ,SIROHI ROAD NEAR RAILWAY STATION 307022,KELSITE   VOLESTONITE POWDAR MANUFACTURE,6,201,2,200-499
18474,GUJARAT BHAWAN,ABU ROAD SIROHI 307501,HOTEL,14,561,1,10-14
18475,AKHIL BHARTIYA AANJANA SAMAJ HOSTAL,ABU PRAVAT DELWARA 307501,HOSTAL,14,559,7,10-14
18476,HOTEL RAVIJI S RETEAT,ABU ROAD SIROHI 35 307501,HOTEL,14,561,2,10-14
18477,ADARSH VIDHYA MANDIR ,KAMAL KUNJ  ABU PARVAT DELWARA ROAD 307501,PRIMARY EDUCATION,20,851,7,10-14
18478,GOVERNMENT GIRL S SECONDARY SCHOOL ,ABU PARVAT 307501,SECONDARY EDUCATION,20,852,1,10-14
18479,BRAHMA KUMARI MUSEUM ,ABU PRAVAT 307501,MUSEUM SPIRITUAL ACTIVITIES,23,949,2,10-14
18480,HOTEL RAVI RANJANA S,ABU ROAD SIROHI 33 307501,HOTEL,14,561,2,10-14
18481,STATE BANK OF INDIA ,ABU PRAVAT 307501,BANK,16,641,1,15-19
18482,SHREE SAHJANAND SECONDARY SCHOOL,ABU PARVAT 2 DELWARA ROAD 307501,EDUCATION,20,852,7,15-19
18483,KISHANGARH HOUSE ,RAJENDRA MARG  ABU PRAVAT RAJENDRA MARG 307501,HOTAL,14,561,2,15-19
18484,SETH SHRI RAGHUNATH PARIHAR,DHARMSHALA TRUST  STATION ROAD  JODHPUR 342004,ROOM ON SUBLET,14,561,9,15-19
18485,TOLL TEX NAKA,ABU PARVAT 307501,TOLL TEX,19,774,1,15-19
18486,ADARSH VIDYA MANDIR  AVM ,MOUNT ABU ALWAR PALACE ROAD 307501,EDUCATION,20,852,1,15-19
18487,HOTAL KAGHAT HOUSE ,RAJENDRA MARG  ABU PARVAT RAJENDRA MARG 307501,HOTAL,14,561,2,20-24
18488,SAINT RAJESHWAR SENIOR SECONDARY,SCHOOL MOUNT ABU DELWARA 307501,SENIOR SECONDARY EDUCATION,20,852,7,20-24
18489,GOVERNMENT HIGHER SECONDARY SCHOOL ,ABU PRAVAT 307501,SENIOR SECONDARY EDUCATION,20,852,1,20-24
18490,SOPHIA HOSTAL,ABU ROAD SIROHI 307501,HOSTAL,14,559,7,20-24
18491,HOTEL SUNRISE PALACE,ABU ROAD SIROHI 307501,HOTEL,14,561,2,20-24
18492,NIRMALA SCHOOL ,ABU PRAVAT 307501,EDUCATION,20,852,7,20-24
18493,HOTAL SHIKHAR,RTDC ABU PARVAT NEAR OF PATROL PUMB 307501,HOTEL,14,561,1,25-29
18494,SHRI JAIN SHWETAMBER TEMPLE,MOUNT ABU DELWARA 307501,RELIGIOUS PALACE,23,949,7,30-99
18495,JODHPUR VIDHUT VITRAN NIGAM LTD ,ABU PARVAT 73 DELWARA 307501,ELECTRICITY SUPPLY,7,351,1,30-99
18496,KENDRIYA VIDHALAY ,ABU PRAVAT PILGRIM ROAD 307501,EDUCATION,20,852,1,30-99
18497,OFFICE OF ASSISTANT ENGINEER ,PUBLIC HEALTH   ENGINEERING DEPARTMENT  ABU PARVAT DELWARA ROAD 307501,GOVERNMENT OFFICE WATER SUPPLY,8,360,1,30-99
18498,PALANPUR PALACE,ABU PARVAT 23 DELWARA ROAD 307501,HOTEL,14,561,3,30-99
18499,SOPHIA SCHOOL,ABU ROAD SIROHI 307501,EDUCATION,20,852,7,30-99
18500,ST  MARY S HIGH SCHOOL,MOUNT ABU 307501,EDUCATION,20,852,1,30-99
18501,ADARSH CO OPERATIVE BANK LTD  ,ABUROAD VISHNU DHARMSHALA ROAD 307026,BANKING WORK   FINANCIAL ACTIVITIES,16,641,2,10-14
18502,PANJAB NATIONAL BANK ,ABUROAD BANK STREET 307026,BANKING,16,641,1,10-14
18503,SINGHAL TAX TILES,AZAD CHOCK  ABUROAD 39 12  KIRSHANA COMPLEX 307026,UNDER GARMENT PRODUCTOR,6,141,2,10-14
18504,STATE BANK OF BIKANER   JAIPUR ,ABUROAD 307026,BANKING,16,641,1,10-14
18505,AU FINANCIERS INDIA LIMITES ,AKARA BHATTA  ABUROAD MOUNT ABU ROAD 307510,HOME LOANING   NON BANKING FINANCIAL ACTIVITIES,16,641,2,15-19
18506,BHARAT SANCHAR NIGAM LIMITED  BSNL ,ABUROAD 4 RAILWAY STATION ROAD 307026,TELECOM   COMMUNICATION SERVICE,15,611,1,15-19
18507,I D B I  BANK ,ABUROAD 24 1  MOUNT ABU ROAD 307026,BANKING,16,641,1,15-19
18508,STATE BANK OF INDIA ,ABUROAD BANK STREET 307026,BANKING,16,641,1,15-19
18509,INDIAN POST OFFICE ,ABUROAD 3 1  RAILWAY STATION ROAD 307026,POST OFFICE,13,531,1,20-24
18510,ADARSH VIDHYA MANDIR ,ABUROAD GANDHI NAGAR 307026,SECONDARY EDUCATION,20,852,5,20-24
18511,JYOT COMPANY VIJAY PATEL ,ABUROAD 33 HIGHWAY ROAD 307026,FOOTWARE PRODUCATION,6,152,2,20-24
18512,SETH MANGALCHAND JAIN GOVERNMEN,COLLEGE  ABUROAD 43 KESARGANJ 307026,COLLEGE EDUCATION,20,854,1,30-99
18513,JODHPUR VIDHUT VITRAN NIGAM LTD ,ABUROAD 33 DIESEL SHED 307026,ELECTRICITY SUPPLY GOVT  OFFICE,7,351,1,30-99
18514,DEVINE SOTNE ,SAROOPGANJ OLD BHANWARI ROAD 307023,STONE CUTTING,22,900,2,100-199
18515,INDUSTRIAL TRAINING INSTITUTE , I T I    SANTPUR 181 I T I  ROAD 307026,GOVERNMENT TECHNICAL EDUCATION,20,854,1,15-19
18516,GOVERNMENT UPPER PRIMARY SCHOOL ,SANTPUR 59 KUMHAR MOHALLA 307026,GOVERNMENT UPPER PRIMARY EDUCATION,20,852,1,20-24
18517,ADARSH VIDHYA MANDIR UPPER PRIMARY,SCHOOL  JAWAL 307801,PRIVATE UPPER PRIMARY EDUCATION,20,852,7,15-19
18518,ACHALESHWAR TEMPLE ,ACHALGARH ACHALGARH ROAD 307501,RELIGIOUS ACTIVITIES,23,949,7,20-24
18519,GOVERNMENT SECONDARY EDUCATION ,ALPA 222 MAHADEVAJI STREET 307028,GOVERNMENT SECONDARY EDUCATION,20,852,1,10-14
18520,SHIVMANI GENIATRIC HOME ,NEAR OF GLOBAL HOSPITAL TROMA CENTER  ABUROAD TALHATI 307510,OLD CITIZEN SERVISEAS,21,861,5,25-29
18521,GOVERNMENT SENIOR SECONDARY SCHOOL ,VEERWARA 3 N H 14 307022,GOVERNMENT SENIOR SECONDARY EDUCATION,20,852,1,15-19
18522,GOVERNMENT SECONDARY SCHOOL ,JOYALA JAWAL ROAD 307028,GOVERNMENT SECONDARY EDUCATION,20,852,1,15-19
18523,GOVERNMENT SECONDARY SCHOOL ,JHADOLI 307022,GOVERNMENT SECONDARY EDUCATION,20,852,1,15-19
18524,GOVERNMENT SENIOR SECONDARY SCHOOL ,POSALIYA 32 307028,GOVERNMENT SENIOR SECONDARY EDUCATION,20,852,1,15-19
18525,GOVERNMENT PRIMARY HEALTH CENTRE ,SANWARA 99 BUS STAND ROAD 307511,MEDICAL SERVICES,21,861,1,10-14
18526,THE AMBIKA STONE KRESHING,INDUSTRIES  MOHABBAT NAGAR 26 NEAR KIBALI NADI 307802,STONE CUTTING WORK,6,239,2,10-14
18527,GOVERNMENT UPPER PRIMARY SCHOOL ,KAILASH NAGAR 220 307801,GOVERNMETN UPPER PRIMARY EDUCATION,20,852,1,10-14
18528,GOVERNMENT SENIOR SECONDARY SCHOOL ,KAILASH NAGAR 108 MAIN ROAD 307801,GOVERNMENT SENIOR SECONDARY EDUCATION,20,852,1,10-14
18529,GOVERNMENT PRIMARY HEALTH CENTER ,KAILASH NAGAR 107 1  MAIN ROAD 307801,GOVERNMENT MEDICAL FACILITIES,21,861,1,10-14
18530,ASSISTANT ENGINEER ,JODHPUR VIDHUT VITRAN NIGAM LTD   KAILASH NAGAR 3 MAIN ROAD 307801,GOVERNMENT ELECTRICITY SUPPLY DEPT ,7,351,1,25-29
18531,GOVERNMENT SECONDARY SCHOOL ,RAMPURA 307001,GOVERNMENT SECONDARY EDUCATION,20,852,1,10-14
18532,GOVERNMENT UPPER PRIMARY SCHOOL ,RAMPURA 307001,GOVERNMENT UPPER PRIMARY EDUCATION,20,852,1,10-14
18533,UDAIPUR PARTHWAY PRIVATE LIMITED ,MALERA 96 MAIN ROAD 307022,TOL TEX WORK,19,774,4,30-99
18534,SWAMI NARAYAN SHILP KALA KENDRA ,GHARAT UBRIYA FALI 307022,STONE ARTICAL MAKE,6,239,2,30-99
18535,RAJASTHAN STATE BRAVERAGE,CORPORATION LIMITED  SIROHI 307001,GOVERNMENT WINE SUPPLIERS,19,821,1,15-19
18536,GOVERNMENT SENIOR SECONDARY SCHOOL ,ARATHWARA 222 307028,GOVT  SENIOR SECONDARY EDUCATION,20,852,1,10-14
18537,GOVERNMENT SENIOR SECONDARY SCHOOL ,GIRVAR 145 PATH NARAYAN ROAD 307026,GOVERNMENT SENIOR SECONDARY EDUCATION,20,852,1,10-14
18538,GOVERNMENT SECONDARY SCHOOL ,RUKHADA 124 307028,GOVT  SECONDARY EDUCATION,20,852,1,10-14
18539,GOVERNMENT SECONDARY SCHOOL ,AAWAL NEAR OF PANCHAYAT 307026,TEACHING WORK,20,852,1,10-14
18540,JAIN BHOJAN GRAH ,JEERAWAL 86 2 MAIN STREET 307512,RESTORENT,14,561,7,10-14
18541,PARSHAVA NATH JAIN TEMPLE AND CHERI,TABLE TRUST  JEERAWAL 86 1 MAIN STREET 307512,RELIGIOUS ACTIVITIES,23,949,7,30-99
18542,SINCO INDUSTRIES LIMITED ,RICCO AREA  AKHAPURA KHOONI 28 307027,OIL PRODUCTION,6,104,2,30-99
18543,GOVERNMENT UPPER PRIMARY SCHOOL ,BADGAON 78 MAIN ROAD 307027,GOVT UPPER PRIMARY EDUCATION,20,852,1,10-14
18544,INDUSTRIAL TRAINING INSTITUTE ,KAMBESHWAR COLONY  BADGAON 83 MAIN ROAD 307027,GOVT TECHNICAL EDUCATION,20,854,1,10-14
18545,GOVERNMENT SECONDARY SCHOOL ,BADGAON 162 KAMBESHWAR ROAD 307027,GOVT SECONDARY EDUCATION,20,852,1,10-14
18546,NILKNTH CRUSHING COMPANY ,BASAN AWADA ROAD 307514,STONE ITEM MANUFACTURE,6,239,2,10-14
18547,DIVAEN STONES ,KOJRA 20 SHIVGARH ROAD 307022,STONE STATUE MAKER,22,900,2,30-99
18548,GOVERNMENT SECONDARY SCHOOL ,UTHMAN 382 MAIN CIRCLE 307043,GOVT  SECONDARY EDUCATION,20,852,1,10-14
18549,GOVERNMENT SECONDARY SCHOOL ,KHADAT 307026,GOVERNMENT SECONDARY EDUCATION,20,852,1,10-14
18550,GOVERNMENT SECONDARY SCHOOL ,MORLI 1 307043,GOVT SECONDARY EDUCATION,20,852,1,10-14
18551,GOVERNMENT GIRLS UPPER PRIMARY,SCHOOL  PALDI M 136 GANKESHWAR JI ROAD 307043,GOVT UPPER PRIMARY EDUCATION,20,852,1,10-14
18552,GOVERNMENT UPPER PRIMARY SCHOOL ,PALDI M 120 MAIM ROAD 307043,GOVT  UPPER PRIMARY EDUCATION,20,852,1,10-14
18553,GOVERNMENT UPPER PRIMARY SCHOOL ,VASADA 307026,GOVERNMENT UPPER PRIMARY EDUCATION,20,852,1,10-14
18554,ELECTRICITY HOME ,MANDAR 307513,GOVERNEMNT ELECTRICITY SUPPLY OFFIC E,7,351,1,10-14
18555,GOVERNMENT SENIOR SECONDARY SCHOOL ,MANDAR 307513,GOVERNMENT SENIOR SECONDARY EDUCATION,20,852,1,10-14
18556,SECONDARY ADARSH VIDHYA MANDIR ,MANDAR 307513,SECONDARY EDUCATION,20,852,7,15-19
18557,NUTAN SARSWATI SECONDARY SCHOOL ,MANDAR 60 PAVDIYA KALA 307513,SECONDARY EDUCATION,20,852,2,15-19
18558,MONEY CREDIT CO  OPERATIVE SOCIETY LIMITED,  DHAN MANDI SHEOGANJ 256 1  AAJAD CHOCK 307027,FINANCIAL ACTIVITIES,16,642,9,10-14
18559,MADHAV VIDHYA MANDIR ,SHEOGANJ 32 KESARPURA ROAD 307027,PRIMARY EDUCATION,20,851,2,10-14
18560,SANT MEERA COLLEGE ,SHEOGANJ BACK SIDE OF HOSPITAL 307027,PRIVATE COLLEGE EDUCATION,20,853,7,10-14
18561,GANDHI K  LADURAM SONS ,GANDHI CHOCK  SHEOGANJ 88 MEN MARKET 307027,ALL CLOTH TYPE SELLER,12,477,2,10-14
18562,GOVERNMENT GIRLS HIGHER SECONDARY,SCHOOL  SHEOGANJ 2 OPP  MUNCIPALITY OFFICE 307027,SENIOR SECODNARY EDUCATION,20,852,1,10-14
18563,SHA MANGILAL JUHARMAL ,SHEOGANJ 358 AGRASEN ROAD 307027,CLOTH SELL,12,477,2,15-19
18564,KUNDAN HOTEL ,SHEOGANJ NATIONAL HIGHWAY 14 307027,HOTEL,14,551,3,15-19
18565,JAGDISH RESTORENT ,HALWAI MARKET  SHEOGANJ 305 HALWAI MARKET 307027,SWEETS SELL,14,562,2,15-19
18566,EXAFORD INDUSTRIES ,SHEOGANJ 307027,MANUFACTURING,6,329,3,15-19
18567,JAI BHARAT HANDICRAFT ,SHEOGANJ G 14 RICCO AREA 307027,IORN ITEM MANUFACTURE,6,251,3,20-24
18568,SHREE RAM KARSANA GOPAL PRANI SEVA SAMITI GHOUSHALA ,SHEOGANJ 466 2  AGRASEN ROAD 307027,RELIGIOUS SERVICE   SERVICE OF BIRD,23,949,9,30-99
18569,GOVERNMENT HOSPITAL ,SHEOGANJ 182 NEAR OF OLD BUS STAND 307027,GOVERNMENT MEDICAL FACILITIES,21,861,1,30-99
18570,MORDEN DEFANCE HIGHER SECONDARY,SCHOOL  SHEOGANJ VIJAY SHANTI NGARA 307027,HIGHIR SECONDARY EDUCATION,20,852,5,30-99
18571,GOVERNMENT COLLEGE ,SHEOGANJ 206 KESARPURA ROAD 307027,COLLEGE EDUCATION,20,853,1,30-99
18572,SUPREM SOLVENT PVT LTD  ,SHEOGANJ KESARPURA ROAD 307027,OIL PRODUCTION,6,104,3,100-199
18573,SURENDRA KUMAR JITENDRA KUMAR,NATIONAL HIGHWAY 14 307001,PATROL PUMP,12,473,2,10-14
18574,ASSISTANT ENGINEER ,PHED  SIROHI COLLECTROAT ROAD 307001,WATER SUPPLY,8,360,1,10-14
18575,HOTEL BABA RAMDEV ,SIROHI NATIONAL HIGHWAY 14 307001,HOTEL,14,551,2,10-14
18576,GURUDEV RESIDENSI   RESTORENT ,SIROHI N H 14 307001,RESTORENT,14,561,2,10-14
18577,APESHWAR SOCIETY  CO  OPERATIVE  ,SIROHI 76 1  NEAR OF JHALRAVAV 307001,PRIVATE CO OPERATIVE SOCIETY BANKING   FINANCE WORK,16,641,3,10-14
18578,KHETESHWAR SOCIETY ,SIROHI 307001,BANKING WORK,16,641,2,10-14
18579,JAIN DHARMSHALA ,SIROHI 258 SUNARWARA 307001,JAIN COMMUNITY RESIDENCIAL ROOM   JAIN HOSTAL,23,949,7,10-14
18580,M B FRUIT,SIROHI 152 4  NEAR MALI HOSTAL 307001,FRUIT HOLSEL DEELAR,11,463,2,10-14
18581,SOCIAL WELFARE HOSTAL ,SIROHI 13 PWD COLONY 307001,GOVERNMENT HOSTAL,14,559,1,10-14
18582,PRAGATI CREDIT SOCIETY LTD  ,SIROHI 52 7  307001,BANKING WORK,16,641,2,10-14
18583,ADARSH VIDHAYA MANDIR,SIROHI 79 ANADARA CHOURAHA 307001,SECONDARY EDUCATION,20,852,2,10-14
18584,DR  YADAV HOSPITAL ,SIROHI DR  SAMPURNANAND COLONY 307001,CHILD MEDICAL FACILITY,21,861,2,10-14
18585,GUJRAT HOSPITAL ,SIROHI 151 1  NEAR BHATKADA KOT 307001,MEDICAL FACILITIES,21,861,2,10-14
18586,NATRAJ RESTORENT ,SIROHI N H  14 307001,RESTORENT,14,561,2,10-14
18587,SAHYOG CREDIT CO  OPERATIVE SOCIETY,LIMITED  SIROHI 104 6  PALACE ROAD 307001,BANKING WORK,16,641,9,10-14
18588,ANAND VIDHAYA MANDIR PRAIMARY ,SIROHI 307001,PRIMARY EDUCATION,20,851,2,10-14
18589,GOVERNMENT GIRLS COLLEGE ,SIROHI 163 JAIL ROAD 307001,COLLEGE EDUCATON,20,853,1,10-14
18590,JAGRUK TIME PATRIKA ,SIROHI 117 2  SHAHAJI KI BADI 307001,MEDIA WORK   JAGRUK TIME PATRIKA,15,612,4,10-14
18591,MAHILA HOSPITAL ,SIROHI 126 PALACR ROAD 307001,MEDICAL FACILITY,21,861,1,10-14
18592,SIROHI SERVICE CENTER ,SIROHI NEAR HEAD POST OFFICE 307001,PATROL   DELEAL PUMP,12,473,3,15-19
18593,GOVERNMENT VIVEKANAND SCHOOL ,SIROHI JHUPAGHAT 307001,EDUCATION,20,852,1,15-19
18594,VEISHANO DEVI FILLING STATION , PATROL PUMP  SIROHI 307001,PATROL PUMP,12,473,5,15-19
18595,N S P  SCHOOL,SIROHI N S P  NAGAR 307001,EDUCATION,20,852,2,15-19
18596,GOVERNMENT SENIOR SECONDARY SCHOOL ,SIROHI 307001,SENIOR SECONDARY EDUCATION,20,852,1,15-19
18597,SHREE MAHAVEER PUBLIC SENIOR,SECONDARY SCHOOL  SIROHI N H 14 307001,SENIOR SECONDARY EDUCATION,20,852,7,15-19
18598,BABA RAMDEV RESTORENT,SIROHI N H  14 307001,RESTORENT,14,561,2,20-24
18599,MEWAR ORTHOPEDIC HOSPITAL ,SIROHI 144 2   6  NEAR MALI HOSTAL 307001,MEDICAL FACILITY,21,861,2,20-24
18600,ABL MANDIR VIDYALAYA ,SIROHI 123 PALACE ROAD 307001,PRIMARY EDUCATION,20,851,1,25-29
18601,SHREE ROOPRAJAT SCHOOL ,SIROHI 307001,SECONDARY EDUCATION,20,852,2,25-29
18602,PRINCIPAL SR SEC  EDUCATION,ADARSH VIDHAYA MANDIR  SIROHI 307001,EDUCATION,20,852,9,25-29
18603,GOVERNMENT GIRLS HR SEC SCHOOL , BAGGI KHANA   SIROHI 1 2  PALACE ROAD 307001,HR SECONDARY EDUCATION,20,852,1,25-29
18604,AJIT VIDHYA MANDIR,SIROHI 111 SHANTI NAGAR 307001,SECONDARY SCHOOL EDUCATION,20,852,5,30-99
18605,BSNL,SIROHI 12 4  PWD COLONY 307001,TELIPHONE   MOBILE FACILITY,15,611,1,30-99
18606,POST MASTER  HEAD POST OFFICE ,SIROHI 307001,INDIAN POST,13,531,1,30-99
18607,GOVT SR SEC SCHOOL,NAVEEN BHAWAN SIROHI 3 TEEN BATTI CHORAHA 307001,SENIOR SECONDARY EDUCATION,20,852,1,30-99
18608,LIFE INSURANCE COMPANY OF INDIA ,SIROHI 307001,LIFE INSURANCE POLICY WORKK,16,651,9,30-99
18609,ADARSH CO OPERATIVE BANK LTD ,SIROHI 4 TEEN BATTI CHOUHARA 307001,BANKING,16,641,6,30-99
18610,SCIENCE COLLEGE ,SIROHI 124 PALACE ROAD 307001,SCIENCE EDUCATION,20,853,1,30-99
18611,NAGAR PARISHAD ,SIROHI 307001,CITY SANIFY,19,821,9,30-99
18612,GOVERNMENT COLLEGE,SIROHI 307001,COLLEGE EDUCATION,20,853,1,30-99
18613,GOVERNMENT UPPER PRIMARY SCHOOL ,PINDWARA 234 307022,UPPER PRIMARY EDUCATION,20,851,1,10-14
18614,KESHAV VIDHYA MANDIR ,LAXMI NARAYAN TEMPLE ROAD  PINDWARA 153 1 NEW RAJPUR VAS 307022,PRIMARY EDUCATION,20,851,1,10-14
18615,NAGNECHI MARBLE   ARTICALS ,AMLI ROAD  PINDWARA AMLI ROAD 307022,TONE ARTICLES MANUFACTURE,22,900,2,10-14
18616,CHHAGANLAL REKHASHANKAR SOMPURA PATHAR FACTORY ,SIROHI ROAD G 43 RICCO AREA 307022,MARBAL ARTICALS   SENT ITEM PRODUCTION,6,239,3,15-19
18617,CHEL SEA MARBLES ,SIROHI ROAD  PINDWARA F 60 RICCO AREA 307022,MARBLES   ARTICLES MANUFACTURE,6,239,2,15-19
18618,STONE GHADAI KARKHANA FOR TEMPLE,PINDWARA 80 LAXMI NAYARAN TEMPLE ROAD 307022,STONE ARTICLES MANUFACTURE FOR TEMPLE,6,239,2,15-19
18619,INDIAN ARTICALS FACTARY ,JHANKAR ROAD  SIROHI ROAD RICCO INDUSTRIAL AREA 307022,MARBAL   TEMPLE ARTICAL HANDICRAFT PRODUCTION,6,239,2,15-19
18620,BHERU SHILP KALA KENDRA ,PINDWARA 114 INDRA COLONY 307022,STONE WORK  TEMPLE   ARTICLES BUILD,6,239,2,15-19
18621,GOVERNMENT HOSPITAL ,PINDWARA 233 1  307022,GOVERNMENT MEDICAL SERVICE,21,861,1,15-19
18622,EUREKA PUBLIC SCHOOL ,PINDWARA 366 307022,PRIMARY EDUCATION,20,851,2,20-24
18623,DEEP JYOTI PUBLIC SCHOOL ,PINDWARA 2 10  307022,SECONDARY EDUCATION,20,852,2,20-24
18624,B A P S  SWAMI NARAYAN SANSTHA C O DEVIAN STON ,SIROHI ROAD C 49 RICCO AREA 307022,MARBLES   ARTICLES MANUFACTURE,6,239,2,25-29
18625,SWAMI NARAYAN SANSTHAN ,SIROHI ROAD 174 1  NEAR RAILWAY GATE 307022,STONE ARTICLES MANUFACTURE,6,239,9,25-29
18626,VIVEKANAND SHIKHAN SANSTHAN ,PINDWARA 244 307022,EDUCATIONL ACTIVITIES,20,852,2,25-29
18627,B S J  GOVERNMENT SENIOR SECONDARY SCHOOL ,PINDWARA 174 307022,SENIOR SECONDARY EDUCATION,20,852,1,30-99
18628,SOMPURA MARBAL INDUSTRIES ,JHANKAR ROAD  SIROHI ROAD RICCO AREA 307022,SCULPTURE   ARTICALS PRODUCTION,6,239,2,30-99
18629,SAYANA FACTORY ,SIROHI ROAD G 39 40 RICCO INDUSTRIAL AREA 307022,MARBAL AND HANDICRAFT PRODUCTION,6,239,7,30-99
18630,MUNCIPALITY ,PINDWARA 232 1  307022,CITY SANIFY SERVICE,19,821,1,30-99
18631,HOTAL ASHOKA,DELWARA ROAD  ABU PARVAT DELWARA ROAD 307501,HOTAL,14,561,2,10-14
18632,SHERA PANJAB HOTAL ,TAXI STAND  ABU PARVAT TAXI STAND 307501,VAG   NONVAGE RESTORENT,14,561,2,10-14
18633,PICADILLY PLAZA ,ABU PRAVAT 307501,HANDICRAFT ITAM,12,477,2,10-14
18634,HOTEL POLO VIEW,ABU ROAD SIROHI 117 307501,HOTEL,14,561,2,10-14
18635,HOTAL UDAIGARH ,RAJENDRA MARG  ABU PARVAT RAJENDRA MARG 307501,HOTAL,14,561,4,10-14
18636,KINGH FOOD,NAKKI LAKE 307501,RESTORENT,14,561,2,10-14
18637,MOUNT GAS ENTERPRAISEAS ,ABU PARVAT 307501,GAS SILENDER SUPPLY,7,352,2,10-14
18638,HOTAL MOUNT REGANCY,ABU PARVAT NEAR OF PATROL PUMP 307501,HOTEL,14,561,2,10-14
18639,HOTAL NEELAN ,BUS STAND ROAD  ABU PARVAT BUS STAND ROAD 307501,RESTORENT,14,561,2,10-14
18640,HOTAL RAJKAMAL ,RAJENDRA MARG  ABU PARVAT RAJENDRA MARG 307501,HOTAL,14,561,2,10-14
18641,HOTAL SWAGAT ,RAJENDRA MARG  ABU PARVAT RAJENDRA MARG 307501,HOTAL,14,561,2,10-14
18642,HOSTAL CUBS,JANTA COLONY ABU PARVAT JANTA COLONY 307501,HOSTAL   TUTION FACILITY FOR SUTDENTS,21,861,2,10-14
18643,ABU RESTORENT ,TAXI STAND  ABU PRAVAT TAXI STAND 307501,RESTORENT,14,561,2,10-14
18644,APNI CREDIT CO  OPERATIVE SOCIETY,LIMITED  ABU PRAVAT 307501,BANKING   FINANCE,16,641,6,10-14
18645,SWAMI NARAYAN VIDYA MANDIR,GORA CHHAPRA MOUNT ABU GORA CHHAPRA 307501,SINIOR SECONDARY EDUCATION,20,852,9,10-14
18646,HOTEL RANJANA,SUNSET ROAD ABUPARVAT 4 307501,HOTEL,14,561,2,10-14
18647,HOTEL VIRNDAVAN,ABU PARVAT OPPOSITE BUS STAND 307501,HOTEL,14,561,9,10-14
18648,HOTAL BANJARA,DELWARA ROAD  ABU PARVAT DELWARA ROAD 307501,HOTAL,14,561,2,10-14
18649,PATEL HOSTAL,SUNSET ROAD 307501,HOSTAL,14,559,2,10-14
18650,POST OFFICE ,ABU PRAVAT 307501,DAK SERVICE,13,531,1,10-14
18651,AARSH GURUKAL COLLEGE,MOUNT ABU 307501,EDUCATION   YOGA,20,854,2,10-14
18652,HOTAL SUDHIR ,RAJENDRA MARG  ABU PRAVAT RAJENDRA MARG 307501,HOTAL,14,561,2,15-19
18653,KANAK DINING HALL,ABU ROAD SIROHI 108 307501,RESTORENT,14,561,2,15-19
18654,PNM BLIND REHABITATION ECUCATION CENTER ,ABU PARVAT DELWARA ROAD 307501,EDUCATION,20,852,7,15-19
18655,HOTEL SHANTI,NEAR ABU BUS STAND ABU PARVAT 109 307501,HOTEL,14,561,3,15-19
18656,HOTEL AKASHDEEP ,ABU PRAVAT 307501,HOTEL,14,561,2,15-19
18657,GOVERNMENT HOSPITAL ,ABU PRAVAT 307501,MEDICAL FECILITY,21,861,1,15-19
18658,DR  RAJENDRA MUNI B ED  COLLEGE,ABU PARVAT 52 KUMHARWARA 307501,COLLEGE EDUCATION,20,853,7,15-19
18659,HOTAL SHARATION,NEAR SHAKTI MATA TEMPLE  ABU PARVAT NEAR SHAKTI MATA TEMPLE 307501,HOTEL,14,561,2,15-19
18660,HOTEL ARRAVALI,ABU PARVAT 307501,HOTEL,14,561,2,15-19
18661,HOTEL LAKE PALACE ,ABU PRAVAT 307501,HOTAL,14,561,9,15-19
18662,HOTEL MAYA PALACE,SUNSET ROAD ABUPARVAT 1 307501,HOTEL,14,561,2,15-19
18663,MAHAVEER KANDRA,NEAR CHACHA MUSIAM ABU PRARVAT NEAR CHACHA MUSIAM 307501,HOTAL,14,561,7,20-24
18664,CHACHA MUSEUM ,ABU PRAVAT 307501,HENDICRAFT ITEM SELLAR,12,477,2,20-24
18665,ARBUDA HOTEL ,ABU PRAVAT 307501,HOTEL,14,561,2,20-24
18666,SWAMI NARAYAN CHHATRALAYA,GORA CHHAPRA MOUNT ABU GORA CHHAPRA 307501,HOSTAL,14,559,9,20-24
18667,DESAR BHAWAN PALACE,SUNSET ROAD ABUPARVAT 2 1  307501,HOTEL,14,561,2,20-24
18668,HOTEL SARASWATI,SUNSET ROAD ABUPARVAT 2 307501,HOTEL,14,561,2,25-29
18669,JAIPUR HOUSE HOTEL,ABU ROAD SIROHI 307501,HOTEL,14,561,2,25-29
18670,PALACE HOTEL  BIKANER HOUSE,ABU PARVAT 6 1  DELWARA ROAD 307501,HOTEL,14,561,3,25-29
18671,SAI BOAT HOUSE,NAKKI LAKE 307501,BOATING,13,502,3,25-29
18672,SAVERA PALACE HOTEL,ABU ROAD SIROHI 307501,HOTEL,14,561,2,25-29
18673,ROTARY INTEGRATED SECONDARY SCHOOL,GORA CHHAPRA MOUNT ABU GORA CHHAPRA 307501,SINIOR SECONDARY EDUCATION,20,852,9,25-29
18674,HOTEL VANDEMATRAM,ABU ROAD SIROHI 101 307501,HOTEL,14,561,2,30-99
18675,VAIBHAV HOSPITALITY ,ABU PRAVAT 307501,HOTAL,14,561,4,30-99
18676,H G  LUXRY HOTELS PVT LTD  ,ABU PRAVAT 5 SUNSET ROAD 307501,HOTAL,14,561,2,30-99
18677,ST  JOSEPH SECONDARY SCHOOL ,ABU PRAVAT 307501,SECONDARY EDUCATIONAL INSTITUTE,20,852,2,30-99
18678,H G  LUXURY HOTELS PVT LTD ,MOUNT ABU 307501,HOTEL,14,561,2,30-99
18679,HOTAL SAMRAT ,BUS STAND ROAD  ABU PARVAT BUS STAND ROAD 307501,HOTAL,14,561,2,30-99
18680,SUNSET INN HOTEL,SUNSET ROAD 307501,HOTEL,14,561,2,30-99
18681,CAMA RAJPUTANA CLUB RESORT ,ABU PRAVAT 307501,HOTAL,14,561,2,30-99
18682,APNI CREDIT CO  OPERATIVE SOCIETY LTD ,  GORA CHHAPRA MOUNT ABU 307501,BANKING   FINANCE,16,641,6,30-99
18683,HOTEL MAHARAJA ,ABU PRAVAT 307501,HOTAL,14,561,2,30-99
18684,HOTEL ARANYA VILLAGE,MOUNT ABU 307501,HOEL,14,561,2,30-99
18685,HOTEL CHACHA INN ,ABU PARVAT MAIN ROAD 307501,HOTEL,14,561,2,30-99
18686,H G  INTERNATIONAL SCHOOL,ABU ROAD 307026,EDUCATION,20,852,2,30-99
18687,HOTEL HILLOCK,ABU ROAD SIROHI 307501,HOTEL,14,561,4,30-99
18688,HOTAL HILLTON,ABU PARVAT OPPOSITE BUS STAND 307501,HOTEL  BAR,14,561,2,100-199
18689,ARBUDA CREDIT CO  OPERATIVE SOCIETY LTD  ,GORA CHHAPRA MOUNT ABU 307501,BANKING   FINANCE,16,641,6,100-199
18690,GLOBAL HOSPITAL   RESEARCH CENTER,ABU PARVAT DELWARA ROAD 307501,PATIENT TREATMENT,21,861,7,200-499
18691,H G  INFRA ENGINEERING PVT LTD ,ABU PARVAT 307501,CONSTRUCTION  ROAD BUILDING BRIDGE,9,421,2,>=500
18692,KOTHARI CLOTH EMPORIUM ,ABUROAD 123 1  SADAR BAZAR 307026,CLOTH HOLSEL DELER,11,461,2,10-14
18693,INDIAN PUBLIC SCHOOL ,ABUROAD GANDHINAGAR 307026,UPPER PRIMARY EDUCATION,20,852,2,10-14
18694,ST  MARTIN EDUCATION SOCIETY ,GANDHI NGAR  ABUROAD 190 NEAR RAILWAY GATE 307026,PRIMARY EDUCATION,20,851,2,10-14
18695,GOVERNMENT SECONDARY SCHOOL ,AKARABHATTA  ABUROAD MOUNT ABU ROAD 307510,SECONDARY EDUCATION,20,852,1,10-14
18696,GOVERNMENT UPPER PRIMARY SCHOOL ,HARIJAN BASTI  ABUROAD HARIJAN BASTI 307026,UPPER PRIMARY EDUCATION,20,852,1,10-14
18697,HIL VIEW HOTEL ,TALHATI ROAD  ABUROAD 121 MOUNT ABU ROAD 307026,HOTEL,14,561,2,10-14
18698,BHARTI MARBAL GRENITE ,ABUROAD 69 GANDHI NAGAR 307026,ARTICAL PRODUCATION,6,239,2,10-14
18699,RAJASTHAN RAJAY ROAD TRANSPORT CORPORATION ,ABUROAD 307026,TRANSPOT SERVICE,13,492,1,10-14
18700,SHREEJEE CREDIT CO  OPERATIVE SOCIETY LTD  ,AKARA BHATTA  ABUROAD MOUNT ABU ROAD 307510,FINANCIAL ACTIVITIES   BANKING WORK,16,641,2,10-14
18701,GOVERNMENT UPPER PRIMARY SCHOOL ,LUNIAPURA  ABUROAD 3 LUNIAPURA 307026,UPPER PRIMARY EDUCATION,20,851,1,10-14
18702,GOVERNMENT SECONDARY SCHOOL ,GANDHI NAGAR  ABUROAD GANDHI NAGAR 307026,SECONDARY EDUCATION,20,852,1,10-14
18703,MAHAVEER HOSPITAL   METERNITY,NURSING HOME  ABUROAD 307026,MEDICAL FACILITIES,21,861,2,10-14
18704,SWAMINARAYAN SCHOOL ,DANVAV  ABUROAD DANVAV 307024,PRIMARY EDUCATION,20,851,2,15-19
18705,GOVERNMENT SENIOR SECONDARY SCHOOL , ARBUDSHALA   ABUROAD 81 307026,SENIOR SECONDARY EDUCATION,20,852,1,15-19
18706,MS  TRIVEDI GRANITE PVT LTD  ,NEAR POWER HOUSE  ABUROAD 17 1  GANDHI NAGAR 307026,PRODUCTION OF MARBAL SLEB  TILES   PILLER,6,239,2,15-19
18707,SURENDRA   COMPANY  PATROL PUMP  ,ABUROAD 1 MANPUR CIRCLE 307026,PATROL PUMP FUAL PROVIED PUMP,12,473,2,15-19
18708,GOVERNMENT TRIBAL RESIDENTIAL SCHOOL ,DANVAV ABUROAD DANVAV 307024,PRIMARY EDUCATION,20,851,1,20-24
18709,VAIDIK KANYA SR SECONDARY SCHOOL ,ABUROAD 307026,SR SECONDARY EDUCATION,20,852,2,20-24
18710,CHANDRAWAT HOSPITAL ,MANPUR  ABUROAD MANPUR 307026,MEDICAL FACILITES,21,861,1,20-24
18711,ABU TALETI JAIN TEERTH ,MANPUR  ABUROAD 1 MOUNT ABU ROAD 307026,RELIGIOUS ACTIVITIES,23,949,7,20-24
18712,SNET PAUL S S  SCHOOL ,ABUROAD GANDHINAGAR 307026,SECONARY EDUCATION,20,852,2,20-24
18713,GOVERNMENT SENIOR SECONDARY SCHOOL ,RAILWAY STATION ROAD  ABUROAD RAILWAY STATION ROAD 307026,SENIOR SECONDARY EDUCATION,20,852,1,25-29
18714,CHANDRAVAL B ED  COLLEGE ,MALIVAS  ABUROAD 307026,PROFESSIONAL EDUCATION BATCHLOR OF EDUCATION,20,852,2,25-29
18715,GOVERNMENT HOSPITAL ,STATION ROAD  ABUROAD 307026,GOVERNMENT MEDICAL FACILITIES,21,861,1,25-29
18716,INDIAN OIL CORPORATION LIMITED ,ABUROAD 307026,OIL SUPPLY WORK,13,521,4,30-99
18717,H G  INTERNATIONAL SCHOOL ,ABUROAD 17 MANPUR 307026,SECONDARY EDUCATION,20,852,2,30-99
18718,RAILWAY SCHOOL ,ABUROAD 307026,SECONDARY EDUCATION,20,852,1,30-99
18719,RAJASTHAN INSTITUTE OF NURSING ,GANDHI NAGAR  ABUROAD NEAR OF GOVT SEC SCHOOL 307026,NURSING EDUCATIONAL INSTITUTE,20,854,6,30-99
18720,PUBLIC HEALTH   ENGINEERING DEPARTMENT ,ABUROAD 307026,WATER SUPPLY GOVERNMENT OFFICE,8,360,1,30-99
18721,RAILWAY HOSPITAL ,ABUROAD 50 RAILWAY COLONY 307026,MEDICAL FACILITY,21,861,1,30-99
18722,JAN CHETNA SANSTHAN ,RAJASTHAN HOUSING BOARD COLONY  ABUROAD IC40 AKARA BHATTA 307510,NON PROFITABLE INSTITUTE   SOCIAL SERVICE,21,861,7,30-99
18723,B S  MEMORIAL SENIOR SECONDARY SCHOOL ,ABUROAD 61 MOUNT ABU ROAD 307026,SENIOR SECONDARY EDUCATION,20,852,1,30-99
18724,CHARTEAD INSTITUTE OF TEHCNOLOGY ,ABUROAD 307024,CHARTEAD ACCOUNT EDUCATION,20,854,2,30-99
18725,SENT ANSLAM SCHOOL ,ABUROAD C 109 307026,SENIOR SECONDARY EDUCATION,20,852,9,30-99
18726,MUNCIPALITY BOARD ,ABUROAD 180 DAK BUNGALOW ROAD 307026,CITY SANIFY,21,861,1,30-99
18727,SAINATH RUBBER INDUSTRIES PVT LTD  ,ABUROAD B 105 307026,RUBBER FOOTWARE PRODUCTION,6,152,4,100-199
18728,ASSISTANT ENGINEER  ELECTRIC BOARD ,SAROOPGANJ 197 MALAWATI 307023,GOVERNMENT ELECTRICITY SUPPLY OFFIC E,7,351,1,10-14
18729,PRATIK BHAI PATEL ,BHANWARI 5 BAJRANG CIRCLE 307023,DIMOND POLISH,6,321,2,10-14
18730,STONE ART ,RICCO AREA  SAROOPGANJ 307023,STONE BLOCK CUTTING   MAKE ARTICAL,6,239,2,15-19
18731,VIKAS MARBLE ,RICCO AREA  SAROOPGANJ 307023,MARBLE ARTICAL MAKER,6,239,2,15-19
18732,BANZARA MARBLE ARTICAL ,RICCO AREA  SAROOPGANJ G 3 4 307023,MARBLE   ARTICALE ARTICAL MAKER,6,239,2,15-19
18733,ASHAPURA MARBLE   ARTICAL ,RICCO AREA  SAROOPGANJ G 22 2 307023,ARTICAL MAKE,6,239,2,25-29
18734,GOVERNMENT SENIOR SECONDARY SCHOOL ,SAROOPGANJ 139 307023,GOVERNEMNT SENIOR SECONDARY EDUCATION,20,852,1,25-29
18735,CHOUHAN HANDICRAFT ,RICCO AREA  SAROOPGANJ 307023,STONE CUTTING   MAKE ARTICAL,6,239,1,30-99
18736,AMBAJI STONE ART ,RICCO AREA  SAROOPGANJ 307023,STONE ARTICAL MAKER,6,239,2,30-99
18737,KANTILAL S O SHREE SHANKAR JI RAWAL,BHANWARI 145 ROHIDA ROAD 307023,DIAMOND POLISH CUTTING,6,321,2,30-99
18738,ADARSH VIDHYA MANDIR ,KESHAV NAGAR  SROOPGANJ 126 MALAWATI 307023,SECONDARY EDUCATION,20,852,9,30-99
18739,VARAI DIAMOND ,BHANWARI 99 BUS STAND STREET 307023,DIAMOND POLISH,6,321,2,30-99
18740,ARYAN CREATION DIAMOND ,BHANWARI 111 GURJAR MOHALLA 307023,DIAMOND CUTTING   POLISH,6,321,2,30-99
18741,MAGANLAL   DANAJI GHANCHI ,SAROOPGANJ 149 ROHIDA ROAD 307023,DIAMOND POLISH   CUTTING,6,321,2,30-99
18742,20 MICRON LIMITED ,RICCO AREA  SAROOPGANJ 307023,MINRALS POWER MANUFACTURE,6,239,2,30-99
18743,SONI ARTICALS FACTORY ,SANTPUR 40 2  AMBAJI INDUSTRIAL AREA 307026,MANUFACTURE OF MARBAL ARTICAL,9,439,2,10-14
18744,GOYAL CREATION PRIVATE LIMITED ,SANTPUR 126 AMBAJI INDUSTRIAL AREA 307026,PRODUCTION OF CLOTH,6,131,2,10-14
18745,GOVERNMENT SENIOR SECONDARY SCHOOL ,SANTPUR 307026,SENIOR SECONDARY EDUCATION,20,852,1,10-14
18746,KISHANACHARYA PULWAN I POLIMERS FACTORY ,SANTPUR 22 2  AMBAJI INDUSTRIAL AREA 307026,MANUFACTURE OF PLASTIC BAES,6,222,2,15-19
18747,HOTEL CHANDRAVATI PALACE ,SANTPUR 15 RICCO AREA 307026,HOTEL,14,561,2,15-19
18748,SHREE KIRSHANA RAM ARTS ,SANTPUR 175 RICCO AREA 307026,ART ITEM MANUFACTURE,6,239,2,15-19
18749,MAYUR POLIMERS FACTORY ,SANTPUR 33 AMBAJI INDUSTRIAL AREA 307026,MANUFACTURE OF P V C  PIPE,6,222,2,15-19
18750,SHREE BHAIRAV STONE INDUSTRIES ,SANTPUR 163 RICCO AREA 307026,STONE CUTTING WORK,9,439,2,15-19
18751,SKI MARBLE PRIVATE LIMITED ,SANTPUR 221 RICCO AREA 307026,MARBLE CUTTING   TREDING WORK,6,439,2,15-19
18752,KULDEEP DANGI NAKODA PIPE INDUSTRIES ,SANTPUR 226 AMBAJI RICCO AREA 307026,P V C  PIPE MANUFACTURE,6,222,2,15-19
18753,SANI MINRAL FACTORY ,SANTPUR 119 AMBAJI INDUSTRIAL AREA 307026,MANUFACTURE OF MINRAL POWDER,6,239,2,15-19
18754,ELIGENT MARBAL FACTORY ,SANTPUR 4 1  RICCO AREA 307026,STONE CUTTING WORK,9,239,2,15-19
18755,SHREENATH GRENITE FACTORY ,SANTPUR 20 AMBAJI INDUSTRIAL AREA 307026,GRENITE   MARBAL TREDINGH WORK,11,461,2,15-19
18756,SUMEET MARBAL INSUSTRIES ,SANTPUR 80 RICCO AREA 307026,MARBAL CUTTING   SUPPLY,6,239,2,15-19
18757,ORIENTAL INSURANCE COMPANY ,SANTPUR 18 RICCO AREA 307026,INSURANCE SERVICE,16,641,1,15-19
18758,KHONU ARTICLES FACTORY ,SANTPUR 120 AMBAJI INDUSTRIAL AREA 307026,MARBAL ARTICLES WORK,6,239,2,15-19
18759,HIRALAL AGRAWAL MARBAL FACTORY ,SANTPUR 90 RICCO AREA 307026,MARBAL CUTTING   TREDING,6,239,2,15-19
18760,SKY MARBAL PRIVATE LIMITES ,SANTPUR 77 1  RICCO AREA 307026,MARBAL CUTTING   TREDING,6,239,2,20-24
18761,GIDOSTIFAN STIFAN MENTION CALL CENTER ,SANTPUR 69 RICCO AREA 307026,CALL CENTER BISSNUSS,19,822,2,20-24
18762,ASHOK AGARWAL CRESHAR FACTORY ,SANTPUR 125 RICCO AREA 307026,GITTI PRUDUCTION,6,239,2,25-29
18763,NETURY NITURY INDUSTRIES ,SANTPUR 128 RIICO AREA 307026,GWARGAM POWDER MANUFACTURE,6,239,2,25-29
18764,PARASRAMPURIA CEMENT FACTORY ,SANTPUR 12 RICCO AREA 307026,CEMENT PRODUCTION   EXPORT,6,239,2,30-99
18765,NARESH AGARWAL CONTRECTOR ,SANTPUR 192 RICCO AREA 307026,CONSTRUCTION OF ROAD   REPAIRING,9,439,2,30-99
18766,GOVERNMENT UPPER PRIMARY SCHOOL ,REODAR 38 307514,UPPER PRIMARY EDUCATION,20,852,1,10-14
18767,GOVERNMENT SENIOR SECONDARY SCHOOL ,REODAR 99 NEAR OF HIGHWAY 307514,GOVERNMENT SENIOR SECONDARY EDUCATION,20,852,1,15-19
18768,GOVERNMENT HOSPITAL,REODAR 307514,GOVERNMENT MEDICAL SERVISEAS,21,861,1,20-24
18769,ADARSH VIDHYA MANDIR  SECONDARY  ,REODAR 21 JEERAWAL ROAD 307514,SECONDARY EDUCATION,20,852,2,30-99
18770,GOVERNMENT SENIOR SECONDARY SCHOOL ,VARADA 118 NEAR BUS STAND 307801,GOVERNMENT SENIOR SECONDARY EDUCATION,20,852,1,10-14
18771,DATTA TREYA BHAWAN TEMPLE ,UTRAJ GURU SHIKHAR 307501,RELIGIOUS ACTIVITIES,23,949,7,15-19
18772,GOVERNMENT SECONDARY SCHOOL ,BHOOTGAON 136 MANORA ROAD 307801,GOVERNMENT SECONDARY EDUCATION,20,852,1,10-14
18773,PRINCIPAL  GOVERNMENT SENIOR SECONDARY SCHOOL ,KIVRALI RAM MANDIR STREET 307510,SENIOR SECONDARY EDUCATION,20,852,1,15-19
18774,SHILP KALA KENDRA   SWAMI NARAYAN SANTHA  ,NEAR PANCHAYAT BHAWAN SIVERA 24 307022,SHILP ART WORK,22,900,7,30-99
18775,HARSHAD CHAVADA ,SIVERA 34 1  CHAMUNDERI ROAD 307022,SHILP ART WORK,22,900,7,100-199
18776,HOTEL RATAN VILAS ,ORIYA PEACE PARK ROAD 307501,RESIDENCIAL RESTORENT,14,561,2,10-14
18777,ADARSH VIDHYA MANDIR UPPER PRIMARY,SCHOOL  NIMBAJ 111 BHEEL BASTI 307512,UPPER PRIMARY EDUCATION,20,852,9,10-14
18778,GOVERNMENT PRIMARY HEALTH CENTER ,JAWAL 307801,GOVERNMENT MEDICAL SERVISEAS,21,861,1,10-14
18779,GOVERNMENT UPPER PRIMARY SCHOOL ,NAI AABADI  JAWAL 307801,GOVERNMENT UPPER PRIMARY EDUCATION,20,852,1,10-14
18780,GOVERNMENT UPPER PRIMARY SCHOOL ,JAWAL 307801,GOVERNMENT UPPER PRIMARY EDUCATION,20,852,1,15-19
18781,GOVERNMENT HIGHER SECONDARY SCHOOL ,JAWAL 307801,GOVERNMENT HIGHER SECONDARY EDUCATION,20,852,1,20-24
18782,ELECTRICITY OFICE ,JAWAL 307801,GOVERNMENT ELECTRICITY SUPPLY DEPARTMENT,7,351,4,30-99
18783,SARSWATI SECONDARY SCHOOL ,GOL JAWAL ROAD 307801,SECONDARY EDUCATION,20,852,2,10-14
18784,GOVERNMENT UPPER PRIMARY SCHOOL ,PADEEV REBARIYO KA GOLUA 307001,GOVERNMENT UPPER PRIMARY EDUCATION,20,852,1,10-14
18785,PRIMARY HEALTH CENTER ,PADEEV 307001,GOVERNMENT MEDICAL SERVISEAS,21,861,1,10-14
18786,GOVERNMENT SECONDARY SCHOOL ,PADEEV 307001,GOVERNMENT SECONDARY EDUCATION,20,852,1,10-14
18787,PRAKASH BEVERAGES ,PADEEV KIRSHANA NAGAR 307001,MINRAL WATER PURIFY WORK,6,329,3,20-24
18788,SUNDHA MATA SHILP KALA KENDRA ,COLONY  NAYA SANWARA 307022,SOTNE ARTICAL WORK,6,239,2,10-14
18789,GOVERNMENT SENIOR SECONDARY SCHOOL ,DANTRAI 148 307512,SENIOR SECONDARY EDUCATION,20,852,1,10-14
18790,GOVERNMENT HOSPITAL ,DANTRAI 24 307512,MEDICAL SERVICES,21,861,1,10-14
18791,BHATYANI SHILP KALA KENDRA ,TELPUR 307022,STONE ART WORK,6,239,2,10-14
18792,AMRARAM SHILP KALA KENDRA ,TELPUR 307022,HAND ART,6,239,2,15-19
18793,JAN KALYAN SEVA TRUST ,AMTHALAL 974 1 AMTHALA 307510,B ED    I T I  EDUCATION,20,854,5,30-99
18794,ST  JOHN S SCHOOL ,AMTHALA SHANTIVAN 307510,SENIOR SECONDARY EDUCATION,20,854,2,30-99
18795,SHRI SHANTINATH GOVERNMENT SECONDARY SCHOOL ,UDD 143 307801,GOVERNMENT SECONDARY EDUCATION,20,852,1,10-14
18796,SAWAMI NARAYAN SANSTHA ,VEERWADA 45 307022,STONE CUTTING WORK,6,239,7,30-99
18797,GOVERNMENT SENIOR SECONDARY SCHOOL ,BARLOOT MADHOPURA 307801,GOVERNMENT SENIOR SECONDARY EDUCATION,20,852,1,10-14
18798,ADARSH VIDHYA MANDIR  PRIMARY  ,BARLOOT 42 2  307801,PRIMARY EDUCATION,20,852,4,10-14
18799,GOVERNMENT UPPER PRIMARY SCHOOL ,SUJAPURA  BARLOOT 326 307801,GOVERNMENT UPPER PRIMARY EDUCATION,20,852,1,10-14
18800,GOVERNMENT SENIOR SECONDARY SCHOOL ,BARLOOT 56 307801,GOVERNMENT SENIOR SECONDARY EDUCATION,20,852,1,15-19
18801,VISHVKARMA KIOSHAL KENDRA ,BARLOOT MANDVARIYA ROAD 307801,TECHNICAL EDUCATION,20,854,2,25-29
18802,GOVERNMENT UPPER PRIMARY SCHOOL ,MUDARLA 307510,UPPER PRIMARY EDUCATION,20,852,1,10-14
18803,MATESHWARI TEMPLE CONSTRUCTION,PRIVATE LIMITED  JHADOLI G 109 RICCO AREA 307022,STONE WROK,6,239,3,10-14
18804,SHEETAL TRANSPORT COMPANY ,BINANI CHOCK  INDUSTRY AREA  JHAKOLI N H 14 307022,TRANSPORT SERVISEAS,13,492,4,15-19
18805,VIDHUT VITRAN NIGAM ,POSALIYA 235 307028,GOVERNMENT ELECTRICITY SUPPLY DEPT ,7,351,1,10-14
18806,MEDICAL SUB CENTER ,POSALIYA 22 307028,GOVERNMENT MIDICAL SERVISEAS,21,861,1,10-14
18807,GOVERNMENT SECONDARY SCHOOL ,DELDAR 3 307801,GOVERNMENT SECONDARY EDUCATION,20,852,1,10-14
18808,GOVERNMENT SECONDARY SCHOOL ,PAMERA AAM RASTA 307511,SECONDARY EDUCATION,20,852,1,10-14
18809,EYE CARE HOSPITAL ,TALHATI ROAD  29 AMTHALA ROAD 307510,EYE MEDICAL SERVISEAS,21,861,5,30-99
18810,TROMA CENTER ,TALHATI  ABUROAD 28 AMTHALA ROAD 307510,MEDICAL SERIVSEAS,21,861,5,200-499
18811,MORDEN INSULETER NIRMAN COMPANY ,ABUROAD 25 SIROHI ROAD 307026,MORDEN INSULETER COMPANY,6,239,4,>=500
18812,HEADMASTER  GOVERNMENT GIRLS UPPER PRIMARY SCHOOL ,MOHBBATNAGAR 50 307802,GOVERNMENT UPPER PRIMARY EDUCATION,20,852,1,10-14
18813,GOVERNMENT SENIOR SECONDARY SCHOOL ,MOHABBAT NAGAR 3 307802,GOVERNMENT SENIOR SECONDARY EDUCATION,20,852,1,10-14
18814,GOVERNMENT SECONDARY SCHOOL ,AMLI 307031,GOVERNMENT SECONDARY EDUCATION,20,852,1,10-14
18815,GOVERNMENT UPPER PRIMARY SCHOOL ,KALANDRI 102 307802,GOVERNMENT UPPER PRIMARY EDUCATION,20,852,1,10-14
18816,NASHA MUKTI   PUNRVAS KENDRA ,KALANDRI 5 307802,NASHA MUKTI,21,861,2,10-14
18817,GOVERNMENT SENIOR SECONDARY SCHOOL ,KALANDRI 104 307802,GOVERMENT SENIOR SECONDARY EDUCATION,20,852,1,20-24
18818,VIDHUT VITRAN KENDRA ,KALANDRI 142 307802,ELECTRICITY SUPPLY,7,351,4,20-24
18819,COMMUNITICAL HEALTH CENTER ,KALANDRI 43 307802,GOVERNMENT MEDICAL SERVISEAS,21,861,1,25-29
18820,JAWAHAR NAVODAYA VIDYALAYA ,KALANDRI 94 307802,CENTRAL SECONDARY EDUCATION,20,852,1,30-99
18821,GOVERNMENT SECONDARY SCHOOL ,MOONGTHALA 307026,GOVERNMENT SECONDARY SCHOOL,20,852,1,10-14
18822,PADMA BINANI PUBLIC SCHOOL ,BINANI BINANI COLONY 307031,SECONDARY EDUCATION,20,852,4,30-99
18823,BINANI CEMENT ,BINANI BINANI GRAM 307031,CEMENT PRUDUCTION,6,239,4,>=500
18824,GOVERNMENT UPPER PRIMARY SCHOOL ,PALDI  R  307001,GOVERNMENT UPPER PRIMARY EDUCATION,20,852,1,10-14
18825,SAMBHAW ENERGY ,ANADARA ROAD  SIROHI 40 N H  14 307001,ELECTRICITY PRODUCTION COMPANY,7,351,2,15-19
18826,SHREE GOKUL BHAI BHATT GOVERNMENT POLITECHNIC COLLEGE ,MANDVA 307001,GOVERNMENT TECHNICAL EDUCATION,20,852,1,30-99
18827,PRIMARY HEALTH CENTRE ,SIRODI 307511,GOVERNMENT MEDICAL SERVICESEAS,21,861,1,10-14
18828,GOVERNMENT SENIOR SECONDARY SCHOOL ,SIRODI 307511,SENIOR SECONDARY EDUCATION,20,852,1,15-19
18829,HARIVYASI PATROL PUMP ,SARNESHWARJI N H 14 307001,PATROL   DELEAS PUMP   SELL,12,473,2,10-14
18830,PANWAR CASTING PRIVATE LIMITED ,RICCO AREA  SARNESHWARJI 307001,IRON ITEM MANUFACTURE,6,239,3,30-99
18831,GOVERNMENT SECONDARY SCHOOL ,MALGAON 168 307511,SECONDARY EDUCATION,20,852,1,10-14
18832,AASHAPURA HANDIKRAFT ,ARATHWARA 67 BHEV ROAD 307028,RETAIL TRADE,12,475,2,10-14
18833,ACB UPPER PRIMARY SCHOOL ,ARATHWARA 7 4  MEENA VAS 307828,PRIMARY EDUCATION,20,851,2,10-14
18834,KASTURBA GANDHI RESIDENCIAL SCHOOL ,GIRVAR 97 CHEEPA STREET 307026,GOVERNMENT PRIMARY EDUCATION,20,851,1,10-14
18835,GOVERNMENT UPPER PRIMARY SCHOOL ,GIRVAR 98 CHEEPA STREET 307026,GOVERNMENT UPPER PRIMARY EDUCATION,20,852,1,10-14
18836,GOVERNMENT SECONDARY SCHOOL ,CHANAR 307026,GOVERNMENT SECONDARY EDUCATION,20,852,1,10-14
18837,PRIMARY HEALTH CENTER ,CHANAR 307026,GOVERNMENT MEDICAL SERVISEAS,21,861,1,15-19
18838,MATESHWARI HANDICRAFT STONE FACTORY,AJARI 14 307022,TEMPLE CONSTRUCTION WORK,22,900,2,10-14
18839,ROSHANI MARBLE FACTORY ,AJARI 16 307022,TEMPLE CONSTRUCTION WORK,22,900,2,15-19
18840,MANGLAM MARBLE FACTORY ,AJARI 6 N H 14 307022,TEMPLE CONSTRUCTION WROK,22,900,2,30-99
18841,RAJESH SALVEX LIMITED ,KESARPURA 86 91 RICCO AREA 307027,OIL PRODUCTION,6,104,4,20-24
18842,CHARBHUJA TEA COMPANY ,RICCO AREA  AKHAPURA KUOONI 307027,TEA PATTI PRODUCTION,6,239,4,10-14
18843,GEETA ANAND SCHOOL ,PALDI JOD  AKHAPURA KHOONI 307027,SECONDARY EDUCATION,20,852,2,20-24
18844,CHARBHUJA COMPANY PRIVATE LIMITED ,RICCO INDUSTRIES AREA  AKHAPURA KHOONI 307027,AGARBATTI MANUFACTIRE,6,202,2,30-99
18845,GOVERNMENT SENIOR SECONDARY SCHOOL ,TANWARI 307802,GOVERNMENT SENIOR SECONDARY EDUCATION,20,852,1,15-19
18846,LEHARI BAI GOVERNMENT PRIMARY MEDICAL CENTER ,NANDIYA MAIN ROAD 307022,GOVERNMENT MEDICAL   HELATH SERVIS,21,861,1,10-14
18847,GOVERNMENT SECONDARY SCHOOL ,NANDIYA 94 KOJRA ROAD 307022,GOVERNMENT SECONDARY EDUCATION,20,852,1,15-19
18848,MORDAN SENIOR SECONDARY SCHOOL ,BADGAON 247 1  307027,SENIOR SECONDARY EDUCATION,20,852,2,25-29
18849,GOVERNMENT SENIOR SECONDARY SCHOOL ,ROE 1 307026,GOVERNMENT SENIOR SECONDARY EDUCATION,20,852,1,10-14
18850,GOVERNMENT SENIOR SECONDARY SCHOOL ,VELANGARI 307001,GOVERNMENT SENIOR SECONDARY EDUCATION,20,852,1,15-19
18851,SHIV SHAKTI SHILP KALA KENDRA   JOTARAM HAKMAJI  ,SHIVGARH 201 FULERA ROAD 307022,STONE CUTTING   SHILP KALA WORK,6,239,1,10-14
18852,BHERU SINGH DAULAT SINGH ,SHILP KALA KENDRA  SHIVGARH 217 KOJRA ROAD 307022,STONE CUTTING   SHILP KALA WORK,6,239,1,25-29
18853,KAMLESH MARBLE ART ,KOJRA 137 HIGHWAY ROAD 307022,STONE CUTTING   SHILP KALA WORK,6,239,2,10-14
18854,GOVERNMENT SENIOR SECONDARY SCHOOL ,KOJRA 9 NANDIYA ROAD 307022,GOVERNMENT SENIOR SECONDARY EDUCATION,20,852,1,10-14
18855,BHATIYA SHILP KALA KENDRA ,KOJRA 127 4  PESHUA ROAD 307022,STONE CUTTING WORK,6,239,2,10-14
18856,SOLANKI SHILP KALA KENDRA ,KOJRA 130 5  PESHUA ROAD 307022,SHILP KALA   STONE CUTTING WORK,6,239,2,10-14
18857,H P PATROL PUMP ,UTHMAN 113 1  N H  14 307043,PATROL DISEAL SELLER,12,473,4,10-14
18858,AROMA HOTEL ,UTHMAN 117 N H  14 307043,HOTEL,14,561,2,15-19
18859,STONE CUTTING FACTORY OF SWAMI,NARAYAN SANTHA  PESHUA 4 KOJRA ROAD 307022,STONE CUTTING WORK,6,239,5,30-99
18860,GOVERNMENT SECONDARY SCHOOL ,DHANARI 87 BARLI SERI 307023,GOVERNMENT SECONDARY EDUCATION,20,852,1,10-14
18861,CHETNA HOTEL ,GOLIA 67 307023,HOTEL,14,561,2,10-14
18862,YADAV KRESHAR ,MORTHALA 307026,MINING,5,81,2,10-14
18863,GOVERNMENT SECONDARY SCHOOL ,TARTOLI 307026,GOVERNMENT SECONDARY EDUCATION,20,852,1,10-14
18864,ADARSH VIDHYA MANDIR UPPER PRIMARY SCHOOL ,ANADARA DHANPURA STREET 307511,UPPER PRIMARY EDUCATION,20,852,7,10-14
18865,GOVERNMENT HOSPITAL ,ANADARA BUS STAND 307511,GOVERNMENT MEDICAL SERVICES,21,861,1,10-14
18866,GOVERNMENT SENIOR SECONDARY SCHOOL ,ANADARA 109 MARKET ROAD 307511,SENIOR SECONDARY EDUCATION,20,852,1,10-14
18867,BHERUTARK DHAM ,ANADARA ABU ROAD 307511,TORISUM   TEERTH DHAM,23,949,2,30-99
18868,ARYA MARBLE   GRENITE PVT LTD  ,CHANDRAVATI B 64 307026,MARBLE SLABE   TILES MANUFACTURE,6,239,4,10-14
18869,TRIVENI STONS PRIVATE LIMITED ,CHANDRAVATI E 284 285 307026,GRENITE SLABE MANUFACTURE,6,239,4,10-14
18870,CHETAK STONES PRIVATE LIMITED ,CHANDRAVATI E 281 282 307026,MARBLE SLABE   TILES MANUFACTURE,6,239,4,10-14
18871,SHREE BALAJI MARBLE   GRENITE ,CHANDRAVATI B 128A 307026,GRENITE SLABE MANUFACTURE,6,239,3,10-14
18872,SHREE KIRSHANA MARBLE ,CHANDRAVATI F 316 307026,GRENITE SLABE MANUFACTURE,6,239,2,10-14
18873,S K  EXPORTS,CHANDRAVATI C 16 22 307026,MARBLE SLABE   TILES MANUFACTURE,6,239,4,10-14
18874,ANANT STONES PRIVATE LIMITED ,CHANDRAVATI E 278 279 307026,MARBLE  GRENITE SLABE   TILES MANUFACTURE,6,239,4,10-14
18875,SHREE HANUMANT MARMO STONE PVT LTD ,CHANDRAVATI B 66 307026,MARBAL STONE   TILES MANUFACTURE,6,239,4,10-14
18876,ANUPAM GRENITE PRIVATE LTD  ,CHANDRAVATI B 65 307026,MARBLE  GRENITE SLABE   TILES MANUFACTURE,6,239,4,10-14
18877,SHREE AMBIKA MARMO SOTNES PRIVATE LIMITED ,CHANDRAVATI B 289 307026,MARBLE SLABE   TILES   GRENITE SLAB E MANUFACTURE,6,239,4,10-14
18878,I S C INDIA LIMITED ,CHANDRAVATI F 295 297 307026,CAMICAL PRODUCTION,6,239,4,10-14
18879,GULIAG HEALTH CARE PRIVATE LTD  ,CHANDRAVATI B 58 307026,PRODUCTION OF SODA,6,239,4,15-19
18880,S K  MARBLE PRIVATE LIMITED ,CHANDRAVATI E 274 275 307026,MARBLE SLABE   TILES MANUFACTURE,6,239,4,15-19
18881,SHREEMANSH MARBLE TILES PVT LTD  ,CHANDRAVATI B 63 307026,MARBLE STONE   TILES MANUFACTURE,6,239,4,20-24
18882,D K  TRIVEDI MARBLE PRIVATE LTD ,CHANDRAVATI B 60 307026,MARBLE SLABE   TILES MANUFACTURE,6,239,4,25-29
18883,GAILENT GRENITE PRIVATE LIMITED ,CHANDRAVATI B 132 307026,GRENITE SLABE MANUFACTURE,6,239,4,30-99
18884,MARVEL GRENITE PRIVATE LIMITED ,CHANDRAVATI E 40 307026,GRENITE CUTTING   SLABE MANUFACTURE,6,239,4,30-99
18885,PRISTINE INDUSTRIES LIMITED ,CHANDRAVATI B 129 130 307026,PLASTIC BAG MANUFACTURE,6,222,4,30-99
18886,BHANSALI ENGINEERING POLYMERS LIMITED ,CHANDRAVATI SPL 138  143 307026,MANUFACTURING,6,239,4,200-499
18887,C T POINT HOTEL ,VERA VILPUR 246 AMBESHWAR ROAD 307043,RESTORENT,14,561,2,10-14
18888,VAISHNO DEVI PARTOL PUMP ,NATIONAL HIGHWAY 27  MAWAL 307026,PATROL PUMP   SELL,12,473,2,10-14
18889,OFFICE OF PRINCIPAL  GOVERNMENT SECONDARY SCHOOL ,MAWAL 307026,GOVERNMENT SECONDARY EDUCATION,20,852,1,10-14
18890,CHAMUNDA PATROLIAM ,NATIONAL HIGHWAY 27  MAWAL 307026,PATROL   DELEAL SELL,12,473,2,10-14
18891,RIDDI SIDDI PATROL PUMP ,NATIONAL HIGHWAY 27  MAWAL N H  27 307026,PATROL SELL,12,473,2,10-14
18892,BHARAT PATROLIAM CORPORATION LTD  ,MAWAL N H  27 307026,PATROL SELL,12,473,4,15-19
18893,SHREE SATGURU SEVA MANDAL POLYTENICH COLLEGE ,MAWAL N H  27 307026,POLYTENICH EDUCATION,20,854,6,30-99
18894,HINDUSTAN PATROLIAM ,VASADA 206 307026,PATOL PUMP,12,473,2,15-19
18895,SHREE U S B  POLYTECHNIC COLLEGE ,VASADA 216 307026,TECHNICAL EDUCATION,20,854,2,30-99
18896,TILAK VIDHYA MANDIR UPPER PRIMARY SCHOOL ,DABANI  REODAR  307511,UPPER PRIMARY EDUCATION,20,852,3,10-14
18897,GOVERNMENT SENIOR SECONDARY SCHOOL ,KACHOLI 307023,GOVERNMENT SENIOR SECONDARY EDUCATION,20,852,1,10-14
18898,U S B  COLLEGE ,SIYAVA 40 307026,TECHNICAL EDUCATION,20,854,2,25-29
18899,BHIMESHWAR VIDHYA MANDIR ,ACHPURA 98 307510,UPPER PRIMARY EDUCATION,20,852,2,10-14
18900,AMAR JAWAN FILLING CENTER ,PATROL PUMP  BHUJELA 58 NEAR N H 14 307026,PATROL   DESEAL SELL,12,473,2,10-14
18901,ALPESH MARBLE PRIVATE LIMITED ,BHUJELA 23 2  NEAR N H 14 307026,MARBLE PROCESING,6,239,2,10-14
18902,PRIMARY HEALTH CENTER ,BHARJA 170 307044,GOVERNMENT MEDICAL SERVISEAS,21,861,1,10-14
18903,GOVERNMENT SENIOR SECONDARY SCHOOL ,BHARJA 177 NEAR BUS STAND 307026,GOVERNEMNT SENIOR SECONDARY EDUCATION,20,852,1,10-14
18904,AMAR SINGH GRANITE ,SANPUR NEAR RANELA 307512,GRENITE MINING,5,89,3,10-14
18905,REKHA GRANITE ,SANPUR NEAR RANELA 307512,GRANITE MINING,5,89,3,10-14
18906,SAPPHIRE STONES ,SANPUR NEAR TO RANELA 307512,GRANITE MINING,5,89,3,30-99
18907,SAGAR DHABA ,N H 14  BHIMANA 307024,RESTORENT,14,561,2,10-14
18908,SAGAR PATROLIAM ,N H 14  BHIMANA 307024,PATROL SELL   PATROL PUMP,12,473,2,10-14
18909,GOVERNMENT SENIOR SECONDARY SCHOOL ,KIRSHANAGANJ 307001,GOVERNMENT SENIOR SECONDARY EDUCATION,20,852,1,10-14
18910,SARSWATI BAL VIDHYA MANDIR ,MANDAR 56 INDRA COLONY 307513,PRIVATE PRIMARY EDUCATION,20,851,2,10-14
18911,MAHAVIR HOSPITAL ,MANDAR MAHADEV JI ROAD 307513,MEDICAL SERVISEAS,21,861,7,10-14
18912,SHYAM PETROL PUMP ,MANDAR HIGHWAY 307513,PETROL PUMP  FUEL SELL,12,473,3,10-14
18913,MARUDHAR PUBLIC SCHOOL  SECONDARY  ,MANDAR INDRA COLONY 307513,PRIVATE SECONDARY EDUCATION,20,852,6,15-19
18914,RAJESHWAR VIDHYA MANDIR  SECONDARY ,MANDAR 93 PEETHAPURA ROAD 307513,PRIVATE SECONDARY EDUCATION,20,852,7,20-24
18915,MANDAR FILLING STATION ,MANDAR HIGHWAY 307513,PATROL PUMB  FUEL SELL,12,473,2,25-29
18916,DIAMOND DETRITION FACTORY ,MANDAR 13 INDRA COLONY 307513,DIAMOND DETRITION,6,321,3,30-99
18917,LAXMIPANT SINGHANIYA SCHOOL ,J K PURAM 307019,SECONDARY EDUCATION,20,852,7,30-99
18918,GOVERNMENT SENIOR SECONDARY SCHOOL ,ROHIDA 14 307024,GOVERNMENT SENIOR SECONDARY EDUCATION,20,852,1,10-14
18919,PRIMARY HEALTH CENTER ,ROHIDA 17 10  307024,GOVERNMENT MEDICAL SERVISEAS,21,861,1,10-14
18920,OM GURUKUL UPPER PRIMARY SCHOOL ,ROHIDA SAT HAWELI GALI 34 307024,UPPER PRIMARY EDUCATION,20,852,2,15-19
18921,GOVERNMENT SECONDARY SCHOOL ,VASA MAIN ROAD 1 307024,GOVERNMENT SECONDARY EDUCATION,20,852,1,10-14
18922,JAGESHWAR HOTEL ,KAROTI 307514,HOTEL,14,561,2,10-14
18923,GOVERNMENT SECONDARY SCHOOL ,GOYALI INDRAPURI COLONY 307001,GOVERNMENT SECONDARY EDUCATION,20,852,1,15-19
18924,GOVERNMENT UPPER PRIMARY SCHOOL ,GOYALI RAMPURA ROAD 307001,GOVERNMENT UPPER PRIMARY EDUCATION,20,852,1,15-19
