S.No.,District Code,Name of theEstablishment,Address,Major Activity Description,Broad Activity Code,NIC,Ownership Code,Employment Class Interval
1,01,"KENDRIYA VIDYALAYA SCHOOL","C-14-190 UT OF LAKSHADWEEP 682555","EDUCATIONAL SERVICES",20,852,1,15-19
2,01,"GOVERNMENT PORT ASSISTANT OFFICE","C-12-110 UT OF LAKSHADWEEP 682559","TRANSPORTATION SERVICE",19,821,1,10-14
3,01,GOVERNMENT HOSPITAL,"C-12-123 UT OF LAKSHADWEEP 682559",HEALTH SERVICE,21,861,1,30-99
4,01,"PAWAN HANS PRIVATE LIMITED","C-15-140(1) UT OF LAKSHADWEEP 682555",HELICOPTER SERVICES,13,511,1,15-19
5,01,"GOVERNMENT SENIOR SECONDARY SCHOOL","C-14-163 UT OF LAKSHADWEEP 682559",EDUCATION,20,852,1,30-99
6,01,"JUNIOR BASIC SCHOOL (SOUTH)","C-9-75 AIRPORT ROAD UT OF LAKSHADWEEP 682553",EDUCATION,20,851,1,15-19
7,01,"AGRICULTURAL DEMONSTRATION UNIT","C-1-81 UT OF LAKSHADWEEP 682553","PLANT PROPAGATION & SUPPORT ACTIVITIES IN AGRICULTURE",01,013,1,25-29
8,01,"DEPARTMENT OF ANIMAL HUSBANDRY UNIT","C-1-236 UT OF LAKSHADWEEP 682553",POULTRY ACTIVITIES,02,014,1,10-14
9,01,"THANVEERUL ISLAM MADRASSA NORTH","C-2-172(1) UT OF LAKSHADWEEP 682553",ISLAMIC EDUCATION,20,851,7,10-14
10,01,MOHAMMED ALI C,"C-2-219 UT OF LAKSHADWEEP 682553",FISHING,04,031,2,10-14
11,01,DAK BUNGALOW,"C-5-28 UT OF LAKSHADWEEP 682553",ACCOMMODATION,14,551,1,10-14
12,01,"SAINABABITHEKPUTHIYA ILLAM","C-5-137 UT OF LAKSHADWEEP 682553","MANUFACTURING & RETAIL SALE OF SNACKS",06,107,5,10-14
13,01,"COIR FACTORY (GOVERNMENT)","C-6-13 UT OF LAKSHADWEEP 682553",COIR PRODUCTION,06,131,1,10-14
14,01,"RAJIV GANDHI SPECIALTY HOSPITAL","C-6-23(1) UT OF LAKSHADWEEP 682553","MEDICAL & HEALTH SERVICE",21,861,1,30-99
15,01,"RAJIV GANDHI MEMORIAL SPORTS & MUSICAL CLUB","C-6-26 UT OF LAKSHADWEEP 682553","ACTIVITIES OF MEMBERSHIP ORGANIZATION",23,949,9,30-99
16,01,"GOVERNMENT JUNIOR BASIC SCHOOL (NORTH)","C-6-74(1) UT OF LAKSHADWEEP 682553",EDUCATION,20,851,1,15-19
17,01,"GOVERNMENT S. B SCHOOL","C-6-145 UT OF LAKSHADWEEP 682553",EDUCATION,20,852,1,25-29
18,01,"ELECTRICITY POWER HOUSE","C-7-117(1) AIRPORT ROAD UT OF LAKSHADWEEP 682553",POWER GENERATION,07,351,1,15-19
19,01,"COMMUNITY HEALTH CENTRE","C-8-134 UT OF LAKSHADWEEP 682553",HEALTH SERVICE,21,861,1,30-99
20,01,"ABDUL KADHER K. C. TUITION CENTRE","Agatti UT OF LAKSHADWEEP 682553","TUITION CENTRE(EDUCATION)",20,851,2,10-14
21,01,FIBRE FACTORY,"C-10-31-1 UT OF LAKSHADWEEP 682553",PRODUCTION OF FIBRE,06,131,6,10-14
22,01,"GOVERNMENT SENIOR SECONDARY SCHOOL","C-10-47-1 UT OF LAKHSADWEEP 682553",EDUCATION,20,852,1,30-99
23,01,"AGATTI AIRPORT, AIRPORT ROAD","C-10-10-3 UT OF LAKSHADWEEP 682553","AIR TRANSPORT SERVICES",13,511,1,25-29
24,01,"GOVERNMENT JUNIOR BASIC SCHOOL","V (D)P-II-193 GOVT ROAD UT OF LAKSHADWEEP 682552",EDUCATION,20,851,1,10-14
25,01,KHADI VILLAGE INDUSTRY,"C-43 UT OF LAKSHADWEEP UT OF LAKSHADWEEP 682552","SALE OF KHADI PRODUCTS",12,477,1,30-99
26,01,"GOVERNMENT SENIOR SECONDARY SCHOOL","5-1(1) UT OF LAKSHADWEEP 682552",EDUCATION,20,852,1,25-29
27,01,TAILORING UNIT,"C-1(1) UT OF LAKSHADWEEP 682552",TAILORING,06,141,2,10-14
28,01,"GOVERNMENT HIGH SCHOOL","C-6-3 UT OF LAKSHADWEEP 682552",EDUCATION,20,852,1,30-99
29,01,"ANDAMAN LAKSHADWEEP HARBOUR WORKS","C-6-39 UT OF LAKSHADWEEP 682552","SUPPORT ACTIVITIES TO TRANSPORTATION",13,522,1,30-99
30,01,"PORT ASSISTANT OFFICE (GOVERNMENT)","C-6-54 UT OF LAKSHADEEP 682552","TRANSPORTATION SERVICES",19,821,1,15-19
31,01,ELECTRICITY OFFICE,"C-6-74 UT OF LAKSHADWEEP 682552",POWER GENERATION,07,351,1,30-99
32,01,"JUNIOR BASIC SCHOOL (CENTRE)","C-6-164 UT OF LAKSHADWEEP 682552",EDUCATION,20,851,1,20-24
33,01,"P. W. D. WORKSHOP (GOVERNMENT)","Amini UT OF LAKSHADWEEP 682552","PWD MAIN WORKSHOP(STORAGE PURPOSE)",13,521,1,30-99
34,01,"COMMUNITY HEALTH CENTRE","C-7-13(1) UT OF LAKSHADWEEP 682552",HOSPITAL ACTIVITIES,21,861,1,30-99
35,01,"COIR PRODUCTION CENTRE (GOVERNMENT)","C-7-19 UT OF LAKSHADWEEP 682552","COIR PRODUCTION CENTRE",06,131,1,15-19
37,01,"SENIOR BASIC SCHOOL (GOVERNMENT)","C-7-23 UT OF LAKSHADWEEP 682552",EDUCATION,20,852,1,20-24
38,01,"POWER HOUSE (GOVERNMENT)","C-7-88 UT OF LAKSHADWEEP 682552","GENERATION &SUPPLY OF POWER(ELECTRICITY)",07,351,1,10-14
39,01,"GOVERNMENT JUNIOR BASIC SCHOOL (SOUTH)","C-8-148(1) UT OF LAKSHADWEEP 682552",EDUCATION,20,851,1,10-14
40,01,"FIBRE FACTORY (GOVERNMENT)","C-10-98(1) UT OF LAKSHADWEEP 682552",FIBRE PRODUCTION,06,131,1,10-14
41,01,"ANIMAL HUSBANDRY UNIT(GOVERNMENT)","C-10-159(1) UT OF LAKSHADWEEP 682552","PRODUCTION & SALES OF POULTRY MEAT & EGG",02,014,1,10-14
42,01,"SENIOR BASIC SCHOOL,","C-1-47 UT OF LAKSHADWEEP 682551",EDUCATION,20,852,1,10-14
43,01,"DHARUL ULOOM MADRASSA","Andrott UT OF LAKSHADWEEP 682551","ISLAMIC STUDY CENTRE",20,851,7,15-19
44,01,"GOVERNMENT MECHERY SCHOOL","C-4-159 UT OF LAKSHADWEEP 682551",EDUCATION,20,851,1,15-19
45,01,"MG SENIOR SECONDARY SCHOOL","C-6-35(1) UT OF LAKSHADWEEP 682551",EDUCATION,20,852,1,30-99
46,01,"P. M. S. CALCIUM UNIVERSITY CENTRE","C-6-36(3) UT OF LAKSHADWEEP 682551",EDUCATION,20,853,1,30-99
47,01,"COOPERATIVE SUPPLY & MARKETING SOCIETY","C-7-47 UT OF LAKSHADWEEP 682551",PROVISION STORE,12,471,6,30-99
48,01,"COIR PRODUCTION CENTRE","C-7-197 UT OF LAKSHADWEEP 682551",COIR PRODUCTION,06,131,6,10-14
49,01,"GOVERNMENT GIRLS HIGH SCHOOL","C-8-5(1) UT OF LAKSHADWEEP 682551",EDUCATION,20,852,1,30-99
50,01,TMM MADRASSA,"C-8-16 UT OF LAKSHADWEEP 682551",EDUCATION,20,851,7,10-14
51,01,"GOVERNMENT JUNIOR BASIC SCHOOL,","C-8-118 UT OF LAKSHADWEEP 982551",EDUCATION,20,851,1,10-14
52,01,"GOVERNMENT JUNIOR BASIC SCHOOL (CENTRE)","C-8-142 UT OF LAKSHADWEEP 682551",EDUCATION,20,851,1,15-19
53,01,"GOVERNMENT COMMUNITY HEALTH CENTRE","C-10-77 UT OF LAKSHADWEEP 682551",HOSPITAL ACTIVITY,21,861,1,30-99
54,01,"GOVERNMENT JUNIOR BASIC SCHOOL","C-11-18 UT OF LAKSHADWEEP 682551",EDUCATION,20,851,1,15-19
55,01,POWER HOUSE,"C-11-45 UT OF LAKSHADWEEP 682551","GENERATION OF POWER",07,351,1,10-14
56,01,"RABINAS SELF-HELP GROUP","C-13-5 UT OF LAKSHADWEP 682551","MANUFACTURING & RETAIL SALE OF SNACKS",06,107,5,10-14
57,01,"SAJLAS SELF-HELP GROUP","C-13-44(3) UT OF LAKSHADWEEP 682551","MANUFACTURING & RETAIL SALE OF SNACKS",06,107,5,10-14
58,01,"AL AMEEN SELF-HELP GROUP","C-13-49 UT OF LAKSHADWEEP 682551","MANUFACTURING & RETAIL SALE OF SNACKS",06,107,5,10-14
59,01,"VANITHA VIKASANA SANGAM","C-14-104 UT OF LAKSHADWEEP 682551","MANUFACTURING & RETAIL SALE OF SNACKS",06,107,5,10-14
60,01,"COCONUT MILK PLANT, LDCL PRIVATE","C-15-124 UT OF LAKSHADWEEP UT OF LAKSHADWEEP 682551","MANUFACTURING OF COCONUT OIL",06,104,2,10-14
61,01,"GOVERNMENT HIGH SCHOOL","Bitra UT OF LAKSHADWEEP 682555",EDUCATION,20,852,1,10-14
62,01,"LAGOON ARTS & SPORTS CLUB","C-1-43 UT OF LAKSHADWEEP 682555",ACTIVITIES OF CLUB,22,931,9,30-99
63,01,"SAINABABI SELF-HELP GROUP","C-1-72 UT OF LAKSHADWEEP 682555","MANUFACTURING & RETAIL SALE OF SNACKS",06,107,5,10-14
64,01,"GOVERNMENT SENIOR SECONDARY SCHOOL","C-3-21 MAIN ROAD UT OF LAKSHADWEEP 682554",EDUCATION,20,852,1,30-99
65,01,JUNIOR BASIC SCHOOL,"C-2-93 NEAR SDO OFFICE UT OF LAKSHADWEEP 682554",EDUCATION,20,851,1,10-14
66,01,"ELECTRICITY DIVISION (GOVERNMENT)","C-3-112 POWER HOUSE ROAD UT OF LAKSHADWEEP 682554","GENERATION OF POWER",07,351,1,25-29
67,01,PRIMARY HEALTH CENTRE,"C-3-52 MAIN ROAD UT OF LAKSHADWEEP 682554",MEDICAL TREATMENT,21,861,1,30-99
68,01,"LPWD DIVISION OFFICE (GOVERNMENT)","C-1-168(1) UT OF LAKSHADWEEP 682556","PUBLIC WORKS (CONSTRUCTION)",09,421,1,10-14
69,01,GOVERNMENT PRESS,"C-1-113 UT OF LAKSHADWEEP 682556",PRINTING WORKS,06,181,1,10-14
70,01,"CALICUT UNIVERSITY CENTRE","C-1-234 UT OF LAKSHADWEEP 682556",EDUCATION,20,853,1,20-24
71,01,"GOVERNMENT SENIOR SECONDARY SCHOOL","C-3-58(1) UT OF LAKSHADWEEP 682556",EDUCATION,20,852,1,30-99
72,01,"GOVERNMENT FIBRE FACTORY","C-4-9(2) UT OF LAKSHADWEEP 682556",FIBRE PRODUCTION,06,131,1,10-14
73,01,"GOVERNMENT COIR CENTRE","C-4-9(4) UT OF LAKSHADWEEP 682556",COIR PRODUCTION,06,139,1,15-19
75,01,"LAKSHADWEEP HARBOUR WORKS","C-5-55 UT OF LAKSHADWEEP 682556","SUPPORT ACTIVITIES TO TRANSPORTATION",13,522,1,10-14
76,01,"GOVERNMENT DESICCATED COCONUT PLANT","C-5-61 UT OF LAKSHADWEEP 682556","MANUFACTURING OF COCONUT OIL",06,104,1,15-19
77,01,"GOVERNMENT PRIMARY HEALTH CENTRE","C-5-71 UT OF LAKSHADWEEP 682556",HOSPITAL ACTIVITIES,21,861,1,15-19
78,01,"GOVERNMENT PORT ASSISTANT OFFICE","C-5-78 UT OF LAKSHADWEEP 682556","TRANSPORTATION SERVICE",19,821,1,15-19
79,01,"J. E P. W. D STORE, KADAMATH","C-2-107 UT OF LAKSHADWEEP 682556","CONSTRUCTION WORKS(CIVIL ENGINEERING)",09,410,1,30-99
80,01,POWER HOUSE,"C-5-157 UT OF LAKSHADWEEP 682556","GENERATION OF POWER",07,351,1,10-14
81,01,"GOVERNMENT ELECTRICITY OFFICE","C-5-169 UT OF LAKSHADWEEP 682556","GENERATION OF POWER",07,351,1,15-19
82,01,"KUNJHI HAJI CONTRACTOR","C-5-177 UT OF LAKSHADWEEP 682556","BUILDING CONTRACTOR(CONSTR UCTION)",09,410,2,10-14
83,01,"GOVERNMENT JUNIOR SCHOOL,","KADAMATH(CENTRE) UT OF LAKSHADWEEP 682556",EDUCATION ACTIVITIES,20,852,1,20-24
84,01,ALHAMDU PICKLE UNITS,"C-7-109 UT OF LAKSHADWEEP 682556","MANUFACTURING & RETAIL SALE OF SNACKS",06,107,5,10-14
85,01,"GOVERNMENT SENIOR BASIC SCHOOL","C-8-20(1) UT OF LAKSHADWEEP 682556",EDUCATION,20,852,1,10-14
86,01,"CONFERENCE HALL CUM TOURIST OFFICE","C-8-113 UT OF LAKSHADWEEP 682556","TOURISM ACTIVITIES(ACCOMMOD ATION & FOOD )",14,551,6,30-99
87,01,"FIBRE PRODUCTION CENTRE","C-1-67 UT OF LAKSHADWEEP 682557",FIBRE PRODUCTION,06,131,6,15-19
88,01,"CORPORATIVE SUPPLY & MARKETING SOCIETY","C-2-35 UT OF LAKSHADWEEP 682557",PROVISION STORE,12,471,6,15-19
89,01,"GOVERNMENT SENIOR BASIC SCHOOL","C-2-67 UT OF LAKSHADWEEP 682557",EDUCATION,20,852,1,15-19
90,01,"GOVERNMENT SENIOR SECONDARY SCHOOL","C-2-144 UT OF LAKSHADWEEP 682557",EDUCATION,20,852,1,30-99
91,01,PRIMARY HEALTH CENTRE,"C-2-143 UT OF LAKSHADWEEP 682557","MEDICAL HEALTH SERVICE",21,861,1,25-29
92,01,"KHADI & VILLAGE INDUSTRY","C-2-190(1) UT OF LAKSHADWEEP 682557","SALES OF KHADI PRODUCTS",12,477,1,15-19
93,01,BANYAN FACTORY,"C-3-161 UT OF LAKSHADWEEP 682557",TAILORING,06,141,2,10-14
94,01,"NOORUL HUDHA MADRASSA","C-4-77 UT OF LAKSHADWEEP 682557",ISLAMIC EDUCATION,20,851,7,10-14
95,01,"GOVERNMENT JUNIOR BASIC SCHOOL","C-4-124 UT OF LAKSHADWEEP 682557",EDUCATION,20,851,1,15-19
96,01,"INDIRA MAHILA KENDRIYA SELF-HELP GROUP","C-4-204 UT OF LAKSHADWEEP 682557","MANUFACTURING & RETAIL SALE OF SNACKS",06,107,5,10-14
97,01,"TAILORING UNIT UNDER WOMEN &CHILD DEVELOPMENT KALPENI","C-4-181 UT OF LAKSHADWEEP 682557",TAILORING,06,141,1,10-14
98,01,MUNNA SELF-HELP GROUP,"C-5-43 UT OF LAKSHADWEEP 682557","MANUFACTURING & RETAIL SALE OF SNACKS",06,107,5,10-14
99,01,"BISMILLAH SELF-HELP GROUP","C-5-98 UT OF LAKSHADWEEP 682557","MANUFACTURING & RETAIL SALE OF SNACKS",06,107,5,10-14
100,01,"SAM SAM SELF-HELP GROUP","C-5-131(1) UT OF LAKSHADWEEP 682557","MANUFACTURING & RETAIL SALE OF SNACKS",06,107,5,10-14
101,01,SSF OFFICE,"C-5-50 UT OF LAKSHADWEEP 682557","EDUCATIONAL SUPPORT ACTIVITIES",20,855,7,10-14
102,01,"DCP UNIT, COCONUT PRODUCTS","C-8-151(1) UT OF LAKSHADWEEP 682557","MANUFACTURING OF COCONUT OIL",06,104,1,25-29
103,01,"SANDY BEACH RESTAURANT","C-1-1 UT OF LAKSHADWEEP 682555",RESTAURANT,14,561,3,15-19
104,01,"JUNIOR BASIC SCHOOL (NORTH)","C-1-31 UT OF LAKSHADWEEP 682555",EDUCATION,20,851,1,15-19
105,01,MUTHIYAAR RESTAURANT,"C-1-171 UT OF LAKSHADWEEP 682555",RESTAURANT,14,561,3,15-19
106,01,"THARKIYATHUL ISLAM MADRASSA","C-4-127(1) UT OF LAKSHADWEEP 682555",RELIGIOUS EDUCATION,20,851,7,30-99
107,01,"BHAKIYATHU SALIHATHU MADRASSA","C-5-83 UT OF LAKSHADWEEP 682555",RELIGIOUS EDUCATION,20,851,7,10-14
108,01,PARADISE HUT,"C-5-31(5) UT OF LAKSHADWEEP 682555",TOURISM RESTAURANT,14,561,4,15-19
109,01,"COOPERATIVE SUPPLY & MARKETING SOCIETY","C-6-13 UT OF LAKSHADWEEP 682555",PROVISION STORE,12,471,6,10-14
110,01,"GOVERNMENT PORT OFFICE","Bitra UT OF LAKSHADWEEP 682555","TRANSPORTATION SERVICE",19,821,1,30-99
111,01,"ASSISTANT ENGINEER ELECTRICITY OFFICE","C-6-32 UT OF LAKSHADWEEP 682555","GENERATION & SUPPLY OF ELECTRIC POWER",07,351,1,30-99
112,01,"WOMENS SELF-HELP GROUP","C-6-75(2) UT OF LAKSHADWEEP 682555",TAILORING CENTRE,06,141,5,10-14
114,01,"INDUSTRIAL UNIT (GOVERNMENT)","Bitra UT OF LAKSHADWEEP 682555",COIR PRODUCTION,06,131,1,15-19
115,01,"GOVERNMENT SENIOR SECONDARY SCHOOL","C-7-98 UT OF LAKSHADWEEP 682555",EDUCATION,20,852,1,30-99
116,01,"DIRECTORATE OF EMPLOYMENT & TRAINING","UT OF LAKSHADWEEP 682555",TRAINING INSTITUTE,20,854,1,25-29
117,01,"GOVERNMENT INDIRA GANDHI HOSPITAL","C-11-97(1) UT OF LAKSHADWEEP 682555",HOSPITAL ACTIVITIES,21,861,1,30-99
118,01,"GOVERNMENT LAKSHADWEEP PWD CIVIL SUB DIVISION","C-12-8(2) UT OF LAKSHADWEEP 682555",CONSTRUCTION WORK,09,410,1,30-99
119,01,VIP GUEST HOUSE,"C-12-193 UT OF LAKSHADWEEP 682555",ACCOMMODATION,14,551,1,15-19
120,01,"GOVERNMENT REVENUE SUB DIVISION OFFICE","C-13-14 UT OF LAKSHADWEEP 682555",REVENUE OFFICE,19,821,1,15-19
121,01,"GOVERNMENT SENIOR SECONDARY SCHOOL","C-13-40 UT OF LAKSHADWEEP 682555",EDUCATION,20,852,1,30-99
122,01,SYNDICATE BANK,"C-13-119 UT OF LAKSHADWEEP 682555",BANKING,16,641,1,10-14
123,01,COLLEGE OF EDUCATION,"C-14-177(4 ) UT OF LAKSHADWEEP 682555","EDUCATION & TRAINING (BED)",20,853,1,10-14
124,01,"DISTRICT INSTITUTE OF EDUCATION &TRAINING","C-14-177(2 ) UT OF LAKSHADWEEP 682555","EDUCATION & TRAINING",20,851,1,15-19
125,01,"COOPERATIVE SUPPLY & MARKETING SOCIETY","C-4-57 UT OF LAKSHADWEEP 682558",PROVISION STORE,12,471,6,20-24
126,01,"MOOPAN KENDIPARTY VILLAGE","C-1-48 UT OF LAKSHADWEEP 682559",FISHING,04,031,2,30-99
127,01,"DIRECTORATE OF EDUCATION","UT OF LAKSHADWEEP 682555",EDUCATION,20,852,1,30-99
128,01,"MOOPAN FALLESSERY VILLAGE","C-3-23 UT OF LAKSHADWEEP 682559","FISHING & VILLAGE HOUSE",04,031,3,30-99
129,01,"MOOPAN KUDEHIKUDEHI VILLAGE","C-4-26 UT OF LAKSHADWEEP 682559","FISHING & VILLAGE HOUSE",04,031,3,30-99
130,01,"ISLAMIC MADRASSA, MAIN ROAD FALLESSERY VILLAGE","C-5-20 UT OF LAKSHADWEEP 682559",ISLAMIC STUDY,20,851,7,10-14
131,01,"MOOPAN FUNHILOL VILLAGE","C-6-3 FUNHILOL ROAD UT OF LAKSHADWEEP 682559","FISHING & VILLAGE HOUSE",04,031,3,20-24
132,01,"MUDINS HOTEL SEDIVALU VILLAGE","C-6-213 UT OF LAKSHADWEEP 682559",HOTEL,14,551,2,10-14
133,01,MOOPAN ALOODI VILLAGE,"C-7-5 UT OF LAKSHADWEEP 682559","FISHING & VILLAGE HOUSE",04,031,2,10-14
134,01,"MOOPAN SEDIVALU VILLAGE","C-7-37 UT OF LAKSHADWEEP 682559","FISHING & VILLAGE HOUSE",04,031,2,25-29
135,01,"FATHIMA THAKANDUGOTHI SEDIVALU VILLAGE","C-7-84 UT OF LAKSHADWEEP 682559",FISHING,04,031,2,10-14
136,01,"YOUSUF MANIKFAN SEDIVALU VILLAGE","C-8-7 UT OF LAKSHADWEEP 682559",FISHING,04,031,2,10-14
137,01,"MOOPAN RAMMEDU VILLAGE","C-8-18 UT OF LAKSHADWEEP 682559",FISHING,04,031,2,10-14
138,01,"MOOPATHI RAMMEDU VILLAGE","Minicoy UT OF LAKSHADWEEP 682559","MANUFACTURING & RETAIL SALE OF SNACKS",06,107,5,10-14
139,01,"DIRECTORATE OF EDUCATION","UT OF LAKSHADWEEP 682555",EDUCATION,20,851,1,30-99
140,01,"MUGUAPPAN SELF-HELP GROUP SEDIVALU VILLAGE","C-8-18 UT OF LAKSHADWEEP 682559","MANUFACTURING & RETAIL SALE OF SNACKS",06,107,5,10-14
141,01,"MODELLANGAN SELF- HELP GROUP SEDIVALU VILLAGE","C-8-53 UT OF LAKSHADWEEP 682559","MANUFACTURING & RETAIL SALE OF SNACKS",06,107,5,10-14
142,01,"KUDALI SELF-HELP GROUP SEDIVALU VILLAGE","C-8-55 UT OF LAKSHADWEEP 682559","MANUFACTURING & RETAIL SALE OF SNACKS",06,107,5,10-14
143,01,"KALUDIRI SELF-HELP GROUP BODUATHIRI VILLAGE","C-9-31 UT OF LAKSHADWEEP 682559","MANUFACTURING & RETAIL SALE OF SNACKS",06,107,5,10-14
144,01,"KIBALISH SELF-HELP GROUP NEW BODUATHIRI VILLAGE","C-9-86 UT OF LAKSHADWEEP 682559","MANUFACTURING & RETAIL SALE OF SNACKS",06,107,5,10-14
145,01,"MINICOY NOVELTY MAS PRODUCERS SOCIETY CKB ROAD","C-10-92(2) AOUMAGU VILLAGE UT OF LAKSHADWEEP 682559",FISH PRODUCTS,04,031,2,10-14
146,01,MOOPAN BADA VILLAGE,"C-11-5 UT OF LAKSHADWEEP 682559","FISHING & VILLAGE HOUSE",04,031,2,30-99
147,01,"MOHAMMED KILAUGANDUGOTHI BADA VILLAGE","C-11-55 UT OF LAKSHADWEEP 682559",FISHING,04,031,2,10-14
148,01,"MOHAMMED THAMBURUGANDUGE BADA VILLAGE","C-12-16 UT OF LAKSHADWEEP 682559",FISHING,04,031,2,10-14
149,01,"GOVERNMENT JUNIOR BASIC SCHOOL (MAIN) BADA VILLAGE","C-12-102 UT OF LAKSHADWEEP 682559",EDUCATION,20,851,1,30-99
151,01,"OFFICER IN CHARGE, CANNING FACTORY","C-12-175 UT OF LAKSHADWEEP 682559",TUNA CANNING,06,102,1,25-29
152,01,"SECRETARY COOPERATIVE SALES & MARKETING SOCIETY,","C-12-48 UT OF LAKSHADWEEEP 682559",PROVISION STORE,12,471,6,20-24
