Food crops,https://schools.aglasem.com/34155,https://testbook.com/blog/crops-in-india-gk-notes-pdf/,http://www.shareyouressays.com/knowledge/6-important-food-crops-in-india/110725,https://m.indianetzone.com/artical.aspx?iwebpageid=18814http://www.playquiz2win.com/tothepoint/gk/types-of-crops.html,https://www.quora.com/What-is-the-most-famous-crop-of-india,https://www.mbarendezvous.com/essay/importance-of-crops-in-india/,http://www.preservearticles.com/201106228378/important-crops-of-india.html,https://study.com/academy/lesson/major-crops-in-india-types-practices.html,https://www.jagranjosh.com/general-knowledge/list-of-major-crops-of-india-temperature-rainfall-soil-1473918924-1,d
Cash crops,https://www.importantindia.com/21662/cash-crops/,https://www.iaspaper.net/cash-crop-6-popular-cash-crops/,https://www.quora.com/What-are-the-cash-crops-in-India,https://nextwhatbusiness.com/cash-crop-farming-business-ideas/,http://www.shareyouressays.com/essays/complete-essay-on-commercial-cash-crops-of-india-5615-words/120734,http://www.civilsdaily.com/important-cash-crops-and-plantation-crops-sugarcane-cotton-jute-oilseeds-tobacco-mustard-coconut-castorseeds-sunflower-til-groundnut-tea-coffee/,https://sites.google.com/a/tges.org/geo-jaydeep/std-10-geography/agriculture-in-india/cash-crops--tea-coffee-jute-groundnut-and-sugarcane-1,https://m.indianetzone.com/artical.aspx?iwebpageid=19966,d
Plantation crops,http://prepareias.in/subject/gs/indian-and-world-geography/plantation-crops,http://www.kerenvis.nic.in/Database/Crops_1732.aspx,http://vikaspedia.in/agriculture/crop-production/package-of-practices/plantation-crops,https://www.gktoday.in/gk/production-of-plantation-crops-in-india/,http://ecoursesonline.iasri.res.in/mod/page/view.php?id=13615,http://tnhorticulture.tn.gov.in/horti/plantation,http://www.shareyouressays.com/essays/read-essay-on-plantation-crops-in-india-689-words/120733,https://www.quora.com/What-are-plantation-crops,d
Other crops,http://apeda.gov.in/apedawebsite/six_head_product/FFV.htm,https://www.quora.com/What-fruit-grows-in-India,https://www.vegetables.co.nz/vegetables-a-z/indian-vegetables/,https://www.quora.com/Which-are-the-vegetables-native-to-India,http://www.walkthroughindia.com/offbeat/20-most-famous-fruits-of-india-with-geographical-indications/,https://www.fruitizm.com/blog/list-of-seasonal-fruits-in-india,d
Animal husbandry,https://www.ancient.eu/Animal_Husbandry/,http://www.shareyouressays.com/knowledge/essay-on-the-animal-husbandry-in-india/114095,https://en.wikipedia.org/wiki/Animal_husbandry_in_India,http://www.preservearticles.com/2012020322595/complete-information-on-animal-husbandry-in-india.html,https://www.jagranjosh.com/articles/upsc-ias-exam-animal-husbandry-in-india-1462537332-1,d
Forestry & logging,https://en.wikipedia.org/wiki/Forestry_in_India,https://en.wikipedia.org/wiki/Logging,https://www.britannica.com/topic/logging-forestry,https://en.wikipedia.org/wiki/Forest_produce_(India),https://en.wikipedia.org/wiki/Forest_product,https://www.quora.com/What-are-the-major-forest-products,d
Fishing,https://en.wikipedia.org/wiki/Fishing_in_India,http://www.fao.org/fishery/countrysector/naso_india/en,https://www.britannica.com/topic/fishing-recreation,https://en.wikipedia.org/wiki/Commercial_fishing,d
Coal and lignite,https://www.quora.com/What-type-of-coal-available-in-India,https://www.importantindia.com/12334/types-of-coal-found-in-india/,https://www.importantindia.com/4603/classification-of-coal-in-india/,https://en.wikipedia.org/wiki/Coal_mining_in_India,d
Natural gas,https://en.wikipedia.org/wiki/Oil_and_gas_industry_in_India,https://www.igscngservices.com/cng-101/,https://www.chevron.com/operations/liquefied-natural-gas-lng,https://www.eia.gov/energyexplained/index.php?page=natural_gas_lng,https://en.wikipedia.org/wiki/Natural_gas,https://www.nationalgeographic.org/encyclopedia/natural-gas/,https://www.quora.com/What-are-some-of-the-most-common-examples-of-natural-gas,d
Crude petroleum,https://www.britannica.com/science/crude-oil,https://en.wikipedia.org/wiki/Petroleum,d
Iron ore,https://en.wikipedia.org/wiki/Iron_ore,http://www.indianetzone.com/45/iron_ore_india.htm,https://www.tf.uni-kiel.de/matwis/amat/iss/kap_a/advanced/aa_2_1.html,http://www.preservearticles.com/2012020422766/complete-information-on-various-types-of-iron-ores-found-in-india.html,d
Other minerals,https://www.britannica.com/science/bauxite,http://www.danafloat.com/uk/mining_ores/copper,https://encyclopedia2.thefreedictionary.com/Manganese+Ores,https://www.pmfias.com/non-metallic-mineral-distribution-in-india-mica-limestone-dolomite-asbestos-kyanite-gypsum/,http://ibm.nic.in/index.php?c=pages&m=index&id=359,http://scienceviews.com/geology/minerals.html,http://www.nr.gov.nl.ca/nr/mines/outreach/education/minerals/metallic.html,http://www.minsocam.org/MSA/collectors_corner/article/oremin.htm,d
Sugar,http://www.indianmirror.com/indian-industries/sugar.html,https://en.wikipedia.org/wiki/Sugar_industry,https://en.wikipedia.org/wiki/Sugar_refinery,https://en.wikipedia.org/wiki/Muscovado,d
Food products excluding sugar,https://en.wikipedia.org/wiki/List_of_vegetable_oils,https://en.wikipedia.org/wiki/Dalda,https://www.britannica.com/topic/canning-food-processing,http://www.indianmirror.com/indian-industries/food.html,http://www.indianmirror.com/indian-industries/chocolate.html,d
Beverages,https://en.wikipedia.org/wiki/List_of_Indian_beverages,https://en.wikipedia.org/wiki/Beverage_industry,http://www.ilocis.org/documents/chpt65e.htm,https://www.dartconsulting.co.in/market-news/overview-of-the-beverage-industry-what-are-the-major-composites-of-the-sector/,d
Tobacco products,http://www.indianmirror.com/indian-industries/tobacco.html,https://en.wikipedia.org/wiki/Tobacco_products,https://en.wikipedia.org/wiki/Tobacco,https://www.ncbi.nlm.nih.gov/pmc/articles/PMC2669568/,d
Cotton textiles,http://www.yourarticlelibrary.com/cultivation/cotton-cultivation-in-india-conditions-types-production-and-distribution/20949,https://en.wikipedia.org/wiki/Cotton,https://www.importantindia.com/20480/cotton-textile-industry-in-india/,https://study.com/academy/lesson/cotton-textile-industry-information-history.html,http://www.economicsdiscussion.net/essays/essay-on-cotton-textile-industry-in-india/18117,http://www.indianmirror.com/indian-industries/cotton.html,d
Wool silk & synthetic fiber textiles,https://en.wikipedia.org/wiki/Wool,http://textilelearner.blogspot.com/2011/08/wool-fiber-properties-of-wool-fiber_5920.html,http://www.indianmirror.com/indian-industries/silk.html,http://www.csb.gov.in/silk-sericulture/silks-of-india/,https://www.quora.com/What-are-examples-of-synthetic-fibers,https://www.jagranjosh.com/general-knowledge/list-of-important-synthetic-fibres-1457680992-1,https://www.britannica.com/technology/man-made-fiber,d
Jute hemp and mesta textiles,https://en.wikipedia.org/wiki/Jute,http://www.indianmirror.com/indian-industries/jute.html,http://www.juteproductsindia.com/,http://www.technicaltextile.net/articles/nonwoven-textiles/detail.aspx?article_id=6069&pageno=1,http://www.textilevaluechain.com/index.php/article/technical/item/381-grading-of-mesta-fibre-found-in-maharashtra-and-andhra-pradesh,d
Textiles products including wearing apparel,https://en.wikipedia.org/wiki/Textile,https://en.wikipedia.org/wiki/List_of_textile_fibres,https://en.wikipedia.org/wiki/Clothing_industry,http://www.apparelsearch.com/apparel_industry.html,http://www.indianmirror.com/indian-industries/garment.html,http://www.indianmirror.com/indian-industries/textile.html,d
Wood and wood products except furniture,https://en.wikipedia.org/wiki/Engineered_wood,https://www.timberproducts.com/products,http://www.demagcranes.co.in/cms/site/in/Industries/Wood-and-wood-products,http://www.biologyreference.com/Ve-Z/Wood-and-Wood-Products.html,http://www.vault.com/industries-professions/industries/forestry-and-forest-products.aspx,https://encyclopedia2.thefreedictionary.com/Wood-Products+Industry,d
Furniture and fixture,https://www.britannica.com/topic/furniture-industry,http://www.indianmirror.com/indian-industries/furniture.html,http://www.valueline.com/Stocks/Industries/Industry_Overview__Furniture_and_Home_Furnishings.aspx,https://www.bls.gov/iag/tgs/iag337.htm,d
Paper and paper products,http://www.indianmirror.com/indian-industries/paper.html,http://www.wikinvest.com/industry/Paper_%26_Paper_Products,http://www.ilocis.org/documents/chpt72e.htm,http://www.printweek.in/features/indian-paper-industry-ready-rise-global-stage-17747,d
Printing publishing and allied activities,http://www.indianmirror.com/indian-industries/printing.html,https://en.wikipedia.org/wiki/Printing_industry_in_India,http://www.vault.com/industries-professions/industries/printing.aspx,https://www.bls.gov/iag/tgs/iag323.htm,http://www.printweek.in/features/book-publishing-22755,https://www.osha.gov/pls/imis/sic_manual.display?id=20&tab=group,d
Leather and leather products,http://www.indianmirror.com/indian-industries/leather.html,https://leatherpanel.org/publications-categories/leather-products,https://leatherpanel.org/publications-categories/leather-products,https://en.wikipedia.org/wiki/Leather_production_processes,https://www.encyclopedia.com/history/dictionaries-thesauruses-pictures-and-press-releases/leather-and-leather-products-industry,https://www.mbarendezvous.com/general-awareness/the-leather-industry/,d
Plastic and rubber products,https://en.wikipedia.org/wiki/Plastic,http://www.indianmirror.com/indian-industries/plastic.html,https://www.quora.com/What-are-the-uses-of-plastic-in-daily-life,http://www.indianmirror.com/indian-industries/rubber.html,https://encyclopedia2.thefreedictionary.com/Rubber+Products,https://www.quora.com/What-are-the-common-products-made-of-rubber,d
Petroleum products,https://en.wikipedia.org/wiki/Petroleum_product,https://www.britannica.com/topic/list-of-petroleum-products-2069393,https://infoguidenigeria.com/petroleum-products/,http://www.businessdictionary.com/definition/petroleum-products.html,d
Coal tar products,https://investingnews.com/daily/resource-investing/industrial-metals-investing/coal-investing/types-of-coal/,https://www.coals2u.co.uk/blog/coal/the-many-different-types-of-coal,https://www.quora.com/What-are-uses-for-asphalt-and-tar,https://en.wikipedia.org/wiki/Tar,d
Inorganic heavy chemicals,https://en.wikipedia.org/wiki/List_of_inorganic_compounds,http://www.yourarticlelibrary.com/industries/heavy-organic-and-inorganic-chemical-industries-of-india/19856,https://www.quora.com/What-are-some-examples-of-inorganic-chemistry-in-everyday-life,http://www.essentialchemicalindustry.org/chemicals.html,https://www.quora.com/What-are-examples-of-inorganic-ingredients,d
Organic heavy chemicals,http://examples.yourdictionary.com/examples-of-organic-compound.html,https://www.thoughtco.com/organic-chemistry-in-everyday-life-608694,http://www.chemistryexplained.com/Hy-Kr/Industrial-Chemistry-Organic.html,https://www.britannica.com/technology/chemical-industry/Organic-chemicals,d
Fertilizers,http://www.indianmirror.com/indian-industries/fertilizer.html,https://en.wikipedia.org/wiki/Fertilizer,https://www.tfi.org/our-industry/state-of-industry/about-the-industry,http://www.madehow.com/Volume-3/Fertilizer.html,http://agritech.tnau.ac.in/agriculture/agri_nutrientmgt_fertilizers.html,http://www.godhan.in/news/different-types-fertilizers-used-india-farming/,d
Paints varnishes and Lacquers,https://www.quora.com/What-are-the-different-types-of-paints-for-interior-and-exterior-uses-and-what-is-the-difference-between-them,http://www.indianmirror.com/indian-industries/paint.html,https://en.wikipedia.org/wiki/Paint,http://www.essentialchemicalindustry.org/materials-and-applications/paints.html,https://en.wikipedia.org/wiki/Varnish,https://en.wikipedia.org/wiki/Lacquer,d
Pestisides,https://en.wikipedia.org/wiki/Pesticide,http://indiaforsafefood.in/farminginindia/,https://byjus.com/chemistry/pesticides/,https://en.wikipedia.org/wiki/Insecticide,http://www.panna.org/pesticides-big-picture/pesticides-101,d
Cement,https://en.wikipedia.org/wiki/Cement,http://www.indianmirror.com/indian-industries/cement.html,https://www.quora.com/What-are-the-different-types-of-cement-and-their-uses-in-construction-work,http://www.dailycivil.com/types-of-cement-and-their-uses/,d
Non Metalic Minerals,https://www.911metallurgist.com/blog/list-non-metallic-mineral-names,https://www.quora.com/What-are-some-examples-of-non-metallic-minerals-and-their-uses,https://www.chemicalbook.com/ProductCatalog_EN/1218.htm,http://ec.europa.eu/eurostat/web/environmental-data-centre-on-natural-resources/natural-resources/raw-materials/mineral-resources-non-metallic,https://www.statista.com/markets/410/topic/951/nonmetallic-mineral-products/,d
Iron & steel industries and foundries,https://en.wikipedia.org/wiki/Iron_and_steel_industry_in_India,http://www.essentialchemicalindustry.org/metals/iron.html,https://www.capitalsteel.net/news/blog/types-of-steel,http://www.reliance-foundry.com/castings/cast-iron,http://ispatguru.com/iron-and-types-of-iron/,http://www.indianmirror.com/indian-industries/steel.html,d
Other basic metal industry,https://www.doremetals.co.uk/z-types-commonly-found-metals/,https://en.wikipedia.org/wiki/Brass,http://www.indianmirror.com/indian-industries/copper.html,http://www.essentialchemicalindustry.org/metals/copper.html,https://en.wikipedia.org/wiki/Precious_metal,https://www.diydoctor.org.uk/projects/metal_used_at_home.htm,d
Metal products except mach,https://alliantmetals.com/application-examples-of-stainless-steel/,https://www.thebalance.com/brass-applications-2340108,https://www.copper.org/applications/,http://metalpedia.asianmetal.com/metal/nickel/application.shtml,d
Agricultural machinery,https://www.heavydutydirect.ca/agricultural-equipment-and-their-uses/,https://en.wikipedia.org/wiki/Agricultural_machinery,https://en.wikipedia.org/wiki/List_of_agricultural_machinery,http://www.machinery-mover.co.uk/information/farm-machinery.php,d
Industrial machinery for food and textiles,https://en.wikipedia.org/wiki/Food_processing,https://www.graybillmachines.com/process-machines.php,http://www.ppma.co.uk/food-processing/food-processing-equipment.htm,https://en.wikipedia.org/wiki/Textile_manufacturing,http://www.keycolour.net/blog/machineries-used-in-textile-industry/,http://msc-ks4technology.wikispaces.com/Textiles+-+Tools+and+equipment,d
Other machinery,http://www.pharmaceuticalmachinery.in/industrial_overview.htm,http://www.novamining.com/knowledgebase/mining-machinery/overview-of-indian-mining-machinery-industry/,http://www.indiancementreview.com/News.aspx?nId=qgBy9ESpR7z+utR82NhgzA==,https://en.wikipedia.org/wiki/Machine_tool#Drive_power_sources,http://www.ramirent.com/portal/en/our_offer/equipment/heavy_machinery/,https://encyclopedia2.thefreedictionary.com/Fire-Fighting+Equipment,https://www.britannica.com/technology/centrifuge,d
Electrical electronic machinery & appliances,https://www.osha.gov/pls/imis/sic_manual.display?id=29&tab=group,http://www.thegreenbook.com/types-of-communication-equipment.htm,https://en.wikipedia.org/wiki/Consumer_electronics,https://en.wikipedia.org/wiki/Small_appliance,d
Railway transport equipment,http://www.preservearticles.com/2012013022114/short-notes-on-railway-equipment-industry-in-india.html,http://www.indianmirror.com/indian-industries/railway.html,http://www.brainkart.com/article/Equipment-at-Railway-Stations_4353/,http://www.railway-technical.com/trains/rolling-stock-index-l/train-equipment/,d
Other transport equipment,https://en.wikipedia.org/wiki/Shipbuilding,http://www.indianmirror.com/indian-industries/automobile.html,https://www.britannica.com/technology/automotive-industry,http://www.walkthroughindia.com/lifestyle/the-traditional-transport-in-india/,http://www.spareaze.com/two-wheeler-industry-india/,d
Miscellaneous manufacturing industries,http://www.indianmirror.com/indian-industries/aviation.html,http://www.thehindu.com/life-and-style/the-india-watch-story/article20103193.ece,https://www.osha.gov/pls/imis/sic_manual.display?id=32&tab=group,http://www.referenceforbusiness.com/industries/Miscellaneous-Manufacturing/index.html,https://www.businesswire.com/news/home/20070730005544/en/Research-Markets-Miscellaneous-Manufacturing-Industries-Revenue-Year,d
Construction,http://www.indianmirror.com/indian-industries/construction.html,https://en.wikipedia.org/wiki/Construction_industry_of_India,https://www.britannica.com/technology/construction-technology,https://www.indianconstructionindustry.com/overview.html,d
Electricity,http://indianpowersector.com/home/about/,https://en.wikipedia.org/wiki/Electric_power_industry,https://www.ena.org.nz/about/overview-of-the-electricity-industry/,http://www.indianmirror.com/indian-industries/power.html,https://www.prnewswire.com/news-releases/india-power-transmission--distribution-sector-opportunity-outlook-2025-300374062.html,d
Water supply,https://www.britannica.com/technology/water-supply-system,https://en.wikipedia.org/wiki/Water_supply,https://en.wikipedia.org/wiki/Water_industry,d
Railway transport services,https://en.wikipedia.org/wiki/Rail_transport_in_India,http://www.indianmirror.com/indian-industries/railway.html,https://www.britannica.com/topic/national-railway,https://economictimes.indiatimes.com/definition/rail-transport,d
Other transport services,http://www.indiaonline.in/about/transport,http://www.india.com/travel/articles/6-unique-modes-of-transport-in-india-that-will-amaze-you/,http://www.preservearticles.com/201012251642/means-of-transport.html,d
Storage and warehousing,https://en.wikipedia.org/wiki/Warehouse,https://www.shopify.com/encyclopedia/warehousing,https://www.knowthis.com/managing-product-movement/types-of-warehouses/,http://www.whichwarehouse.com/blog/news/7-types-specialist-warehouse-storage/,https://www.apsfulfillment.com/warehousing-and-distribution-2/comparing-the-different-types-of-warehouses/,d
Communication,https://en.wikipedia.org/wiki/Telecommunications_industry,https://en.wikipedia.org/wiki/Telecommunications_in_India,http://www.indianmirror.com/indian-industries/telecom.html,https://en.wikipedia.org/wiki/List_of_telecom_companies_in_India,https://business.mapsofindia.com/communications-industry/companies/,d
Trade,https://www.quora.com/What-is-the-best-company-for-stock-trading-in-India,http://www.topsharebrokers.com/,https://www.quora.com/Which-is-the-most-trusted-share-trading-company-in-India,https://www.quora.com/Which-is-the-best-online-share-broker-in-India-for-beginners,d
Hotels and restaurants,https://en.wikipedia.org/wiki/List_of_restaurant_chains_in_India,https://en.wikipedia.org/wiki/Category:Restaurant_chains_in_India,http://www.wikiwand.com/en/List_of_restaurant_chains_in_India,https://www.tourmyindia.com/hotelchains/,https://en.wikipedia.org/wiki/Category:Hotel_chains_in_India,https://www.quora.com/What-is-the-best-hotel-chain-in-India,d
Banking,https://en.wikipedia.org/wiki/Banking_in_India,http://www.indianmirror.com/indian-industries/banking.html,https://tin.tin.nsdl.com/tan/Bank.html,https://www.quora.com/How-many-nationalised-banks-are-there-in-india,d
Insurance,http://www.indianmirror.com/indian-industries/insurance.html,https://www.acko.com/articles/general-info/types-of-insurance/,https://en.wikipedia.org/wiki/General_insurance,http://smallbusiness.chron.com/types-insurance-explained-41590.html,https://www.investopedia.com/financial-edge/0212/4-types-of-insurance-everyone-needs.aspx,d
Ownership of dwellings,http://www.indianmirror.com/indian-industries/real-estate.html,https://en.wikipedia.org/wiki/Housing_in_India,http://www.teoalida.com/world/india/,https://en.wikipedia.org/wiki/Real_estate,https://www.thebalance.com/real-estate-what-it-is-and-how-it-works-3305882,d
Education and research,https://en.wikipedia.org/wiki/Education_in_India,https://en.wikipedia.org/wiki/Science_and_technology_in_India,https://en.wikipedia.org/wiki/Education,http://www.sciencemag.org/features/2013/02/advancing-science-india,d
Medical and health,https://en.wikipedia.org/wiki/Healthcare_in_India,http://www.indianmirror.com/indian-industries/health.html,http://www.indianmirror.com/indian-industries/pharmaceutical.html,https://www.ibef.org/industry/healthcare-india.aspx,https://www.internationalstudentinsurance.com/india-student-insurance/healthcare-system-in-india.php,d
Public administration and defence,https://en.wikipedia.org/wiki/Indian_Institute_of_Public_Administration,https://en.wikipedia.org/wiki/Ministry_of_Defence_(India),http://www.lawyersclubindia.com/articles/Public-Administration-in-India-as-a-mechanism-for-social-change-5309.asp,https://en.wikipedia.org/wiki/Indian_Armed_Forces,d