S.No.,Name of the Establishment,Address,Major Activity Description,Broad Activity Code,NIC,Owner ship Code,Emplo yment Class Interval
19979,PRIMARY SCHOOL KOSHIMADA,141 1      394715,EDUCATION ACTIVITY,20,851,1,10-14
19980,PRIMARY GUJARATI SCHOOL SAJUPADA,47     394715,EDUCATION ACTIVITY,20,851,1,10-14
19981,PRIMARY GUJARATI SCHOOL BARDIPADA,29     394715,EDUCATION ACTIVITY,20,851,1,10-14
19982,PRIMARY GUJARATI SCHOOL NISHANA,205     394716,EDUCATION ACTIVITY,20,851,1,15-19
19983,PRIMARY GUJARATI SCHOOL KAKSHALA,24     394716,EDUCATION ACTIVITY,20,851,1,10-14
19984,PRIMARY GUJARATI SCHOOL KESHBANDH,65     394716,EDUCATION ACTIVITY,20,851,1,10-14
19985,PRIMARY GUJARATI SCHOOL TIMBERTHAVA,108     394716,EDUCATION ACTIVITY,20,851,1,10-14
19986,PRIMARY GUJARATI SCHOOL KALIBEL,54     394715,EDUCATION ACTIVITY,20,851,1,10-14
19987,PRIMARY GUJARATI SCHOOL BENSKATRI,16     394730,EDUCATION ACTIVITY,20,851,1,10-14
19988,PRIMARY GUJARATI SCHOOL SUBIR,03     394716,EDUCATION ACTIVITY,20,851,1,15-19
19989,GUJARATI PRIMARY SCHOOL PIPALDAHAD,49   UPALU FALIU 394716,EDUCATION ACTIVITY,20,851,1,10-14
19990,GUJRATI PRIMARY SCHOOL ZAVDA,98     394730,EDUCATION ACTIVITY,20,851,1,10-14
19991,PRIMARY GUJARATI SCHOOL LAVCHALI,22     394716,EDUCATION ACTIVITY,20,851,1,10-14
19992,PRIMARY GUJARATI SCHOOL KHAJURNA,133   NISHAL FALIU 394710,EDUCATION ACTIVITY,20,851,1,10-14
19993,GUJARATI PRIMARY SCHOOL CHINCHVIHIR,93   NISHAL FALIU 394716,EDUCATION ACTIVITY,20,851,1,10-14
19994,GUJARATI PRIMARY SCHOOL SAVARDA,139   NISHAL FALIU 394716,EDUCATION ACTIVITY,20,851,1,10-14
19995,GUJARATI PRIMARY SCHOOL PADALKHADI,29     394710,EDUCATION ACTIVITY,20,851,1,10-14
19996,PRIMARY GUJARATI SCHOOL KOTBA,59     394710,EDUCATION ACTIVITY,20,851,1,10-14
19997,PRIMARY GUJARATI SCHOOL,NAKATIYAHANVANT 04     394710,EDUCATION ACTIVITY,20,851,1,10-14
19998,GUJARATI PRIMARY SCHOOL,DAVALIDOD    129 394710,EDUCATION ACTIVITY,20,851,1,15-19
19999,GOVERNMENT MADHAYMIK SCHOOL PIMPARI,48 1      394715,EDUCATION ACTIVITY,20,852,1,10-14
20000,PRIMARY GUJARATI SCHOOL DAGADIAMBA,51     394730,EDUCATION ACTIVITY,20,851,1,10-14
20001,PRIMARY GUJARATI SCHOOL BHISYA,16     394710,EDUCATION ACTIVITY,20,851,1,10-14
20002,PRIMARY GUJARATI SCHOOL GARKHADI,68   PATEL FALIU 394710,EDUCATION ACTIVITY,20,851,1,10-14
20003,PRIMARY GUJARATI SCHOOL PANDWA,61     394710,EDUCATION ACTIVITY,20,851,1,10-14
20004,PRIMARY GUJARATI SCHOOL NANIDABDAR,47     394730,EDUCATION ACTIVITY,20,851,1,10-14
20005,GUJARATI PRIMARY SCHOOL CHINCHALI,85     394710,EDUCATION ACTIVITY,20,851,1,10-14
20006,PRIMARY GUJARATI SCHOOL SAKARPATAL,166     394730,EDUCATION ACTIVITY,20,851,1,10-14
20007,PRIMARY GUJARATI SCHOOL,BHADARPADA    80 394730,EDUCATION ACTIVITY,20,851,1,10-14
20008,PRIMARY GUJARATI SCHOOL,SAMGAHAN    37 394730,EDUCATION ACTIVITY,20,851,1,10-14
20009,SANTOKABA DHOLAKIYA VIDHYAMANDIR,MALEGAV    09 SAPUTARA ROAD 394720,EDUCATION ACTIVITY,20,852,1,15-19
20010,SANT ANNA ENGLISH SCHOOL SAPUTARA,227     394720,EDUCATION ACTIVITY,20,851,6,15-19
20011,RUTAMBHARA KANYA VISHAVA VIDHALAYA,SAPUTARA    265 394720,EDUCATION ACTIVITY,20,852,1,30-99
20012,JAIN GAJA ABHISHEK DHARMASHALA,SAPUTARA    301 394720,JAIN DHARMA SHALA,14,551,6,20-24
20013,SUB DIVISION OFFICE DGVCL SAPUTARA,309     394720,DISTRIBUET OF ELECTRIC,7,351,1,20-24
20014,POLITECHNIC COLLEGE WAGHAI,02     394730,EDUCATION ACTIVITY,20,853,1,25-29
20015,GOVERNMENT SECONDARY SCHOOL WAGHAI,85     394730,EDUCATON ACTIVITY,20,852,1,15-19
20016,GOVERNMENT PRIMARY TALUKA SCHOOL,WAGHAI    42     394730,EDUCATION ACTIVITY,20,851,1,30-99
20017,TIMBER DEPO WAGHAI,96     394730,WOOD SALE ACTIVITY,11,461,1,20-24
20018,SO MIL WAGHAI,97     394730,FARNITURE PRODUCTION,6,162,1,30-99
20019,WOOD WORK SHOP WAGHAI,98     394730,LAKADA NI SIZO BANAVVI,6,161,1,20-24
20020,PUBLIC HEALTH CENTER WAGHAI,121     394730,HEALTH ACTIVITY,21,861,1,10-14
20021,P T C  COLLEGE WAGHAI,122     394730,EDUCATON ACTIVITY,20,852,1,15-19
20022,DUDHA SHIT KENDRA WAGHAI,124     394730,DUDHA SHIT KENDRA ACTIVITY,11,469,1,15-19
20023,RESIDENCIAL SCHOOL WAGHAI,126 1      394730,EDUCATION ACTIVITY,20,852,1,10-14
20024,EKLAVY FAUNDATION WAGHAI,128     394730,VANSMATHI RAMAKDA BANAVVA,6,162,1,20-24
20025,GOVERNMENT GENERAL HOSPITAL,AHWA    17 1    HIGH SCHOOL RAOD  394710,HEALTH ACTIVITY,21,861,1,30-99
20026,GOCERNMENT SECONDARY SCHOOL AHWA,30 1    GANDHI COLONY  394710,EDUCATION ACTIVITY,20,852,1,30-99
20027,GOVERNMENT ARTS   COMMERCE COLLEGE,AHWA    34 1    INDIRA COLONY  394710,EDUCATION ACTIVITY,20,853,1,30-99
20028,INDUSTRIAL TRAINING INSTITUTE AHWA,35 1    HIGH SCHOOL ROAD  394710,INDUSTRIAL TRAINNING ACTIVITY,20,855,1,25-29
20029,KANUNI SAHAY KENDRA AHWA,12 2    MISHANPADA 394710,KAYDAKIY ACTIVITY,18,691,6,10-14
20030,SARDAR VIDHYALAYA AHWA,42   MISHANPADA ROAD  394710,EDUCATION ACTIVITY,20,851,1,10-14
20031,EKLAVYA MODEL RESIDENCIAL SCHOOL,AHWA    131 MISHANPADA  394710,EDUCATION ACTIVITY,20,851,1,25-29
20032,PRIMARY SCHOOL MILPADA AHWA,30 1    PATELPADA 394710,EDUCATION ACTIVITY,20,851,1,10-14
20033,EKLAVYA PRIMARY SCHOOL AHWA,50 1      394710,EDUCATION ACTIVITY,20,851,1,10-14
20034,STATE BANK OF INDIA AHWA,93     394710,BANKING ACTIVITY,16,641,1,15-19
20035,BANK OF BARODA AHWA,139     394710,BANKING ACTIVITY,16,641,1,20-24
20036,TALUKA PRIMARY SCHOOL AHWA,23     394710,EDUCATION ACTIVITY,20,851,1,10-14
20037,POST OFFICE AHWA,86     394710,POST OFFICE ACTIVITY,13,531,1,10-14
20038,ST DEPO AHWA,110     394710,S T  SERVICE ACTIVITY,13,492,1,100-199
20039,S T  WORK SHOP AHWA,111     394710,S T  WORK SHOP ACTIVITY,10,452,1,30-99
20040,ASHARAM VIDHYALAYA SCHOOL AHWA,TA AHWA DIST DANG 82   ASHARAM RAOD 394710,EDUCATION ACTIVITY,20,851,1,10-14
20041,AHWA SUB DIVISION OFFICE,DGVCL AHWA DANG 55     394710,ELECTRICAL DISTRIBUET ACTIVITY,7,351,1,10-14
20042,DEEPDARSHAN SECONDARY SCHOOL AHWA,62   VERIAS COLONY 394710,EDUCATION ACTIVITY,20,852,1,15-19
20043,NAHARI RESTORANT SAKARPATAL,146     394730,RESTORANT,14,561,5,10-14
20044,CHITRAKUT HOTEL,SAPUTARA    15 394720,HOTEL,14,551,2,15-19
20045,PATANG HOTEL,SAPUTARA    81 394720,HOTEL,14,551,2,30-99
20046,BOTING CLUB SAPUTARA,87     394720,BOTING ACTIVITY,22,932,2,15-19
20047,VAITY HOTEL,SAPUTARA    115 394720,HOTEL,14,551,2,30-99
20048,SHAVSHANTI HOTEL,SAPUTARA    124 NAGESHWAR MAHADEV ROAD  394720,HOTEL,14,561,2,30-99
20049,ANADO HOTEL,SAPUTARA    128 394720,HOTEL,14,551,2,30-99
20050,AKAKR LOADRS HOTEL,SAPUTARA    176 394720,HOTEL,14,551,2,30-99
20051,SAI LILA RESTORANT,SAPUTARA    189 2  SHOPING CENTER ROAD  394720,RESTORANT,14,561,2,10-14
20052,LEKWE HOTEL,SAPUTARA    218 394720,HOTEL,14,551,2,10-14
20053,SHILPI HOTEL,SAPUTARA    220 1  394720,HOTEL,14,551,2,30-99
20054,PUROHIT HOTEL,SAPUTARA    350 394720,HOTEL,14,551,2,20-24
20055,SEJAL HOTEL,SAPUTARA    357 394720,HOTEL,14,551,2,30-99
20056,GUJARAT TURISEM TORAN HOTEL   OFFICE,SAPUTARA    358 394720,HOTEL,14,551,1,15-19
20057,AGRICULTURE UNIVERSITY WAGHAI,86     394730,AGRICULTURE EDUCATION ACTIVITY,20,853,1,10-14
20058,SHRADDHA HOSPITAL AHWA,138     394710,HEALTH ACTIVITY,21,871,2,25-29
20059,AAYURVEDIC FARMASI CO OPP  SOCIETY,AHWA DANG    112 SARDAR STREET 394710,AAYURVEDIC FARMASI ACTIVITY,3,24,6,20-24
20060,PRAYOSHA TRIBAL FAUNDATION AHWA,59     394710,DIMOND ACTIVITY,6,321,2,20-24
