S.No.,Name of the Establishment,Address,Major Activity Description,Broad Activity Code,NIC,Owner ship Code,Emplo yment Class Interval
1,KIRAN SOLT,Amaliyara   Bhachau  Kachchh   370140,Salt production,5,89,2,25-29
2,NARAN SOLT,Amaliyara   Bhachau  Kachchh   370140,Salt production,5,89,2,30-99
3,SATRAAM SOLT,Amaliyara   Bhachau  Kachchh   370140,Salt production,5,89,2,30-99
4,SHREE UMIYA MAIN,Anjar  M    Anjar  Kachchh   370110,To produce plaster of paris,6,222,2,20-24
5,K G MANEK SCHOOL,Anjar  M    Anjar  Kachchh   370110,Educational Activities,20,852,1,30-99
6,ANJAR BUS STAND,Anjar  M    Anjar  Kachchh   370110,Bus stand,13,492,1,100-199
7,SASWATI SCHOOL,Anjar  M    Anjar  Kachchh   370001,Educational Activities,20,852,1,20-24
8,AMRUT SARITA VIDHYALAY,Anjar  M    Anjar  Kachchh   370110,Academic Work,20,852,1,10-14
9,SHAH COTTON JINING FECTORY,Anjar  M    Anjar  Kachchh   370110,cotton ginning,1,16,3,30-99
10,DEEP FEBRICATION,Anjar  M    Anjar  Kachchh   370110,Tanker work to make,6,292,2,25-29
11,JAMIYAN ULEMA E HIND,Anjar  M    Anjar  Kachchh   370110,Educational institution,20,852,6,30-99
12,MURALIDHAR VIDHYA MANDIR,Anjar  M    Anjar  Kachchh   370110,Academic Work,20,852,1,20-24
13,BANK OF BARODA,Anjar  M    Anjar  Kachchh   370110,Financial Activities,16,641,1,10-14
14,STATE BANK OF INDIA,DEVADIYA NAKA BRANCH   370110,Financial Activities,16,641,1,10-14
15,CENTREL BANK OF INDIYA,Anjar  M    Anjar  Kachchh   370110,Financial Function,16,641,1,10-14
16,GOV PRIMARY SCHOOL,Mathak   Anjar   Kachchh  370110,Education,20,851,1,10-14
17,POKAR ENTERPRISE SO MILL,Meghpar  Borichi    Anjar  Kachchh   370110,Cutting and Processing of Wood,6,161,2,10-14
18,VIKAS ENTERPRISE SO MILL,Meghpar  Borichi    Anjar  Kachchh   370110,Cutting and Processing of Wood,6,161,2,10-14
19,NIKITA ENTERPRISE SO MILL,Meghpar  Borichi    Anjar  Kachchh   370110,Cutting and Processing of Wood,6,161,2,10-14
20,R B ENTERPRISE SO MILL,Meghpar  Borichi    Anjar  Kachchh   370110,Cutting and Processing of Wood,6,161,2,10-14
21,RAAMHANSH SO MILL,Meghpar  Borichi    Anjar  Kachchh   370110,Cutting and Processing of Wood,6,161,2,10-14
22,NANDKISHOR SO MILL,Meghpar  Borichi    Anjar  Kachchh   370110,Cutting and Processing of Wood,6,161,2,10-14
23,SUNIL INDUSTRIYAL SO MILL,Meghpar  Borichi    Anjar  Kachchh   370110,Cutting and Processing of Wood,6,161,2,10-14
24,AVANISH SO MILL,Meghpar  Borichi    Anjar  Kachchh   370110,Cutting and Processing of Wood,6,161,2,10-14
25,VINAYAK SO MILL,Meghpar  Borichi    Anjar  Kachchh   370110,Cutting and Processing of Wood,6,161,2,10-14
26,GAYATRI PLAY NI COMPANY,Meghpar  Borichi    Anjar  Kachchh   370110,Timber and Plywood work,6,162,2,10-14
27,KESHARI OIL SO MIL,Meghpar  Borichi    Anjar  Kachchh   370110,Timber and Plywood work,6,162,2,10-14
28,GANESH BENSO SO MILL,Meghpar  Borichi    Anjar  Kachchh   370110,Cutting and Processing of Wood,6,161,2,10-14
29,JINARSH ELECTRONICS PVT CO ,Meghpar  Borichi    Anjar  Kachchh   370110,Electonics production,6,275,2,200-499
30,IND VEF INDIA LTD CO ,Meghpar  Borichi    Anjar  Kachchh   370110,IND VEF INDIA LTD CO ,6,239,4,30-99
31,KAKUBHA PARIKHA HIGH SCHOOL,Meghpar  Borichi    Anjar  Kachchh   370110,Education,20,852,7,20-24
32,GOKUL OIL MILL,Meghpar  Borichi    Anjar  Kachchh   370110,Oil Production,6,104,4,200-499
33,KARAKHANU SO MILL,Meghpar  Borichi    Anjar  Kachchh   370110,Cutting and Processing of Wood,6,161,2,10-14
34,KARAKHANU SO MILL,Meghpar  Borichi    Anjar  Kachchh   370110,Cutting and Processing of Wood,6,161,2,10-14
35,KARAKHANU SO MILL,Meghpar  Borichi    Anjar  Kachchh   370110,Cutting and Processing of Wood,6,161,2,10-14
36,KARAKHANU SO MILL,Meghpar  Borichi    Anjar  Kachchh   370110,Cutting and Processing of Wood,6,161,2,10-14
37,KARAKHANU SO MILL,Meghpar  Borichi    Anjar  Kachchh   370110,Cutting and Processing of Wood,6,161,2,10-14
38,KARAKHANU SO MILL,Meghpar  Borichi    Anjar  Kachchh   370110,Cutting and Processing of Wood,6,161,2,10-14
39,KARAKHANU SO MILL,Meghpar  Borichi    Anjar  Kachchh   370110,Cutting and Processing of Wood,6,161,2,10-14
40,KARAKHANU SO MILL,Meghpar  Borichi    Anjar  Kachchh   370110,Cutting and Processing of Wood,6,161,2,10-14
41,KARAKHANU  SO MILL,Meghpar  Borichi    Anjar  Kachchh   370110,Cutting and Processing of Wood,6,161,2,10-14
42,HEPPY VELY PUBLIK SCHOOL,Meghpar  Borichi    Anjar  Kachchh   370110,Education,20,851,7,10-14
43,SHREE K G MANEK SCHOOL,Meghpar  Kumbhardi   Anjar   Kachchh   370110,Education,20,851,7,30-99
44,SHANTINATH TIMBERS PVT LTD CO ,Modvadar   Anjar  Kachchh   370110,Cutting and Processing of Wood,6,161,4,20-24
45,ROYAL WOOD PVT LTD ,Modvadar   Anjar  Kachchh   370110,Timber and Plywood work,6,162,4,30-99
46,SARAKARI PRIMARY SCHOOL,Navagam   Anjar  Kachchh   ૩૭૦૧૧0,Education,20,851,1,10-14
47,PRIMARY SCHOOL NIGAL,Ningal   Anjar   Kachchh  ૩૭૦૧૧0,Education,20,851,1,10-14
48,TAXUS INFRASTRACTURE   POWER PROJE,Rapar   Anjar   Kachchh  ૩૭૦૦૨0,Electric Power Project,7,351,4,10-14
49,CHAUHAN MOHANLAL BANGALI,Satapar   Anjar   Kachchh  ૩૭૦૧૧0,Cement of the RCC Pipes,6,239,4,15-19
50,KODARANI PRADIPKUMAR PRAGAJI,Satapar   Anjar   Kachchh  ૩૭૦૧૧0,Bricks production,6,239,4,20-24
51,RAMKO INDU PVT LTD ,Sinugra   Anjar   Kachchh  370110,Production of cement sheets,6,239,4,30-99
52,SARAKARI PRIMARY SCHOOL,Tapar   Anjar   Kachchh  ૩૭૦૧૧0,Education,20,851,1,10-14
53,GOV PRIMARY SCHOOL,Tuna   Anjar   Kachchh  370110,Education,20,851,1,10-14
54,KUMARA PRIMARY SCHOOL,Varsamedi   Anjar  Kachchh   370205,Education,20,851,1,10-14
55,M D BRYANU KARKHANU,Varsamedi   Anjar  Kachchh   370205,M D BRYANU factory,6,107,3,15-19
56,WELSPUN INDIA LTD ,Varsamedi   Anjar  Kachchh   370110,Bedsheet  towel  cotton yarn of the product,6,139,4,200-499
58,SKY APPLIANCES PVT LTD ,Varsamedi   Anjar  Kachchh   370110,Domestic appliances,6,275,4,30-99
59,GRAM ELECTRONIC PVT LTD ,Varsamedi   Anjar  Kachchh   370110,Domestic appliances,6,275,4,30-99
60,DINESH RAMESHKUMAR JAIN JINDAL CO ,Varsamedi   Anjar  Kachchh   370110,Window doors  plywood  seat prosesim,6,162,4,25-29
61,GO KANTILAL PATEL LAXMI PLAYWOOD P,Varsamedi   Anjar  Kachchh   370110,Plywood  winning the seat Product,6,162,4,30-99
62,PLUM FOLDING NIC PVT LTD,Varsana   Anjar  Kachchh   370110,Production of salt,6,107,4,25-29
63,MUSTAK HEMANI ROYAL PVT LTD ,Varsana   Anjar  Kachchh   370110,Production of Textile Materials,6,239,4,25-29
64,HEMANT DHIRODHAR VIDHANI,Varsana   Anjar  Kachchh   370110,Plywood production,6,162,4,15-19
65,RAJENDRAPRASAD GUPTA TIMBER PVT LT,Varsana   Anjar  Kachchh   370110,Cutting and Processing of Wood,6,161,4,10-14
66,SUNDARLAL GUPTA TIMBER PVT LTD ,Varsana   Anjar  Kachchh   370110,Cutting and Processing of Wood,6,161,4,15-19
67,SAMIR RAJKRIPAL PVT LTD ,Varsana   Anjar  Kachchh   370110,Plywood production,6,162,4,15-19
68,RAKESH AGRAWAL PVT LTD,Varsana   Anjar  Kachchh   370110,Plywood production,6,162,4,15-19
69,RUPEL V MAHETA PVT LTD ,Varsana   Anjar  Kachchh   370110,Gas  oxygen  nitrogen output,5,91,4,15-19
70,ASHOK PAREKH ANKUR SEENFUT PVT LTD,Varsana   Anjar  Kachchh   370110,Production of salt,6,107,4,20-24
71,VASHABHAI NARANBHAI AHIR VIRAJSOLT,Varsana   Anjar  Kachchh   370110,Production of salt,6,107,4,20-24
72,KACHCHH CEMICALS PVT LTD ,Varsana   Anjar  Kachchh   370110,To Chemical Refining  Chemical generation,6,201,4,200-499
73,AQUAGEL CEMICALS PVT LTD ,Varsana   Anjar  Kachchh   370110,Chemical refining,6,201,4,>=500
74,P S L PVT LTD ,Varsana   Anjar  Kachchh   370110,Chemical refining,6,201,4,200-499
75,INSPAT VARASANA PVT LTD ,Varsana   Anjar  Kachchh   370110,Production of iron gadaranum,6,241,4,>=500
76,BALAJI KOK PVT LTD ,Varsana   Anjar  Kachchh   370110,Processing of minerals,6,239,4,25-29
77,EVEREST KOTO PVT LTD ,Varsana   Anjar  Kachchh   370110,Production of gas cylinder,6,241,4,100-199
78,SUMILON IND PVT LTD ,Varsana   Anjar  Kachchh   370110,Plastic products,6,222,4,100-199
79,G M D C ,Balachod Nani   Abdasa  Kachchh   370655,Production of bentonaita,5,81,4,30-99
80,UMIYA POL INDUSTREEZ,Bhachau  M    Bhachau  Kachchh   370140,Electric poles,6,239,3,30-99
81,RANGOLI KEM FOOD PVT LTD,Bhachau  M    Bhachau  Kachchh   370140,Salty sale,6,107,3,20-24
82,SHREE BHACHAU PAJLAPOR LADHESHWAR,Bhachau  M    Bhachau  Kachchh   370140,Surveillance of Animal Husbandry,2,14,9,30-99
83,PIYUSH DAL MEAL,Bhachau  M    Bhachau  Kachchh   370140,Moong dal  polishing,6,107,1,10-14
84,PRIMARY SCHOOL,Bhachau  M    Bhachau  Kachchh   370140,Education,20,851,1,10-14
85,P G V C L ,Bhachau  M    Bhachau  Kachchh   370140,Providing electricity service,7,351,1,30-99
86,MARGO PLAYWOOD PVT LTD COMPANY,Bhachau  M    Bhachau  Kachchh   370140,plywood mfg ,6,162,2,200-499
87,K D MOTORS,Bhachau  M    Bhachau  Kachchh   370140,A Maruti Suzuki showroom,10,451,2,10-14
88,GUJARAT STET S T NIGAM,Bhachau  M    Bhachau  Kachchh   370140,tranportation,13,492,1,100-199
89,SHREE BHAVANIPUR PRIMARY SCHOOL 5,Bhachau  M    Bhachau  Kachchh   370140,Education,20,851,1,10-14
90,LARSAN AND TUBRO,Bhachau  M    Bhachau  Kachchh   370140,Road Construction Work,9,421,2,>=500
91,P R PATEL,Bhachau  M    Bhachau  Kachchh   370140,Wood work sharing,6,161,2,10-14
92,AAIKRUPA HOTEL,Bhachau  M    Bhachau  Kachchh   370140,AAIKRUPA HOTEL,14,551,1,20-24
93,VAGAD WELFER HOSPITAL,Bhachau  M    Bhachau  Kachchh   370140,Health services,21,862,7,100-199
94,SHIVKRUPA SALT,Bhachau  M    Bhachau  Kachchh   370140,Production of Salt,6,107,1,30-99
95,SAMRPAN PRIMARY   SECUNDARY SCHOOL,Bhachau  M    Bhachau  Kachchh   370140,Education,20,851,1,30-99
96,G E B,Bhimasar   Rapar  Kachchh,Power Service and Power Supply,7,351,1,10-14
97,PRIMARY SCHOOL,Bhimasar   Rapar  Kachchh,Education,20,851,1,15-19
98,MANASH MANDIR BHOJAY,Bhojay   Mandvi  Kachchh   ૩૭૦૪૫0,E service activities,23,949,7,10-14
99,BHOJAY SARVODAY TRUST HOSPITAL,Bhojay   Mandvi  Kachchh   ૩૭૦૪૫0,Health services,21,862,7,30-99
100,RATANVIR EYE ISTITUTE BHOJAY,Bhojay   Mandvi  Kachchh   ૩૭૦૪૫0,Relating to the treatment of eye,21,862,7,15-19
101,EBRAHIM JAT,Bhuj  M    Bhuj   Kachchh  370001,Weaving,6,131,2,30-99
102,SHREE HARI,Bhuj  M    Bhuj   Kachchh  370001,Cement mfg ,6,239,2,30-99
103,PINET TREDRSH,Bhuj  M    Bhuj   Kachchh  370001,groundnut mill,6,107,2,30-99
104,P G V C L  STOR OFFICE ,Bhuj  M    Bhuj   Kachchh  370001,Power Distribution,7,351,1,10-14
105,PRAIMARY SCHOOL,Bhuj  M    Bhuj   Kachchh  370001,Education,20,851,1,10-14
106,MS  MEENA JWELARS,Bhuj  M    Bhuj   Kachchh  370001,Jewellery making,6,242,2,10-14
107,C M D  CIVIL SARJAN OFFICE,Bhuj  M    Bhuj   Kachchh  370001,Health services,21,861,1,10-14
108,SINDIKAT BANK,Bhuj  M    Bhuj   Kachchh  370001,Banking services,16,641,2,10-14
109,ALLAHBAD BANK,Bhuj  M    Bhuj   Kachchh  370001,Banking services,16,641,4,10-14
110,H D F C  BANK,Bhuj  M    Bhuj   Kachchh  370001,Banking services,16,641,1,10-14
111,PANI PURVATHA BOARD,Bhuj  M    Bhuj   Kachchh  370001,Water distribution,8,360,1,30-99
112,LEVA PATEL HOSPITAL,Bhuj  M    Bhuj   Kachchh  370001,Health services,21,862,7,30-99
113,SHREE J B  THACKER COMMERS COLLAGE,Bhuj  M    Bhuj   Kachchh  370001,Education,20,853,2,20-24
114,GOVERMENT ENGINYRING COLLAGE,Bhuj  M    Bhuj   Kachchh  370001,Education,20,853,1,30-99
115,S V TRANSPORT,Bhuj  M    Bhuj   Kachchh  370001,Transportation,13,492,2,20-24
116,CHAKI ASTAFBHAI,Bhuj  M    Bhuj   Kachchh  370001,Cleaning work from the pen of buffalo,2,14,2,10-14
117,BAJAJ FAINANCE,Bhuj  M    Bhuj   Kachchh  370001,Office of Insurance,16,651,2,10-14
118,TELIPHONE,Bhuj  M    Bhuj   Kachchh  370001,Message deal,15,612,1,25-29
119,PARFECT GLEZE INDIA PVT LTD ,Madhapar  CT    Bhuj  Kachchh   370021,Perfect Glaze Indiapvt  Ltd ,6,239,3,30-99
120,PATEL FOODS,Mankuva  CT    Bhuj  Kachchh   370020,Manufacture of bakery item,6,107,1,10-14
121,ASIA MOTAR WORKS,Kanaiyabe   Bhuj  Kachchh   370020,Vehicle manufacturing,6,291,4,>=500
122,KRISHNA INDUSTRISE,Lakhond   Bhuj   Kachchh  370105,Refined oil and packing,6,104,2,10-14
123,BIDDA SARVODAY TRUST,Bidada   Mandvi  Kachchh   370434,Health and care,21,862,6,100-199
124,ADANI POWER PLANT,Bitta   Abdasa   Kachchh  370655,Electricity production,7,351,1,30-99
125,P R B ENERGY LTD ,Chandrodi   Bhachau  Kachchh   370140,Energy Limited,7,351,4,20-24
126,PRIMARY SCHOOL,Chitrod   Rapar   Kachchh,Education,20,851,1,10-14
127,SHREE ARIHANT TRADE LINK PRIVATE L,Chopadva   Bhachau  Kachchh   ૩૭૦૧૪0,Coal production,6,239,2,15-19
128,LAXMI CAMEFORD PRODUCT PVT LTD ,Chopadva   Bhachau  Kachchh   370140,Production of Salt,5,89,3,15-19
129,SHREE RAAM CAMRFOOD PVT LTD ,Chopadva   Bhachau  Kachchh   370140,Production of Salt,5,89,3,30-99
130,INDOBRINE INDUSRIES LTD ,Chopadva   Bhachau  Kachchh   370140,Production of Salt,5,89,3,30-99
131,KUTCH BRINE CO INDUSTRIS,Chopadva   Bhachau  Kachchh   370140,Production of Salt,5,89,3,30-99
132,WESTURN INDIA PVT LTD ,Chopadva   Bhachau  Kachchh   370140,Production of Salt,5,89,3,30-99
133,KUTCH PLAYWOOD INDASTRIS,Chopadva   Bhachau  Kachchh   370140,Plywood Production,5,89,3,30-99
134,ADITY COKE PVT LTD ,Chopadva   Bhachau  Kachchh   ૩૭૦૧૪0,Coal production,6,239,2,30-99
135,SHREE RAGHUNANDAN INDSTRIZ,Chopadva   Bhachau  Kachchh   ૩૭૦૧૪0,Plywood Production,6,162,2,15-19
136,OM SALT REFINERY PVT LTD ,Chopadva   Bhachau  Kachchh   ૩૭૦૧૪0,Production of Salt,6,107,2,30-99
137,TRISHALA VENEYERS PVT LTD,Chopadva   Bhachau  Kachchh   ૩૭૦૧૪0,Plywood Production,6,162,2,30-99
138,SANTOSH TIMBAR TRADING CO LTD ,Chopadva   Bhachau  Kachchh   ૩૭૦૧૪0,Plywood Production,6,162,3,15-19
139,FAIRDEAL SUPPLY LTD ,Chopadva   Bhachau  Kachchh   ૩૭૦૧૪0,Coal production,6,239,4,30-99
140,ANKUR CAMFUD LTD ,Chopadva   Bhachau  Kachchh   ૩૭૦૧૪0,Production of Salt,6,107,3,30-99
141,SHREE CAMEFOOD PVT LTD ,Chopadva   Bhachau  Kachchh   370140,Production of Salt,5,89,3,30-99
142,UMIYA TAILES,Darashadi   Mandvi  Kachchh   ૩૭૦૪૪5,Block Production and Sales,6,239,1,10-14
143,P G V C L DAYAPAR,Bhimasar   Rapar  Kachchh   ૩૭૦૬૩0,Electricity Service,7,351,1,10-14
144,PRAIMARY SCHOOL DURGAPUR,Durgapar   Mandvi  Kachchh   370465,Education,20,851,1,10-14
145,PRIMARY BOYS SCHOOL,Fatehgadh   Rapar  Kachchh   ૩૭૦૧૫,EDUCATION,20,851,1,15-19
146,PRIMARY GIRLS SCHOOL,Fatehgadh   Rapar  Kachchh   ૩૭૦૧૫,EDUCATION,20,851,1,10-14
147,GOVERMENT PRIMARY SCHOOL,Fatehgadh   Rapar  Kachchh   ૩૭૦૧૫,EDUCATION,20,851,1,10-14
148,GOVERMENT HOSPITAL,Gandhidham  M   Gandhidham   Kachchh  370205,Health services,21,861,1,25-29
149,CENTRAL SCHOOL,Gandhidham  M   Gandhidham   Kachchh  370205,Education,20,852,1,30-99
150,KHODIYANAGAR PRIMARY SCHOOL,Gandhidham  M   Gandhidham   Kachchh  370205,Education,20,851,1,10-14
151,TRANSPORTE,Gandhidham  M   Gandhidham   Kachchh  370205,Transport,13,522,5,30-99
152,KAMDHENU HOTEL,Gandhidham  M   Gandhidham   Kachchh  370205,Restaurent,14,561,5,30-99
153,SHREE RAAM ROAD LINE,Gandhidham  M   Gandhidham   Kachchh  370205,Transport,13,522,2,10-14
154,HARYANA PUBLIC ROADWAYS,Gandhidham  M   Gandhidham   Kachchh  370205,Truck Agency,19,771,3,10-14
155,MERIDIAN FORWARDES PVT LTD,Gandhidham  M   Gandhidham   Kachchh  370205,Shipping service,13,501,4,25-29
156,KARGO PETROL PUMP,Gandhidham  M   Gandhidham   Kachchh  370205,Petrol diesel,12,473,4,200-499
157,ADARSH MAHAVIDYALAY,Gandhidham  M   Gandhidham   Kachchh  370205,Education,20,852,1,20-24
158,SHIV REGENCY,Gandhidham  M   Gandhidham   Kachchh  370205,Hotel,14,561,2,30-99
159,COSMOSS BANK,Gandhidham  M   Gandhidham   Kachchh  370205,Financial transaction,16,641,1,15-19
160,RILE SHIPPING AEGENCY LTD,Gandhidham  M   Gandhidham   Kachchh  370205,Shipping agency,13,501,2,10-14
161,HOTEL MARUTI,Gandhidham  M   Gandhidham   Kachchh  370201,Restaurent,14,561,2,30-99
162,H D F C BANK,Gandhidham  M   Gandhidham   Kachchh  370201,Financial Activities,16,641,2,30-99
163,SHREE RAM FAINANCE,Gandhidham  M   Gandhidham   Kachchh  370205,Financial Activities,16,641,4,15-19
164,SHARDA PRIMARY SCHOOL,Gandhidham  M   Gandhidham   Kachchh  370205,Education,20,851,2,20-24
165,AUTO GARAGE,Gandhidham  M   Gandhidham   Kachchh  370205,Vehicle repair,10,453,2,10-14
166,KUTCH UDAY NEWS,Gandhidham  M   Gandhidham   Kachchh  370205,News and press printing roll,18,742,2,25-29
167,LABORATRY SERVE COMPANY,Gandhidham  M   Gandhidham   Kachchh  370205,Laboratory Survey Company,18,749,2,30-99
168,OEL SHIPPING AGENCY,Gandhidham  M   Gandhidham   Kachchh  370205,Shipping,13,501,2,15-19
169,DIPLOMA COLLAGE,Gandhidham  M   Gandhidham   Kachchh  370205,Education,20,853,5,25-29
170,SANDIPBHAI RAJVANSHI,Gandhidham  M   Gandhidham   Kachchh  370205,Finance Office,16,649,2,15-19
171,SHREE SWAMINARAYAN GURUKUD,Gandhidham  M   Gandhidham   Kachchh  370205,Education,20,852,2,30-99
172,P N AMARSINH SCHOOL,Gandhidham  M   Gandhidham   Kachchh  370205,Education,20,852,1,30-99
173,JIVATRAAM HOSPITAL,Gandhidham  M   Gandhidham   Kachchh  370205,Health services,21,862,7,25-29
174,RAMKRISHNA SPECIYALITY HOSPITAL,Gandhidham  M   Gandhidham   Kachchh  370205,Health services,21,862,7,30-99
175,CO OPRATIVE BANK,Gandhidham  M   Gandhidham   Kachchh  370205,Banking services,16,641,1,25-29
176,JANATA PETROLIYAM COMPNY,Gandhidham  M   Gandhidham   Kachchh  370205,Petrol pump,12,473,3,10-14
177,COUART,Gandhidham  M   Gandhidham   Kachchh  370205,Justice work,18,691,1,20-24
178,S V P  HIGH SCHOOL,Gandhidham  M   Gandhidham   Kachchh  370205,Education,20,852,1,15-19
179,MOUNT CARMEL SCHOOL,Gandhidham  M   Gandhidham   Kachchh  370205,Education,20,852,1,25-29
180,SARVODAY PRAIMARY SCHOOL,Gandhidham  M   Gandhidham   Kachchh  370205,Education,20,851,1,15-19
181,SHREE RAM BLOK JOB WORKS,Gandhidham  M   Gandhidham   Kachchh  370205,Building block,6,239,2,30-99
182,SINGHOLOJI SCHOOL,Gandhidham  M   Gandhidham   Kachchh  370205,Education,20,852,2,30-99
183,WISHVKRMA TIMBAR,Gandhidham  M   Gandhidham   Kachchh  370205,Benson wood work,6,161,2,10-14
184,ADMES TRANSPORT,Gandhidham  M   Gandhidham   Kachchh  370205,Transport,13,492,4,10-14
185,R S  TREDING,Gandhidham  M   Gandhidham   Kachchh  370205,Sell firewood,6,161,4,10-14
186,VIJAY TIMBAR,Gandhidham  M   Gandhidham   Kachchh  370205,Sell firewood,6,161,4,10-14
187,MAKVANA ENGNRING WORK,Gandhidham  M   Gandhidham   Kachchh  370205,Engineering  work,10,452,2,10-14
188,VIDHYA AEGNCY,Gandhidham  M   Gandhidham   Kachchh  370205,Agency,19,773,9,10-14
189,B M  PETROL PUMP,Gandhidham  M   Gandhidham   Kachchh  370205,Sales of petrol and diesel,12,473,4,15-19
190,NAHYA SALT MILL,Gandhidham  M   Gandhidham   Kachchh  370205,Salt mill,6,107,2,10-14
191,KARSHAN BHAI WOODS SHOP,Gandhidham  M   Gandhidham   Kachchh  370205,Benson wood work,6,161,2,10-14
192,KUTCH HIGHWAY TRANSPORT,Gandhidham  M   Gandhidham   Kachchh  370205,Transportation,13,522,2,10-14
193,GAUTAM FREGHT PVT LTD,Gandhidham  M   Gandhidham   Kachchh  370205,Transportation,13,522,3,20-24
194,CARGO MOTORS PVT LTD,Gandhidham  M   Gandhidham   Kachchh  370205,Motor vehicle sales,10,451,3,200-499
195,B M  AUTO LINK,Gandhidham  M   Gandhidham   Kachchh  370205,Motor vehicle sales,10,451,3,100-199
196,SHREE GREENHIL AECEDAMI,Gandhidham  M   Gandhidham   Kachchh  370205,Education,20,852,7,30-99
197,SALTGODAUN,Gandhidham  M   Gandhidham   Kachchh  370205,Production of Salt,13,521,4,30-99
198,CABALE KOYAL COMPANY,Gandhidham  M   Gandhidham   Kachchh  370205,Cable Company,6,261,4,30-99
199,VIDYUT TRANSFORMS PVT LTD,Gandhidham  M   Gandhidham   Kachchh  370205,And to transform repaired,6,271,2,30-99
200,SHREE MATI GAJVANI SCHOOL,Gandhidham  M   Gandhidham   Kachchh  370205,Education,20,854,6,15-19
201,DR H R GAJVANI COLLAGE,Gandhidham  M   Gandhidham   Kachchh  370205,Education,20,853,6,10-14
202,JAIN ACHARY AJRAAM SCHOOL,Gandhidham  M   Gandhidham   Kachchh  370205,Education,20,852,7,30-99
203,D A V PUBLIC SCHOOL,Gandhidham  M   Gandhidham   Kachchh  370205,Education,20,852,7,20-24
204,GOVERMENT HIGH SCHOOL,Gandhidham  M   Gandhidham   Kachchh  370205,Education,20,851,1,30-99
205,BHARTIY VIDHYA MANDIR,Gandhidham  M   Gandhidham   Kachchh  370240,Education,20,853,1,10-14
206,HOSPITAL ISCO COLLONY,Gandhidham  M   Gandhidham   Kachchh  370205,Health services,21,862,1,30-99
207,GANESHNGAR PRAIMARY SCHOOL,Gandhidham  M   Gandhidham   Kachchh  370205,Education,20,851,1,15-19
208,SENT XEVIRS SCHOOL,Gandhidham  M   Gandhidham   Kachchh  370205,Education,20,852,5,100-199
209,BOYS SCHOOL,Gandhidham  M   Gandhidham   Kachchh  370205,Education,20,851,1,25-29
210,GROUPE GIRLS SCHOOL,Gandhidham  M   Gandhidham   Kachchh  370205,Education,20,851,1,25-29
211,EXCEL MORDEN SCHOOL,Gandhidham  M   Gandhidham   Kachchh  370205,Education,20,852,2,30-99
212,EVREST WOOD PRODUCT,Gandhidham  M   Gandhidham   Kachchh  370205,Wood cutting operations,6,161,2,10-14
213,SHARMA AUTOLINK,Gandhidham  M   Gandhidham   Kachchh  370205,Car repair,10,452,2,15-19
214,LAKHBHAI BHAVNANI,Gandhidham  M   Gandhidham   Kachchh  370205,Marbles and create block,6,239,2,10-14
215,VENU GOPAL,Gandhidham  M   Gandhidham   Kachchh  370205,Truck repair,10,452,2,30-99
216,PARAG SORTHIYA,Gandhidham  M   Gandhidham   Kachchh  370205,Car repair,10,452,2,15-19
217,PRAG SORTHIYA,Gandhidham  M   Gandhidham   Kachchh  370205,Auto repair,10,452,2,15-19
218,RISHI HOUSE,Gandhidham  M   Gandhidham   Kachchh  370205,Office Work,18,701,2,30-99
219,RAAMBAAG HOSPITAL,Gandhidham  M   Gandhidham   Kachchh  370205,Health services,21,861,7,20-24
220,JAIN SARSWATI VIDYALAY,Gandhidham  M   Gandhidham   Kachchh  370205,Education,20,852,2,30-99
221,SWAMINARAYAN HOSTEL,Gandhidham  M   Gandhidham   Kachchh  370205,Hostel,14,559,2,30-99
222,JAIN SEVA SAMITI HOSPITAL,Gandhidham  M   Gandhidham   Kachchh  370205,Health services,21,862,7,10-14
223,LARNARS ACEDAMI,Gandhidham  M   Gandhidham   Kachchh  370205,Education,20,852,3,20-24
224,GURUKUL SCHOOL,Gandhidham  M   Gandhidham   Kachchh  370205,Education,20,851,5,30-99
225,RELINCE OFFICE,Gandhidham  M   Gandhidham   Kachchh  370205,Item electrics,18,701,4,15-19
226,AANANDMARG SCHOOL,Gandhidham  M   Gandhidham   Kachchh  370205,Education,20,852,5,15-19
227,P G V C L OFFICE,Gandhidham  M   Gandhidham   Kachchh  370205,Electricity supply,7,351,4,25-29
228,NAVJYOT PUBLIC SCHOOL,Gandhidham  M   Gandhidham   Kachchh  370205,Education,20,851,3,10-14
229,SHIVAM VIDYAMANDIR,Gandhidham  M   Gandhidham   Kachchh  370205,Education,20,852,3,20-24
230,D N V EDUCTION ACADEMY,Gandhidham  M   Gandhidham   Kachchh  370205,Education,20,853,3,15-19
231,MA SHARDA VIDYAMANDIR,Gandhidham  M   Gandhidham   Kachchh  370205,Education,20,851,3,15-19
232,SHREE PRERNA VIDYAMANDIR,Gandhidham  M   Gandhidham   Kachchh  370205,Education,20,851,3,10-14
233,LIJJAT PAPAD WOMEN COTTAGE INDU ,Gandhidham  M   Gandhidham   Kachchh  370205,Papad production,6,107,3,25-29
234,COSTUM OFFICE,Kandla  CT   Gandhidham   Kachchh  370210,administrative work,19,821,1,30-99
235,S D MORYA SCHOOL,Kandla  CT   Gandhidham   Kachchh  370210,Educational Activities,20,851,2,10-14
236,A P ENGHLISH SCHOOL,Kandla  CT   Gandhidham   Kachchh  370210,Educational Activities,20,851,2,10-14
237,KANDLA PORT NI OFFICE,Kandla  CT   Gandhidham   Kachchh  372021,Port s administrative,19,821,1,30-99
238,SWASTHYA MANTRALAY,Kandla  CT   Gandhidham   Kachchh  370210,Ministry of Health,19,821,1,20-24
239,BANSAL HOTEL BHOJANALAY,Kandla  CT   Gandhidham   Kachchh  370210,Bansal Hotel Restaurant,14,561,2,10-14
240,BHARATIYA SAMRUDHI VIDHYALAYA,Kandla  CT   Gandhidham   Kachchh  370210,Educational Activities,20,851,5,10-14
241,RASHTRIYA KHADHYA DERI TEL CO ,Kandla  CT   Gandhidham   Kachchh  370210,Food oil,6,104,4,30-99
242,NARANBHAI PATEL CO ,Kandla  CT   Gandhidham   Kachchh  370210,Oil company,6,192,4,200-499
243,IFFCO CO ,Kandla  CT   Gandhidham   Kachchh  370210,The creation of compost,6,201,4,>=500
244,I S O CO ,Kandla  CT   Gandhidham   Kachchh  370210,Production of salt,6,107,4,30-99
245,C S F OFFICE,Kandla  CT   Gandhidham   Kachchh  370210,office,19,821,1,15-19
246,B P M SCHOOL,Kandla  CT   Gandhidham   Kachchh  370210,Educational Activities,20,852,2,15-19
247,THERMAL PRIMARY SCHOOL,Kandla  CT   Gandhidham   Kachchh    370210,Educational Activities,20,851,1,10-14
248,TEJAMALBHAI CO ,Kandla  CT   Gandhidham   Kachchh  370210,Investment Work,6,279,4,30-99
249,LIBARTY INVESTMENT CO ,Kandla  CT   Gandhidham   Kachchh  370210,Investment Work,6,279,4,10-14
250,PATAKAR AGRO CO ,Kandla  CT   Gandhidham   Kachchh  370210,Goods transport by ship,13,501,4,30-99
251,J I T JETI,Kandla  CT   Gandhidham   Kachchh  370210,Goods transport by ship,13,501,3,30-99
252,RAAS JETI,Kandla  CT   Gandhidham   Kachchh  370210,Goods transport by ship,13,501,3,30-99
253,A B G KRAIN SEVA,Kandla  CT   Gandhidham   Kachchh  370210,Krena Service,13,501,2,20-24
254,I D T SIMENTSON,Kandla  CT   Gandhidham   Kachchh  370210,Ship building,6,279,4,30-99
255,C V L TERMINAL CO ,Kandla  CT   Gandhidham   Kachchh  370210,Terminal created by the company,6,279,4,25-29
256,PRIMARY SCHOOL,Kandla  CT   Gandhidham   Kachchh  370210,Educational Activities,20,851,1,10-14
257,KANDLA PORT ZONE OFFICE,Kandla  CT   Gandhidham   Kachchh  370210,Port Zone Office Work,19,821,1,25-29
258,PRATAPJI J CEMICAL CO ,Kandla  CT   Gandhidham   Kachchh  370210,Chemical production,6,201,4,20-24
259,PRIMARY SCHOOL KANDLA,Kandla  CT   Gandhidham   Kachchh  370210,SHAIXANIK KARYA,20,851,1,10-14
260,INDD KOYO POWER PRODUCTS ,Kandla  CT   Gandhidham   Kachchh  370210,AGRICULTURE AND IRRIGATION MACHINE,6,279,4,10-14
261,LALIT STAINLESS STEEL INDIA LTD ,Kandla  CT   Gandhidham   Kachchh  370210,UTENSILS AND CUTLERY ITEMS ETC ,6,279,4,200-499
262,MGA ASSOCIATE,Kandla  CT   Gandhidham   Kachchh  370210,RECONDITIONING OF ELECTRONICAL  ,6,279,4,30-99
263,NEELAM METAL INDUSTRISE,Kandla  CT   Gandhidham   Kachchh  370210,STAINLESS STEEL UTENSILS   CUTERY,6,241,4,10-14
264,SAMEER INDUSTRISE,Kandla  CT   Gandhidham   Kachchh  370210,RECYECLE ITEMS FROM IMPORTED SCRAP,8,383,4,30-99
265,SCHMETZ INDIA PVT LTD,Kandla  CT   Gandhidham   Kachchh  370210,SEWING MACHINES NEEDLES,6,291,4,30-99
266,SHARDA METAL INDUSTRISE,Kandla  CT   Gandhidham   Kachchh  370210,STAINLESS STEEL UTENSILS   CUTERY,6,281,4,100-199
267,UNIVAC CORPORATION,Kandla  CT   Gandhidham   Kachchh  370210,FLUROSCENT STARTED SWITCHES,6,279,4,15-19
268,VERTEX HARDWARE CKI PVT LTD ,Kandla  CT   Gandhidham   Kachchh  370210,BUILDERS HARDWARE,6,281,4,10-14
269,VIJAY TANK VESSELS  LTD ,Kandla  CT   Gandhidham   Kachchh  370210,FABRICATED TANK MATERIALS ASSEMBLIN,6,331,4,200-499
270,MASCOT PLASTO THERM ,Kandla  CT   Gandhidham   Kachchh  370210,MANUFACTURING OF STRECH CLING FILM,6,222,4,30-99
271,AGNI MOTORS,Kandla  CT   Gandhidham   Kachchh  370210,MANUFACTURING OF ELECTRONIC,6,291,4,15-19
272,PAJ INDUSTRIES LTD ,Kandla  CT   Gandhidham   Kachchh  370210,MACHINERY AND EQUIPMENT FOR DISTIL,6,293,4,>=500
273,DOSHON LTD ,Kandla  CT   Gandhidham   Kachchh  370210,MFG CWATER TREATMENT PLANNTS,6,110,4,30-99
274,GUMA PVT LTD ,Kandla  CT   Gandhidham   Kachchh  370210,MFG UNIT MARINE MACHINERY OF,6,309,4,20-24
275,LIZER CYLINDERS LTD ,Kandla  CT   Gandhidham   Kachchh  370210,HIGH PRESSURE SEAMLESS GAS CYLINDER,6,281,4,30-99
276,OCEAN POWER,Kandla  CT   Gandhidham   Kachchh  370210,REPAIRING RE  CONDITIONING AND,10,452,4,10-14
277,INOX INDIA LIMETED,Kandla  CT   Gandhidham   Kachchh  370210,CRYOGINIC TANKS FOR LIQUITED GASES,6,251,4,>=500
278,SHIVAM TRADE LINK,Kandla  CT   Gandhidham   Kachchh  370210,REPAIRING,6,309,4,30-99
279,ITSD TECH PVT LTD ,Kandla  CT   Gandhidham   Kachchh  370210,REFURSHING REENGINE ERING AND,6,264,4,200-499
280,JYOTI INDUSTRIES,Kandla  CT   Gandhidham   Kachchh  370210,ALUMINIUM CAPS OF BOTTLES AND,6,281,4,30-99
281,MINERALS,Kandla  CT   Gandhidham   Kachchh  370210,WBIRSHING RE ENGINEERING,6,264,4,10-14
282,COMPUTER NUMERICAL CONTROL,Kandla  CT   Gandhidham   Kachchh  370210,MFG OF PRECISION FORGING CASTING HO,6,281,4,10-14
283,RAMA CYLINDER PVT ,Kandla  CT   Gandhidham   Kachchh  370210,MFG OF HIGH PRESSURE CYLINDERS  ,6,281,4,100-199
284,ASSOCIATE HIGH PRESSURE TECHNOLOGIE,Kandla  CT   Gandhidham   Kachchh  370210,MFG OF HIGH PRESSURE CYLINDERS,6,281,4,30-99
285,MSSL GLOBAL WIRING LTD ,Kandla  CT   Gandhidham   Kachchh  370210,WIRING HARMES COMPONENT AND TOOL,6,281,4,100-199
286,K R STEEL UNION LTD ,Kandla  CT   Gandhidham   Kachchh  370210,STEEL MMACHINARY PROCESSING ASSEMBL,6,241,4,10-14
287,NISHANT ENGINEERSS PVT LTD ,Kandla  CT   Gandhidham   Kachchh  370210,ELECTRONIC ITEMMS,6,261,4,30-99
288,FURNCE FABRICA INDIA,Kandla  CT   Gandhidham   Kachchh  370210,MFG HEAVY PRESSURE VESSEL HEAT,6,281,4,30-99
289,GREMAC INFRASTUCTURE,Kandla  CT   Gandhidham   Kachchh  370210,MFG OF SAW PIPE,6,281,4,15-19
290,EVEREST KANTO CYLINDERS,Kandla  CT   Gandhidham   Kachchh  370210,HIGH PRESSURE INDUSTRIAL CNG,6,281,4,30-99
291,UBIX INC ,Kandla  CT   Gandhidham   Kachchh  370210,REPAIRING RECONDITIONING OF EMPTY,23,951,4,30-99
292,GREEN AGE SOLUTION,Kandla  CT   Gandhidham   Kachchh  370210,REFUBRISHING REENGINEERING AND RE,6,264,4,10-14
293,NARAYAN MARINE TECH,Kandla  CT   Gandhidham   Kachchh  370210,REFUBRISHING REENGINEERING AND RE,6,271,4,10-14
294,GIMPEX LTD ,Kandla  CT   Gandhidham   Kachchh  370210,PROCESSING OF MILL SCRALE,6,106,4,15-19
295,PRAJ INDUSTRISE LTD UNIT,Kandla  CT   Gandhidham   Kachchh  370210,MFG OF ENGINEERING PRODUCTS,6,291,4,200-499
296,IFGL EXPORTS LTD ,Kandla  CT   Gandhidham   Kachchh  370210,MFG OF SPECIALIZED REFRACTIONIES,6,239,4,25-29
297,OHMPRO ELECTROMECHENICALS,Kandla  CT   Gandhidham   Kachchh  370210,EARTHING MATERIAL COPPER EARTH ROAD,6,242,4,10-14
298,BACCAKOSE PERFUMES  ,Kandla  CT   Gandhidham   Kachchh  370210,COSMETICS   TOILET PREPARATION,6,202,4,100-199
299,CONSOLITED COBALT CHEMICAL,Kandla  CT   Gandhidham   Kachchh  370210,COBALT SALT,6,107,4,10-14
300,HINDUSTAN EXPOSTS INDIA,Kandla  CT   Gandhidham   Kachchh  370210,SHAMPU TOOTH PASTE PERFUMARY,6,202,4,10-14
301,IPCA LABORATORIES  LTD ,Kandla  CT   Gandhidham   Kachchh  370210,PRWGS DRUG INTERMEDIATE,6,210,4,30-99
302,VIFOR PHARMA PVT LTD ,Kandla  CT   Gandhidham   Kachchh  370210,WATER FOR INJECTIONS IN PLASTICK,6,210,4,30-99
303,MESO PVT LTD ,Kandla  CT   Gandhidham   Kachchh  370210,ALCOHOLIC  NON  ALCOHOLIC PERFUMERY,6,202,4,25-29
304,S C CHEMICALS,Kandla  CT   Gandhidham   Kachchh  370210,BSS COMMERCIAL GRADE CASTOR OIL,6,104,4,10-14
305,B K EXPORTS PVT LTD ,Kandla  CT   Gandhidham   Kachchh  370210,AGARBATTI,6,202,4,30-99
306,MISSIONPHARMA LOGISTICK,Kandla  CT   Gandhidham   Kachchh  370210,DRUGS,6,210,4,30-99
307,MYSORE SCENTS COMPANY,Kandla  CT   Gandhidham   Kachchh  370210,AGARBATTIS,6,202,4,30-99
308,PLETHICO PHARMA,Kandla  CT   Gandhidham   Kachchh  370210,HERBAL MEDICINES,6,210,4,10-14
309,RAMKRISHNA PHARMA CEUTICALS LTD ,Kandla  CT   Gandhidham   Kachchh  370210,PHARMA CEUTICALS PRODUCTS,6,210,4,30-99
310,VILE PARIL WEST ,Kandla  CT   Gandhidham   Kachchh  370210,PHARMA CEURIONS,6,210,4,100-199
311,R P K AGROTECHEXPOR TS PVT ,Kandla  CT   Gandhidham   Kachchh  370210,ALL CASTOR OIL AND REFINED,6,104,4,15-19
312,TRANSWORLD FURTICHEM LTD ,Kandla  CT   Gandhidham   Kachchh  370210,N P K FERTILEZRS,6,210,4,30-99
313,GOKUL OVERSEAS PVT LTD ,Kandla  CT   Gandhidham   Kachchh  370210,DIFFRENT KIND GRADE OF CASTOR OIL,6,104,4,100-199
314,WOKO MOTHERSON ADVANCED RUBBER,Kandla  CT   Gandhidham   Kachchh  370210,RUBBER PRODUCTS,6,221,4,100-199
315,PONPURE CHEM PVT LTD ,Kandla  CT   Gandhidham   Kachchh  370210,REPACKING OF CHEMICALS SAIVENTD,6,201,4,30-99
316,DYNA GLYCOLS  PVT LTD ,Kandla  CT   Gandhidham   Kachchh  370210,POLY ETHLYEN GLYCOL,6,201,4,25-29
317,SZM GLOBAL PVT LTD ,Kandla  CT   Gandhidham   Kachchh  370210,MFG PERFUMES COSME TICS HAIR OIL   P,6,202,4,10-14
318,MARVEL FRAGRANCES COMPANY,Kandla  CT   Gandhidham   Kachchh  370210,INCENSE STICK INCENSE CONES FRAGREN,6,202,4,15-19
319,JCK COATING INDUSTRIES,Kandla  CT   Gandhidham   Kachchh  370210,MFG OF N C SANDING SEALERS,6,239,4,10-14
320,CRMO PHARMATECH PVT LTD ,Kandla  CT   Gandhidham   Kachchh  370210,TRADING OF ORGENIC CHEMICALS,6,201,4,15-19
321,MIKASA COSMETICK LTD ,Kandla  CT   Gandhidham   Kachchh  370210,COSMETICS PRODUCT PERFUMES TOILET,6,202,4,15-19
322,GALENTIC PHARMA INDIA LTD ,Kandla  CT   Gandhidham   Kachchh  370210,MGF AND TRADING OF PHARMACEUTIONS I,6,210,4,20-24
323,BABU INTERNATIONAL,Kandla  CT   Gandhidham   Kachchh  370210,SHODDA SYNTHETICYARN,6,139,4,100-199
324,FLAX APPARELS PVT LTD ,Kandla  CT   Gandhidham   Kachchh  370210,READYMADE GARMENTS MADE UPS,6,141,4,15-19
325,ESTEAM APPAREL SERVICES,Kandla  CT   Gandhidham   Kachchh  370210,READYMADE GARMENTS,6,141,4,100-199
326,JINDAL INTERNATIONAL,Kandla  CT   Gandhidham   Kachchh  370210,PROSSESING OF YARN ALL SORTS OF YAR,6,141,4,10-14
327,LILYS APPARELS PVT LTD,Kandla  CT   Gandhidham   Kachchh  370210,READYMADE GARMENT,6,139,4,30-99
328,MARUTI EXPORTS,Kandla  CT   Gandhidham   Kachchh  370210,REPROCESSED GARMENTS,6,141,4,>=500
329,OM SIDDHIVIANYAK IMPEX,Kandla  CT   Gandhidham   Kachchh  370210,SEGREGRATION OF SECOND HAND CLOTHIN,6,141,4,200-499
330,PALMON EXPORTS,Kandla  CT   Gandhidham   Kachchh  370210,SHIFT AND KNITTEDN T SHIRTS,6,181,4,10-14
331,RAGHVANI TEXTILESP LTD ,Kandla  CT   Gandhidham   Kachchh  370210,GARMENTS,6,141,4,10-14
332,RATANKNITTED AND WOVEN GARMENTS,Kandla  CT   Gandhidham   Kachchh  370210,KNITTED   WOMEN READYMADE GARMENTS,6,141,6,10-14
333,SAFFAIRE CLOTHINGS  CO ,Kandla  CT   Gandhidham   Kachchh  370210,ALL GARMENTS,6,141,4,200-499
334,SAFFIRE GARMENTS,Kandla  CT   Gandhidham   Kachchh  370210,MFG MADE UPS AND READY GARMENTS,6,141,4,100-199
335,SHELL EXPORTS KANDLA ,Kandla  CT   Gandhidham   Kachchh  370210,MADE UPS,6,141,4,30-99
336,SHREEJI APPARELS,Kandla  CT   Gandhidham   Kachchh  370210,READYMADE GARMENTS,6,141,4,100-199
337,TEXOOL WASTEVERS,Kandla  CT   Gandhidham   Kachchh  370210,GARMENTS,6,141,4,100-199
338,TREND SETTER,Kandla  CT   Gandhidham   Kachchh  370210,MATTRESS COVER AND ETC ,6,139,4,20-24
339,TULIP EXIM PVT LTD ,Kandla  CT   Gandhidham   Kachchh  370210,USED GARMENTS,6,141,4,200-499
340,U S CLOTHING INDIA PVT LTD ,Kandla  CT   Gandhidham   Kachchh  370210,USED GARMENTS,6,141,4,30-99
341,COMPANI ANSHITHAGRUP,Kandla  CT   Gandhidham   Kachchh  370210,TOWS  WASTEDC,6,141,4,20-24
342,SAFARI FINE CLOTHING PVT ,Kandla  CT   Gandhidham   Kachchh  370210,GARMENTS,6,139,4,100-199
343,EXCEL APPARELS EXPORTS,Kandla  CT   Gandhidham   Kachchh  370210,READYMADE GARMENTS,6,141,4,200-499
344,CANAM INTRNATIONAL,Kandla  CT   Gandhidham   Kachchh  370210,USED GARMENTS,6,141,4,30-99
345,GV TEXTILEMANUFACTURIN G,Kandla  CT   Gandhidham   Kachchh  370210,READYMADE GARMENTS,6,141,4,20-24
346,EURO TROUSER CO,Kandla  CT   Gandhidham   Kachchh  370210,MFG OF READYMADE GARMENTS,6,141,4,200-499
347,STAR SHINE CLOTHING,Kandla  CT   Gandhidham   Kachchh  370210,GARMENTS,6,141,4,100-199
348,AFCAN AMPEX PVT LTD ,Kandla  CT   Gandhidham   Kachchh  370210,MFG OF SHODDY SYNTHETIC YARN,6,139,4,30-99
349,JINDAL FIBER,Kandla  CT   Gandhidham   Kachchh  370210,MFG OF WOOLEN AND SYNTHETIC YARN,6,139,4,100-199
350,TEXOOL SPINNERS,Kandla  CT   Gandhidham   Kachchh  370210,MFG WOOLEN AND SYNTHETIC YARN,6,139,4,100-199
351,GUARDIAN TEXTILE PVT,Kandla  CT   Gandhidham   Kachchh  370210,MFG OF MADE UP GARMENTS FIRE RETARD,6,141,4,25-29
352,STRANDS TEXTILES MILLS,Kandla  CT   Gandhidham   Kachchh  370210,PROCESSING COTTUN YARN WOOWEN,6,141,4,200-499
353,TREND SETTERS,Kandla  CT   Gandhidham   Kachchh  370210,COMFORTER QUILT BED IN A BAG AND,6,139,4,20-24
354,JIYA EXIM CO ,Kandla  CT   Gandhidham   Kachchh  370210,MADE UPS   READYMADE GARMENTS,6,141,4,30-99
355,ITM SAFETY PVT LTD ,Kandla  CT   Gandhidham   Kachchh  370210,READYMADE GARMENTS   ALL TYPE,6,141,4,200-499
356,ARIES INTERNATIONAL,Kandla  CT   Gandhidham   Kachchh  370210,MFG TRADING OF PLASTIC BAGS AND SHE,6,222,4,10-14
357,BLAZE INTERNATIONAL,Kandla  CT   Gandhidham   Kachchh  370210,REPROCESSING OF PLASTIC WASTESING F,6,222,4,20-24
358,ESTEEM EXPORTS KANDLA,Kandla  CT   Gandhidham   Kachchh  370210,PLASTIC INJECTION MOLDING PLASTICL,6,222,4,25-29
359,EXPO PACKAGING,Kandla  CT   Gandhidham   Kachchh  370210,CORRUGATED CARD BOXES WRAPPERS,6,222,4,100-199
360,MARUTI PACKAGING SHED,Kandla  CT   Gandhidham   Kachchh  370210,POLYPROYLENE BAGS SHEETS,6,222,4,100-199
361,PACK WELL PLASTICS,Kandla  CT   Gandhidham   Kachchh  370210,PLASTIC BAGS ROLL SHEETS,6,222,4,30-99
362,SHREYAS PACKAGING INDUSTRISE,Kandla  CT   Gandhidham   Kachchh  370210,CARRUGATED CARTUNS AND OTHER,6,222,4,25-29
363,V MILAK ENTERPRISE,Kandla  CT   Gandhidham   Kachchh  370210,ALL TYPE WRAPPERS BOPP SELL ADHESIV,6,222,4,100-199
364,VISHAJOTI PACKAGING,Kandla  CT   Gandhidham   Kachchh  370210,ALL TYPE OF WRAPPERS,6,222,4,30-99
365,REKHA SUPER FINE EXPORTERS,Kandla  CT   Gandhidham   Kachchh  370210,MFG CUM TRADING UNIT,23,941,4,20-24
366,CARGO INTERNATIONAL,Kandla  CT   Gandhidham   Kachchh  370210,MFG UNIT,23,941,4,20-24
367,VERITAS EXPORTS,Kandla  CT   Gandhidham   Kachchh  370210,MFG CUM TRADING,23,941,4,15-19
368,HAZEL MERCANTILE LTD ,Kandla  CT   Gandhidham   Kachchh  370210,TRADING OF ALL ITEM EXCEPT,23,941,4,30-99
369,CAPITAL FOOD EXPORTS,Kandla  CT   Gandhidham   Kachchh  370210,PROCESS FOOD PRODUCT,6,106,4,30-99
370,HI END PACKAGING,Kandla  CT   Gandhidham   Kachchh  370210,ALUMINIUM BARRIER LAMINATED,6,242,4,25-29
371,GELKAPES SPORTS PVT LTD ,Kandla  CT   Gandhidham   Kachchh  370210,PAINT BALLS,6,323,4,30-99
372,TIMBMET DOOR SOLUTION,Kandla  CT   Gandhidham   Kachchh  370210,DOOR MADE OF PARTICALE BOARDS,6,162,4,100-199
373,PRUTHVI LUBRICANT PVT LTD ,Kandla  CT   Gandhidham   Kachchh  370210,LUBRICATING OIL   GREASE,6,192,1,15-19
374,DAT INDUSTRISE PVT LTD ,Kandla  CT   Gandhidham   Kachchh  370210,BALL POINT PEN GEL PEN ETC    ,6,281,4,10-14
375,ROYAL PETRO CHEM PVT LTD ,Kandla  CT   Gandhidham   Kachchh  370210,AUTOMOTIVE AND INDUSTRIAL,6,192,4,30-99
376,GARDEN FOODS CORPORATION,Kandla  CT   Gandhidham   Kachchh  370210,NATUREL HONEY WALNUTS FRESH,6,107,4,20-24
377,RASWAD FOOD,Kandla  CT   Gandhidham   Kachchh  370210,ALL KIND OF DISPOSABEL PRODUCTS,6,222,4,10-14
378,HERIRAGE DICOR LTD ,Kandla  CT   Gandhidham   Kachchh  370210,PLYWOOD FILM FACE PLYWOOD DECORATIV,6,162,4,20-24
379,SHRI CHAKRA UDHYOG PVT LTD ,Kandla  CT   Gandhidham   Kachchh  370210,MARBLE TILES STABS GRAMITE ,6,239,4,30-99
380,JINDAL EXPORTS,Kandla  CT   Gandhidham   Kachchh  370210,MFG AND TRADING ALL WOOD,6,162,4,20-24
381,NEW AREA SYNDICATED,Kandla  CT   Gandhidham   Kachchh  370210,STATIONARY PRODUCT,6,170,4,15-19
382,DURFERRIT ASEA PVT LTD ,Kandla  CT   Gandhidham   Kachchh  370210,SPECIALITY HEAT TREATMENT AND,6,201,4,20-24
383,KICHEN EXPRESS OVERSEAS,Kandla  CT   Gandhidham   Kachchh  370210,MFG TRADING ACTIVITY PROCESSED,6,106,4,10-14
384,ARAVALI INTERNATIONAL,Kandla  CT   Gandhidham   Kachchh  370210,MFG OF MARBLES,6,239,4,10-14
385,N P HOLDINGS,Kandla  CT   Gandhidham   Kachchh  370210,MFG TRADING ACTIVITY,23,941,4,15-19
386,SRIES INTERNATIONAL,Kandla  CT   Gandhidham   Kachchh  370210,MFG OF SOLT TABLET AND OTHER,6,107,4,15-19
387,RODEX INTERNATIONAL,Kandla  CT   Gandhidham   Kachchh  370210,TRADING UNIT,23,941,4,10-14
388,MILAK WARE HOUSE,Kandla  CT   Gandhidham   Kachchh  370210,TRADING UNIT ,23,941,4,30-99
389,GLOBAL COMMODITY TRADING,Kandla  CT   Gandhidham   Kachchh  370210,TRADING UNIT,23,941,4,10-14
390,GANGA IMPEX ENTERPRISE,Kandla  CT   Gandhidham   Kachchh  370210,TRADING UNIT,23,941,4,10-14
391,CADILA PHARMACUETICALS,Kandla  CT   Gandhidham   Kachchh  370210,TRADING UNIT,23,941,4,10-14
392,BASF INDIA LTD ,Kandla  CT   Gandhidham   Kachchh  370210,TRADING UNIT,23,941,4,15-19
393,SHANKY PETROLIUMS,Kandla  CT   Gandhidham   Kachchh  370210,TRADING UNIT,23,941,4,15-19
394,RISHIROOP RUBER,Kandla  CT   Gandhidham   Kachchh  370210,TRADING UNIT,23,941,4,10-14
395,SHREEJI IMPEX,Kandla  CT   Gandhidham   Kachchh  370210,TRADING UNIT,23,941,4,200-499
396,CASTROL INDIA,Kandla  CT   Gandhidham   Kachchh  370210,TRADING UNIT,23,941,4,30-99
397,HIGH SEAS TRADING CORP ,Kandla  CT   Gandhidham   Kachchh  370210,ENGINEERING GOODS,6,332,4,15-19
398,HUNTSMAN INTERNATIONAL,Kandla  CT   Gandhidham   Kachchh  370210,TRADING UNIT,23,941,4,10-14
399,ZEN FASTENERS ,Kandla  CT   Gandhidham   Kachchh  370210,TRADING UNIT,23,941,4,15-19
400,SRY ENTERPRISE,Kandla  CT   Gandhidham   Kachchh  370210,WAREHOUSING   WAIGHBRIDGE ACTIVITYS,13,521,4,25-29
401,QUALITY ENGINEERS,Kandla  CT   Gandhidham   Kachchh  370210,TRADING UNIT,23,941,4,10-14
402,PARKVIEW WAREHOUSES,Kandla  CT   Gandhidham   Kachchh  370210,WARE HOUSIN ACTIVITYS,13,521,4,15-19
403,MDS EMPEX,Kandla  CT   Gandhidham   Kachchh  370210,TRADING UNIT,13,501,4,15-19
404,CHEMICAL SOLUTIONS,Kandla  CT   Gandhidham   Kachchh  370210,TRADING UNIT,23,941,4,15-19
405,MDS LUBRICANTS PVT LTD ,Kandla  CT   Gandhidham   Kachchh  370210,TRADING UNIT,23,941,4,25-29
406,SHANILOK INTERNATIONAL,Kandla  CT   Gandhidham   Kachchh  370210,TRADING UNIT,23,941,4,15-19
407,QUALICHEM SPECILITIES PVT LTD ,Kandla  CT   Gandhidham   Kachchh  370210,TRADING ACTIVITY,23,941,4,10-14
408,SARTHAK WAREHOUSING TRADIN G CO ,Kandla  CT   Gandhidham   Kachchh  370210,WAREHOUSING ACTIVITY,13,521,4,15-19
409,AQUATEC INDIA,Kandla  CT   Gandhidham   Kachchh  370210,TRADING ACTIVITY,9,432,4,30-99
410,EASY WAREHOUSING ,Kandla  CT   Gandhidham   Kachchh  370210,WAREHOUSING ACTIVITY,13,521,4,30-99
411,APEX LUBRICANT,Kandla  CT   Gandhidham   Kachchh  370210,TRADING ACTIVITY,6,201,4,30-99
412,ZETTS COMETICS PVT LTD ,Kandla  CT   Gandhidham   Kachchh  370210,WAREHOUSING ACTIVITY,13,521,4,10-14
413,BAJAJ  WAREHOUSING SERVICES,Kandla  CT   Gandhidham   Kachchh  370210,WAREHOUSING SERVICES AVTIVITY,13,521,4,30-99
414,SHREE BHAGAVATI LUBRICANTS INDU ,Kandla  CT   Gandhidham   Kachchh  370210,TRADING ACTIVITY,23,941,4,15-19
415,ZEST MARINE SERVICES,Kandla  CT   Gandhidham   Kachchh  370210,TRADING ACTIVITY,23,941,4,15-19
416,INDIA INTERNATIONAL,Kandla  CT   Gandhidham   Kachchh  370210,TRADING ACTIVITY,23,941,4,30-99
417,HRJ WAREHOUSING INDIA,Kandla  CT   Gandhidham   Kachchh  370210,TRADING ACTIVITY,23,941,4,25-29
418,INTERNATIONAL WAREHOUSINGS,Kandla  CT   Gandhidham   Kachchh  370210,TRADING ACTIVITY,13,521,4,30-99
419,OSWAL TRADEX,Kandla  CT   Gandhidham   Kachchh  370210,TRADING ACTIVITY,6,192,4,30-99
420,GLOBAL COMMODITY TRADING ,Kandla  CT   Gandhidham   Kachchh  370210,TRADING ACTIVITY,13,521,4,15-19
421,EXIM WAREHOUSING ,Kandla  CT   Gandhidham   Kachchh  370210,TRADING ACTIVITY,13,521,4,15-19
422,ADROLTECH ENTERPRISE,Kandla  CT   Gandhidham   Kachchh  370210,WAREHOUSING ACTIVITY,13,521,4,30-99
423,AMAR SECURITY,Kandla  CT   Gandhidham   Kachchh  370210,SECURITY SERVICES,19,801,4,30-99
424,AKSHAR IMPEX,Kandla  CT   Gandhidham   Kachchh  370210,MANUFACTURING,6,259,4,15-19
425,ANISH ENTERPRISE,Kandla  CT   Gandhidham   Kachchh  370210,FLAX APPARELS,6,141,4,>=500
426,ANJALI ENTERPRISE,Kandla  CT   Gandhidham   Kachchh  370210,REPROCESSED GARMENTS,6,141,4,100-199
427,OM SIDH,Kandla  CT   Gandhidham   Kachchh  370210,PAKING OF CLOTHES,6,141,4,10-14
428,EVEREST KANTO,Kandla  CT   Gandhidham   Kachchh  370210,WAIGH BRIDGE,23,960,4,20-24
429,ZUEY BEARING,Kandla  CT   Gandhidham   Kachchh  370210,CUTING OF CLOTHES,6,141,1,25-29
430,KUTCH POLY,Kandla  CT   Gandhidham   Kachchh  370210,CUTING OF CLOTHES,6,141,4,100-199
431,NEW PLASTOMERS,Kandla  CT   Gandhidham   Kachchh  370210,CUTING OF POLYTHIN,6,141,4,30-99
432,MOON STANDARD HOL,Kandla  CT   Gandhidham   Kachchh  370210,PACKING   SHORTING OF CLOTHES,6,141,4,30-99
433,MIKASA,Kandla  CT   Gandhidham   Kachchh  370210,CUTING   SHORTING OF CLOTHES,6,141,4,30-99
434,SYNDICATE,Kandla  CT   Gandhidham   Kachchh  370210,PRINTING WORK,6,181,4,100-199
435,J T  1,Kandla  CT   Gandhidham   Kachchh  ૩૭૦૨૧0,Goods transport,13,501,1,30-99
436,J T   2,Kandla  CT   Gandhidham   Kachchh  370210,Goods transport,13,501,1,30-99
437,J T  3,Kandla  CT   Gandhidham   Kachchh  370210,Goods transport,13,501,1,30-99
438,J T  4,Kandla  CT   Gandhidham   Kachchh  370210,Goods transport,13,501,1,30-99
439,J T  5,Kandla  CT   Gandhidham   Kachchh  370210,Goods transport,13,501,1,30-99
440,J T  6,Kandla  CT   Gandhidham   Kachchh  370210,Goods transport,13,501,1,30-99
441,J T  7 ,Kandla  CT   Gandhidham   Kachchh  370210,Goods transport,13,501,1,30-99
442,J T 8,Kandla  CT   Gandhidham   Kachchh  370210,Goods transport,13,501,1,30-99
443,J T  9,Kandla  CT   Gandhidham   Kachchh  370210,Goods transport,13,501,1,30-99
444,J T 10,Kandla  CT   Gandhidham   Kachchh  370210,Goods transport,13,501,1,30-99
445,J T 11,Kandla  CT   Gandhidham   Kachchh  370210,Goods transport,13,501,1,30-99
446,J T 12,Kandla  CT   Gandhidham   Kachchh  370210,Goods transport,13,501,1,30-99
447,J T 13,Kandla  CT   Gandhidham   Kachchh  370210,Goods transport,13,501,1,30-99
448,J T 14,Kandla  CT   Gandhidham   Kachchh  370210,Goods transport,13,501,1,30-99
449,J T 15,Kandla  CT   Gandhidham   Kachchh  370210,Goods transport,13,501,1,30-99
450,J T 16,Kandla  CT   Gandhidham   Kachchh  370210,Goods transport,13,501,1,30-99
451,J T 17,Kandla  CT   Gandhidham   Kachchh  370210,Goods transport,13,501,1,30-99
452,J T 18,Kandla  CT   Gandhidham   Kachchh  370210,Goods transport,13,501,1,30-99
453,J T 19,Kandla  CT   Gandhidham   Kachchh  370210,Goods transport,13,501,1,30-99
454,J T  20,Kandla  CT   Gandhidham   Kachchh  370210,Goods transport,13,501,1,30-99
455,OIL J T 3,Kandla  CT   Gandhidham   Kachchh  370210,Goods transport,13,501,1,30-99
456,OIL J T  4,Kandla  CT   Gandhidham   Kachchh  370210,Goods transport,13,501,1,30-99
457,OIL J T 5,Kandla  CT   Gandhidham   Kachchh  370210,Goods transport,13,501,1,30-99
458,OIL J T  6,Kandla  CT   Gandhidham   Kachchh  370210,Goods transport,13,501,1,30-99
459,OIL J T  7,Kandla  CT   Gandhidham   Kachchh  370210,Goods transport,13,501,1,30-99
460,GIRLS PRIMARY SCHOOL,Gadhsisa   Mandvi  Kachchh   ૩૭૦૪૪5,Education,20,851,1,10-14
461,SHREE H K HIGH SCHOOL,Gadhsisa   Mandvi  Kachchh   ૩૭૦૪૪5,Education,20,852,1,15-19
462,K K  GHANTRA ENGLISH SCHOOL,Gadhsisa   Mandvi  Kachchh   ૩૭૦૪૪5,Education,20,851,9,25-29
463,GOV PRAIMARY SCHOOL,Gadhsisa   Mandvi  Kachchh   ૩૭૦૪૪5,Education,20,851,1,10-14
464,NUTAN PRAIMARY SCHOOL,Gadhsisa   Mandvi  Kachchh   ૩૭૦૪૪5,Education,20,851,9,10-14
465,P G V C L   GHADHSHISHA,Gadhsisa   Mandvi  Kachchh   ૩૭૦૪૪5,Providing electricity,7,351,1,15-19
466,KUTCH STEEL PLANT LIMITED,Gunau   Lakhpat  Kachchh   ૩૭૦૬૦1,Sariya production,6,241,4,30-99
467,ANIMALE HOSTEL,Jakhau   Abdasa  Kachchh   370655,Activities  care of cattle,2,14,7,10-14
468,KUTCH SALT PRODUCT,Jakhau   Abdasa  Kachchh   370655,Production of Salt,5,89,2,30-99
469,KUTCH SALT RIFAINARY,Jakhau   Abdasa  Kachchh   370655,Create iodine containing salt,6,107,2,20-24
470,MILAVI ICE FACTORY,Jakhau   Abdasa  Kachchh   370655,ICE Product,6,110,2,15-19
471,INDIYAN SALT OFFICE,Jakhau   Abdasa  Kachchh   370655,India Salt Office,19,821,2,10-14
472,INDIYAN SALT PRODUCT,Jakhau   Abdasa  Kachchh   370655,Production of Salt,5,89,2,30-99
473,INDIYAN SALT REFAINARY FACTORY,Jakhau   Abdasa  Kachchh   370655,Create iodine containing salt,6,107,2,30-99
474,JAKHAU SALT PRODUCT,Jakhau   Abdasa  Kachchh   370655,Production of Salt,5,89,2,30-99
475,JAKHAU SALT RIFAINARY FACOTRY,Jakhau   Abdasa  Kachchh   370655,Production of Salt,6,107,2,20-24
476,GOVRMENT BOYS PRIMARY SCHOOL,Jatavada  Jilar Vandh   Rapar   Kachchh   ૩૭૦૧૬5,Education,20,851,1,10-14
477,GOVERMENT PRIMARY SCHOOL,Kanmer   Rapar   Kachchh,Education,20,851,1,10-14
478,JAY AMBE MAAINAS   MINARALS,Kakarva   Bhachau  Kachchh   ૩૭૦૧૪0,produced by minerals,5,89,4,15-19
479,BLAZE INTERNATIONLE,Kandla  CT   Gandhidham   Kachchh  370210,Plastic products,6,222,4,20-24
480,BLOW KINGS,Kandla  CT   Gandhidham   Kachchh  370210,Plastic products,6,222,4,30-99
481,IMPERIAL OVERSEAS PVT LTD ,Kandla  CT   Gandhidham   Kachchh  370210,Plastic products,6,222,4,10-14
482,C J PLASTIC PVT LTD,Kandla  CT   Gandhidham   Kachchh  370001,Plastic products,6,222,4,20-24
483,HARISH PROCESSORS PVT LTD,Kandla  CT   Gandhidham   Kachchh  370210,Plastic products,6,222,4,100-199
484,HINDUSTAN PLASTIC PVT LTD,Kandla  CT   Gandhidham   Kachchh  370210,Plastic products,6,222,4,10-14
485,COMPNAY,Kandla  CT   Gandhidham   Kachchh  370210,Plastic products,6,222,4,10-14
486,MEDIKITS,Kandla  CT   Gandhidham   Kachchh  370210,Production of drugs,6,210,4,15-19
487,KANDLA POLIPLASTIC INDIA,Kandla  CT   Gandhidham   Kachchh  370210,SUNFLOWERD MUSTERD AND CUSTORE SEED,6,104,4,100-199
488,NEW PLASTOMER INDIYA,Kandla  CT   Gandhidham   Kachchh  370210,Plastic products,6,222,4,15-19
489,OSWAL POLMERS,Kandla  CT   Gandhidham   Kachchh  370210,Plastic products,6,222,4,15-19
490,SUNRISE INTERNATIONLE,Kandla  CT   Gandhidham   Kachchh  370210,Plastic products,6,222,4,10-14
491,PLASTO FINE INDUSTIRES,Kandla  CT   Gandhidham   Kachchh  370210,Plastic products,6,222,4,30-99
492,PARAS ENTERPRISES,Kandla  CT   Gandhidham   Kachchh  370210,Plastic products,6,222,4,30-99
493,PRESTO INDUSTRISE,Kandla  CT   Gandhidham   Kachchh  370210,Plastic products,6,222,4,30-99
494,RENEW PLASTIC,Kandla  CT   Gandhidham   Kachchh  370210,Plastic products,6,222,4,10-14
495,SHIVAM SCRAP,Kandla  CT   Gandhidham   Kachchh  370210,Plastic products,6,222,4,200-499
496,SHREE EXPORTS,Kandla  CT   Gandhidham   Kachchh  370210,Plastic products,6,222,4,30-99
497,SHREE POLIMERS,Kandla  CT   Gandhidham   Kachchh  370210,Plastic products,6,222,4,200-499
498,MOKSHSTAR INTERNATONAL,Kandla  CT   Gandhidham   Kachchh  370210,Plastic products,6,222,4,30-99
499,POLYREE PROCESS,Kandla  CT   Gandhidham   Kachchh  370210,Plastic products,6,222,4,100-199
500,REGENT ROPES,Kandla  CT   Gandhidham   Kachchh  370210,Plastic products,6,222,4,100-199
501,AADITYA EXPORT,Kandla  CT   Gandhidham   Kachchh  370210,Plastic products,6,222,4,30-99
502,AMRIT PLAST O CHEM,Kandla  CT   Gandhidham   Kachchh  370210,Plastic products,6,222,4,30-99
503,ADD POLIMERS PVT LTD,Kandla  CT   Gandhidham   Kachchh  370210,Plastic products,6,222,4,30-99
504,ANSA POLIMERS LTD,Kandla  CT   Gandhidham   Kachchh  370210,Plastic products,6,222,4,100-199
505,OSWAL EXPORAT LTD,Kandla  CT   Gandhidham   Kachchh  370210,Plastic products,6,222,4,30-99
506,MILAR PLASTICINDSTRISE,Kandla  CT   Gandhidham   Kachchh  370210,Plastic products,6,222,4,30-99
507,SANGHAVI POLYFIY PVT LTD,Kandla  CT   Gandhidham   Kachchh  370210,Plastic products,6,222,4,30-99
508,TOKYO PLAST VELJI SHAH,Kandla  CT   Gandhidham   Kachchh  370210,Plastic products,6,222,4,30-99
509,AMITY THEMOSTS PVT LTD,Kandla  CT   Gandhidham   Kachchh  370210,Plastic products,6,222,4,10-14
510,POWER HOUSE,Kanakpar   Abdasa  Kachchh   370655,Electricity supply,7,351,1,15-19
511,PUJA PYPE INDUSTREEJ,Katariya Juna   Bhachau  Kachchh   370140,pipe mfg ,6,241,4,25-29
512,VIJAY VILASH PALACE,Kathda   Mandvi  Kachchh   370465,Hotel,14,551,2,10-14
513,SHREE KHARI ROHAR PRIMARY SCHOOL,Mithi Rohar  Gandhidham   Kachchh  370240,Education,20,851,1,15-19
514,SWAS AANANDDHAAM,Kharoi   Bhachau  Kachchh   ૩૭૦૧૪0,Health services,21,873,4,30-99
515,SHREE SWAMINARAYAN MINRELS,Koday   Mandvi   Kachchh  370460,Education,20,852,7,100-199
516,AGROCEL INDUSRIES LIMITED,Koday   Mandvi   Kachchh  370460,All operations relating to agricultural products,1,16,4,30-99
517,GIRLS PRIMARY SCHOOL,Kothara   Abdasa  Kachchh   370655,Girls  Education Activity,20,851,1,10-14
518,I I T  BRANCH,Kothara   Abdasa  Kachchh   370655,Education,20,854,1,10-14
519,JINING MEAL,Kothara   Abdasa  Kachchh   370655,Pinjavani cotton mill,6,282,2,30-99
520,STONE CURSHING INDRUSTRISE,Kothara   Abdasa  Kachchh   370655,Stone crushinh,5,81,2,10-14
521,POWERFECTORY,Kothara   Abdasa  Kachchh   370655,Energy electricity,7,351,1,10-14
522,HOTEL JAY BHARAT,Lakadiya   Bhachau  Kachchh,Restaurent,14,561,1,10-14
523,PRIMARY SCHOOL,Lakadiya   Bhachau  Kachchh,Education,20,852,2,10-14
524,SCHOOL,Lakadiya   Bhachau  Kachchh,Education,20,851,1,10-14
525,GIRLS PRIMARY SCHOOL,Lakadiya   Bhachau  Kachchh   370150,Education,20,851,1,15-19
526,AEROMA HIGHTECK LMT,Lakadiya   Bhachau  Kachchh   370150,Pump Production,6,282,1,10-14
527,BHARAT HOTEL,Lakadiya   Bhachau  Kachchh   370150,Restaurent,14,551,2,10-14
528,HIGH SECONDARY SCHOOL,Lathedi   Abdasa  Kachchh   370655,Education,20,852,1,10-14
529,N R I METCOKE LTD,Lunva   Bhachau  Kachchh   370140,coal processing,6,239,4,100-199
530,N R I METCOKE LTD YUNIT SALAASAR,Lunva   Bhachau  Kachchh   370140,coal processing,6,239,4,100-199
531,MAHAKALI MERCO PVT LTD ,Lunva   Bhachau  Kachchh   370140,Plywood Production,6,162,4,100-199
532,SADGURU PVT LTD ,Lunva   Bhachau  Kachchh   370140,Coal processing,6,239,4,15-19
533,BAJARANG COKE LTD ,Lunva   Bhachau  Kachchh   370140,Coal processing,6,239,4,100-199
534,CLASSIC ENERGY INDIA PVT LTD,Lunva   Bhachau  Kachchh   370140,Coal processing,6,239,2,15-19
535,GUJARAT N R I COKE LTD ,Lunva   Bhachau  Kachchh   370140,Coal processing,6,239,4,200-499
536,JHARIYA PVT LTD ,Lunva   Bhachau  Kachchh   370140,Coal processing,6,239,4,100-199
537,MAULIK RASIKLAL SHAH,Mamaymora   Mandvi  Kachchh   ૩૭૦૪૪5,This sale Mill production bentonaita,5,81,1,20-24
538,RURAL DEVLOPARS  RESARCH CENTER,Mandvi  Rural    Mandvi  Kachchh   370465,Social work,21,889,2,25-29
539,SHREE HARI I N C ,Mandvi  Rural    Mandvi  Kachchh   370465,Wheat  barley  etc  trade,11,461,2,10-14
540,MARUTI SUZUKI  K D MOTORS ,Mandvi  Rural    Mandvi  Kachchh   370465,Sale of motors,10,453,3,10-14
541,HARI OM INDUSTRIS,Mandvi  Rural    Mandvi  Kachchh   370465,Redding to peanuts packing production,6,107,2,10-14
542,O T C  MASALA,Mandvi  Rural    Mandvi  Kachchh   370465,Spices sale,11,461,2,15-19
543,ASHAPURA INDRUSTRIS,Mandvi  Rural    Mandvi  Kachchh   370465,Ashapura Industries,11,461,2,20-24
544,KUTCH OIL MEAL,Mandvi  Rural    Mandvi  Kachchh   370465,Groundnut oil production,6,104,2,10-14
545,AARSHIRVAD MAIN KEM,Mandvi  Rural    Mandvi  Kachchh   370465,Why Bingo brands Mine,5,99,2,10-14
546,SHIVMASTU SADHANA KENDRA,Mandvi  Rural    Mandvi  Kachchh   370465,Yoga  meditation  devotion  patient distribution,21,889,7,15-19
547,NIRSHA LAIF HOSPITAL,Mandvi  M    Mandvi  Kachchh   370465,Health services,21,862,2,10-14
548,SALAYA PRIMARY SCHOOL 9 A,Mandvi  M    Mandvi  Kachchh   370465,Education,20,851,1,15-19
549,SHETH SURAJI V ARTS COMMERCE CLG,Mandvi  M    Mandvi  Kachchh   370465,Education,20,853,2,15-19
550,HARSH MEDICLECENTER,Mandvi  M    Mandvi  Kachchh   370465,Hospital Service Private,21,862,2,25-29
551,JOSHI BRITHRS PETROL PUMP,Mandvi  M    Mandvi  Kachchh   370465,Petrol pump,12,473,2,10-14
552,P N B ,Mandvi  M    Mandvi  Kachchh   370465,Financial transactions,16,641,1,10-14
553,S B I,Mandvi  M    Mandvi  Kachchh   370465,Financial transactions,16,641,1,15-19
554,GUJRAT TRUST TRANSFAR,Mandvi  M    Mandvi  Kachchh   370465,Esatigereja,10,452,1,15-19
555,GUJRAT TRUST TRANFAR,Mandvi  M    Mandvi  Kachchh   370465,Esatiophisa,13,522,1,15-19
556,AIMS HOSPITAL,Mandvi  M    Mandvi  Kachchh   370465,Health services,21,862,2,10-14
557,RAM KRUSHNA HIGH SCHOOL,Mandvi  M    Mandvi  Kachchh   370465,Education,20,852,2,30-99
558,MASUM CHAILDE CARE,Mandvi  M    Mandvi  Kachchh   370465,Health services,21,862,2,10-14
559,GORI HOSPITAL AND PRASTUTIGRUH,Mandvi  M    Mandvi  Kachchh   370465,Health services,21,862,2,10-14
560,SWAMINARAYAN GURUKUL,Mandvi  M    Mandvi  Kachchh   370465,Education,20,851,6,25-29
561,VATSHALY HOSPITAL,Mandvi  M    Mandvi  Kachchh   370465,Health services,21,862,2,15-19
562,BAHERA MUNGA HOSTEL,Mandvi  M    Mandvi  Kachchh   370465,Hostel,14,559,6,20-24
563,OLD SWAMINARAYAN TAMPLE,Mandvi  M    Mandvi  Kachchh   370465,Temple,23,949,7,10-14
564,DINESH SONI SHOROOM,Mandvi  M    Mandvi  Kachchh   370465,jewellery making,6,242,2,10-14
565,SWAMINARAYAN MANDIR,Mandvi  M    Mandvi  Kachchh   370465,Worship service,23,949,7,10-14
566,NURSHING TRENING CENTER,Mandvi  M    Mandvi  Kachchh   370465,Education,20,854,1,10-14
567,LOHANA KUMAR CHATRALAYA,Mandvi  M    Mandvi  Kachchh   370465,Education,14,559,7,25-29
568,POST OFFICE,Mandvi  M    Mandvi  Kachchh   370654,Postal services,13,531,1,15-19
569,PATIDAR KUMAR CHATRALAY,Mandvi  M    Mandvi  Kachchh   370465,Hostel,14,559,5,30-99
570,SHISHU MANDIR,Mandvi  M    Mandvi  Kachchh   370465,Education,20,851,2,10-14
571,G T HIGHSCHOOL,Mandvi  M    Mandvi  Kachchh   370465,Education,20,852,7,25-29
572,S K R H SCHOOL,Mandvi  M    Mandvi  Kachchh   370465,Education,20,852,2,30-99
573,KUTCH MINARALS LTD ,Manfara   Bhachau  Kachchh   ૩૭૦૧૪0,E minerals excavated material,5,89,3,10-14
574,PRIMARY SCHOOL,Maska   Mandvi  Kachchh   370465,Education,20,851,1,10-14
575,V R T I  SOCIAL SANSHTHA,Maska   Mandvi  Kachchh   370465,Social organization,21,889,7,30-99
576,V G S ,Maska   Mandvi  Kachchh   370465,Food products,6,107,6,30-99
577,SHREE R H P  SARSVAT HIGHSCHOOL,Maska   Mandvi  Kachchh   370465,Education,20,852,6,10-14
578,DAYIR HENDICRAFT,Maska   Mandvi  Kachchh   370465,Textile and printing,6,139,2,15-19
579,SHIV MINRELS,Maska   Mandvi  Kachchh   370465,support activities for mining,5,99,2,10-14
580,SHIDHESWAR PETROL PUMP,Maska   Mandvi  Kachchh   370465,Sales of petrol and diesel,12,473,2,10-14
581,ANKRVALA GENREL HOSPITAL,Maska   Mandvi  Kachchh   370465,Health services,21,862,9,15-19
582,I T I,Maska   Mandvi  Kachchh   370465,Education,20,854,1,10-14
583,KUTCH MINRELS,Maska   Mandvi  Kachchh   370465,support activities for mining,5,99,3,15-19
584,SHREE V R T I PRAIMARY SCHOOL,Maska   Mandvi  Kachchh   370465,Education,20,851,1,15-19
585,PRIMARY SCHOOL,Matana Madh   Lakhpat  Kachchh   ૩૭૦૬૨5,Education,20,851,1,10-14
586,MATANAMADH JAGIR TRUST,Matana Madh   Lakhpat  Kachchh   ૩૭૦૬૨5,Restaurent,14,561,7,15-19
587,P H C,Matana Madh   Lakhpat  Kachchh   ૩૭૦૬૨5,Health services,21,861,1,10-14
588,MATANAMADH JAGIR TRUST,Matana Madh   Lakhpat  Kachchh   ૩૭૦૬૨5,Short term accomodation,14,551,7,15-19
589,JADEJA RAMSHANGJI MEGHRAJJI,Mau Moti   Mandvi  Kachchh   ૩૭૦૪૪5,Ashapura Farm   Nursery,1,13,2,30-99
590,JADEJA PRITHAVIRAJSINH,Mau Moti   Mandvi  Kachchh   ૩૭૦૪૪5,Ashapura Mines,5,99,2,15-19
591,BHARAVAAD DHARABHAI RAJAABHAI,Mevasa   Rapar   Kachchh,Guest houses,14,551,2,15-19
592,RADHE STORAGE,Mithi Rohar  Gandhidham   Kachchh  370201,Wooden Godown,13,521,2,10-14
593,AMBIKA PLOTE STORAGE,Mithi Rohar  Gandhidham   Kachchh  370201,Wooden Godown,13,521,2,15-19
594,BHOLENATH STORAGE,Mithi Rohar  Gandhidham   Kachchh  370201,Create a wooden size,6,161,2,10-14
595,AVNI V JOSHI COMPANY,Mithi Rohar  Gandhidham   Kachchh  370201,Transport operations,13,522,2,30-99
596,CHIRAG TIMBAR,Mithi Rohar  Gandhidham   Kachchh  370201,Wooden sale,6,161,2,10-14
597,DURGA TRANSPORTE,Mithi Rohar  Gandhidham   Kachchh  370201,Transport of activity,13,522,2,10-14
598,TELAR SERVICE,Mithi Rohar  Gandhidham   Kachchh  370201,Garage,10,452,2,10-14
599,MANMANDIR CINEMA,Mithi Rohar  Gandhidham   Kachchh  370201,Cinema House,22,900,2,10-14
600,GIRIRAAJ TIMBAR,Mithi Rohar  Gandhidham   Kachchh  370201,planning of wood,6,161,2,30-99
601,SIKANDAR TIMBAR,Mithi Rohar  Gandhidham   Kachchh  370201,planning of wood,6,161,1,30-99
602,WOOD TIMBAR,Mithi Rohar  Gandhidham   Kachchh  370201,planning of wood,6,161,2,25-29
603,MITAL TIMBAR,Mithi Rohar  Gandhidham   Kachchh  370201,planning of wood,6,161,2,30-99
604,NURANI SUMUL TIMBAR,Mithi Rohar  Gandhidham   Kachchh  370201,planning of wood,6,161,2,30-99
605,TEG EKKO COMPANY,Mithi Rohar  Gandhidham   Kachchh  370201,planning of wood,13,521,2,10-14
606,M R F  STORAGE,Mithi Rohar  Gandhidham   Kachchh  370201,planning of wood,13,521,2,10-14
607,STORAGE,Mithi Rohar  Gandhidham   Kachchh  370201,Godown,13,521,2,10-14
608,COWS COMMITEE TRUST,Mithi Rohar  Gandhidham   Kachchh  370201,Care cows,2,14,6,10-14
609,RADHE PECKING HOUSE,Mithi Rohar  Gandhidham   Kachchh  370201,planning of wood,6,161,2,20-24
610,SANTOSH TIMBAR,Mithi Rohar  Gandhidham   Kachchh  370201,planning of wood,6,161,2,30-99
611,MEX SERVISE STESTION,Mithi Rohar  Gandhidham   Kachchh  370201,Repairable vehicles in the garage,10,452,2,10-14
612,GHAR GULBAR WOOD COMPNY,Mithi Rohar  Gandhidham   Kachchh  370201,Create a wooden size,6,161,2,10-14
613,RADHE SERVISE STESTION,Mithi Rohar  Gandhidham   Kachchh  370201,Vehicle repair  garage,10,452,2,10-14
614,WOOD TIMBAR,Mithi Rohar  Gandhidham   Kachchh  370201,Building sell wood size,6,161,2,10-14
615,S S TIMBAR,Mithi Rohar  Gandhidham   Kachchh  370201,Building sell wood size,6,161,2,30-99
616,SHAKTI KRUPAL TIMBAR,Mithi Rohar  Gandhidham   Kachchh  370201,Building sell wood size,6,161,2,200-499
617,M K WOOD TIMBAR,Mithi Rohar  Gandhidham   Kachchh  370201,Building sell wood size,6,161,2,30-99
618,SAMA HOTEL,Mithi Rohar  Gandhidham   Kachchh  370201,To eat,14,561,2,10-14
619,SADHURAAM JAYPRAKASH TIMBAR,Mithi Rohar  Gandhidham   Kachchh  370201,Building sell wood size,6,161,2,30-99
620,PATEL WOOD PRODECTAR,Mithi Rohar  Gandhidham   Kachchh  370201,Building sell wood size,6,161,2,30-99
621,SHIV SHAKTI TIMBAR,Mithi Rohar  Gandhidham   Kachchh  370201,Building sell wood size,6,161,2,100-199
622,PANJAB TIMBAR,Mithi Rohar  Gandhidham   Kachchh  370201,Building sell wood size,6,161,2,30-99
623,DEEP SO MIL TIMBAR,Mithi Rohar  Gandhidham   Kachchh  370201,Building sell wood size,6,161,2,30-99
624,KETAN TIMBAR,Mithi Rohar  Gandhidham   Kachchh  370201,Building sell wood size,6,161,2,30-99
625,AGRWAL KARGO WORKARS,Mithi Rohar  Gandhidham   Kachchh,Motor vehicle sales,10,451,2,30-99
626,LAXMI TIMBAR,Mithi Rohar  Gandhidham   Kachchh  370201,Building sell wood size,6,161,2,30-99
627,SITARAAM TIMBAR,Mithi Rohar  Gandhidham   Kachchh  370201,Building sell wood size,6,161,2,30-99
628,GOL BAAL WOOD TIMBAR,Mithi Rohar  Gandhidham   Kachchh  370201,Building sell wood size,6,161,2,30-99
629,RAJ KRIPAL WOOD TIMBAR,Mithi Rohar  Gandhidham   Kachchh  370201,Building sell wood size,6,161,1,30-99
630,K H EGRO CULTURE,Mithi Rohar  Gandhidham   Kachchh  370201,Vehicle sales,10,451,2,30-99
631,V ARJUN STORAGE,Mithi Rohar  Gandhidham   Kachchh  370201,Godown,13,521,2,30-99
632,LAXMI INDIA FACTORY,Mithi Rohar  Gandhidham   Kachchh  370201,vehicles Garage,10,452,2,10-14
633,KIRAN STORAGE,Mithi Rohar  Gandhidham   Kachchh  370201,Godown shipment,13,521,2,30-99
634,GOODS STORAGE,Mithi Rohar  Gandhidham   Kachchh  370201,Godown shipment,13,521,2,20-24
635,MAHESH TIMBAR PVT LTD,Mithi Rohar  Gandhidham   Kachchh  370201,Building sell wood size,6,161,2,100-199
636,POOJA TIMBAR,Mithi Rohar  Gandhidham   Kachchh  370201,Building sell wood size,6,161,2,30-99
637,C C A STORAGE,Mithi Rohar  Gandhidham   Kachchh  370201,Godown shipment,13,521,2,30-99
638,MUKESH TIMBAR,Mithi Rohar  Gandhidham   Kachchh  370201,Building sell wood size,6,161,2,30-99
639,H K RATHOD STORAGE,Mithi Rohar  Gandhidham   Kachchh  370201,Godown shipment,13,521,2,30-99
640,D K RATHOD STORAGE,Mithi Rohar  Gandhidham   Kachchh  370201,Godown shipment,13,521,2,30-99
641,VIJAY TIMBAR,Mithi Rohar  Gandhidham   Kachchh  370201,Building sell wood size,6,161,2,30-99
642,CHAUDHARI TIMBAR,Mithi Rohar  Gandhidham   Kachchh  370201,Building sell wood size,6,161,2,30-99
643,RAVECHI TIMBAR,Mithi Rohar  Gandhidham   Kachchh  370201,Building sell wood size,6,161,2,30-99
644,SHANTI STORAGE,Mithi Rohar  Gandhidham   Kachchh  370201,Wooden Godown,13,521,5,30-99
645,MARUTI TIMBAR,Mithi Rohar  Gandhidham   Kachchh  370201,Building sell wood size,6,161,2,30-99
646,H K TIMBAR,Mithi Rohar  Gandhidham   Kachchh  370201,Building sell wood size,6,161,2,30-99
647,KARPIK TIMBAR,Mithi Rohar  Gandhidham   Kachchh  370201,Building sell wood size,6,161,2,30-99
648,SEGHANI AND COMPANY,Mithi Rohar  Gandhidham   Kachchh  370201,Wooden sale,13,521,2,30-99
649,LAXMI TIMBAR,Mithi Rohar  Gandhidham   Kachchh  370201,Building sell wood size,6,161,2,100-199
650,AGRWAAL STORE,Mithi Rohar  Gandhidham   Kachchh  370201,Godown,13,521,2,30-99
651,KATPUTALI TRANSFAR,Mithi Rohar  Gandhidham   Kachchh  370201,Transfer of goods,10,452,2,10-14
652,JODHPUR AUTO GEREJ,Mithi Rohar  Gandhidham   Kachchh  370201,Vehicle repair,10,452,2,30-99
653,DADA DHARAMNATH STONE CURST,Miyani   Abdasa  Kachchh   370655,Grit work,5,81,2,10-14
654,MOMAY MA OLD TEMPLE,Momaymora   Rapar  Kachchh,TEMPLE,23,949,7,25-29
655,MOMAY MA NEW REMPLE,Momaymora   Rapar  Kachchh,TEMPLE,23,949,7,15-19
656,SANSTAR BIO POLYMAR,Morgar   Bhachau  Kachchh   370020,Starch production,6,106,4,200-499
657,DADAL BHAVAN,Ratadiya Mota   Mandvi  Kachchh   370465,Social work,21,889,9,25-29
658,PRIMARY SCHOOL,Rayan Moti   Mandvi  Kachchh   370465,Education,20,851,1,10-14
659,MUKTI PAEP,Rayan Moti   Mandvi  Kachchh   370465,Cement block and pipes,6,239,2,15-19
660,MANAHAR ROADWAYS,Baraya   Mundra  Kachchh   370410,Transportation,13,522,2,10-14
661,ASHAPURA MINE CHEM LTD ,Baraya   Mundra  Kachchh   370415,Of clay factory,5,81,4,200-499
662,ASHAPURA ROADWAYS,Baraya   Mundra  Kachchh   370415,Transportation,13,522,2,25-29
663,SENT JHEVIYERS HIGH SCHOOL,Baroi   Mundra   Kachchh  370421,Education,20,852,9,30-99
664,HOTEL PEREDISED,Baroi   Mundra   Kachchh  370421,Restaurent,14,561,2,15-19
665,SABARI FAST FOOD,Baroi   Mundra   Kachchh  370421,Food Facility,14,561,2,15-19
666,CARBONEDGE INDUS PVT LTD ,Chhasra   Mundra  Kachchh   370410,Coke production,6,242,4,100-199
667,HOTEL SWAGATAM,Chhasra   Mundra  Kachchh   370410,Hotel,14,551,3,20-24
668,LAXMIVADI MINES   MINERALS,Gundala   Mundra  Kachchh   370421,Means bleaching,5,81,1,30-99
669,GUNDALA PANJARAPOL,Gundala   Mundra  Kachchh   370421,Animal Husbandry,2,14,3,15-19
670,FILIPS CARBON VLACK LIMITED,Mokha   Mundra  Kachchh   370421,Production of carbon,6,201,2,100-199
671,JADEJA ANIRUDHDHASINH CHANDUBHA,Tumbadi Moti   Mundra  Kachchh   ૩૭૦૪૩5,Plan   stone crushers krasinga,5,81,2,10-14
672,JADEJA RANJITSINH AGARSINH,Tumbadi Moti   Mundra  Kachchh   ૩૭૦૪૩5,Plan   stone crushers krasinga,5,81,2,20-24
673,ARATI CONTRUCTION COMPANY,Fachariya   Mundra  Kachchh   370421,Construction,9,410,4,20-24
674,A K CHAVADA,Fachariya   Mundra  Kachchh   370421,Loading and loading into ships,13,501,9,30-99
675,CHECK MET SERVICE PVT LTD,Mundra  CT    Mundra  Kachchh   370421,Security Services Provided,19,801,4,200-499
676,CHHOTALAL PREMJI SATEVEDORAS,Mundra  CT    Mundra  Kachchh   370421,Loading and loading into ships,13,501,3,30-99
677,DEEPAK ENTERPRAISE,Mundra  CT    Mundra  Kachchh   370421,Man Power Suppliers,23,960,3,15-19
678,DOSHI GOVINDJI PARMAR,Mundra  CT    Mundra  Kachchh   370421,Loading and loading,13,501,4,25-29
679,DHIRAJLAL LADHABHAI MEMAKIYA,Mundra  CT    Mundra  Kachchh   370421,Empty bundle to use to work,11,461,3,20-24
680,DILIP BAIN,Mundra  CT    Mundra  Kachchh   370421,Loading and loading,13,501,3,10-14
681,DIVYA ENTERPRISE,Mundra  CT    Mundra  Kachchh   370421,Man Power Suppliers,23,960,3,30-99
682,ALIGENT SURVEYERS,Mundra  CT    Mundra  Kachchh   370421,Surveyors,19,773,4,20-24
683,AMPIZER LOGISTICK,Mundra  CT    Mundra  Kachchh   370421,Loading and loading,13,501,3,100-199
684,GLOBAL INNOVISOURCE,Mundra  CT    Mundra  Kachchh   370421,Man Power Suppliers,9,422,4,100-199
685,GELEXY SECURITY SERVICES,Mundra  CT    Mundra  Kachchh   370421,Security Services Provided,19,801,4,30-99
686,HARESH CONTRUCTION,Mundra  CT    Mundra  Kachchh   370421,Construction,9,410,3,30-99
687,HARSHAL ELECTRICALS,Mundra  CT    Mundra  Kachchh   370421,Electricals,7,351,3,30-99
688,INDRA SECURITY SERVICES,Mundra  CT    Mundra  Kachchh   370421,Security Services Provided,19,802,4,200-499
689,INSPECTORATE GRAFFICS INDIA PVT LT,Mundra  CT    Mundra  Kachchh   370421,Steel Surveyors,19,773,3,30-99
690,J N SHIPING,Mundra  CT    Mundra  Kachchh   370421,Loading analodinga,13,501,3,30-99
691,J P BODA SURVEYERSH,Mundra  CT    Mundra  Kachchh   370421,Surveyors,19,773,3,100-199
692,JAY SHAKTI ENGINIRING   CONTRUCTIO,Mundra  CT    Mundra  Kachchh   370421,Construction,9,421,3,100-199
693,JUSHAB OSHAMAN BHATI,Mundra  CT    Mundra  Kachchh   370421,Construction,9,429,3,25-29
694,K VEKENTESAN,Mundra  CT    Mundra  Kachchh   370421,Engineering Work,9,432,3,30-99
695,ADITYA MARRIN,Mundra  CT    Mundra  Kachchh   370421,Loading and loading into ships,13,501,4,30-99
696,K K CONTRUCTION,Mundra  CT    Mundra  Kachchh   370421,Construction,9,410,3,10-14
697,KAMAL COMPRO PVT LTD ,Mundra  CT    Mundra  Kachchh   370421,Mechanical Tank   Pipe,9,429,4,200-499
698,KIRIT CONTRUCTION CO ,Mundra  CT    Mundra  Kachchh   370421,Construction,9,410,4,30-99
699,KISHAN KANAIYA   CO ,Mundra  CT    Mundra  Kachchh   370421,Construction,9,410,3,30-99
700,KONSTELEC ENGINIRING PVT LTD ,Mundra  CT    Mundra  Kachchh   370421,Construction,9,410,3,30-99
701,M H S ENGINIRING,Mundra  CT    Mundra  Kachchh   370421,Engineering,6,259,3,20-24
702,MITTAL SERVICES,Mundra  CT    Mundra  Kachchh   370421,Canteen services,14,561,3,20-24
703,MEGHAJIBHAI GANESHBHAI PATEL,Mundra  CT    Mundra  Kachchh   370421,Labor Suppliers,19,782,3,30-99
704,NABIL ENTERPRISE,Mundra  CT    Mundra  Kachchh   370421,Labor Suppliers,19,782,3,20-24
705,ALAABHAI GADHAVI,Mundra  CT    Mundra  Kachchh   370421,Construction,9,410,4,20-24
706,PARTH ELECTRICALS   ENGINIERING,Mundra  CT    Mundra  Kachchh   370421,Electricals   injiniyaringa service,6,259,3,30-99
707,PIONEER SECURITY PVT LTD,Mundra  CT    Mundra  Kachchh   370421,Sukayuriti Services Provided,19,801,3,30-99
708,PRASAD MULTI SERVICES PVT LTD,Mundra  CT    Mundra  Kachchh   370421,Labor Suppliers,19,782,3,30-99
709,R PUJA ENTERPRISE,Mundra  CT    Mundra  Kachchh   ૩૭૦૪૨1,Water suppliers,8,360,3,20-24
710,R S ELECTRICAL,Mundra  CT    Mundra  Kachchh   370421,Electricals,7,351,3,30-99
711,RADHA ENGINIRING SERVICE,Mundra  CT    Mundra  Kachchh   ૩૭૦૪૨1,Engineering,6,259,3,10-14
712,RAJURAM PUNARAM GUJAR,Mundra  CT    Mundra  Kachchh   ૩૭૦૪૨1,Providing Power,7,351,4,100-199
713,RAKESH CONTRUCTION CO ,Mundra  CT    Mundra  Kachchh   ૩૭૦૪૨1,Construction,9,421,3,30-99
714,RAVAJI MANAJI SORATHIYA,Mundra  CT    Mundra  Kachchh   ૩૭૦૪૨1,Road Construction  Construction,9,421,3,30-99
715,SAI KOTARSH,Mundra  CT    Mundra  Kachchh   ૩૭૦૪૨1,Loading analodinga,13,501,3,15-19
716,SHAKTI CONRUCTION,Mundra  CT    Mundra  Kachchh   ૩૭૦૪૨1,Construction,9,410,3,20-24
717,SHANTI BILDERSH,Mundra  CT    Mundra  Kachchh   ૩૭૦૪૨1,Construction,9,422,3,30-99
718,SHIVA HENDLING,Mundra  CT    Mundra  Kachchh   ૩૭૦૪૨1,Phartilaijara hendinga,23,960,3,200-499
719,SHIVAMEGHA ENTERPRISE,Mundra  CT    Mundra  Kachchh   ૩૭૦૪૨1,Labor suppliers,19,782,3,30-99
720,SHIVANI CONTRUCTION,Mundra  CT    Mundra  Kachchh   ૩૭૦૪૨1,Construction,9,410,3,15-19
721,SHIVASH ENTERPRISE,Mundra  CT    Mundra  Kachchh   ૩૭૦૪૨1,Construction,9,410,3,10-14
722,SHIVKRUPA LOGISTICK PVT LTD,Mundra  CT    Mundra  Kachchh   ૩૭૦૪૨1,Construction,9,410,3,200-499
723,SHREE ASHAPURA LOGISTICK,Mundra  CT    Mundra  Kachchh   ૩૭૦૪૨1,ransaport,13,501,3,200-499
724,SHREE CONTRUCTION,Mundra  CT    Mundra  Kachchh   ૩૭૦૪૨1,Construction,9,429,3,20-24
725,SHREE GANGA ENTERPRISE,Mundra  CT    Mundra  Kachchh   ૩૭૦૪૨1,Labor Suppliers,19,782,3,100-199
726,SHREE MARUTI NANDAN LOGISTIC P LTD,Mundra  CT    Mundra  Kachchh   ૩૭૦૪૨1,The pro analodinga,13,501,4,>=500
727,SHREE SONAL KRUPA,Mundra  CT    Mundra  Kachchh   ૩૭૦૪૨1,Construction,9,410,3,20-24
728,SHREE UMIYA PRI CAST,Mundra  CT    Mundra  Kachchh   ૩૭૦૪૨1,Construction,9,410,3,20-24
729,SIS SIQURITY INTELIGENT,Mundra  CT    Mundra  Kachchh   ૩૭૦૪૨1,Security provider,19,801,4,100-199
730,SEDAKSO FESILITY MENEGMENT PVT LTD,Mundra  CT    Mundra  Kachchh   ૩૭૦૪૨1,House skipinga,14,561,4,30-99
731,SEDECSO FOOD SOLUTION INDIA PVT LT,Mundra  CT    Mundra  Kachchh   ૩૭૦૪૨1,Kentina meals Facility,14,561,3,30-99
732,STULING ENTERPRISE,Mundra  CT    Mundra  Kachchh   ૩૭૦૪૨1,Machine operating,19,773,4,100-199
733,SUBHA ENTERPRISE,Mundra  CT    Mundra  Kachchh   ૩૭૦૪૨1,Construction,9,432,4,30-99
734,SUJAN MULTIPOT LIMMITED,Mundra  CT    Mundra  Kachchh   ૩૭૦૪૨1,Custom House Agency,19,802,4,30-99
735,SWAMINARAYAN VIAJY KERYTRED,Mundra  CT    Mundra  Kachchh   ૩૭૦૪૨1,Transpotinga,13,501,4,200-499
736,T N PROJECT,Mundra  CT    Mundra  Kachchh   ૩૭૦૪૨1,Piemasiejansi,19,773,4,30-99
737,TIRUMALAI KONTITAS,Mundra  CT    Mundra  Kachchh   ૩૭૦૪૨1,Labor Suppliers   Cutting service,19,782,4,20-24
738,TRISTAR SICQURITY,Mundra  CT    Mundra  Kachchh   ૩૭૦૪૨1,Security,19,801,4,100-199
739,VAYBAL ASSOCIATE,Mundra  CT    Mundra  Kachchh   ૩૭૦૪૨1,Oparetaringa,13,522,4,200-499
740,VIJAY ENGINEERING,Mundra  CT    Mundra  Kachchh   ૩૭૦૪૨1,Engineering,6,261,4,30-99
741,VISION HOSPITALITY,Mundra  CT    Mundra  Kachchh   ૩૭૦૪૨1,Hospitality Suppliers,21,862,4,30-99
742,YASH ENTERPRISE,Mundra  CT    Mundra  Kachchh   ૩૭૦૪૨1,Water saplayrsa,8,360,4,20-24
743,YASH GREEN,Mundra  CT    Mundra  Kachchh   ૩૭૦૪૨1,Garden Cleanup,19,812,4,20-24
744,YASH ENTERPRISE,Mundra  CT    Mundra  Kachchh   ૩૭૦૪૨1,Sweeping House Labor Suppliers,19,782,4,30-99
745,JINDAL SAW PIPE LTD ,Nana Kapaya   Mundra  Kachchh   370415,For pipe production,6,241,3,>=500
746,ADANI D A V PUBLICK SCHOOL,Nana Kapaya   Mundra  Kachchh   370415,Education,20,852,9,100-199
747,I T I,Nana Kapaya   Mundra  Kachchh   370415,Education,20,854,9,15-19
748,HIGHTECH ROAD PRODUC AGRIGET LTD ,Tumbadi Nani   Mundra  Kachchh   ૩૭૦૪૩5,3 phacara Plan stone dressing,5,81,2,15-19
749,SAMAY ENTERPRISE,Tumbadi Nani   Mundra  Kachchh   ૩૭૦૪૩5,Plan   stone crushers krasinga,5,81,4,20-24
750,MAHILA GRUH UDHYOG,Ramaniya   Mundra  Kachchh   370405,Women s housing industry n zest papad Centre,6,107,6,>=500
751,RATADIYA PANJARAPOL 1,Ratadiya   Mundra  Kachchh   370410,Animal Husbandry,2,14,7,10-14
752,RATADIYA PANJARAPOL 2,Ratadiya   Mundra  Kachchh   370410,Animal Husbandry,2,14,7,10-14
753,JINDAL SAW LTD,Samagoga   Mundra  Kachchh   370421,For pipe production,6,241,3,>=500
754,66KVA GETKO SUB STATION,Shiracha   Mundra  Kachchh   370421,Power Supply,7,351,1,10-14
756,NILKANTH CONECAST PVT LTD,Vadala   Mundra  Kachchh   370410,Tiematisaliya of the product  ,6,241,2,200-499
757,RATHOD HOSPITAL,Nakhatrana   Nakhatrana  Kachch   ૩૭૦૬૧5,Health services,21,862,2,10-14
758,HOTLE FUN  FOOD,Nakhatrana   Nakhatrana  Kachch   ૩૭૦૧૬5,Hotel stay with meals,14,551,2,15-19
759,DIVAIN PRAIMARI SCHOOL,Nakhatrana   Nakhatrana  Kachch   ૩૭૦૬૧5,Education and activity lagati,20,851,2,30-99
760,UMA VIDHYALAY,Nakhatrana   Nakhatrana  Kachch   ૩૭૦૬૧5,Education,20,852,2,30-99
761,NAVA NAGAR NAKHTRANA PR AIMARISCHOO,Nakhatrana   Nakhatrana  Kachch   ૩૭૦૬૧5,Educational activity,20,851,1,10-14
762,J P HOTEL,Lakhoat   Lakhpat  Kachch   ૩૭૦૬૧5,Hotel stay with meals,14,551,2,10-14
763,JYOTI GRUH UDHYOG,Jiyapar   Nakhatrana  Kachchh   ૩૭૦૬૧5,JYOTI GRUH UDYOG,6,107,5,10-14
764,NAVDURGA GRUH UDHYOG,Jiyapar   Nakhatrana  Kachchh,Durga popular in new industries,6,107,5,10-14
765,ADVANCHURE LODGES INDIA PVT LTD ,Devisar   Nakhatrana  Kachchh   ૩૭૦૬૬5,D hotelma providing food paphavu,14,561,2,10-14
766,SHIVSHAKTI GRUH UDHYOG,Jiyapar   Nakhatrana  Kachchh   ૩૭૦૬૧5,Sivasakti popular in manufacturing,6,107,5,10-14
767,NISHKALANKI GRUH UDHYOG,Jiyapar   Nakhatrana  Kachchh   ૩૭૦૬૧5,Niskalanki popular in manufacturing,6,107,5,20-24
768,MAAM GRUH UDHYOG,Jiyapar   Nakhatrana  Kachchh   ૩૭૦૬૧5,Mam popular in manufacturing,6,107,5,15-19
769,UMIYA GRUH UDHYOG,Jiyapar   Nakhatrana  Kachchh   ૩૭૦૬૧5,Umiya popular in manufacturing,6,107,5,10-14
770,VISHVA KARMA GRUH UDHYOG,Jiyapar   Nakhatrana  Kachchh   ૩૭૦૬૧5,Vishwakarma popular in manufacturing,6,107,5,10-14
771,NARAYAN GRUH UDHYOG,Jiyapar   Nakhatrana  Kachchh   ૩૭૦૬૧5,Narayan popular in manufacturing,6,107,5,10-14
772,KHOMBHADI MOTI PRIMARY SCHOOL,Khombhdi Moti  Nakhatrana   Kachchh  ૩૭૦૬૧5,Education,20,851,1,10-14
773,JAY JAGESWAR MASALA GRUH UDHYOG,Netra   Nakhatrana  Kachchh   ૩૭૦૬૧5,Spice industry,6,106,9,15-19
774,JAY MATAJI MASALA GRUH UDHYOG,Netra   Nakhatrana  Kachchh   ૩૭૦૬૧5,Jai Mataji spices popular in manufacturing,6,106,9,10-14
775,ENGLISH MIDIUM SCHOOL,Oriro   Nakhatrana  Kachchh   ૩૭૦૬૧5,Education,20,851,2,10-14
776,GAYATRI GRUH UDHYOG,Tal   Nakhatrana  Kachchh   ૩૭૦૬૧5,Gruh udhyog,6,107,9,15-19
777,GHNAN SHARITA HIGH SCHOOL,Ravapar  Navavas   Nakhatrana   Kachchh  ૩૭૦૬૧5,Educational,20,851,2,10-14
778,MAHAKALI GRUH UDHYOG,Ravapar  Navavas   Nakhatrana   Kachchh  ૩૭૦૬૧5,Mahakali Gruh udhyog,6,107,9,10-14
779,UPASANA ENGLISH MIDIUM SCHOOL,Vithon   Nakhatrana  Kachchh   ૩૭૦૬૧5,Education,20,851,2,15-19
780,SANTSHRI KHETABAPA HIGH SCHOOL,Vithon   Nakhatrana  Kachchh   ૩૭૦૬૧5,Education,20,852,2,25-29
781,S T BUS STATION,Naliya   Abdasa  Kachchh   370511,Transportation esatidepo,13,492,1,30-99
782,OFFICE 1,Naliya   Abdasa  Kachchh   370511,Road road construction puliya,9,421,1,10-14
783,B S N L OFFICE,Naliya   Abdasa  Kachchh   370511,Information and broadcasting operations,15,612,1,10-14
784,PANI PURVATHA 1,Naliya   Abdasa  Kachchh   370511,Water supply operation,8,360,1,10-14
785,SUZLON OFFICE,Naliya   Abdasa  Kachchh   370511,Manufacturing operations,7,351,4,100-199
786,COUART,Naliya   Abdasa  Kachchh   370511,The court  in court proceedings ,18,691,1,10-14
787,HOTEL PANCHAVATI,Naliya   Abdasa  Kachchh   370511,Indulgence related services,14,561,2,15-19
788,BHOJNALAY JAYSHREE,Naliya   Abdasa  Kachchh   370511,And to create meal,14,561,2,10-14
789,GAUSHALA,Naliya   Abdasa  Kachchh   370511,Care cows milk production,2,14,7,10-14
790,P G V C L,Naliya   Abdasa  Kachchh   370511,electricity supply,7,351,1,15-19
791,STATE BANK OF INDIYA,Naliya   Abdasa  Kachchh   370655,Banking work,16,641,1,15-19
792,SHIV PETROL PUMP,Naliya   Abdasa  Kachchh   370655,Petrol diesel,12,473,2,10-14
793,BHARAT MOTOR SYCLE SHOW ROOM,Naliya   Abdasa  Kachchh   370655,Motor Cycles Sales,10,454,2,10-14
794,PETROL PUMP BHAGVATI,Naliya   Abdasa  Kachchh   370655,Sales of petrol,12,473,2,10-14
795,RUI ICE FACTORY,Naliya   Abdasa  Kachchh   370655,Production of ice,6,110,2,15-19
796,SENT ZEVIRESH SCHOOL,Naliya   Abdasa  Kachchh   370655,Education,20,852,7,20-24
797,P H C ,Naliya   Abdasa  Kachchh   370655,Health services,21,861,1,10-14
798,NARNARAYAN MINRELS,Asambiya Nana   Mandvi  Kachchh   370465,Mine and digging,5,81,2,15-19
799,TULASI VIDHYA MANDIR,Nana Bhadiya   Mandvi  Kachchh   370465,Education,20,852,1,15-19
800,G M D C ,Ratadiya Nana   Mandvi  Kachchh   370465,B soil to extract bauxite,5,81,1,20-24
801,BENTONAIT PROCES WORKING,Nandhra Nana   Abdasa  Kachchh   370655,Soil excavation  quarry mining,5,81,4,10-14
802,SHREEJI POWER   INYULITAR PVT LTD ,Chirai Nani   Bhachau  Kachchh   370140,Siramida product,6,239,4,15-19
803,KUTCH VINIYAR PVT LTD,Chirai Nani   Bhachau  Kachchh   370140,Plywood Production,6,162,4,30-99
804,PLASTEN INDIA PVT LTD ,Chirai Nani   Bhachau  Kachchh   370140,Plastic product,6,222,4,200-499
805,AMUL BOARD PVT LTD ,Chirai Nani   Bhachau  Kachchh   370140,Plywood Production,6,162,4,100-199
806,AMULBOARD PVT LTD,Chirai Nani   Bhachau  Kachchh   370140,Plywood Production,6,162,2,100-199
807,KANDALA PEKEJING PVT LTD,Chirai Nani   Bhachau  Kachchh   370140,Packaging material mfg ,6,251,4,30-99
808,SPFTEL MASHINS LTD ,Chirai Nani   Bhachau  Kachchh   370140,Make kitchen equipment,6,241,2,30-99
809,MALPANI VINIYAR PVT LTD ,Chirai Nani   Bhachau  Kachchh   370140,Face Care viniyara cream making,6,202,2,30-99
810,BHANUSHALI ANNAXETRA,Naredi   Abdasa  Kachchh   370511,Restaurent,14,561,7,10-14
811,BOKSAIT ORIANT AMBROSTIL,Naredi   Abdasa  Kachchh   370511,Soil recovery,5,81,2,30-99
812,ANIMALE HOSTEL RATA  TADAV,Naredi   Abdasa  Kachchh   370655,Grooming animals,2,14,1,20-24
813,KUNAL ENTARPRIZE,Padana   Gandhidham  Kachchh,box making,6,170,2,20-24
814,RUDRAKSH PVT LTD,Padana   Gandhidham  Kachchh,Soap production,6,202,4,100-199
815,LAXMI EGRO INDUSTRIZ,Padana   Gandhidham  Kachchh,Chemical production,6,201,4,20-24
816,AGRWAAL RAIDARS,Padana   Gandhidham  Kachchh,Petrol diesel,12,473,3,15-19
817,CHAMUNDA COMPANY,Padana   Gandhidham  Kachchh,Planning of wood,6,161,3,30-99
818,GUPTA TIMBAR,Padana   Gandhidham  Kachchh,Planning of wood,6,161,3,30-99
819,AASTHA SOLT,Padana   Gandhidham  Kachchh,Production of Salt,5,89,3,25-29
820,BHUVNESWARI SOLT,Padana   Gandhidham  Kachchh,Production of Salt,5,89,3,15-19
821,BABA SOMIL,Padana   Gandhidham  Kachchh,Planning of wood,6,161,3,30-99
822,PAIN AESHWOR PVT LTD ,Padana   Gandhidham  Kachchh,Planning of wood,6,161,3,30-99
823,HARDIP PLAYWOOD,Padana   Gandhidham  Kachchh,Planning of wood,6,161,3,15-19
824,GANESH WARE HOUSE,Padana   Gandhidham  Kachchh,Planning of wood,6,161,3,30-99
825,JIGAR TIMBAR,Padana   Gandhidham  Kachchh,Planning of wood,6,161,3,30-99
826,S R STEEL PVT LTD ,Padana   Gandhidham  Kachchh,Iron product,6,241,4,30-99
827,JAIN TIMBAR,Padana   Gandhidham  Kachchh,Planning of wood,6,161,3,15-19
828,SHREE RADHE SHYAM WOOD AND WORKAS,Padana   Gandhidham  Kachchh,Planning of wood,6,161,3,10-14
829,WOODAN VINARS PVT LTD ,Padana   Gandhidham  Kachchh,Planning of wood,6,161,3,15-19
830,THARMOL FEBRICATION,Padana   Gandhidham  Kachchh,Planning of wood,6,161,3,25-29
831,KOTESWAR KEMFOOD PVT LTD ,Padana   Gandhidham  Kachchh,Production of Salt,6,107,3,100-199
832,KUTCH CAMICAL PVT LTD ,Padana   Gandhidham  Kachchh,Oil production,6,201,4,15-19
833,KUTCH CAMP PVT LTD ,Padana   Gandhidham  Kachchh,Oil production,6,192,4,200-499
834,MOPEL PENAL PVT LTD ,Padana   Gandhidham  Kachchh,Plyboard for creations,6,162,3,30-99
835,PARAS ENTARPRIZE,Padana   Gandhidham  Kachchh,Dabanum product,6,251,3,30-99
836,ELECTRIC PLAN CONTRACTOR,Panandhro   Lakhpat  Kachchh   ૩૭૦૬૦1,Electric operation,9,422,2,30-99
838,GUJARAT DEVLOPMENT HOSPITAL,Panandhro   Lakhpat  Kachchh   ૩૭૦૬૦1,Health services,21,862,2,30-99
840,GUJARAT THARMAL HOSPITAL,Panandhro   Lakhpat  Kachchh   ૩૭૦૬૦1,Health services,21,861,1,30-99
841,POLADIYA PANJRAPOD,Poladiya   Mandvi  Kachchh   ૩૭૦૪૬5,Save animals,2,14,6,20-24
842,SANJIV GOAENKA,Pratap Gadh   Rapar  Kachchh   ૩૭૦૧૪5,Electricity supply,7,351,4,25-29
843,SELAARI PRIMARY SCHOOL,Rapar  M    Rapar  Kachchh   370155,Education,20,851,1,15-19
844,RAPAR PRIMARY SCHOOL,Rapar  M    Rapar  Kachchh   370155,Education,20,851,1,10-14
845,RAPAR GIRLS SCHOOL,Rapar  M    Rapar  Kachchh   370155,Education,20,851,1,10-14
846,PRIMARY SCHOOL,Rapar  M    Rapar  Kachchh   370155,Education,20,851,1,10-14
847,GOVERMENT HOSPITAL,Rapar  M    Rapar  Kachchh,Health services,21,861,1,15-19
848,S T BUS REPERING,Rapar  M    Rapar  Kachchh   370155,Repair work,10,452,1,25-29
849,GOVERMENT BOYS SCHOOL,Rapar  M    Rapar  Kachchh   370155,Education,20,851,1,10-14
850,HELTH CENTAR,Rapar  M    Rapar  Kachchh   370155,Health services,21,862,4,30-99
851,AYODHYAPURI SCHOOL,Rapar  M    Rapar  Kachchh   370155,Education,20,851,1,10-14
852,ENGLISH MEDIUME SCHOOL,Rapar  M    Rapar  Kachchh   370155,Education,20,851,4,10-14
853,MAHETA BHABHUTGIRI VIDHAYALAY,Rapar  M    Rapar  Kachchh   370155,Education,20,852,4,15-19
854,I T I RAPAR,Rapar  M    Rapar  Kachchh   370155,Education,20,854,1,25-29
855,SHREE VIKASVADI PRIMARY SCHOOL,Rapar  M    Rapar  Kachchh   370155,Education,20,851,1,10-14
856,SHREEMATI N P PRIMARY SCHOOL,Rapar  M    Rapar  Kachchh   370155,Education,20,851,1,15-19
857,POWER HOUSE,Rapar  M    Rapar  Kachchh   370155,electricity supply,7,351,1,10-14
858,ANIMALE HOSTEL,Rapar Gadhvali   Abdasa  Kachchh   370655,Dairy,2,14,7,30-99
859,KOTNATH CURST MATLE,Raydhanjar   Abdasa  Kachchh   370655,Grit work,5,81,2,15-19
860,CHAMUNDA CRUST MATEL,Raydhanjar   Abdasa  Kachchh   370655,Grit work,5,81,2,10-14
861,AARSHIVAD HOTEL,Samakhiari   Bhachau  Kachchh   370140,Restaurant,14,561,2,10-14
862,NAVJIVAN HOTEL,Samakhiari   Bhachau  Kachchh   370140,Restaurant,14,561,2,15-19
863,EVERY DAY HURBAL,Samakhiari   Bhachau  Kachchh   370140,Herbal Item,6,202,2,20-24
864,EVERY DAY HURBAL BEUTY CARE,Samakhiari   Bhachau  Kachchh   370140,Cosmetic Item,6,202,2,15-19
865,RALWAY STETION,Samakhiari   Bhachau  Kachchh   370140,Railway Service,13,491,1,30-99
866,TOLTEX COMPNY,Samakhiari   Bhachau  Kachchh   370140,Toll Naka take from the tax,16,661,4,30-99
867,GETCO LTD ,Samakhiari   Bhachau  Kachchh   370140,Electricity Service,7,351,1,25-29
869,ELECTRIK THARM SICURITY OFFICE,Samakhiari   Bhachau  Kachchh   370140,Security Service,19,801,4,30-99
870,GELENT METAL LTD ,Samakhiari   Bhachau  Kachchh   370140,Rods Building,6,241,4,>=500
871,GELENT SICURITY OFFICE,Samakhiari   Bhachau  Kachchh   370140,Security Service,19,801,4,30-99
872,SUBHMANGLAM GLAAS FECTORY,Samakhiari   Bhachau  Kachchh   370140,Glass Winery,6,231,4,100-199
873,SUPER HOTEL,Samakhiari   Bhachau  Kachchh   370140,Restaurant,14,561,2,10-14
874,SANGHIPURAM GUEST HOUSE,Golay   Abdasa   Kachchh  370511,Interior comfort,14,551,7,10-14
875,SANGHI INDUSTRIZE LIMITED,Golay   Abdasa   Kachchh  370511,Cement production,6,239,4,200-499
876,SANGHIPURAM OFFICE,Golay   Abdasa   Kachchh  370511,Offices,19,821,4,30-99
877,HIGH SCHOOL,Golay   Abdasa   Kachchh  370511,Education,20,852,7,15-19
878,SANGHIPURAM POWER UNIT 1,Golay   Abdasa   Kachchh  370511,Providing electrical factory,7,351,4,200-499
879,SANGHIPURAM GRAINDING UNIT,Golay   Abdasa   Kachchh  370511,Raw materials for cement production,6,239,4,100-199
880,CANTEEN LOJ V I P ,Golay   Abdasa   Kachchh  370511,To make a meal,14,561,2,10-14
881,LOAJ,Golay   Abdasa   Kachchh  370511,To make a meal,14,561,2,10-14
882,JIN COTTON FACTORY,Nandhra Mota   Abdasa  Kachchh   370655,Pinjavanum at work,6,282,4,10-14
883,DABASIYA STON CUSTORE,Nandhra Mota   Abdasa  Kachchh   370655,Grit work,5,81,2,10-14
884,ANIMALE HOSTEL,Nandhra Mota   Abdasa  Kachchh   370655,Milk production and sales,2,14,2,10-14
885,SHIV SHAKTI HOTEL,Nandhra Mota   Abdasa  Kachchh   370655,To make a meal,14,561,2,10-14
886,PARAS KRUPA HOTEL,Nandhra Mota   Abdasa  Kachchh   370655,And to create meal,14,561,2,10-14
887,POOJA MINRALS,Sherdi   Mandvi  Kachchh   370465,Mine and digging,5,89,2,10-14
888,HEER MINRELS,Sherdi   Mandvi  Kachchh   370465,Mine and digging,5,89,2,10-14
889,SHIVAJI BHANJI SANGHAR,Sherdi   Mandvi  Kachchh   370465,Mine and digging,5,89,2,10-14
890,WESTAS TECHNOLOGY PVT LTD,Shikarpur   Bhachau  Kachchh   370150,Power generation,7,351,4,30-99
891,PUNY PLAYWOOD INDUSTREEJ,Shikarpur   Bhachau  Kachchh   370150,Plywood production,6,162,3,15-19
892,AESID FINAIL OFFICE,Shinay   Gandhidham  Kachchh   370201,Chemical Refinery Offices,18,692,4,10-14
893,PRIMARY SCHOOL,Shinay   Gandhidham  Kachchh   370201,Education,20,851,1,10-14
894,GUJARAT ENARGY TRANSFER COMPANY,Shivlakha   Bhachau  Kachchh,Electricity distribution,7,351,1,15-19
895,YURO POWER PRAIVATE LIMITED,Shivlakha   Bhachau  Kachchh,Electricity production,7,351,1,200-499
896,CONARK POWER PRAIVATE LIMITED,Shivlakha   Bhachau  Kachchh,Power generation,7,351,1,30-99
897,SHREE VIVEKANAND RESERCH AND,Sudadhro Moti   Abdasa  Kachchh   370511,Activities relating to rural development,20,854,6,30-99
898,BOARDING,Suthari   Abdasa  Kachchh   370655,Indulgence Hydrological Services,14,561,2,15-19
899,BOTER JINALAY TEMPLE,Talvana   Mandvi  Kachchh   370460,Worship worship,23,949,7,20-24
900,BOTER JINALAY BHOJNALAY,Talvana   Mandvi  Kachchh   370460,Providing meals,14,561,6,20-24
901,SHREE AARY KLYAN JAIN TRUST,Talvana   Mandvi  Kachchh   370460,Guest House  related to work ,14,551,6,10-14
902,TALVANA PRIMARY SCHOOL,Talvana   Mandvi  Kachchh   370465,Education,20,851,1,10-14
903,A B G CIMENT COMPNY OFFICE,Thumdi   Abdasa  Kachchh   370511,Administrative operations,19,821,4,15-19
904,CIMENT FACTORY,Thumdi   Abdasa  Kachchh   370511,Production of cement,6,239,4,200-499
905,A B G  CIMENT LTD,Thumdi   Abdasa  Kachchh   370511,Cement production,6,239,4,200-499
906,A B G  CO POWER PROJECT,Thumdi   Abdasa  Kachchh   370511,Providing electricity for the company,7,351,4,30-99
907,UMIYA PRIMARY SCHOOL,Umaiya   Rapar   Kachchh,Education,20,851,1,10-14
908,SANGHAR KESAR MAMU,Vandh   Mandvi  Kachchh   ૩૭૦૪૪5,Bentonaita production and sale,5,99,2,15-19
909,JYOTI MINRALS,Vandh   Mandvi  Kachchh   ૩૭૦૪૪5,Bentonaita product,5,99,2,20-24
910,SHIV MINRALS,Vandh   Mandvi  Kachchh   ૩૭૦૪૪5,Bentonaita product,5,99,2,10-14
911,TRAIMEX ETA LIMITED,Vandh   Mandvi  Kachchh   ૩૭૦૪૪5,Bentonaita product,5,99,2,25-29
912,SANGHAR SAMAT MAMU,Vandh   Mandvi  Kachchh   ૩૭૦૪૪5,Bentonaitautpadana,5,99,2,10-14
913,SANGHAR RAMAJI MID,Vandh   Mandvi  Kachchh   ૩૭૦૪૪5,Bentonaita product,5,99,2,10-14
914,CHANDAN MINRELAS,Vandh   Mandvi  Kachchh   ૩૭૦૪૪5,Bentonaita product,5,99,2,20-24
915,HARGOVIND SIVLAL END KU ,Vandh   Mandvi  Kachchh   ૩૭૦૪૪5,Bentonaita product,5,99,2,10-14
916,KUTCH CLOSE PARTANRO,Vandh   Mandvi  Kachchh   ૩૭૦૪૪5,Bentonaita product,5,99,2,15-19
917,PUJA MINRALS,Vandh   Mandvi  Kachchh   ૩૭૦૪૪5,Bentonaita product,5,99,2,30-99
918,SWAMI MINRALS,Vandh   Mandvi  Kachchh   ૩૭૦૪૪5,Bentonaita product,5,99,2,15-19
919,OREYA MENYUFECTURING,Vandhiya   Bhachau  Kachchh   370150,Electronics product,6,309,4,100-199
920,TEJ AUTO MOBAILS,Vandhiya   Bhachau  Kachchh   370150,Petrol diesel sell,12,473,3,10-14
921,S R S S  EGRO,Vandhiya   Bhachau  Kachchh   370150,Agriculture products tasks,1,16,2,15-19
922,OSIN PLAYWOOD,Vandhiya   Bhachau  Kachchh   370150,Plywood production,6,162,2,20-24
923,KRISHNA OLIO CAMICAL LTD,Vandhiya   Bhachau  Kachchh   370150,Chemicals,6,201,4,15-19
924,SHREE HARI VIDHYA MANDIR,Vekra   Mandvi   Kachchh  ૩૭૦૪૪5,Siksanika function,20,852,2,15-19
925,VRUDAAVAN DHABA,Vijpasar   Bhachau  Kachchh   370140,Restaurant,14,561,2,15-19
926,HOTEL DHANRAAJ,Vondh   Bhachau  Kachchh   370140,Hotel,14,561,2,10-14
927,ARIHANT SOLT,Vondh   Bhachau  Kachchh   370140,Salt Sales,5,89,2,20-24
928,ARIHANT SOLT 2,Vondh   Bhachau  Kachchh   370140,Salt seasoning factory,5,89,2,30-99
929,MERAMAN SOLT,Vondh   Bhachau  Kachchh   370140,Salt seasoning factory,5,89,2,30-99
930,RASVAATIKA HOTEL,Vondh   Bhachau  Kachchh   370140,Hotel,14,561,2,10-14
931,JAAGIR OFFICE,Narayan Sarovar  Lakhpat   Kachchh  ૩૭૦૬૦1,Office of the house,23,960,7,10-14
932,NARAYAN SAROVAR PANJLA POR,Narayan Sarovar  Lakhpat   Kachchh  ૩૭૦૬૦1,Maintaining cows and buffaloes,2,14,7,10-14
933,NARAYAN SAROVAR ANSHETRA,Narayan Sarovar  Lakhpat   Kachchh  ૩૭૦૬૦1,Serving meals,14,551,7,30-99
934,Archana St  jheviyarsa School,Mandvi  M    Mandvi  Kachchh   370465,Education,20,851,2,30-99
935,Backbone Power pvt  Ltd ,Shivlakha   Bhachau  Kachchh,Power generation,7,351,1,20-24
936,Semi Solar power conductor,Shivlakha   Bhachau  Kachchh,Power generation,7,351,1,15-19
9508,GUJARAT THARMAL PATHTHAR STETION,Panandhro   Lakhpat  Kachchh   ૩૭૦૬૦1,Power generation,7,351,1,>=500
15328,ELECTRIK THARM LTD ,Samakhiari   Bhachau  Kachchh   370140,Make rods,6,241,4,>=500
23961,WELSPUN CROP LTD ,Varsamedi   Anjar  Kachchh   370110,Production of textile,6,139,4,>=500
24265,GUJARAT MATERIAL DEVLOPMENT CORPOR,Panandhro   Lakhpat  Kachchh   ૩૭૦૬૦1,Mineral manufacturing,5,52,1,>=500
25699,ADANI POWER PLANT,Shiracha   Mundra  Kachchh   370421,Power Supply,7,351,2,>=500
