S.No.,Name of the Establishment,Address,Major Activity Description,Broad Activity Code,NIC,Owners hip Code,"Employ ment Class
Interval"
853,KAILASH PURI SEMRAKULI,6 CHANDARAPURA  BOKARO  SIMRAKULHI 828403,Manufature,6,239,2,25-29
854,QUALITY CHANDERPURA CT,198 CHANDARAPURA  BOKARO  828403,Resturant,14,562,2,10-14
855,DVC FIRST MIDDLE SCHOOL CHANDERPURA CT,33 CHANDARAPURA  BOKARO  828403,Education,20,851,4,10-14
856,DVC 2 HIGH SCHOOL CHANDERPURA CT,58 CHANDRAPURA  BOKARO  828403,SCHOOL,20,852,2,25-29
857,D V C HOSPITAL CHANDERPURA CT,101 CHANDRAPURA BOKARO 828403,Health,21,861,4,30-99
858,BSNL TELEPHONE CENTER CHANDERPURA CT,101 1  EXCHANGE OFFICE CHANDRAPURA BOKARO 828403,COMMUNICATION SERVICE,15,611,1,10-14
859,DVC THARMAL PAWER PLANT CHANDERPURA CT,CHANDRAPURA 828403,THARMAL POWER,7,351,1,>=500
860,STATE BANK OF INDIA CHANDERPURA CT,112 2  CHANDRAPURA 829132,Banking,16,641,1,15-19
861,TARMI COALIERY  CCL  TAARMI CT,CHANDRAPURA 829132,Mining,5,51,1,>=500
862,SAIL REFRACTRIES UNIT BHANDARIDAH TAARMI CT,CHANDRAPURA 828307,Manufature,6,239,2,>=500
863,DAMODAR COLIERY  BCCL  SIJIHUA CT,CHANDRAPURA 828404,Mining,5,51,1,>=500
864,BHARAT KOKING KOAL LIMITED DUGDHA CT,CHANDRAPURA 828404,Mining,5,51,1,>=500
865,SIYA RAM PRASHAD DUGDHA CT,10 1  CHANDRAPURA 828304,Education,20,851,2,15-19
866,BAL VIKASH ENGLISH SCHOOLBUDHIDIH DUGDHA CT,16 CHANDRAPURA BUDHIDIH 828304,Education,20,851,2,20-24
867,DAV PUBLIC SCHOOL DUGDA DUGDHA CT,CHANDRAPURA 829107,Education,20,852,6,30-99
868,STATE BANKOF INDIA  PHUSRO TOWN,BERMO 829107,Banking,16,641,1,10-14
869,SARSWATI SHISHU VIDYA MANDIR PHUSRO TOWNL,BERMO 829107,Education,20,851,2,25-29
870,INDIAN LEARNING SCHOOL BOKARO THARMAL,BERMO 829107,Education,20,852,2,25-29
871,CENTRAL SCHOOL DVC BOKARO THARMAL,258 BERMO 829107,Education,20,852,1,30-99
872,STATE BANK OF INDIA  BOKARO THARMAL,48 1  BERMO 829107,Banking,16,641,1,20-24
873,BANK OF INDIA KATHARA DAKGHAR BOKARO THARMAL,BERMO 829127,Banking,16,641,1,10-14
874,SANT ANNA HIGH SCHOOL KURUPANIYA PO SUNDAY BAZAR,BERMO 829127,Education,20,852,7,25-29
875,STAE4 BANK OF INDIA BOKARO COLLIRES KURUPANIYA,BERMO 829127,Banking,16,641,1,20-24
876,SHISHU VIKASH VIDHALAY SUNDAY BAZAR BERMO,BERMO 829113,Education,20,852,4,20-24
877,DHORI MATA HOSPITAL JARANDIH STATION BERMO,BERMO 829127,Health,21,861,3,10-14
878,AREA ACCOUNT OFFICER JARIDIH,5 1 2  BERMO GANDHI NAGAR 825315,Mining,19,821,4,30-99
879,WOMEN SELF HELP GROUP LODHI,GOMIYA 829111,Retail,12,472,5,10-14
880,UPGRADED MIDDLE SCHOOL WANCHATRA BANCHAYRA,GOMIYA 829129,Education,20,851,1,10-14
881,UPGRADED MIDDLE SCHOOL VILL   NAINATAND   PO   TENUDAM SARAM CT,GOMIYA 829129,Education,20,851,2,10-14
882,KASTURBA GANDHI AAWASHIYA UCCH VUDHLAY   GOMIYA  TENUGHAT  BOKAQRO,GOMIYA 829129,Education,20,853,1,10-14
883,UPRAGDED MIDDLE SCHOOL SARHACHIYA VINOD PRSHAD TENUGHAT,GOMIYA 829129,Education,20,851,2,10-14
884,BANDH PRAMANDAL TENUGHAT DAM TENUGHAT,TENUGHAT 3NO GOMIYA 829129,Water,8,360,1,15-19
885,SUBDIVISIONAL HOSPITAL TENIGHAT BOKARO,GOMIYA 829116,Health,21,861,1,30-99
886,UPGRADED MADDLE SCHOOL BANDH COLONY TENUGHAT,GOMIYA 829116,Education,20,851,1,10-14
887,UPGRADED MADDLE SCHOOL TENUGHAT,GOMIYA 829121,Education,20,851,2,10-14
888,MASHI MARSHAL SCHOOL PATAKI,19 2  PETRWAR 829121,Education,20,851,7,20-24
889,UPGRADED MIDDLE SCHOOL  PATAKI,141 PETRWAR 829121,Education,20,851,1,10-14
890,DEWAKI FUEL STATION ANUJ KUMAR,100 PETRWAR 829121,Retail,12,473,2,10-14
891,DNA UTPADAN KENDRA ETKE PETERWAAR BOKARO,158 829121,farm,2,14,5,20-24
892,MUDASSART NAJIR AARAM HOSPITAL PETERWAAR BOKARO,27 1  MUDASSART NAJIR 829121,Health,21,861,2,15-19
893,MANOJ KUMAR HINDUSTAN PETROL PUMP PETERWAAR BOKARO,141 MANOJ KUMAR 829121,Retail,12,473,2,10-14
894,PARGATI PUBLIC SCHOOL PETERWAAR BOKARO,1 829121,Education,20,851,3,25-29
895,MADDLE SCHOOL PETRWAR BOKARO,60 829121,Education,20,851,1,15-19
896,GOVERNMET PUBLIC DISTRIBUTION SHOP PETERWAAR BOKARO,39 829121,Retail,12,472,2,10-14
897,LILA JANKI PUBLIC SCHOOL PETERWAAR BOKARO,11 829121,Education,20,851,2,20-24
898,SARSWATI VIDYA MANDIR PETERWAAR BOKARO,33 829121,Education,20,851,7,25-29
899,RAJAKIYA BALIKA MADHLAY VIDHLAY PETERWAAR BOKARO,18 PERTARWAR 829121,Education,20,851,1,10-14
900,MCH CENTER PETERWAAR BOKARO,27 829121,Education,20,851,1,15-19
901,KRISHI VIGYAN KENDRA PETERWAAR BOKARO,1 5  829121,Consulant,18,721,1,15-19
902,PUJIYA TAPASWI KAGJIWAN JI MAHARAJ EYE HOSPITAL PETERWAAR BOKARO,29 9  EYE HOSPITAL 829121,Health,21,862,7,25-29
903,HIGH SCHOOL PETARWAR PETERWAAR BOKARO,111 829121,Education,20,852,1,15-19
904,B B M M INTER COLLAGE PETERWAAR BOKARO,107 PERAWAR 829121,Education,20,853,1,20-24
905,CHOTA NAGPUR COLD STORAGE PETERWAAR BOKARO,829121,Warehouse,13,521,3,10-14
906,UPGRADED MIDDLE SCHOOL BLOCK COLONY PETERWAAR BOKARO,BLOCK COLONY PERARWAR 829121,Education,20,851,1,15-19
907,SAMUDAYIK SWASHTH KENDRA PETERWAAR BOKARO,PETRWAR 829114,Health,21,861,1,30-99
908,STATE BANK OF INDIA CHALKARI PETERWAAR BOKARO,14 CHALKARI 829144,Banking,16,641,1,10-14
909,V D A COLLAGE PETERWAAR BOKARO,829111,Education,20,853,9,30-99
910,UPGRADED MIDDLE SCHOOL LALBANDH GOMIYA,LALBANDH GOMIYA 829111,Education,20,851,1,15-19
911,PDS STORE SELF HELP GROUP GOMIYA DIST BOKARO,27 2  SELF HELP GROUP 829111,Retail,12,472,5,10-14
912,MAA LAXMI SHG BULBUL DEVI PRESIDENT GOMIYA DIST BOKARO,69 3  BULBUL DEVI PRESIDENT SARAM   KEWAT TOLA GOMIYA 829111,Retail,12,472,5,10-14
913,BKM SCHOOL AT PO SARAM GOMIYA DIST BOKARO,PO SARAM GOMIYA DIST BOKARO 829111,Education,20,851,1,15-19
914,UPGRADED MADHYA VIDHALAY MANDYE TOLA GOMIYA DIST BOKARO,MANDYE TOLA 829129,Education,20,851,1,15-19
915,STATE BANK OF INDIA  TENUGHAT GOMIYA DIST BOKARO,15 TENUGHAT 829123,Banking,16,641,1,10-14
916,MIDDLE SCHOOL TENUGHAT GOMIYA DIST BOKARO,829123,Education,20,851,1,10-14
917,TENUGHAT MAHAVIDHALAY TENUGHAT GOMIYA DIST BOKARO,TENUGHAT 829123,Education,20,853,1,20-24
918,DAV PUBLIC SCHOOL TENUGHAT GOMIYA DIST BOKARO,142 TENUGHAT 829123,Education,20,851,1,30-99
919,JHARKHAND ADHIVIDH PARISAD RANCHI TENUGHAT GOMIYA DIST BOKARO,829123,Education,20,853,1,30-99
920,JEAHAR NOBODAY VIDHALAY TENUGHAT GOMIYA DIST BOKARO,TENUGHAT 827302,Education,20,851,1,30-99
921,ACHARAYA DEVPRAKASH AAWDHUT SINGHPUR KASMAR DIST BOKARO,832105,Education,20,851,7,10-14
3235,POST OFFICE KATHARA,44 1  829116,POST OFFICE,13,531,1,10-14
3236,KATHARA DAKGHAR,44 1  KATHARA MAIN ROAD 829116,POST OFFICE,13,531,1,10-14
3237,PAILWAY STATION DUMARI,76 DUMARI 829111,Transport,13,491,1,15-19
3238,SAHCHARIYA KRISHI SAKHA SAQHYOG SAI,TFR 203 MITI LIMITED  PAIKS  TENU 2NO 829129,Transport,13,491,6,10-14
