S.No.,Name of the Establishment,Address,Major Activity Description,Broad Activity Code,NIC,Owners hip Code,"Employ ment Class
Interval"
1856,GOVERNMENT HOSPITAL,213 1 BASHUKINATH JARMUNDI DUMKA 814141, च क श  स व य ,21,861,1,30-99
1857,V AA C OFFICE,33 BASHUKINATH JARMUNDI DUMKA 814141,सरक र  क यर ,19,821,1,10-14
1858,BABA BASHUKINATH PARWATIMAHABIDHY ALAY,112 1 BASHUKINATH JARMUNDI DUMKA 814141,ध  मकर    स व य ,23,949,1,10-14
1859,BHUMIHAR DHARMSHALA,BASHUKINATH JARMUNDI DUMKA 814141,Dharamshla,14,551,3,10-14
1860,SANDIK SEWA SADAN,5 BASHUKINATH JARMUNDI DUMKA 814141,Hotel,14,551,3,10-14
1861,MANDAL DHARMSALA,6 BASHUKINATH JARMUNDI DUMKA 814141,Hotel,14,551,3,10-14
1862,SHIV SHANTI KUNJ DHARMSHALA,7 BASHUKINATH JARMUNDI DUMKA 814141,Hotel,14,551,3,15-19
1863,SADASHIV PANDA,120 BASHUKINATH JARMUNDI DUMKA 814141,Hotel,14,551,2,10-14
1864,AGRAWAL DHARMSALA,133 1 BASHUKINATH JARMUNDI DUMKA 814141,Hotel,14,551,3,10-14
1865,PURNI DEVI,165 BASHUKINATH JARMUNDI DUMKA 814141,Hotel,14,551,3,10-14
1866,BABA BASUKINATH MANDIR,171 1 BASHUKINATH JARMUNDI DUMKA 814141,ध  मकर    स व य ,23,949,9,30-99
1867,NYAY SAMITI OFFICE,171 2 BASHUKINATH JARMUNDI DUMKA 814141,सरक र  क यर ,19,821,9,20-24
1868,KALKATTIYA DHARMASHALA,172 BASHUKINATH JARMUNDI DUMKA 814141,Hotel,14,551,3,10-14
1869,FALHARI DHARMASHALA,191 BASHUKINATH JARMUNDI DUMKA 814141,Hotel,14,551,3,10-14
1870,YADAV DHARMASHALA,189 1 BASHUKINATH JARMUNDI DUMKA 814141,Hotel,14,551,3,10-14
1871,BASUKIBIHAR DHARMSHALA,BASHUKINATH JARMUNDI DUMKA 814141,Hotel,14,551,3,10-14
1872,BHAGALPUR DHARMSHALA,BASHUKINATH JARMUNDI DUMKA 814141,Hotel,14,551,3,10-14
1873,KUSHWAHA DHARMSHALA,BASHUKINATH JARMUNDI DUMKA 814141,Hotel,14,551,3,15-19
1874,ROHIT BHAGAT CRESHAR,GOPIKANDAR DUMKA,Mining,5,89,2,20-24
1875,MUKESH BHAGAT CRESHAR,GOPIKANDAR DUMKA,Mining,5,89,2,30-99
1876,PRAKASH BHAGAT CRESHAR,GOPIKANDAR DUMKA,Mining,5,89,2,20-24
1877,MANTU BHAGAT CRESHAR,GOPIKANDAR DUMKA,Mining,5,89,2,10-14
1878,SUBODH BHAGAT CRESHAR,GOPIKANDAR DUMKA,Mining,5,89,2,20-24
1879,KRISHNA BIHARI CRESHAR,GOPIKANDAR DUMKA,Mining,5,89,2,20-24
1880,MANDAL CRESHAR,GOPIKANDAR DUMKA,Mining,5,89,2,20-24
1881,ASHOK GUPTA CRESHAR,GOPIKANDAR DUMKA,Mining,5,89,2,20-24
1882,AJAY BHAGAT CRESHAR,GOPIKANDAR DUMKA,Mining,5,89,2,30-99
1883,ASHOK BHAGAT CRESHAR,GOPIKANDAR DUMKA,Mining,5,89,2,30-99
1884,BABLU BHAGAT CRESHAR,GOPIKANDAR DUMKA,Mining,5,89,2,20-24
1885,M S RAKSHA KALI STONE SARASDANGAL,6 PO SARASDANGAL SHIKARIPARA DUMKA 816103,Mining,5,89,3,20-24
1886,PRO P T JHA CRESKAR,4 SARASDANGAL SHIKARIPARA 816103,Mining,5,89,3,25-29
1887,ARJUN KISKU STONE CRESHAR,SARASDANGAL SHIKARIPARA 816103,Mining,5,89,3,20-24
1888,M S SHRIDHI STONE PRO UPENDRA KUMAR,SARASDANGAL SHIKARIPARA DUMKA 816103,Mining,5,89,3,10-14
1889,M S RAKSHA KALI STONE PRO,6 SARASDANGAL SHIKARIPARA 816103,Mining,5,89,3,25-29
1890,M S RAJ STONE WORKS  PRO ,8 SARASDANGAL SHIKARIPARA 816103,Mining,5,89,2,25-29
1891,JISWA DAS PAWROTI DUKAN,SHIKARIPARA DUMKA 816103,Manufature,6,107,2,25-29
1892,M S KAILASH STONE PRO ADHIR KUMAR,186 SARASDANGAL SHIKARIPARA 816103,Mining,5,89,2,15-19
1893,CRESHAR,SARASDANGAL SHIKARIPARA 816103,Mining,5,89,2,20-24
1894,PRITI STONE,SARASDANGAL SHIKARIPARA 816103,Mining,5,89,2,10-14
1895,AJEET STONE,SARASDANGAL SHIKARIPARA 816103,Mining,5,89,2,10-14
1896,JAY MATA STONE,SARASDANGAL SHIKARIPARA 816103,Mining,5,89,2,10-14
1897,WINESH STONE,SARASDANGAL SHIKARIPARA 816103,Mining,5,89,2,10-14
1898,BISHNU STONE CHIPS,SARASDANGAL SHIKARIPARA 816103,Mining,5,89,2,10-14
1899,MAKBUL STONE,SARASDANGAL SHIKARIPARA 816103,Mining,5,89,3,10-14
1900,HIMALAYA STONE WORKS,SARASDANGAL SHIKARIPARA 816103,Mining,5,89,3,20-24
1901,CRESHAR BIKASH SHARMA,185 PO  SARASDABGAL SHIKARIPARA 816103,Mining,5,89,2,20-24
1902,SAMSUDDIN SHEKH,SARASDANGAL SHIKARIPARA 816103,Mining,5,89,2,10-14
1903,ALOK SOREN,145 SARASDANGAL SHIKARIPARA 816103,Mining,5,89,3,10-14
1904,MAJAHAR AALAM,SARASDANGAL SHIKARIPARA 816103,Mining,5,89,2,20-24
1905,MD BABAR SHEKH,SARASDANGAL SHIKARIPARA 816103,Mining,5,89,2,10-14
1906,NAJRUL ISLAM,182 SARASDANGAL SHIKARIPARA 816103,Mining,5,89,3,15-19
1907,MD ASAD ALI,132 SARASDANGAL SHIKARIPARA 816103,Mining,5,89,2,15-19
1908,SAHEB CHOUDHRI,SARASDANGAL SHIKARIPARA 816103,Mining,5,89,3,10-14
1909,NAND KISHOR AGRAWAL,184 SARASDANGAL SHIKARIPARA 816103,Mining,5,89,3,20-24
1910,SYAM HIMMAT SINGH,SARASDANGAL SHIKARIPARA 816103,Mining,5,89,3,10-14
1911,RAJIW MUNDRA,186 SARASDANGAL SHIKARIPARA 816103,Mining,5,89,3,10-14
1912,UNNAT SHEKH,187 SARASDANGAL SHIKARIPARA 816103,Mining,5,89,2,10-14
1913,MOHAN,SARASDANGAL SHIKARIPARA 816103,Mining,5,89,2,10-14
1914,KUBER SAW,190 SARASDANGAL SHIKARIPARA 816103,Mining,5,89,2,15-19
1915,MISTAR SHEKH,SARASDANGAL SHIKARIPARA 816103,Mining,5,89,2,10-14
1916,KITAN SHEKH,136 SARASDANGAL SHIKARIPARA 816103,Mining,5,89,2,10-14
1917,SAIDUL SHEKH,SARASDANGAL SHIKARIPARA 816103,Mining,5,89,2,10-14
1918,PATHAK SAHA,137 SARASDANGAL SHIKARIPARA 816103,Mining,5,89,2,10-14
1919,APEL SHEKH,139 SARASDANGAL SHIKARIPARA 816103,Mining,5,89,2,15-19
1920,TULTU SHEKH,SARASDANGAL SHIKARIPARA 816103,Mining,5,89,2,10-14
1921,PRASHANT KUMAR CRESHAR KARYALAY,SARASDANGAL SHIKARIPARA 816103,Mining,5,89,2,15-19
1922,AASHA SHEKHA,SARASDANGAL SHIKARIPARA 816103,Mining,5,89,2,20-24
1923,CHALISH SEKH CRESHAR,SARASDANGAL SHIKARIPARA 816103,Mining,5,89,2,20-24
1924,JAHRUL SHEKH CRESHAR,SARASDANGAL SHIKARIPARA 816103,Mining,5,89,2,25-29
1925,BAKA SHEKH CRESHAR,SARASDANGAL SHIKARIPARA 816103,Mining,5,89,2,20-24
1926,BABUWA BHAGAT CRESHAR,SARASDANGAL SHIKARIPARA 816103,Mining,5,89,2,10-14
1927,RUPAN BHAGAT CRESHAR,SARASDANGAL SHIKARIPARA 816103,Mining,5,89,3,15-19
1928,KIRAN SHEKH,SARASDANGAL SHIKARIPARA 816103,Mining,5,89,2,10-14
1929,HAFIZ KHAN,SARASDANGAL SHIKARIPARA 816103,Mining,5,89,2,15-19
1930,VIJAY FURNITURE,ASANBARI RANESHWAR DUMKA,Manufature,6,310,2,20-24
1931,JAYDEV KAPRA DUKAN,ASANBARI RANESHWAR DUMKA,Retail,12,475,2,10-14
1932,I T I COLLEGE DUMKA,SHRI AMRA DUMKA 814101,Education,20,853,2,25-29
1933,AANAND CHAWAL MILL,ASANBARI BHAGALPUR ROAD DUMKA,Manufature,6,106,2,15-19
1934,BABA RICE MILL,ASANBARI BHAGALPUR ROAD DUMKA,Manufature,6,106,2,10-14
1935,RAJESH KUMAR SINDHI,SHINDHI CHOCK DUMKA 816118,Retail,12,475,2,10-14
1936,BHARTI MADICLE,DHARAMSTHAN ROAD DUMKA DHARMSTHAN ROAD 814101,दब ई क   बक र  त ,12,477,2,10-14
1937,S B I BAZAR CRANCH DUMKA,SHYAM BAZAR ROAD DUMKA 814101, व त सब  ध  क यर ,16,641,1,30-99
1938,ALLAHABAD BANK,BAZAR BRANCH DUMKA 814101,Bank,16,641,1,20-24
1939,L I C OFFICE,26 1  PULICE LINE ROAD DUMKA 814101, व त सब  ध  क यर ,16,651,1,30-99
1940,UNIVERSAL AUTO AGENCY,DUDHANI DUMKA 814101,AUTO REPAIR,10,452,2,10-14
1941,B N CENTRAL PUBLIC SCHOOL,DUDHANI DUMKA VIVEKANAND PATH 814101,Education,20,852,1,10-14
1942,URSILA NARSING HOME,BAXIBANDH ROAD DUMKA 814101, च क श  स व य ,21,861,7,30-99
1943,CRESHAR TINGAHARA JAMA,BHAGALPUR ROAD DUMKA,लकड़  क  च र फ ड़ करन ,6,162,2,10-14
1944,DINBANDHU LAKRI MILL TAPASI JAMA,BHAGALPUR ROAD DUMKA,Mining,5,89,2,30-99
1945,HIMMATSINGHKA PRIVATE LIMITED SARSABAD JAMA,BHAGALPUR ROAD DUMKA BHAGALPUR ROAD DUMKA 814101,MOTOR REPAIR AND SALE,10,451,2,30-99
3323,CIMENT DUKAN DUMKA,DHARAMSTHAN ROAD DUMKA 814101,स म ट एव  छड़ ब चन ,11,465,2,10-14
