S.No.,Name of the Establishment,Address,Major Activity Description,Broad Activity Code,NIC,Owners hip Code,"Employ ment Class
Interval"
1,Madhya vidhalya,sisari 822114,Education,20,851,1,15-19
2,BOKARO STEEL MINES,2 BHAVNATHPUR TOWNSHEEP BHAVNATHPUR TOWNSHEEP 822112,Mining,5,51,4,25-29
122,RAJKIYA UPGRADE MIDDLE SCHOOL KUUPA KHARAUNDHI GHARWA,KUPA KHARAUNDHI 822114,Education,20,851,1,15-19
123,SHACHIDANAND PATHAKNAGWA MUHALLA KHARAUNDHI GHARWA,1 GARHWA NAGWA MUHALLA 822114,Education,20,852,2,15-19
124,CENTRAL SCHOOL,PIPRAKALA 822114,Education,20,852,1,20-24
125,ANAND SANKAR,18 1  SAHIJNA 822114,JYOTI SREE TAKIJ,23,949,2,10-14
126,MAIN POST OFFICE,16 1  MAIN ROAD 822114,HEAD POST OFFICE,13,531,1,15-19
127,RAJ KUMAR PANDEY,22 TALAB PAR SONPURWA GARHWA 822114,Education,20,852,2,25-29
128,S K MERORIAL PUBLIS SCHOOL,67 TANDWA GARHWA 822112,Education,20,852,2,15-19
129,RAJKIYA UTKRAMIT SCHOOL,121 ROHINIYA ROHINIYA 822112,Education,20,852,1,10-14
130,BHARTIYA STATE BANK OF INDIA BHAVNATHPOUR GHARWA,1 822128,BHARTIYA STATE BANK OF INDIA BHAWANATHPUR,16,641,1,10-14
131,GOV MIDDLE SCHOOL,RAMNA 822128,Education,20,851,2,10-14
132,RAJKIYA MIDDLE SCHOOL,88 SILIDAG  1 822128,Education,20,851,1,10-14
133,INTERGRATED MIDDLE SCHOOL,48 BAHIYAR KHURD BAHIYAR KHURD 822128,Education,20,851,1,15-19
134,GOV MIDDLE SCHOOL,27 GAMHARIYA 822128,Education,20,851,1,10-14
135,RAJ RAJENDRA PRATAP DEO HIGH SCHOOL,BISHUNPURA BISHUNPURA 822128,Education,20,852,1,10-14
136,RAJKIYA UPGRADE MIDDLE SCHOOL,CHITARI CHITARI 822128,Education,20,851,1,10-14
137,MIDDLE SCHOOL,PATIHARI PATIHARI 822118,Education,20,851,1,25-29
138,RAJKIYE MADHYA VIDHYALYA,86 PATAGARA 822128,Education,20,851,1,20-24
139,RAJKIYA UPGREDE SCHOOL,AMHAR KHAL 822128,Education,20,851,1,15-19
140,MIDDLE SCHOOL KAMTA,20 822128,Education,20,851,1,10-14
141,GOV MIDDLE SCHOOL JATPURA,38 39 40 41 822121,Education,20,851,1,10-14
142,R M SCHOOLNAGARUNTA RI GHARWA,61 GARBOND 822121,Education,20,851,2,10-14
143,A BH RAM PUBLIK SCHOOL NAGARUNTARI GHARWA,15 822121,Education,20,852,2,10-14
144,MA NAGINA SAHI MAHILA MAHA VIDHYALA NAGARUNTARI GHARWA,40 822121,Education,20,853,1,10-14
145,S P D C INTER COLLAGE SARASHTAL KALA NAGARUNTARI GHARWA,1 SARASHTAL KALA 822121,Education,20,853,1,20-24
146,R M  SCHOOL MAGRIDAH NAGARUNTARI GHARWA,57 822121,Education,20,852,1,10-14
147,SARSWATI VIDHA MANDIR NAGARUNTARI GHARWA,6 822121,Education,20,852,2,15-19
148,MADHY VIDHYALAY NAGAR CHANCHAARIYA NAGARUNTARI GHARWA,27 822121,Education,20,851,1,10-14
149,RAJKIYA MADHYA VIDHYA LADHOWRO NAGARUNTARI GHARWA,9 ADHOWRO 822133,Education,20,851,1,10-14
150,PINTU CRASER MERAL   GHARWA,86 3  MERAL MERAL 822133,Mining,5,81,2,15-19
151,BADAL LINE HOTEL MERAL  GHARWA,87 3  MERAL MERAL 825403,Hotel,14,551,2,15-19
