S.No.,Name of the Establishment,Address,Major Activity Description,Broad Activity Code,NIC,Owners hip Code,"Employ ment Class
Interval"
3,VATIKA HOTEL,9 GURUDAWARA GALI GURUDAWARA GALI 815301,Resturant,14,561,2,15-19
4,SAWAN BEAR BAR,19 GANDHI CHOWK GANDHI CHOWK 815301,Resturant,14,563,2,10-14
5,MAHATO HOTEL,103 AURA AURA 825322,Hotel,14,562,2,10-14
6,HOTEL KALPANA,19 ISRI ISRI 825107,Resturant,14,561,2,15-19
7,HOTEL KAVERI,64 ISRI ISRI 825107,Resturant,14,561,2,10-14
252,MIDDLE SCHOOL DORANDA,96 DORANDA 825412,Education,20,851,1,10-14
253,COLUMBIA PUBLIC SCHOOL,36 MAIN ROAD GUNDRI 825412,Education,20,851,2,15-19
254,CHILDREN PARADISE ENGLISH SCHOOL,124 1  GUNDRI 825412,Education,20,851,2,10-14
255,IDIAL BOARDING SCHOOL,124 2  GUNDRI 825412,Education,20,851,2,10-14
256,DEWNARAYAN YADAV AND KRESHAR COMPAN,1 KOLDIHA KOLDIHA 825412,Mining,5,89,3,25-29
257,MESARSS SANGAM STON MINIRALS,1 EKTARWA 825412,Mining,5,81,3,30-99
258,SAWITRI BAI PHULE SWANY SAHAYATA SA,20 RASHAN DUKAN BARSINGHI KHURD 825412,Retail,12,472,5,10-14
259,NURI CHAMAN S H G,55 2  GARJASARAN 825412,Ngo,12,472,5,10-14
260,LAXMI S H G GARJASARAN,7 9  GARJASARAN 825412,Ngo,23,941,5,10-14
261,PAHALDEW RAY KRESHAR,1 MAHUATAND 825412,Mining,5,81,2,10-14
262,SAW JEE KRESHAR,2 MAHUATAND 825412,Mining,5,81,2,10-14
263,REPHARAL HOSPITAL,66 1  DHANWAR 825412,Health,21,861,1,10-14
264,S R INTERNATIONAL SCHOOL,39 DHANWAR 825412,Education,20,851,2,20-24
265,BAHADUR PRASAD MEMORIAL PUBLIC,102 SCHOOL DHANWAR 825412,Education,20,851,2,20-24
266,BANK OF INDIA,2 DHANWAR 815312,Banking,16,641,1,15-19
267,NIRMALA GIRLS HIGH SCHOOL,51 MAHESHMUNDA MAIN ROAD MAHESHMUNDA 815312,Education,20,852,1,10-14
268,REPHARAL HOSPITAL  MANAKDIHA,1 2  MANAKDIHA 815312,Health,21,861,1,15-19
269,JAWAHAR NAVODAYA VIDYALAY,1 24  GAANDEY GAANDEY 815312,Education,20,853,1,30-99
270,HIGH SCHOOL GANDEY,31 1  GAANDEY GAANDEY 815312,Education,20,852,1,10-14
271,MIDDLE SCHOOL GANDEY,46 GAANDEY 815312,Education,20,851,1,10-14
272,SANTOSHA BHARTI SCHOOL,36 GANDEY 815312,Education,20,851,2,10-14
273,ADARSH HIGH SCHOOL BUDHUDIH,14 BUDHUDIH 815302,Education,20,852,1,10-14
274,UTTKRAMIT MIDDLE SCHOOL,87 1  PANDEYDIH PANDEYDIH 815302,Education,20,851,1,10-14
275,CHHAY FACTORY,1 PANDEYDIH PANDEYDIH MAGZINE 815302,Manufature,6,239,2,10-14
276,PRAKASH PUNJ PUBLIC SCHOOL,90 PANDEYDIH PANDEYDIH 815302,Education,20,851,2,10-14
277,YOGENDRA INTERNATIONAL MAICA FACTOR,188 PANDEYDIH PANDEYDIH 815302,Manufature,6,239,2,10-14
278,VINAYAK MAICA EXPORT COMPANY,117 SIHODIH SIHODIH 815302,Manufature,6,239,2,25-29
279,BALAJEEENTERPPRI SES,14 SIHODIH PATELNAGAR 815302,Manufature,6,259,2,15-19
280,RAWAT ALUMINIUM INDUSTRIES,32 SIHODIH PATELNAGAR 815302,Manufature,6,241,3,10-14
281,HI TECH INFARMATION,35 SIHODIH SIHODIH 815301,Manufature,6,259,2,15-19
282,UTTKRAMIT MIDDLE SCHOOL SIHODIH,232 SIHODIH SIHODIH 815301,Education,20,851,1,10-14
283,GIRIDIH COLLEGE GIRIDIH,1 SIHODIH GIRIDIH BENGABAD MAIN ROA 815316,Education,20,853,1,30-99
284,MIDDLE SCHOOL SUGGASAR,78 SUGGASAR SUGGASAR 815316,Education,20,851,1,10-14
285,UTTKRAMIT MIDDLE SCHOOL KHAWA,10 KHAWA KHAWA 815316,Education,20,851,1,10-14
286,MICA FACTORY HARILAL BAGERIA,13 RAJPURA RAJPURA 815316,Manufature,6,239,2,15-19
287,MICCA FACTORY PARSHURAM KEDIA,26 RAJPURA RAJPURA 815316,Manufature,6,239,2,20-24
288,ELLUMINIUM FACTORY KAILASH RAM,36 RAJPURA RAJPURA 815316,Manufacture,6,241,2,20-24
289,MIDDLE SCHOOL PINDATAND,20 PINDATAND RANEEKHAWA 815316,Education,20,851,1,10-14
290,UTTKRAMIT MIDDLE SCHOOL SIKDARDIH URDU,34 SIKDARDIH SIKDARDIH 815316,Education,20,851,1,10-14
291,PRAMRY SCHOOL HANDADIH,37 HANDADIH HANDADIH 815316,Education,20,851,1,10-14
292,MIDDLE SCHOOL RAJPURA,48 RAJPURA RAJPURA 815316,Education,20,851,1,10-14
293,MOHAMAD AJRUDDHEEN MAICA PROCCESSIN,32 BORO ELODRAM ROAD BORO 815316,Manufature,6,239,2,10-14
294,G D BAGERIA TEACHER S TRANING,7 BORO BORO 815316,Education,20,853,2,15-19
295,RAJENDRA BHARTIYA MAICA FACTORY,49 DANDIYA DIH DADIYADIH 815316,Manufature,6,239,2,25-29
296,PARASH RAM MAIKA FACTORY,56 KALAYANDIH KALYANDIH 815316,Manufature,6,239,2,30-99
297,ADARSH BAL VIKASH VIDYALAY,12 RAGHUSINGHA RAGHUSINGHA 815316,Education,20,851,2,10-14
298,UTKRAMIT MIDDLE SCHOOL,28 ALGUNDA ALGUNDA 815316,Education,20,851,1,10-14
299,D M PRIMARY AND MIDDLE SCHOOL,65 BAJTO BAJTO 815301,Education,20,851,1,10-14
300,RATAN MICCA,1 BUXIDIH MAIN ROAD 815316,Manufature,6,239,2,30-99
301,UTTKRAMIT MIDDLE SCHOOL BADDIHA,26 BADDIHA BADDIHA 815316,Education,20,851,1,10-14
302,IDIA MINI MAHILA SWAYN SAHAYTA,2 1  GUJIYADIH GUJIYADIH 815316,Retail,12,472,5,10-14
303,MIDDLE SCHOOL BADDIHA,101 BADDIHA BADDIHA 815302,Education,20,851,1,10-14
304,D A V PUBLIC SCHOOL,62 YOGITAND YOGITAND 815301,Education,20,852,9,25-29
305,BHARDWAJ STEEL FACTORY,1 MANGRODIH MANGRODIH 815302,Manufature,6,243,2,200-499
306,MA KALYANI HARDCOK,16 PURNANAGAR PURNANAGAR 815302,Mining,5,51,3,10-14
307,MIDDLE SCHOOL PURNANAGAR,28 PURNANAGAR PURNANAGAR 815302,Education,20,851,1,10-14
308,SAMRIDHI HARDCOCK,1 PURNANAGAR PURNANAGAR 815316,Mining,5,51,3,15-19
309,UTTKRAMIT MIDDLE SCHOOL MAHTODIH,3 MAHTODIH MAHTODIH 815316,Education,20,851,1,10-14
310,MIDDLE SCHOOL MATRUKHA,12 MATRUKHA MATRUKHA,Education,20,851,1,10-14
311,BALMUKUND SPANJ AND IRON,101 2  CHATRO 815301,Manufature,6,243,4,100-199
312,AADI ISPAT PVT LTD,99 MANJHALADIH MANJHEELADIH 815301,Manufature,6,243,4,25-29
313,ATIBIR INDUSTRIES CO LTD,100 1  MANJHALADIH GADISHRIRAMPUR 815301,Manufature,6,243,4,100-199
314,VINAYK IRON AND STEEL COKE,102 1  MANJHALADIH MANJHEELADIH 815301,Manufature,6,191,3,15-19
315,SANTPURIYA ALLOYS PVT LTD,104 1  MANJHALADIH MANJHEELADIH 805302,Manufature,6,243,2,30-99
316,SUBH LAXMI MULTISOLUTION,16 GADISRIRAMPUR GADISHRIRAMPUR 815301,Manufature,6,106,4,30-99
317,MA TARA HITEC ENTERPRASES P LTD,12 BANIYADIH BANIYADIH 815301,Manufature,6,191,4,20-24
318,DEEP SHIKHA PAPER P LTD,16 BANIYADIH MAHATODIH 815301,Manufature,6,170,3,10-14
319,VEER STEEL IRON AND STEEL FACTORY,1 MOHANPUR TUNDI ROAD GIRIDIH 815301,Manufature,6,243,2,30-99
320,UTTKRAMIT MIDDLE SCHOOL,62 MOHANPUR MOHANPUR 815301,Education,20,851,1,10-14
321,ATIVEER HAEE TECH FACTORY,42 MOHANPUR TUNDI ROAD MOHANPUR 815301,Manufature,6,243,3,100-199
322,IRON AND STEEL FACTORY,45 SWATI CONCAST POWER TUNDI ROAD MOHANPUR 815302,Manufature,6,243,3,100-199
323,UTTKRAMIT MIDDLE SCHOOL,36 UDNABAD UDNABAD 815301,Education,20,851,1,10-14
324,BALAJEE KRESHAR INDUSTRIES,85 KOYMARA KOYMARA 815301,Mining,5,81,2,10-14
325,ALOK KEDIA KRESHAR MEEL,120 KOYMARA KOYMARA 815301,Mining,5,81,2,10-14
326,GAURISHANKAR ELECTROCASTING,35 AJIDIH AJIDIH 815301,Manufature,6,243,2,20-24
327,RISHABH INTERPRESES BHORANDIHA,10 1  BHORANDIHA BHORANDIHA 815301,Manufature,6,243,2,10-14
328,D V C POWER PLANT,4 BHORANDIHA TUNDI ROAD BHORANDIHA 815302,Electric,7,351,2,30-99
329,SHIVSHAKTI INTERPRISES,1 VISHWASH DIH VISHWASHDIH 815302,Manufature,6,191,2,25-29
330,LAL PHERRO,64 VISHWASH DIH VISHWASHDIH 815302,Manufature,6,191,2,30-99
331,MA ANJANEE PVT LTD,68 VISHWASH DIH VISHWASHDIH 815302,Manufature,6,191,2,30-99
332,SHIVAM IRON AND STEEL FACTORY,1 MAHTODIH MAHATODIH 815302,Manufature,6,243,2,100-199
333,ATIVEER IRON AND STEEL FACTORY,4 MAHTODIH MAHATODIH 815301,Manufature,6,243,2,>=500
334,SALUJA IRON AND STEEL FACTORY,5 MAHTODIH TUNDI ROAD MOHANPUR 815302,Manufature,6,243,2,30-99
335,CARBON RISORSES PVT LTD,10 MAHTODIH MAHATODIH 815301,Manufature,6,279,2,30-99
336,LAL STEEL PVT LTD,68 MAHTODIH MAHATODIH 815301,Manufature,6,243,2,25-29
337,UTTKRAMIT MIDDLE SCHOOL HARSIGRAYDI,103 HARSIGRAYDI HARSINGRAYDIH 815301,Education,20,851,1,10-14
338,KALU RAM MODI VANANCHAL COLLEGE,38 HARSIGRAYDI TUNDI ROAD HARSINGRAYDIH 815301,Education,20,852,2,30-99
339,SHIVAM IRON AND STEEL FACTORY,78 JAMBAD JAMABAD 815301,Manufature,6,243,2,200-499
340,SHIVAM IRON AND STEEL FACTORY,42 JAMBAD JAMABAD 815301,Manufacture,6,243,3,100-199
341,SHIVAM IRON AND STEEL FACTORY,43 JAMBAD JAMABAD 815301,Manufature,6,243,2,100-199
342,UTTKRAMIT MIDDLE SCHOOL,73 KOYMARA KOYMARA 815301,Education,20,851,1,10-14
343,KIRAN KAUSHAL CLINIC PACHAMBA,23 PACHAMBA MAIN ROAD PACHAMBA 815301,Health,21,861,2,20-24
344,SETHMAL KANHAIYA LAL LIMITED,50 PACHAMBA PACHAMBA 815316,Manufature,6,239,3,20-24
345,PRAWEEN KUMAR BAGERIYA,45 1  NARMDA DHAM GALI PACHAMBA NARMDA GALI 815316,Mining,5,81,2,30-99
346,PRAKASH MAICA FACTORY,48 1  NARMDA DHAM GALI PACHAMBA NARMADA GALI 815316,Manufature,6,239,2,30-99
347,KAMAL MAICA FACTORY,48 2  NARMDA DHAM GALI PACHAMBA NARMADA GALI 815316,Manufature,6,239,2,30-99
348,GIRIDIH PACHAMBA SRI GOPAL GAUSHALA,1 GAUSHALA GALI PACHAMBA GAUSHALA ROAD 815316,Manufature,6,239,2,10-14
349,DR DEEPAK KUMAR NUTAN LAL,4 GAUSHALA GALI PACHAMBA MAIN ROAD GIRIDIH 815316,Health,21,861,2,15-19
350,AFTAB HOSPITAL,4 PACHAMBA MAIN ROAD 815316,Health,21,861,2,15-19
351,JEEVAN DHARA NURSING HOME,23 PACHAMBA MAIN ROAD GIRIDIH 815316,Health,21,861,2,25-29
352,KANCHAN CLINIC AND RESERCH CENTRE,42 BORO BORO HAWAI ADDA 815316,Health,21,861,2,10-14
353,MUMTAJ ALI,113 GIRIDIH PACHAMBA ROAD GIRIDIH PACHAMBA ROAD 815316,Education,20,852,2,25-29
354,G D BAGERIYA SEVA SADAN,17 1  BORO GIRIDIH 815316,Health,21,861,2,25-29
355,JAY SRI RUBER PRODUCT,40 MOHANPUR ALKAPURI 815301,Manufature,6,222,2,30-99
356,CARMEL SCHOOL ALKAPURI,128 ALKAPURI ALKAPURI 815301,Education,20,852,2,25-29
357,CARMEL SCHOOL,1 ALKAPURI ALKAPURI 815301,Education,20,851,2,30-99
358,MA DURGA TRACTOR,1 ALKAPURI GIRIDIH JAMUA ROAD 815301,TRACTOR SELLER,10,451,2,10-14
359,RATAN MAICA EXPORT LIMITED,65 ALKAPURI GIRIDIH PACHAMBA ROAD 815301,Manufature,6,239,2,30-99
360,C M R MEMORIAL ROTARY EYE HOSPITAL,1 AMBEDAKAR CHOWK MAIN ROAD PACHMBA GIRIDIH 815301,Health,21,861,3,15-19
361,RAMKRISHNA WOMENS COLLEGE,42 PROFESSER COLONY BARGANDA 815301,Education,20,853,1,30-99
362,NAVJEEVAN NURSING,25 1  KACHAHARI ROAD BARGANDA KATCHHHARI ROAD 815301,HEALTH SERVICE,21,861,2,25-29
363,BAL SHIKSHA MANDIR SCHOOL,40 BARGANDA BARGANDA 815301,Education,20,851,2,10-14
364,SARASWATI SHISHU VIDYAMANDIR,88 BARGANDA BARGANDA 805301,Education,20,852,2,30-99
365,SHANTI AUTOMOBILE SERVICING CENTRE,43 METROS GALI BARGANDA 815301,Repair,10,454,2,10-14
366,STATE BANK OF INDIA,MAKATPUR 815301,Banking,16,641,1,30-99
367,BANK OF INDIA,KACHAHARI ROAD BARGANDA 815301,Banking,16,641,1,25-29
368,UNION BANK OF INDIA,KACHAHARI ROAD BARGANDA 815301,Banking,16,641,1,15-19
369,INDIAN OVERSEAS BANK,MAKATPUR 815301,Banking,16,641,1,15-19
370,JHARKHAND GRAMIN BANK,BARGANDA 815301,Banking,16,641,1,15-19
371,KESAR SERVICE PETROL PUMP,1 MAIN ROAD GIRIDIH JAMUA GIRIDIH MAIN ROAD 815301,Retail,12,473,2,10-14
372,BIRLA SUN LIFE INSURANCE,6 MAIN ROAD GIRIDIH MAIN ROAD 815301,Banking,16,651,4,10-14
373,CO OPRATIVE BANK,20 BUXIDIH BUXIDIH ROAD 815301,Banking,16,641,1,20-24
374,AXIS BANK,44 MAIN ROAD GIRIDIH MAIN ROAD GIRIDIH 815301,Banking,16,641,1,15-19
375,L I C OF INDIA,44 1  MAIN ROAD GIRIDIH MAIN ROAD GIRIDIH 815301,Banking,16,651,1,30-99
376, 2UCHCH VIDYALAY,49 MAIN ROAD GIRIDIH MAIN ROAD GIRIDIH 815301,Education,20,852,1,30-99
377,B S N L OFFICE,171 BUS STAND 815301,DURSANCHAR SEVA,19,821,1,30-99
378,ALLAHABAD BANK,11 2  GIRIDIH 815301,Banking,16,641,1,15-19
379,UNITED BANK OF INDIA,16 GIRIDIH 815301,Banking,16,641,1,15-19
380,SADAR HOSPITAL,9 1  GIRIDIH 815301,Health,21,861,1,30-99
381,MALERIYA DEPART,11 GIRIDIH 815301,Health,21,861,1,20-24
382,RANI LAXMI BAI MIDDLE SCHOOL,60 MAKATPUR DOCTOR LANE 815301,Education,20,851,2,15-19
383,NETAJEE SUBHASH MIDDLE SCHOOL,20 DOCTOR LINE DOCTORS LANE 815301,Education,20,851,2,10-14
384,BANK OF BARODA,130 5  KACHAHARI ROAD 815301,Banking,16,641,1,10-14
385,JOY MAICA,29 GIRIDIH GIRIDIH 815301,Manufature,6,239,4,30-99
386,SRI VISHAWANATH NURSING HOME,75 CHIRAIYAGHAT ROAD CHIRYAGHAT 815301,Health,21,861,2,20-24
387,RAJKIKREET BAL VIDYA MANDIR MIDDLE,NAGINA SINGH ROAD NAGINASINH ROAD 805301,Education,20,851,2,10-14
388,SCHOOL RAJEEV RANJAN SINGH,43 GIRIDIH 815301,Education,20,851,2,20-24
389,SCHOOL HOSTEL,29 KOLDIHA KOLDIHA 815301,Education,20,851,2,30-99
390,BASANTI DEVI GOYNKA SEWA SADAN,142 GADDI MOHALAAH GADDI MOHALLA 815301,HEALTH SERVICE,21,861,2,30-99
391,HERO SHANTI AUTOMOBILE WORK SHOP,98 NEMICHAND GALI 815301,SHOW ROOM,10,451,4,10-14
392,HERO SHANTI AUTOMOBILE WORK SHOP,98 NEMICHAND GALI 815301,Repair,10,454,4,10-14
393,C M R MAICA FACTORY,35 TIRNGA CHOWK TIRANGA CHAUK 815301,Manufature,6,239,2,30-99
394,GURUNANK SCHOOL,6 6  STATION ROAD STATION ROAD 815301,Education,20,852,9,25-29
395,MIDDLE SCHOOL KAMALA NEHRU,34 I C R  ROAD I C R  ROAD 815301,Education,20,851,1,15-19
396,TILAK PRESS AND HOTEL,26 GANDHI CHOWK GANDHI CHAWK 815301,Print,6,181,2,10-14
397,U MIDDLE SCHOOL,27 POLICE LINE POLICE LINE 815302,Education,20,851,1,10-14
398,NIRMAN PIPE FACTORY,88 SIRSIYA COLLEGE ROAD 815301,Manufature,6,239,2,30-99
399,B N S D A V SCHOOL,66 SIRSIYA COLLEGE ROAD 815301,Education,20,852,2,30-99
400,S D PUBLIC SCHOOL,32 SIRSIYA COLLEGE ROAD 815301,Education,20,851,2,10-14
401,U MIDDLE SCHOOL,16 SIRSIYA SIRSIYA 815301,Education,20,851,1,15-19
402,C C L HOSPITAL,15 AKDONIKHURD BANIYADIH 815311,Health,21,861,1,30-99
403,C C L STORE ROOM,31 AKDONIKHURD BANIYADIH 815311,Electric,7,351,1,25-29
404,C C L LEKHANKAN OFFICE,173 AKDONIKHURD BANIYADIH 815311,Mining,19,821,1,15-19
405,M S BANIYADIH,1 AKDONIKHURD BANIYADIH 815311,Education,20,852,1,20-24
406,C C L WEIGH HOUSE,120 AKDONIKHURD BANIYADIH 815301,Service,19,821,1,15-19
407,MONGIYA STEEL LIMITED,95 TUNDI ROAD GIRIDIH TUNDI ROAD BUDHIYADIH 825324,Manufature,6,243,4,200-499
408,COLAMBIA RESIDENTIAL PUBLIC SCHOOL,13 CHANO CHANO 825324,Education,20,851,2,10-14
409,LAKHIYA MODERN SCHOOL SIMRADHAB,4 SIMRADHAB SIMRADHAB 825324,Education,20,851,2,10-14
410,AUTHENTIC PUBLIC SCHOOL,13 NAITAND NAEETAND,Education,20,851,2,15-19
411,MAOUNT JIRAMU VANSTHALI VIDAYAPITH,TAND 825322 DHANKITAND 9934337283 825106,Education,20,855,2,10-14
412,SANSKAR MEMORIAL SCHOOL MANDHULA,19 1  MANDHULA MANDHULA 825322,Education,20,851,2,10-14
413,BEKO HIGH SCHOOL GOPALDIH,6 GOPALDIH GOPALDIH 825322,Education,20,852,1,10-14
414,LITTLE KINDER GARDEN SCHOOL,15 GOPALDIH GOPALDIH 825322,Education,20,851,2,10-14
415,ADARSH PUBLIC SCHOOL BEKO,22 BEKO BEKO 825322,Education,20,851,3,10-14
416,DIVINE PUBLIC SCHOOL BEKO,2 BEKO BEKO 825322,Education,20,851,2,10-14
417,HIGH SCHOOL HESLA,103 CHATTI CHATTI 825322,Education,20,852,1,10-14
418,  HIGH SCHOOL BAGODAR,6 BAGODAR SURIYA ROAD BAGODAR 825322,Education,20,852,1,20-24
419,SARASWATI VIDYA NIKETAN VIDYALAY BA,85 BAGODAR g t road bagodar 825322,Education,20,851,2,15-19
420,S T THOMAS SCHOOL BAGODAR,142 BAGODAR SURIYA ROAD BAGODAR 825322,Education,20,851,2,10-14
421,CHILDREN S GUIDE ACADEMY SCHOOL,BAGODAR BAGODAR 825322,Education,20,851,2,10-14
422,KASTURBA GANDHI VIDYALAY BIRNI,154 KASTURWA VIDYALAYA BAGODAR SURIYA ROAD BAGODAR 825322,Education,20,852,1,10-14
423,U H S DONDLO,29 1  DONDLO DONDLO 825322,Education,20,852,1,10-14
424,GANDHI MIDLE SCHOOL,1 ATKADIH 825322,Education,20,851,2,10-14
425,HASAN AHMED KHAN ITI COLLEGE,195 ATKA 825322,Education,20,854,1,100-199
426,MIDDLE SCHOOL AURA,6 AURA G T ROAD 825320,Education,20,851,1,10-14
427,JANVITRAN PARNALI DUKAN,98 1  KOYRIDIH KOIRIDIH 825322,Retail,12,472,5,10-14
428,HIGH SCHOOL BANDKHARO,167 BANDKHARO BANDKHARO 825320,Education,20,852,1,10-14
429,BANK OF INDIA,94 4  SARIYA SARIYA 825320,Banking,16,641,1,10-14
430,SANIDHYA INTERNATIONAL PUBLIC SCHOO,30 AASHRAM ROAD AASHRAM ROAD 825106,Education,20,851,2,25-29
431,JHARKHAND COLLEGE DUMRI,152 GHUTWALI GHUTWALI 825106,Education,20,853,1,30-99
432,JHARKHAND COMMERCE COLLEGE,106 GHUTWALI GHUTWALI 825106,Education,20,853,1,30-99
433,FURNITURE SHOAP,16 PORDAG MAIN ROAD 825106,Manufacture,6,310,2,10-14
434,PROGRESIVE PUBLIC SCHOOL,62 JAMTARA PROFESAR COLLONY 825107,Education,20,851,2,25-29
435,PARASNATH COLLEGE,24 JAMTARA P N COLLONY 825107,Education,20,852,2,30-99
436,BANK OF INDIA,ISRI BAZAR ISRI BAZAR 825107,Banking,16,641,1,15-19
437,AJIT KUMAR JAIN MEMORIAL SCHOOL,4 ISRI BAZAR 825107,Education,20,851,2,10-14
438,CENTRAL ACEMDY SCHOOL,150 1  ISRI 825107,Education,20,851,2,10-14
439,MADARSHA,7 ISRI BAZAR 825107,Education,20,851,1,25-29
440,PARASNATH DIGAMBER JAIN M  SCHOOL,142 ISRI 825107,Education,20,851,1,10-14
441,PARASNATH DIGAMBER JAIN H  SCHOOL,138 ISRI 825329,Education,20,851,1,15-19
442,SAMMED SHIKHAR JEE VIKASH SAMITI,87 UTTAR PRADESH PRAKASH BHAWAN BIRANGADDA 825329,Religion,23,949,2,20-24
443,SHRI DIGAMBER JAIN SHASHWAT TIRTHRA,88 1  J SAMMED SHIKHAR TRUST 1 MADHUBAN 814112,Religion,23,949,2,25-29
