S.No.,Name of the Establishment,Address,Major Activity Description,Broad Activity Code,NIC,Owners hip Code,"Employ ment Class
Interval"
1946,ASANSOL RAIL DIVISION,1 1  KARMATARN 815352,RAILWAY BUSINESS AND MANAGEMENT,13,491,1,20-24
1947,BISCUIT FACTRI PVT LTD,PRO  MUNNA BABU DUMKA ROAD, ब क  ट बन न  क  क रख न ,6,107,2,30-99
1948,ANAND INDUSTRI GOVIND KUMAR,NARNOLIA NEW TOWN JAMTARA,ल ज स फ  क ट र ,6,107,2,10-14
1949,TARA CHAND NARNOLIA,NEW TOWN JAMTARA,Manufature,6,107,2,25-29
1950,ANAND NARNOLIA,NEW TOWN JAMTARA,Manufature,6,107,2,10-14
1951,STATE BANK OF INDIA,COURT ROAD JAMTARA 815351,Banking,16,641,1,25-29
1952,JIN MATA CONSTRUCTION PVT LTD,COURT ROAD KARMATANR, बधत   स व ,7,351,4,15-19
1953,BASIL INTERNATIONAL LTD ,43 COURT ROAD JAMTARA 815351,Banking,16,649,4,10-14
1954,OM INDUSTRIES,MIHIJAM,ट ल क   ट ग  नम र त ,6,259,2,30-99
1955,EVARGRIN KOL INDUSTRIJ KANGOI,92 1 MIHIJAM 815354,Manufature,6,241,4,20-24
1956,BIDHUT AAPORTI AWAR PRAMANDAL MIHIJ,AM JAMTARA ROAD 815354,Eletric,7,351,1,10-14
1957,CHITTARANJAN RAIL STATION,STATION ROAD,र ल प रवहन स व ,13,491,1,30-99
1958,BADLAO KHADI GRAMODAY KENDRA,39 CHITRANJAN ROAD 815354,ख द  ब त र  बक र  त ,12,477,2,20-24
1959,STATE BANK OF INDIA MIHIJAM,42 2  CHITRANJAN ROAD 815354,Banking,16,641,1,20-24
1960,PROJECT BALIKA UPGRADED SCHOOL MIHI,91 1  JAM MAIN ROAD 815354,Education,20,852,1,10-14
1961,MIHIJAM VEGITABLE LTD MIHIJAM,12 CABLE ROAD MIHIJAM 815354,GHEE MAKING,6,104,4,100-199
1962,PRAGATI REGIONAL SOCIAL DEVELOPMENT ORGANIZATION BARMASIA,KUNDHIT,NGO,21,881,7,200-499
3324,UPGRADED HIGH SCHOOL GOKULA,59 815352,Education,20,852,1,10-14
3325,HIGH SCHOOL PABIYA,110 815352,Education,20,852,1,10-14
3326,SELF HELP GROUP STUATANR,27 1 815352,Retail,12,472,5,10-14
3327,NOORJAHAN SELF HELP GROUP SATUATANR,34 2  815352,र शन  बतरण,12,472,5,10-14
3328,MIDDLE SCHOOL NIJKAJARA,42 815352,Education,20,851,1,10-14
3329,P W I OFFICE KARMATANR,815352,Transport,19,821,1,30-99
3330,MIDDLE SCHOOL GORAINALA,815351,Education,20,851,1,10-14
3331,EDWARD ENGLISH SCHOOL BUDHUDIH,107 815351,Education,20,852,3,30-99
3332,MIDDLE SCHOOL CHENGAIDIH,815351,Education,20,851,1,10-14
3333,MADARSA CHENGAIDIH,815351,Education,20,852,7,10-14
3334,HIGH SCHOOL MENJHIYAN,815351,Education,20,852,1,10-14
3335,UPGRADED HIGH SCHOOL SHYAMPUR,815351,Education,20,852,1,10-14
3336,HIGH SCHOOL CHANDRADIPA,815351,Education,20,852,1,10-14
3337,D A V PUBLIC SCHOOL,46 NAMUPARA 815351,Education,20,852,7,30-99
3338,SANT JOSEPH SCHOOL,55 SRIRAMPUR 815351,Education,20,852,9,30-99
3339,RAMCHANDRA GOPIRAM PETROL PUMB,109 DUMKA ROAD JAMTARA 815351,Retail,12,473,2,10-14
3340,PAPPU MOTAR WORKS,116 PRO PAPPU RAO DUMKA ROAD 815351,MOTOR GARRAGE,10,452,2,10-14
3341,DR  SUDARSHAN GUTGUTIA,51 2 NEW TOWN 815351,Health,21,861,2,15-19
3342,DOCTOR SMT MADHUBALA,47 2 NEW TOWN MADHUBALA 815351,Health,21,861,2,15-19
3343,PARESH GORAI,24 5 COURT MORE GAI CHAND 815351,Resturant,14,561,2,10-14
3344,ROAD CONSTRUCTION PVT LTD,114 1 COURT ROAD 815352,ROAD CONSTRUCTION,9,421,1,10-14
3345,SANSKAR SCHOOL,70 2  815354,Education,20,851,9,15-19
3346,GRIN OOD SCHOOL,148 1  815354,Education,20,851,7,10-14
3347,HOMIO COLLEGE MIHIJAM,146 KORAPARA 815354,Education,20,853,1,30-99
3348,CHITTRANJAN NAIONAL COLLEGIAT SCHOO,36 L MIHIJAM KRISHNAGAR 815354,Education,20,852,9,30-99
3349,PRABIN BIPIN KHAINI,113 MIHIJAM P B ROAD 815354,खन  क  थ क ब क र  त ,12,472,2,20-24
3350,MIDDLE SCHOOL MALLIKPARA,4 KELAHI MIHIJAM 815354,Education,20,851,1,10-14
3351,MIARI MONTESWARI SCHOOL MIHIJAM,34 RAJBARI 815354,Education,20,851,2,15-19
3352,S S HIGH SCHOOL MIHIJAM,71 1  HIGH SCHOOL ROAD 815354,Education,20,852,1,15-19
3353,S  T EVENING COLLEGE MIHIJAM,116 815354,Education,20,853,1,30-99
3354,MIDDLE SCHOOL KONGOI,119 815354,Education,20,851,1,10-14
3355,UPGRADED M S BADOLIGARH,58 815354,Education,20,851,1,10-14
3356,GIRL M S MIHIJAM,81 CHITTARANJAN ROAD 815354,Education,20,851,1,10-14
3357,N A C MIHIJAM,JAMTARA ROAD 815354,Health,21,869,1,20-24
3358,MISHRA NURSING HOME MIHIJAM,38 2  815354,Health,21,862,2,10-14
3359,PRIMARY HELTH CENTRE MIHIJAM,KURMIPARA 815354,HEALTH SERVICE,21,861,1,15-19
3360,RAJKIYA BUNIYADI VIDHALAY MIHIJAM,50 1  MAIN ROAD MIHIJAM 815354,Education,20,851,1,20-24
3361,MIDDLE SCHOOL GERIA,59 815354,Education,20,852,1,10-14
3362,MIDDLE SCHOOL MARALO,13 815354,Education,20,851,1,10-14
3363,KASTURBA GANDHI RESIDENTAL,15 S T  SCHOOL CHAKNAYAPARA 815355,Education,20,852,1,10-14
3364,MESO GRAMIN HOSPITAL KUNJBONA,78 815355,Health,21,861,1,30-99
3365,DEOBRAT ENTERPRISES DHAWATANR,14 815355,Mining,5,81,4,20-24
3366,DEBAPRIYA SERVICE STATION,13 1 815355,Retail,12,473,2,10-14
3367,DAMODAR BHATTACHARYA CRESAR MACHIN,20 815355,Mining,5,81,2,10-14
3368,SARASWATI SHISHU MANDIR KUMRIDAHA,16 815355,Education,20,851,6,20-24
3369,SIDHU KANHU MURMU VISWABIDHALAY,DUMKA 814101,Education,20,853,1,25-29
3370,J A C RANCHI,BIRSADIH HAWAI NAGAR KHUNI NAGAR 834003,Education,20,855,1,20-24
3371,HIGH SCHOOL  2 NALA,20 815355,Education,20,852,1,10-14
3372,COMMUNITY HEALTH CENTRE,45 815355,Health,21,861,1,30-99
3373,ALKA STON WORKS,126 PALAJORI 815351,Mining,5,99,2,10-14
3374,LAXMI MATA STON,113 MOHNABANK 815351,Mining,5,81,3,30-99
3375,MIDDLE SCHOOL MANJHLADIH,55 815351,Education,20,852,1,10-14
3376,SANTAL MIDDLE SCHOOL,123 KARAIBANI 814166,Education,20,852,1,10-14
3377,SANTAL HIGH SCHOOL,126 814166,Education,20,852,1,10-14
3378,ST HOSTAL,128 KAIRABANI 814166,Hostel,14,551,7,15-19
3379,MIDDLE SCHOOL COKUNADA,40 814166,Education,20,851,1,10-14
3380,IRRIGATION OFFICE JAMTARA,815351,प न  क  आप तर ,19,821,1,10-14
3381,MODERN PUBLIC SCHOOL KUNDHIT,90 815359,Education,20,851,2,15-19
3382,SINGHWAHINI HIGH SCHOOL KUNDHIT,97 1  815359,Education,20,852,1,10-14
3383,SINGHWAHINI TRACTOR,154 815359,Transport,13,492,2,20-24
3384,C H C KUNDHIT,1 815359,Health,21,861,1,10-14
3385,BHAGWAT JHA AZAD COLLEGE,BAGHASOLA KUNDHIT 815359,Education,20,853,1,15-19
3386,WOMEN SELF HELP GRUOP,NATULTALA 815359,सरक र  जन  बतरण प रण ल  क  दक न,12,472,5,10-14
3387,SONAMUNI WOMEN SELF HELP GROUP,19 2  815359,सरक र  जन  बतरण प रण ल  क  दक न,12,472,5,10-14
3388,ADARSH MIDDL SCHOOL KHAJURI,21 2  815359,Education,20,851,1,10-14
3389,UPGRADED HIGH SCHOOL,1 SUDRAKSHIPUR 815359,Education,20,852,1,10-14
