S.No.,Name of the Establishment,Address,Major Activity Description,Broad Activity Code,NIC,Owners hip Code,"Employ ment Class
Interval"
1460,KASTURBA GANDHI AWASIYA VIDYALAY,MANIKA 829206,Education,20,852,1,15-19
1461,RESIDENTIAL SCHOOL,NETARHAT 822119,Education,20,852,1,100-199
1462,ST  TERESA HIGH SCHOOL,MAHUADANR 822119,Education,20,852,9,25-29
1463,ST  TERESA MIDDILE SCHOOL,MAHUADANR 822119,Education,20,851,9,15-19
1464,ST  JOSEPHS MIDDILE SCHOOL,MAHUADANR 822119,Education,20,851,9,20-24
1465,ST  JOSEPHS PLUS TWO HIGH SCHOOL,MAHUADANR 829206,Education,20,852,9,30-99
1466,DISTRICT EDUCATION OFFICE,LATEHAR NAWAGARH 829207,Education,19,821,1,15-19
1467,DIST  EDU SUPRETENDENT OFFICE,LATEHAR 829207,Education,19,821,1,10-14
1468,DIST  EDU  SUPERTENDENT OFFICE,132 LATEHAR 829207,Education,19,821,1,10-14
1469,NAVODAY VIDYALAY SAMITI,NOIDA DILLI BAJKUM 829206,Education,20,852,1,30-99
1470,DIST  EDU  SUPRETEDENT OFFICE,LATEHAR 829206,Education,19,821,1,10-14
1471,DIST  EDU  SUPRETENDENT OFFICE,LATEHAR 829206,Education,19,821,1,10-14
1472,N P U MEDININAGAR,197 PALAMU POLYTECHNIC ROAD 829206,Education,20,853,1,30-99
1473,GANDHI INTER COLLEGE,LATEHAR 829206,Education,20,852,1,20-24
1474,BHARTIYA STATE BANK,MUMBAI MAIN ROAD LATEHAR 829206,Banking,16,641,1,15-19
1475,DIST  EDU  SUPRETENDENT OFFICE,LATEHAR 829206,Education,19,821,1,15-19
1476,VIDYA VIKAS SAMITI,JHARKHAND DHARMPUR LATEHAR 829206,Education,20,852,2,30-99
1477,DAV PUBLIC  SCHOOL DAV CUMPS,LATEHAR LATEHAR 829206,Education,20,852,9,30-99
1478,DISTRICT EDUCATION OFFICER,LATEHAR 829202,Education,19,821,1,15-19
1479,PLUS 2 HIGH SCHOOL,LATEHAR 829202,Education,20,852,1,15-19
1480,STATE BANK OF INDIA,LATEHAR 829203,BANKING SERVICE,16,641,1,10-14
1481,ACRA ACARDMI,MD  RIJWAN DANISH 829203,Education,20,851,2,10-14
1482,STATE BANK OF INDIA,CORPORATE OFFICE MUMBAI 829203,BANKING SERVICE,16,641,1,10-14
1483,CHANDAN MAIN STONE ACARDMI,VISHWANATH PRASAD CHANDWA 829203,Education,20,851,2,10-14
1484,KHRIST RAJA HIGH SCHOOL,CHANDWA 829203,Education,20,852,2,10-14
1485,DIST  EDU  OFFICE,100  1  LATEHAR,Education,19,821,1,20-24
3302,BALI YADAV,76 MANIKA 822126,BRICKS MANUFACHRING,6,239,2,20-24
3303,KARMEL HOSPITAL,MAHUADANR 822119,MEDICAL,21,861,9,10-14
3304,VAIDIC SOSAYATI,LATEHAR MAKO BANGLA 829206,N G O ,23,960,7,25-29
3305,CIVIL SURGAN OFFICE,LATEHAR 829206,MEDICAL SERVICE,19,821,1,25-29
3306,MAHAVEER TAWAR RANCHI,2 HEAD BRANCH TWO ASHOK NAGAR RANCHI 835001,POWER PLANT,7,351,4,100-199
3307,JHARKHAND STATE MAINES LTD ,RANCHI JHARKHAND 829203,Mining,5,51,1,30-99
3308,INT BHATTHA CHIMNI,LUKUIYA CHANDWA 829203,BRICKS MANUFACHRING,6,239,2,25-29
3309,ASSAR POWER LTD ,153  1  CHANDWA 829203,POWER TRANSMITION,7,351,2,15-19
