1,AGRICULTURE  FORESTRY AND FISHING
2,MINING AND QUARRYING
3,MANUFACTURING
4,ELECTRICITY GAS STEAM AND AIRCONDITION SUPPLY
5,WATER SUPPLY SEWERAGE WASTE MANAGEMENT AND REMEDIATION ACTIVITIES
6,CONSTRUCTION
7,WHOLESALE AND RETAIL TRADE REPAIR OF MOTORVEHICLES AND MOTORCYCLES
8,TRANSPORT AND STORAGE
9,ACCOMODATION AND FOOD SERVICE ACTIVITIES
10,INFORMATION AND COMMUNICATION
11,FINANCIAL AND INSURANCE ACTIVITIES
12,REAL ESTATE ACTIVITIES
13,PROFESSIONAL  SCIENTIFIC AND TECHNICAL ACTIVITIES
14,ADMINISTRATIVE AND SUPPORT SERVICE ACTIVITIES
15,PUBLIC ADMINISTRATION AND DEFENCE COMPULSORY SOCIAL SECURITY
16,EDUCATION
17,HUMAN HEALTH AND SOCIAL WORK ACTIVITIES
18,ARTS ENTERTAINMENT AND RECREATION
19,OTHER SERVICE ACTIVITIES
20,ACTIVITIES OF HOUSEHOLDS AS EMPLOYERS UNDIFFERENTIATED GOODS AND SERVICES-PRODUCING ACTIVITIES OF HOUSEHOLDS FOR OWN USE
21,ACTIVITIES OF EXTRATERRITORIAL ORGANISATIONS AND BODIES