dist_id,sect_id,no_emp
3501,8,29
3501,16,478
3501,6,280
3501,11,12
3501,17,307
3501,9,17
3501,7,76
3501,19,17
3501,3,27
3501,1,22
3501,4,12
3502,16,2334
3502,6,309
3502,9,24
3502,4,227
3502,2,148
3502,17,629
3502,1,188
3502,11,92
3502,8,115
3502,10,29
3502,3,216
3502,7,68
3502,14,22
3502,13,12
3503,18,353
3503,9,2445
3503,8,752
3503,3,995
3503,7,1547
3503,13,1190
3503,11,512
3503,10,360
3503,16,4701
3503,14,965
3503,1,392
3503,6,1771
3503,17,1541
3503,4,937
3503,5,289
3503,2,76
3503,19,17
3712,16,27725
3712,3,22045
3712,11,4832
3712,10,635
3712,7,5438
3712,9,3121
3712,2,392
3712,8,1788
3712,17,3489
3712,4,1173
3712,13,558
3712,6,143
3712,18,1209
3712,14,268
3712,19,542
3712,12,93
3712,5,188
3712,1,280
3713,3,29636
3713,8,5372
3713,11,3322
3713,16,27537
3713,5,280
3713,13,687
3713,18,523
3713,19,1999
3713,10,1697
3713,2,1965
3713,7,4476
3713,9,4608
3713,1,1847
3713,17,5539
3713,4,1160
3713,14,731
3713,6,740
3713,12,85
3704,3,46995
3704,7,4950
3704,11,4213
3704,16,22662
3704,10,515
3704,4,2123
3704,17,5458
3704,8,3507
3704,13,311
3704,2,1552
3704,9,1599
3704,18,598
3704,14,446
3704,6,247
3704,19,936
3704,1,2649
3704,12,81
3704,5,12
3707,3,50620
3707,16,24943
3707,1,1856
3707,8,4602
3707,4,1104
3707,11,3889
3707,7,5797
3707,10,430
3707,12,41
3707,17,4997
3707,13,376
3707,5,134
3707,9,3499
3707,14,510
3707,18,819
3707,19,392
3707,6,690
3710,17,2437
3710,3,8809
3710,11,2316
3710,6,745
3710,16,16393
3710,8,2172
3710,2,2131
3710,19,2778
3710,7,2297
3710,4,1168
3710,10,180
3710,12,12
3710,9,1003
3710,18,157
3710,5,65
3710,1,88
3710,14,258
3706,3,54221
3706,6,17087
3706,7,21766
3706,11,6865
3706,8,8448
3706,4,4832
3706,10,1753
3706,16,36855
3706,1,4173
3706,17,10343
3706,2,1019
3706,9,8983
3706,18,840
3706,19,1424
3706,14,775
3706,13,814
3706,5,1021
3706,12,876
3711,3,18191
3711,7,6072
3711,8,2952
3711,9,3820
3711,16,19395
3711,6,516
3711,11,1239
3711,4,800
3711,17,3340
3711,14,168
3711,10,206
3711,19,1718
3711,2,715
3711,1,559
3711,5,51
3711,18,177
3711,13,237
3709,11,5336
3709,17,4666
3709,7,5085
3709,8,945
3709,2,661
3709,16,20355
3709,3,13686
3709,13,309
3709,10,282
3709,4,845
3709,1,1246
3709,18,357
3709,5,93
3709,19,671
3709,9,3776
3709,14,377
3709,6,795
3709,12,51
3708,3,15750
3708,16,18666
3708,17,3541
3708,9,1109
3708,10,470
3708,11,2017
3708,19,76
3708,7,2301
3708,2,8569
3708,8,2623
3708,4,1135
3708,1,4425
3708,14,380
3708,13,56
3708,12,188
3708,18,158
3708,6,733
3708,5,46
3701,8,1833
3701,3,15642
3701,4,297
3701,10,99
3701,11,1646
3701,14,166
3701,19,633
3701,16,10915
3701,5,105
3701,7,1412
3701,17,3086
3701,1,178
3701,2,1289
3701,9,1891
3701,18,287
3701,13,407
3701,6,564
3703,3,28082
3703,11,4198
3703,6,1770
3703,16,18249
3703,4,864
3703,17,6736
3703,8,2150
3703,7,7495
3703,10,1421
3703,9,3650
3703,18,582
3703,1,719
3703,2,849
3703,19,330
3703,13,388
3703,14,1551
3703,12,195
3702,11,1297
3702,16,15022
3702,8,2091
3702,7,2345
3702,2,5482
3702,3,16742
3702,17,3078
3702,4,1054
3702,10,518
3702,9,782
3702,19,290
3702,14,105
3702,18,265
3702,6,2632
3702,13,88
3702,1,997
3702,5,36
3705,3,25306
3705,13,1268
3705,11,2643
3705,16,17458
3705,14,764
3705,10,645
3705,8,3571
3705,1,3826
3705,7,3981
3705,17,3275
3705,4,955
3705,9,1913
3705,18,434
3705,6,137
3705,2,662
3705,19,774
3705,5,170
1216,4,171
1216,16,76
1216,6,64
1209,16,899
1209,17,288
1209,3,672
1209,6,113
1209,8,17
1209,4,129
1209,2,226
1209,5,27
1209,19,12
1209,11,12
1213,16,137
1213,17,64
1203,1,175
1203,16,678
1203,17,163
1203,14,790
1203,4,17
1203,5,51
1203,8,27
1203,6,17
1203,3,29
1203,9,12
1203,13,64
1203,11,17
1207,13,29
1207,16,127
1207,11,12
1207,17,98
1207,3,17
1207,6,17
1207,4,64
1207,1,64
1207,14,12
1212,16,149
1212,17,108
1212,5,39
1212,11,27
1215,16,2075
1215,6,234
1215,3,923
1215,19,112
1215,4,219
1215,17,363
1215,7,88
1215,11,46
1215,5,173
1215,8,88
1215,10,73
1215,9,141
1215,14,22
1215,1,29
1215,13,12
1211,3,156
1211,17,130
1211,16,546
1211,1,56
1211,13,249
1211,5,64
1211,19,17
1211,11,61
1211,4,280
1211,7,12
1211,8,22
1211,6,27
1211,9,27
1211,14,98
1204,14,1151
1204,17,726
1204,10,452
1204,6,214
1204,7,1305
1204,16,1624
1204,4,105
1204,1,147
1204,8,120
1204,13,535
1204,3,364
1204,11,484
1204,9,820
1204,18,17
1204,19,58
1201,16,393
1201,5,12
1201,4,58
1201,9,34
1201,11,17
1201,10,22
1201,8,12
1201,6,81
1201,3,86
1201,7,29
1210,17,231
1210,16,424
1210,11,49
1210,3,146
1208,16,251
1208,13,233
1208,7,12
1208,3,91
1208,6,46
1208,11,12
1208,17,115
1208,1,86
1208,5,27
1208,4,64
1208,14,12
1205,10,24
1205,11,34
1205,16,133
1205,8,12
1205,3,12
1205,9,12
1205,17,64
1202,16,551
1202,17,158
1202,9,75
1202,11,58
1202,14,12
1202,4,12
1202,3,270
1202,7,17
1202,10,64
1202,6,81
1202,1,17
1202,19,64
1206,3,451
1206,16,1852
1206,11,83
1206,8,12
1206,7,110
1206,17,423
1206,2,34
1206,14,17
1206,9,34
1206,6,64
1825,4,17
1825,11,338
1825,16,7193
1825,3,1283
1825,9,147
1825,7,116
1825,13,34
1825,17,661
1825,14,12
1825,1,36
1825,6,12
1825,2,183
1825,5,27
1825,18,64
1804,11,1187
1804,17,867
1804,13,185
1804,4,12
1804,14,122
1804,8,132
1804,1,1389
1804,16,9584
1804,10,17
1804,18,1720
1804,9,89
1804,7,371
1804,3,7159
1804,19,156
1804,5,64
1804,6,349
1820,11,758
1820,14,279
1820,16,5468
1820,8,168
1820,10,103
1820,3,1291
1820,4,64
1820,7,351
1820,13,209
1820,6,103
1820,1,24
1820,17,734
1820,9,250
1817,11,987
1817,10,66
1817,8,474
1817,14,41
1817,3,11730
1817,4,331
1817,17,1917
1817,6,577
1817,9,341
1817,16,6320
1817,2,237
1817,19,46
1817,13,88
1817,7,1179
1817,1,65
1817,18,275
1817,5,64
1821,11,39
1821,16,2482
1821,19,12
1821,6,105
1821,3,187
1821,17,343
1821,9,46
1821,14,24
1821,8,12
1821,7,68
1821,13,91
1826,16,6524
1826,11,528
1826,4,146
1826,8,76
1826,3,2952
1826,9,172
1826,17,741
1826,6,105
1826,7,249
1826,1,105
1826,2,29
1826,13,12
1826,18,22
1826,5,64
1826,14,64
1809,16,6965
1809,11,34
1809,8,17
1809,10,22
1809,4,64
1809,9,82
1809,19,24
1809,13,12
1809,3,379
1809,6,575
1809,7,72
1809,1,65
1809,17,442
1809,5,12
1809,14,17
1802,11,423
1802,7,254
1802,16,8501
1802,8,117
1802,10,76
1802,17,963
1802,14,81
1802,4,86
1802,3,12157
1802,13,141
1802,19,12
1802,9,36
1802,5,12
1802,18,173
1802,6,22
1802,2,555
1811,8,467
1811,9,777
1811,16,8656
1811,11,1310
1811,17,3706
1811,10,739
1811,3,16198
1811,13,1870
1811,4,1006
1811,6,441
1811,7,1538
1811,19,70
1811,2,1072
1811,1,428
1811,18,181
1811,5,81
1811,14,499
1816,11,95
1816,8,24
1816,10,34
1816,13,39
1816,16,2617
1816,4,64
1816,17,373
1816,3,181
1816,1,29
1816,7,48
1816,2,12
1816,9,17
1816,19,27
1803,11,496
1803,4,98
1803,14,24
1803,16,6317
1803,17,1331
1803,8,95
1803,13,61
1803,7,458
1803,9,80
1803,18,34
1803,3,462
1803,1,41
1803,6,12
1803,2,73
1803,19,193
1814,4,153
1814,11,1246
1814,13,617
1814,3,9225
1814,8,109
1814,5,29
1814,2,338
1814,16,5751
1814,9,803
1814,17,1648
1814,7,261
1814,1,1168
1814,19,12
1814,6,161
1814,18,34
1819,11,141
1819,13,187
1819,4,36
1819,8,110
1819,3,2031
1819,10,76
1819,16,3381
1819,17,600
1819,7,24
1819,6,12
1819,5,12
1819,19,12
1819,18,103
1813,11,1719
1813,8,70
1813,16,7907
1813,3,9050
1813,14,372
1813,13,362
1813,4,39
1813,7,1125
1813,9,323
1813,6,76
1813,17,2161
1813,1,183
1813,18,503
1813,2,34
1823,11,5849
1823,3,16472
1823,19,1282
1823,16,13951
1823,7,7713
1823,8,2511
1823,13,4760
1823,14,730
1823,10,3261
1823,17,6052
1823,6,753
1823,4,319
1823,9,4105
1823,18,1338
1823,1,172
1823,5,88
1823,12,29
1823,2,41
1822,11,1097
1822,8,241
1822,6,531
1822,14,105
1822,4,351
1822,16,12731
1822,13,706
1822,7,393
1822,1,740
1822,17,1049
1822,9,259
1822,3,8146
1822,19,250
1822,2,287
1822,18,178
1822,10,12
1822,5,64
1815,11,116
1815,4,187
1815,8,53
1815,10,24
1815,16,3946
1815,3,1907
1815,13,144
1815,9,60
1815,6,80
1815,7,129
1815,17,988
1815,19,88
1815,2,34
1815,5,17
1815,1,149
1818,11,413
1818,8,999
1818,10,56
1818,4,168
1818,14,639
1818,16,3528
1818,3,5516
1818,13,187
1818,7,196
1818,17,740
1818,9,24
1818,2,17
1818,5,17
1818,6,156
1801,1,87
1801,11,399
1801,8,100
1801,16,5030
1801,10,108
1801,4,64
1801,14,64
1801,6,545
1801,13,421
1801,3,753
1801,17,546
1801,9,94
1801,7,109
1801,18,448
1801,19,34
1808,8,97
1808,11,568
1808,10,51
1808,16,13369
1808,4,88
1808,7,501
1808,14,129
1808,9,180
1808,13,319
1808,6,127
1808,1,53
1808,2,53
1808,3,2976
1808,17,1350
1808,18,53
1808,5,76
1808,19,51
1805,11,180
1805,8,132
1805,10,12
1805,7,281
1805,16,5914
1805,14,163
1805,13,206
1805,1,146
1805,9,92
1805,17,554
1805,3,2397
1805,19,41
1805,6,550
1805,2,358
1805,18,70
1806,11,1672
1806,7,1241
1806,4,772
1806,8,234
1806,1,358
1806,16,19388
1806,17,2740
1806,3,10268
1806,10,120
1806,2,523
1806,9,501
1806,13,1153
1806,6,1019
1806,5,190
1806,18,424
1806,19,402
1806,14,409
1806,12,64
1824,11,1059
1824,4,83
1824,3,3222
1824,16,9495
1824,8,251
1824,7,282
1824,13,442
1824,6,92
1824,17,1189
1824,18,299
1824,1,418
1824,14,29
1824,9,209
1812,11,6054
1812,10,41
1812,16,14341
1812,8,274
1812,13,614
1812,9,270
1812,2,1282
1812,14,742
1812,1,14308
1812,3,19377
1812,4,737
1812,7,668
1812,17,1676
1812,6,210
1812,18,238
1812,5,39
1812,12,12
1812,19,76
1807,11,804
1807,8,275
1807,16,9492
1807,7,1695
1807,17,2781
1807,14,24
1807,19,514
1807,13,596
1807,3,11017
1807,4,73
1807,10,105
1807,9,594
1807,18,122
1807,6,678
1807,1,65
1807,12,76
1807,2,128
1807,5,349
1810,11,1974
1810,7,1617
1810,17,2482
1810,4,508
1810,16,7396
1810,8,425
1810,13,2442
1810,3,20700
1810,10,154
1810,14,368
1810,9,411
1810,19,197
1810,2,168
1810,1,2186
1810,18,202
1810,6,192
1827,11,359
1827,4,29
1827,13,782
1827,3,5158
1827,8,240
1827,16,4385
1827,9,75
1827,19,64
1827,17,573
1827,7,65
1827,6,39
1827,2,105
1827,1,17
1827,5,64
1007,16,2736
1007,3,1770
1007,8,266
1007,7,610
1007,9,64
1007,17,115
1007,11,90
1007,10,22
1007,19,12
1038,3,397
1038,16,2371
1038,19,12
1038,7,53
1038,17,97
1038,14,158
1038,11,36
1038,10,12
2719,3,20365
2719,16,24448
2719,11,3990
2719,7,6445
2719,10,869
2719,9,2393
2719,8,3206
2719,14,3344
2719,17,5877
2719,12,56
2719,19,1407
2719,13,2364
1023,11,170
1023,3,209
1023,7,146
1023,16,1762
1023,17,514
1023,10,39
1023,8,64
1020,16,4866
1020,8,771
1020,7,840
1020,14,650
1020,19,128
1020,11,331
1020,9,318
1020,4,41
1020,17,323
1020,13,60
1020,3,2313
1020,1,53
1020,2,149
1020,6,81
1020,10,64
1022,16,3569
1022,17,301
1022,11,676
1022,3,955
1022,7,327
1022,8,122
1022,9,116
1022,14,183
1022,1,29
1022,6,64
1022,10,24
1022,13,36
1029,16,2891
1029,3,864
1029,7,833
1029,17,525
1029,1,24
1029,14,434
1029,8,12
1029,11,500
1029,9,71
1029,4,64
1030,16,3875
1030,17,397
1030,7,270
1030,3,852
1030,11,375
1030,18,46
1030,13,12
1030,6,27
1030,8,76
1030,4,34
1030,9,24
1030,10,24
1030,14,76
1013,16,4301
1013,3,1635
1013,7,399
1013,17,435
1013,11,543
1013,8,24
1013,14,12
1013,13,27
1013,6,22
1013,9,29
1013,18,17
1034,9,830
1034,16,3720
1034,17,593
1034,11,892
1034,3,2343
1034,19,41
1034,10,141
1034,7,760
1034,8,345
1034,12,12
1034,14,34
1034,13,17
1015,3,2325
1015,16,3497
1015,8,222
1015,11,184
1015,17,187
1015,14,68
1015,7,224
1015,18,58
1015,4,76
1015,13,24
1015,1,12
1015,6,12
1015,9,66
1036,16,926
1036,6,378
1036,3,105
1036,19,22
1036,17,518
1036,13,22
1036,14,95
1036,11,127
1036,10,17
1036,4,64
1036,7,91
1036,8,22
1037,8,141
1037,11,163
1037,18,12
1037,16,1818
1037,10,64
1037,7,12
1037,5,49
1037,3,278
1037,17,108
1031,16,3796
1031,3,1314
1031,19,34
1031,17,168
1031,11,24
1031,7,61
1031,9,41
1010,16,2418
1010,3,3512
1010,17,562
1010,7,882
1010,11,619
1010,8,407
1010,14,27
1010,4,22
1010,9,205
1021,16,3047
1021,19,34
1021,7,266
1021,3,334
1021,17,391
1021,8,202
1021,9,80
1021,11,182
1021,10,12
1021,1,17
1021,18,12
1021,14,64
1008,3,859
1008,16,460
1008,14,64
1008,1,273
1008,11,195
1008,17,22
1008,7,48
1008,8,12
1008,10,39
1025,3,1073
1025,16,2226
1025,4,166
1025,13,349
1025,17,250
1025,8,426
1025,11,12
1025,19,86
1025,9,12
1011,3,1435
1011,12,81
1011,16,4666
1011,17,470
1011,11,292
1011,14,98
1011,1,73
1011,19,27
1011,13,12
1011,7,211
1011,6,22
1011,10,27
1011,8,51
1011,9,51
1005,16,4638
1005,17,533
1005,3,1619
1005,7,265
1005,18,12
1005,11,478
1005,9,46
1005,14,22
1005,1,64
1005,8,48
1024,11,523
1024,13,125
1024,7,125
1024,9,177
1024,16,3548
1024,17,536
1024,8,236
1024,3,1549
1024,10,76
1024,4,51
1024,19,12
1024,14,64
1024,5,22
1024,6,22
1014,11,828
1014,16,5257
1014,17,610
1014,3,3258
1014,7,790
1014,9,124
1014,14,173
1014,6,24
1014,18,12
1014,8,73
1014,4,149
1014,19,24
1014,12,86
1014,13,12
1027,16,5868
1027,14,599
1027,13,320
1027,17,1230
1027,9,386
1027,3,1454
1027,7,298
1027,11,377
1027,4,151
1027,6,12
1027,19,61
1027,18,70
1027,8,170
1035,16,6108
1035,3,2323
1035,13,258
1035,17,370
1035,8,214
1035,7,321
1035,4,149
1035,11,577
1035,14,64
1001,16,2211
1001,17,424
1001,18,41
1001,7,381
1001,11,277
1001,8,97
1001,3,2264
1001,9,12
1001,19,76
1001,14,17
1001,12,76
1001,4,64
1028,18,480
1028,16,7797
1028,7,2209
1028,11,1316
1028,14,1230
1028,8,556
1028,17,3076
1028,19,200
1028,3,6707
1028,10,243
1028,4,326
1028,9,775
1028,12,451
1028,13,80
1028,1,12
1009,7,641
1009,18,65
1009,3,2593
1009,17,724
1009,9,326
1009,11,475
1009,16,2657
1009,8,336
1009,10,22
1009,14,64
1009,19,12
1002,16,3150
1002,17,350
1002,7,269
1002,11,469
1002,3,1444
1002,8,78
1002,9,139
1002,18,12
1002,14,115
1002,4,24
1002,10,64
1002,19,22
1032,16,8232
1032,1,130
1032,11,649
1032,3,4270
1032,18,53
1032,7,477
1032,14,103
1032,13,158
1032,17,911
1032,19,151
1032,4,56
1032,8,139
1032,9,134
1032,6,88
1032,10,76
1012,16,2857
1012,7,211
1012,4,64
1012,3,1375
1012,17,297
1012,8,163
1012,14,144
1012,11,46
1019,1,41
1019,16,8770
1019,6,422
1019,3,3860
1019,17,745
1019,14,88
1019,8,423
1019,13,98
1019,11,658
1019,7,325
1019,2,17
1019,4,34
1019,10,93
1019,9,29
1019,19,24
1017,9,214
1017,16,6450
1017,8,244
1017,17,549
1017,3,183
1017,6,1083
1017,11,402
1017,7,291
1017,4,85
1017,19,46
1017,18,12
1017,14,110
1017,13,166
1017,10,100
1017,1,24
1026,16,1093
1026,18,17
1026,11,46
1026,3,1685
1026,7,63
1026,17,164
1026,19,22
1026,8,12
1003,16,629
1003,3,681
1003,17,76
1003,11,29
1004,16,364
1004,3,1195
1004,14,27
1004,17,220
1004,1,24
1004,19,12
1004,13,17
1004,7,81
1004,10,64
1004,18,29
1016,16,2795
1016,3,645
1016,10,12
1016,11,112
1016,17,314
1016,18,76
1006,3,795
1006,16,1449
1006,11,146
1006,18,41
1006,17,94
1006,12,12
1006,8,64
1006,7,110
1006,4,149
1006,10,24
1018,16,4829
1018,11,910
1018,17,525
1018,9,217
1018,7,683
1018,8,222
1018,18,145
1018,3,2317
1018,19,22
1018,6,64
1018,10,105
1018,14,86
0401,18,748
0401,8,2183
0401,7,9601
0401,9,7651
0401,10,20944
0401,11,10786
0401,13,3617
0401,3,8188
0401,14,4848
0401,16,14959
0401,17,3803
0401,6,782
0401,19,1294
0401,4,449
0401,12,97
0401,5,195
0401,1,61
2215,16,4457
2215,14,784
2215,11,554
2215,7,1045
2215,3,1606
2215,9,498
2215,8,1126
2215,10,272
2215,17,1363
2215,4,151
2215,1,241
2215,19,75
2215,6,287
2215,5,12
2215,2,675
2215,13,34
2218,9,1149
2218,4,316
2218,16,6199
2218,8,90
2218,7,1340
2218,11,1195
2218,17,2182
2218,13,170
2218,3,2238
2207,3,9222
2207,16,15878
2207,9,1507
2207,10,723
2207,11,2156
2207,1,122
2207,2,901
2207,17,3184
2207,4,1888
2207,8,1164
2207,7,3144
2207,14,682
2207,6,747
2207,13,255
2207,19,346
2207,18,156
2207,12,22
2207,5,153
2217,3,752
2217,16,2097
2217,17,654
2217,11,95
2217,9,217
2217,14,237
2217,4,115
2217,7,90
2217,6,743
2217,13,158
2217,8,438
2213,7,323
2213,3,2595
2213,11,361
2213,2,27
2213,16,2016
2213,17,624
2213,1,53
2213,4,64
2213,10,64
2213,9,333
2213,8,68
2213,13,12
2210,3,25876
2210,16,18268
2210,1,865
2210,7,2974
2210,17,2512
2210,4,1231
2210,8,1887
2210,13,668
2210,9,2315
2210,14,868
2210,11,1521
2210,6,547
2210,18,193
2210,10,682
2210,2,2351
2210,5,120
2210,12,88
2210,19,17
2206,7,671
2206,3,3390
2206,16,3639
2206,11,391
2206,17,335
2206,9,242
2206,8,177
2206,5,60
2206,4,1393
2206,14,219
2206,2,1560
2206,13,63
2206,18,27
2206,19,17
2206,12,12
2203,16,2087
2203,3,674
2203,6,56
2203,11,100
2203,2,27
2203,17,394
2203,9,36
2203,19,12
2203,7,139
2203,8,17
2203,1,12
2214,17,586
2214,6,134
2214,11,297
2214,16,1854
2214,4,81
2214,3,814
2214,10,46
2214,9,283
2214,7,317
2214,8,173
2214,5,129
2214,1,24
2214,2,22
2214,13,36
2214,19,24
2208,4,53
2208,16,1592
2208,8,51
2208,11,157
2208,3,2585
2208,17,521
2208,1,12
2208,9,202
2208,14,91
2208,7,195
2208,6,12
2208,2,27
2205,2,3440
2205,16,3770
2205,4,2714
2205,7,1572
2205,13,238
2205,17,907
2205,11,646
2205,8,503
2205,9,544
2205,12,24
2205,6,76
2205,10,91
2205,14,1860
2205,3,1937
2205,1,81
2205,5,103
2205,19,12
2201,2,5558
2201,14,169
2201,3,545
2201,16,2509
2201,17,755
2201,4,41
2201,1,29
2201,8,241
2201,10,12
2201,11,197
2201,7,369
2201,6,299
2201,12,12
2201,5,146
2201,9,73
2201,13,29
2201,18,12
2212,16,2873
2212,17,384
2212,11,296
2212,6,171
2212,13,98
2212,7,551
2212,14,29
2212,9,276
2212,8,29
2212,10,29
2212,4,60
2212,3,2772
2212,1,244
2212,2,36
2216,7,146
2216,16,339
2216,1,93
2216,9,12
2216,17,141
2216,3,24
2216,11,17
2204,17,5348
2204,13,529
2204,16,19078
2204,11,2676
2204,4,3101
2204,7,4814
2204,14,285
2204,8,6536
2204,3,38057
2204,9,4967
2204,2,4741
2204,19,389
2204,1,431
2204,18,137
2204,6,1241
2211,4,981
2211,11,4294
2211,10,2095
2211,13,845
2211,7,8518
2211,16,19364
2211,17,6438
2211,3,41222
2211,14,292
2211,9,3767
2211,18,540
2211,19,274
2211,6,834
2211,12,194
2211,8,1723
2211,1,730
2211,2,632
2211,5,231
2209,9,479
2209,3,9552
2209,16,6235
2209,6,169
2209,1,1817
2209,8,333
2209,7,1381
2209,4,395
2209,11,519
2209,17,1034
2209,10,56
2209,2,314
2209,19,93
2209,14,80
2209,13,241
2209,5,185
2202,3,2884
2202,16,3589
2202,2,2158
2202,8,475
2202,11,294
2202,17,1596
2202,14,386
2202,4,107
2202,7,478
2202,5,64
2202,9,174
2202,6,414
2202,10,214
2601,3,66642
2601,7,3620
2601,4,349
2601,16,294
2601,9,971
2601,14,401
2601,5,193
2601,1,64
2601,8,76
2601,10,64
2601,6,146
2601,19,76
2601,11,117
2601,13,64
2601,17,97
2502,16,631
2502,13,86
2502,3,51494
2502,14,224
2502,9,454
2502,11,177
2502,4,81
2502,17,220
2502,7,126
2502,10,64
2502,2,132
2502,8,17
2502,6,12
2502,1,17
2502,19,24
2501,10,12
2501,9,718
2501,3,579
2501,7,200
2501,1,1198
2501,8,149
0706,17,8435
0706,8,4710
0706,14,1709
0706,3,180950
0706,10,2415
0706,16,7624
0706,11,6546
0706,13,2241
0706,7,8075
0706,4,1327
0706,9,3167
0706,19,1102
0706,18,394
0706,12,134
0706,6,174
0706,5,139
0705,17,6035
0705,14,4236
0705,4,2879
0705,10,3741
0705,13,10259
0705,16,13932
0705,11,16527
0705,19,2218
0705,3,55227
0705,9,13253
0705,7,13227
0705,18,1744
0705,8,8428
0705,6,1821
0705,12,354
0705,5,563
0704,8,1423
0704,7,4527
0704,16,6276
0704,17,2717
0704,3,11683
0704,13,1654
0704,11,2131
0704,10,590
0704,4,374
0704,9,917
0704,6,190
0704,14,450
0704,18,137
0704,5,271
0704,12,98
0704,19,213
0704,1,12
0702,16,5811
0702,17,2697
0702,7,5014
0702,10,691
0702,3,206657
0702,4,1710
0702,14,1707
0702,11,1481
0702,8,18924
0702,9,1356
0702,13,647
0702,19,770
0702,12,124
0702,1,27
0702,5,141
0702,6,73
0702,18,51
0703,16,3700
0703,7,1566
0703,3,21978
0703,4,275
0703,17,545
0703,6,112
0703,19,340
0703,11,351
0703,8,380
0703,14,122
0703,9,1080
0703,10,27
0703,13,116
0703,5,75
0703,18,41
0701,14,2098
0701,17,3440
0701,8,4617
0701,10,4411
0701,9,2623
0701,12,1478
0701,11,5134
0701,4,1553
0701,3,39706
0701,18,578
0701,7,9030
0701,5,770
0701,16,7464
0701,19,941
0701,6,1048
0701,13,5383
0710,17,3590
0710,14,863
0710,16,4702
0710,3,71812
0710,7,3823
0710,5,176
0710,19,730
0710,4,324
0710,10,353
0710,9,997
0710,13,433
0710,8,1332
0710,11,926
0710,6,29
0710,12,41
0710,1,12
0710,18,12
0709,17,5476
0709,16,8676
0709,13,3280
0709,6,753
0709,14,918
0709,9,3817
0709,10,1635
0709,4,794
0709,7,3172
0709,3,4296
0709,5,319
0709,8,784
0709,19,933
0709,11,2548
0709,18,283
0709,12,58
0711,17,5858
0711,7,43741
0711,16,10067
0711,8,9323
0711,3,65791
0711,14,12805
0711,19,3293
0711,18,3647
0711,13,31412
0711,10,7942
0711,9,8013
0711,6,2680
0711,5,1025
0711,11,5384
0711,12,905
0711,4,950
0711,1,64
0708,16,8159
0708,11,1155
0708,3,7117
0708,6,349
0708,14,556
0708,7,1601
0708,17,1596
0708,10,195
0708,4,370
0708,8,489
0708,9,530
0708,5,64
0708,13,351
0708,1,64
0708,19,124
0708,12,22
0708,18,22
0707,17,5761
0707,3,25035
0707,13,2528
0707,9,3711
0707,16,11266
0707,10,1660
0707,7,8197
0707,11,5585
0707,14,1843
0707,4,1004
0707,8,2218
0707,6,562
0707,5,132
0707,18,176
0707,19,853
0707,12,70
3001,16,7523
3001,8,796
3001,14,4066
3001,3,23049
3001,7,5312
3001,9,11968
3001,19,11985
3001,6,2162
3001,11,3862
3001,13,1201
3001,18,970
3001,4,350
3001,1,1042
3001,17,2597
3001,10,1368
3001,5,211
3001,12,236
3001,2,324
3002,11,1736
3002,16,7924
3002,14,3103
3002,8,1094
3002,3,8176
3002,6,1726
3002,19,4965
3002,12,41
3002,9,9001
3002,1,900
3002,2,713
3002,7,3972
3002,18,411
3002,17,2646
3002,13,835
3002,4,251
3002,10,247
3002,5,102
2407,10,6850
2407,3,61187
2407,11,11765
2407,7,11975
2407,2,182
2407,16,16504
2407,14,2469
2407,9,5955
2407,17,9415
2407,6,1372
2407,13,4926
2407,4,2015
2407,19,1013
2407,8,2834
2407,18,526
2407,1,530
2407,5,205
2407,12,197
2413,3,37797
2413,16,3546
2413,17,270
2413,11,196
2413,7,146
2413,10,88
2413,4,896
2413,8,747
2413,13,210
2413,1,305
2413,2,129
2413,19,44
2413,9,46
2415,16,11088
2415,1,461
2415,3,15660
2415,17,2587
2415,18,1002
2415,7,1590
2415,11,1721
2415,8,714
2415,4,854
2415,9,1103
2415,13,626
2415,14,146
2415,12,24
2415,19,127
2415,10,416
2415,6,87
2415,2,46
2415,5,12
2402,16,11831
2402,3,9112
2402,17,1900
2402,19,171
2402,9,410
2402,8,3792
2402,2,176
2402,4,857
2402,7,1254
2402,14,2425
2402,10,214
2402,13,536
2402,11,832
2402,1,905
2402,18,29
2402,6,29
2402,5,12
2421,3,45284
2421,16,1696
2421,9,498
2421,17,358
2421,4,718
2421,1,76
2421,11,161
2421,7,593
2421,8,263
2421,19,175
2421,10,29
2421,5,582
2414,16,7467
2414,4,1230
2414,7,3030
2414,3,47151
2414,14,200
2414,2,709
2414,17,946
2414,19,956
2414,10,76
2414,1,388
2414,11,1153
2414,9,536
2414,8,225
2414,6,185
2414,18,170
2414,5,1485
2414,13,39
2418,16,4951
2418,17,988
2418,7,275
2418,3,2436
2418,11,500
2418,9,112
2418,12,12
2418,8,775
2418,6,64
2418,4,380
2418,19,64
2422,16,883
2422,9,565
2422,4,34
2422,7,103
2422,3,130
2422,17,103
2422,13,12
2422,11,39
2422,8,161
2422,18,17
2422,1,22
2406,7,553
2406,11,537
2406,5,98
2406,3,7159
2406,17,575
2406,8,1077
2406,9,408
2406,16,3551
2406,6,12
2406,13,182
2406,18,129
2406,19,27
2406,10,524
2406,4,1495
2406,1,12
2410,3,13389
2410,11,503
2410,16,4400
2410,10,214
2410,17,1282
2410,9,896
2410,19,254
2410,8,2086
2410,18,63
2410,1,619
2410,4,2139
2410,5,105
2410,2,707
2410,7,892
2410,13,233
2410,12,17
2410,6,576
2410,14,64
2412,3,10797
2412,7,968
2412,16,8595
2412,17,1323
2412,14,484
2412,5,141
2412,19,44
2412,13,207
2412,11,1184
2412,4,1759
2412,9,654
2412,8,912
2412,12,12
2412,18,17
2412,10,29
2412,2,108
2412,1,24
2401,2,2577
2401,3,34164
2401,16,3422
2401,8,5667
2401,1,496
2401,11,337
2401,4,3110
2401,7,1512
2401,6,2419
2401,9,1051
2401,17,1294
2401,19,1586
2401,5,185
2401,10,39
2401,13,2551
2401,14,288
2401,18,12
2416,16,6805
2416,17,1799
2416,7,921
2416,18,46
2416,3,11975
2416,1,132
2416,9,720
2416,2,330
2416,4,1389
2416,11,818
2416,13,411
2416,8,1376
2416,14,373
2416,6,41
2416,19,1119
2416,5,34
2416,10,500
2404,16,5155
2404,3,20404
2404,9,190
2404,8,1481
2404,11,716
2404,7,1208
2404,13,377
2404,17,715
2404,5,529
2404,10,266
2404,6,78
2404,4,513
2404,19,91
2404,1,164
2404,18,393
2420,3,1008
2420,11,265
2420,4,319
2420,16,1122
2420,9,188
2420,8,383
2420,17,292
2420,2,98
2420,19,12
2420,1,75
2420,6,17
2420,14,17
2420,7,41
2420,5,44
2420,10,22
2420,13,185
2423,16,5889
2423,3,31653
2423,17,2378
2423,9,686
2423,7,2317
2423,4,1785
2423,11,803
2423,1,206
2423,5,53
2423,8,1224
2423,19,652
2423,6,1534
2423,13,445
2423,18,24
2423,2,484
2423,10,34
2423,14,64
2417,16,4786
2417,3,22066
2417,9,452
2417,17,893
2417,8,1156
2417,10,378
2417,4,851
2417,11,868
2417,7,1182
2417,5,34
2417,19,129
2417,6,64
2417,2,338
2417,1,27
2417,13,76
2417,18,94
2403,6,17
2403,11,680
2403,16,3669
2403,17,665
2403,8,1281
2403,3,3661
2403,7,1284
2403,9,282
2403,10,22
2403,5,91
2403,4,886
2403,1,127
2403,13,263
2403,19,88
2403,2,598
2411,3,2127
2411,9,151
2411,13,12
2411,16,1628
2411,11,388
2411,8,618
2411,4,165
2411,7,366
2411,5,12
2411,17,612
2411,1,27
2411,19,12
2409,3,132169
2409,16,10474
2409,8,1662
2409,11,3518
2409,17,2593
2409,9,2027
2409,7,3722
2409,18,239
2409,4,988
2409,14,1232
2409,6,230
2409,10,762
2409,5,305
2409,1,341
2409,13,470
2409,19,108
2409,12,12
2405,17,540
2405,16,2169
2405,3,4571
2405,2,526
2405,9,237
2405,7,1398
2405,8,310
2405,13,187
2405,11,459
2405,1,170
2405,5,22
2405,19,12
2425,3,305441
2425,11,12272
2425,4,5774
2425,7,16357
2425,9,6285
2425,8,2757
2425,10,2049
2425,14,2476
2425,17,12328
2425,18,632
2425,16,35842
2425,1,331
2425,6,609
2425,19,1027
2425,5,684
2425,13,4803
2425,2,256
2425,12,48
2408,16,3860
2408,3,8437
2408,4,1058
2408,1,29
2408,2,180
2408,17,1470
2408,7,559
2408,9,591
2408,13,448
2408,19,51
2408,11,517
2408,6,98
2408,18,12
2408,10,24
2408,8,149
2408,14,113
2408,5,12
2426,3,4200
2426,17,1689
2426,16,2357
2426,7,559
2426,11,260
2426,18,68
2426,14,151
2426,13,309
2426,8,75
2426,19,80
2426,6,405
2426,4,217
2426,9,290
2426,1,125
2426,2,346
2426,10,27
2426,5,64
2419,2,424
2419,7,700
2419,16,4533
2419,17,1406
2419,8,1568
2419,14,638
2419,11,768
2419,3,42263
2419,4,3223
2419,18,53
2419,9,434
2419,10,280
2419,19,258
2419,13,81
2419,1,39
2419,6,17
2424,17,1935
2424,16,4651
2424,3,62663
2424,19,117
2424,7,3618
2424,4,1489
2424,9,1077
2424,1,117
2424,6,34
2424,13,791
2424,18,158
2424,11,1456
2424,8,597
2424,2,29
2424,5,24
2424,10,76
2424,14,12
0602,11,2117
0602,4,1038
0602,16,10650
0602,17,1227
0602,7,8502
0602,14,431
0602,10,1238
0602,8,1953
0602,13,73
0602,1,990
0602,3,15539
0602,6,22
0602,9,585
0602,19,54
0613,16,15697
0613,7,827
0613,14,680
0613,17,965
0613,19,88
0613,4,576
0613,11,439
0613,6,113
0613,3,7720
0613,5,73
0613,10,134
0613,8,687
0613,12,22
0613,1,344
0613,13,137
0613,9,151
0620,16,8423
0620,3,80290
0620,7,7177
0620,11,603
0620,8,847
0620,17,1988
0620,19,770
0620,4,1196
0620,10,56
0620,5,71
0620,9,376
0620,6,282
0620,13,785
0620,12,34
0620,14,17
0620,18,580
0610,11,504
0610,16,7952
0610,8,579
0610,13,64
0610,3,6374
0610,7,431
0610,17,773
0610,1,142
0610,9,34
0610,4,463
0610,14,81
0610,10,103
0618,3,215898
0618,16,16103
0618,13,7556
0618,5,616
0618,8,3178
0618,4,3869
0618,11,5617
0618,7,12350
0618,9,7798
0618,6,2483
0618,14,16234
0618,10,18359
0618,17,5724
0618,1,258
0618,19,601
0618,12,1292
0618,18,302
0612,16,15642
0612,14,1599
0612,11,876
0612,7,1838
0612,18,232
0612,3,15891
0612,8,766
0612,4,2156
0612,19,139
0612,10,743
0612,13,618
0612,6,76
0612,9,253
0612,17,2789
0612,1,1261
0612,5,17
0615,16,8642
0615,3,24411
0615,12,125
0615,11,361
0615,9,401
0615,17,831
0615,8,299
0615,4,389
0615,7,1242
0615,1,300
0615,14,765
0615,5,161
0615,18,12
0615,6,349
0615,19,84
0609,16,10643
0609,11,485
0609,9,112
0609,7,390
0609,14,1051
0609,8,750
0609,1,1133
0609,4,678
0609,17,823
0609,10,141
0609,13,12
0609,3,5325
0609,5,17
0605,16,10667
0605,3,13056
0605,4,676
0605,5,17
0605,11,760
0605,17,524
0605,18,27
0605,9,63
0605,1,207
0605,7,370
0605,8,58
0605,10,46
0605,13,512
0605,14,91
0605,19,17
0606,7,1894
0606,9,1333
0606,16,14847
0606,4,403
0606,17,1543
0606,8,418
0606,11,1465
0606,10,627
0606,3,15371
0606,13,192
0606,12,64
0606,18,76
0606,6,86
0606,5,29
0606,14,86
0606,1,663
0606,19,110
0604,10,313
0604,14,3098
0604,9,1489
0604,7,883
0604,8,1033
0604,18,156
0604,19,280
0604,16,14205
0604,4,932
0604,11,1324
0604,17,1293
0604,12,64
0604,3,6219
0604,13,24
0604,6,726
0604,1,254
0616,16,11813
0616,3,3424
0616,7,450
0616,4,270
0616,17,333
0616,1,166
0616,11,379
0616,5,36
0616,8,120
0616,9,24
0616,14,243
0616,6,76
0616,19,12
0616,10,12
0619,16,3085
0619,3,2219
0619,4,295
0619,8,212
0619,9,34
0619,11,116
0619,14,190
0619,17,318
0619,1,105
0619,7,586
0619,19,76
0621,16,10216
0621,6,241
0621,7,1374
0621,17,689
0621,3,10425
0621,9,345
0621,4,285
0621,11,366
0621,10,93
0621,14,86
0621,18,17
0621,8,476
0601,11,1500
0601,3,9857
0601,7,3180
0601,14,2259
0601,8,326
0601,10,221
0601,13,478
0601,16,4909
0601,9,1361
0601,19,274
0601,17,644
0601,5,17
0601,18,103
0601,4,205
0601,1,2538
0601,6,187
0601,12,29
0607,16,10946
0607,3,54589
0607,14,2531
0607,11,1436
0607,17,1190
0607,4,695
0607,9,851
0607,7,2683
0607,13,295
0607,10,363
0607,8,736
0607,5,264
0607,18,64
0607,6,80
0607,19,34
0607,12,29
0607,1,1411
0617,16,11396
0617,14,216
0617,4,422
0617,7,1592
0617,3,30488
0617,11,727
0617,17,1225
0617,8,194
0617,19,34
0617,9,304
0617,13,17
0617,10,105
0617,18,34
0617,6,12
0617,1,12
0614,16,13377
0614,14,648
0614,11,1188
0614,4,913
0614,17,856
0614,7,3059
0614,8,671
0614,3,10015
0614,5,333
0614,18,64
0614,9,639
0614,10,278
0614,6,22
0614,12,12
0614,1,86
0614,19,49
0614,13,93
0611,16,11221
0611,3,8795
0611,7,1926
0611,14,557
0611,8,526
0611,4,949
0611,11,477
0611,1,151
0611,10,270
0611,17,963
0611,9,214
0611,19,76
0611,6,12
0608,16,17166
0608,17,1669
0608,13,663
0608,1,300
0608,3,43077
0608,4,779
0608,7,895
0608,5,592
0608,6,869
0608,14,2078
0608,8,1524
0608,9,1258
0608,10,177
0608,11,675
0608,18,34
0603,16,12933
0603,3,25117
0603,11,1543
0603,9,409
0603,4,132
0603,7,1792
0603,17,1605
0603,8,180
0603,14,29
0603,10,385
0603,6,81
0603,19,85
0603,1,102
0201,16,5285
0201,4,1299
0201,7,206
0201,3,301
0201,17,1178
0201,6,589
0201,13,24
0201,9,416
0201,8,477
0201,2,17
0201,11,329
0201,1,149
0201,14,58
0937,6,399
0937,4,976
0937,14,209
0937,7,954
0937,16,12490
0937,3,2298
0937,11,831
0937,8,1284
0937,17,1026
0937,19,178
0937,1,17
0937,13,24
0937,10,110
0937,18,117
0937,9,100
0202,9,1638
0202,17,2934
0202,10,185
0202,11,1893
0202,16,21734
0202,6,564
0202,3,8009
0202,7,1941
0202,18,224
0202,8,933
0202,4,1882
0202,19,576
0202,13,182
0202,12,12
0202,14,295
0202,1,258
0202,5,36
0212,6,1648
0212,16,1262
0212,19,246
0212,17,438
0212,11,752
0212,4,1992
0212,3,76
0212,7,134
0212,9,236
0212,13,12
0212,8,426
0212,10,17
0212,18,12
0204,4,1715
0204,16,4699
0204,9,2897
0204,1,63
0204,17,785
0204,13,120
0204,7,939
0204,3,1319
0204,6,777
0204,18,103
0204,11,280
0204,14,260
0204,8,110
0204,5,12
0204,19,22
0203,17,3886
0203,16,957
0203,7,12
0203,8,12
0203,4,87
0203,11,24
0203,9,88
0203,19,480
0203,6,246
0205,16,15908
0205,11,1121
0205,9,564
0205,17,1976
0205,7,1816
0205,6,1182
0205,4,3232
0205,3,1909
0205,18,24
0205,13,51
0205,8,1587
0205,10,106
0205,19,151
0205,14,422
0205,5,34
0205,12,24
0211,16,12844
0211,4,4986
0211,8,1281
0211,17,4321
0211,3,1137
0211,7,1891
0211,9,4379
0211,6,869
0211,5,182
0211,19,785
0211,11,2849
0211,13,219
0211,14,2545
0211,10,1400
0211,12,149
0211,18,182
0211,1,75
0211,2,12
0210,17,489
0210,11,432
0210,3,29102
0210,14,195
0210,19,1314
0210,16,6675
0210,18,1485
0210,4,1552
0210,9,654
0210,7,433
0210,1,61
0210,10,24
0210,8,161
0210,13,76
0210,2,17
0210,12,22
0210,5,12
0209,3,88401
0209,16,10645
0209,14,888
0209,11,1149
0209,2,41
0209,17,1786
0209,8,825
0209,4,973
0209,7,1956
0209,13,797
0209,6,1328
0209,9,2835
0209,10,433
0209,1,226
0209,5,80
0209,19,87
0209,18,93
0209,12,27
0207,3,18796
0207,16,7897
0207,17,615
0207,4,416
0207,19,402
0207,11,487
0207,7,810
0207,13,12
0207,10,56
0207,8,216
0207,9,173
0207,18,17
0207,5,41
0207,6,63
0207,14,46
0207,1,12
0114,16,6692
0114,17,1428
0114,3,1858
0114,4,171
0114,1,446
0114,5,546
0114,14,76
0114,6,387
0114,7,301
0114,11,575
0114,2,12
0114,18,64
0114,19,58
0114,13,64
0114,8,141
0114,9,17
0114,10,64
0109,16,1737
0109,17,448
0109,14,17
0109,6,46
0109,11,199
0109,5,574
0109,4,22
0109,1,36
0109,8,12
0109,10,12
0109,3,195
0108,16,9262
0108,17,1564
0108,11,461
0108,9,763
0108,12,64
0108,3,1574
0108,7,262
0108,4,436
0108,8,49
0108,10,176
0108,5,412
0108,14,81
0108,1,137
0108,13,12
0108,6,12
0108,18,12
0102,16,3474
0102,3,5243
0102,14,398
0102,5,92
0102,17,924
0102,11,279
0102,1,88
0102,13,12
0102,19,29
0102,6,12
0116,16,28125
0116,17,1048
0116,11,815
0116,9,366
0116,10,278
0116,7,414
0116,3,205
0116,8,299
0116,2,12
0116,14,161
0116,1,12
0116,4,149
0111,16,1735
0111,11,106
0111,3,1245
0111,19,22
0111,17,326
0111,1,163
0111,7,12
0111,9,17
0111,14,332
0111,2,349
0111,8,29
0111,4,22
0111,13,64
0121,16,20513
0121,11,2441
0121,7,3941
0121,4,723
0121,3,12405
0121,10,548
0121,17,3016
0121,1,329
0121,9,1638
0121,19,365
0121,5,484
0121,8,959
0121,14,877
0121,6,524
0121,18,76
0121,13,224
0104,16,2003
0104,9,24
0104,10,29
0104,11,61
0104,17,536
0104,4,46
0104,1,24
0104,7,29
0104,3,140
0104,19,12
0107,17,607
0107,16,8162
0107,14,375
0107,3,4541
0107,4,525
0107,2,36
0107,8,180
0107,1,137
0107,5,511
0107,11,301
0107,7,158
0107,13,53
0107,10,46
0107,9,12
0107,6,64
0118,16,1893
0118,19,12
0118,2,17
0118,11,110
0118,4,64
0118,17,100
0118,1,27
0118,9,64
0118,13,64
0115,16,2168
0115,17,689
0115,1,39
0115,11,144
0115,3,465
0101,16,4423
0101,1,88
0101,3,580
0101,4,151
0101,17,820
0101,11,148
0101,14,118
0101,6,22
0101,13,12
0101,9,24
0103,16,1987
0103,17,523
0103,4,98
0103,13,78
0103,6,12
0103,9,909
0103,3,197
0103,1,93
0103,14,12
0103,7,61
0103,19,98
0103,11,112
0103,10,17
0103,8,64
0105,16,3618
0105,17,555
0105,11,167
0105,7,34
0105,10,17
0105,1,60
0105,8,22
0105,5,500
0105,3,76
0105,19,22
0105,4,36
0105,14,88
0105,6,108
0112,16,4273
0112,17,767
0112,7,295
0112,11,204
0112,3,5154
0112,10,17
0112,19,12
0112,14,129
0112,4,115
0112,1,93
0112,8,93
0106,16,6690
0106,2,574
0106,17,758
0106,9,64
0106,3,1316
0106,7,141
0106,5,12
0106,4,12
0106,10,39
0106,14,199
0106,1,12
0106,11,209
0117,16,753
0117,17,222
0117,14,64
0117,11,53
0117,2,64
0117,6,500
0117,4,64
0117,3,64
0120,16,1579
0120,17,352
0120,4,12
0120,8,17
0120,9,3162
0120,6,258
0120,1,324
0120,3,437
0120,19,120
0120,5,12
0120,11,58
0120,14,295
0120,7,36
0122,16,4378
0122,3,28811
0122,17,534
0122,11,206
0122,13,34
0122,9,455
0122,7,114
0122,10,68
0122,4,46
0122,19,120
0122,14,81
0122,8,103
0122,5,63
0122,2,64
0122,1,12
0113,16,1789
0113,17,154
0113,3,92
0113,4,156
0113,1,93
0113,14,253
0113,13,46
0113,5,414
0113,11,22
0110,12,158
0110,6,163
0110,16,15578
0110,9,2467
0110,4,923
0110,18,584
0110,5,812
0110,3,1856
0110,10,2181
0110,11,3018
0110,17,3125
0110,8,500
0110,14,998
0110,7,1207
0110,13,248
0110,1,1729
0110,19,165
0119,17,620
0119,16,7939
0119,11,979
0119,4,115
0119,9,492
0119,7,650
0119,8,98
0119,1,12
0119,3,2145
0119,5,64
0119,6,441
0119,18,500
2010,3,527
2010,9,12
2010,16,949
2010,17,249
2010,10,12
2010,4,500
2010,11,109
2010,2,1500
2010,14,64
2010,7,72
2010,5,17
2010,1,22
2010,13,17
2010,8,65
2002,17,108
2002,16,421
2002,11,34
2002,2,175
2002,14,108
2005,16,779
2005,14,76
2005,17,93
2005,11,63
2005,1,17
2005,8,64
2005,7,153
2005,18,12
2005,9,34
2005,10,17
2005,3,44
2005,19,64
2005,2,86
2009,3,2447
2009,6,214
2009,16,1559
2009,7,326
2009,11,192
2009,14,588
2009,9,12
2009,8,64
2009,2,1569
2009,13,12
2009,17,34
2009,4,500
2017,17,129
2017,14,34
2017,19,76
2017,9,166
2017,2,1152
2017,3,90
2017,7,124
2017,16,39
2017,11,151
2012,16,4340
2012,2,187
2012,7,1587
2012,6,129
2012,3,8023
2012,17,1052
2012,11,1531
2012,9,1010
2012,8,585
2012,5,136
2012,13,226
2012,1,12
2012,14,258
2012,10,51
2012,4,582
2001,16,407
2001,2,44
2001,19,12
2001,8,17
2001,11,12
2001,9,17
2004,9,70
2004,16,1994
2004,2,233
2004,7,108
2004,19,61
2004,17,432
2004,11,350
2004,3,4048
2004,4,91
2004,14,98
2006,17,158
2006,3,77
2006,16,837
2006,11,34
2006,13,12
2006,14,652
2006,2,388
2006,18,22
2006,7,39
2006,4,64
2021,16,473
2021,17,81
2021,11,58
2021,7,24
2021,14,63
2021,18,64
2021,2,103
2021,8,17
2021,9,149
2021,3,299
2015,16,3077
2015,3,847
2015,17,537
2015,9,114
2015,11,163
2015,8,44
2015,2,674
2015,14,290
2015,7,525
2015,4,231
2015,18,27
2015,19,86
2018,8,108
2018,3,351
2018,11,61
2018,4,29
2018,7,128
2018,16,877
2018,17,575
2018,14,76
2018,9,29
2018,6,12
2018,2,110
2020,16,459
2020,2,22
2020,7,36
2020,3,517
2020,19,22
2020,17,137
2020,8,81
2020,11,41
2020,14,22
2020,9,22
2003,16,357
2003,17,182
2003,14,139
2003,3,820
2003,11,162
2003,1,12
2003,9,188
2003,13,17
2003,7,72
2003,18,76
2003,4,500
2014,16,630
2014,14,148
2014,11,41
2014,3,49
2014,17,12
2014,19,27
2014,4,166
2014,2,64
2011,16,1182
2011,11,156
2011,2,92
2011,17,278
2011,14,495
2011,7,173
2011,9,58
2011,3,366
2011,4,12
2011,13,12
2008,16,506
2008,2,645
2008,14,53
2008,11,58
2008,8,17
2008,3,270
2008,19,93
2008,7,24
2008,17,129
2013,14,776
2013,11,237
2013,16,1400
2013,3,3429
2013,9,76
2013,17,250
2013,7,84
2013,13,64
2013,8,124
2013,2,421
2016,11,245
2016,17,280
2016,3,3646
2016,2,1228
2016,7,885
2016,13,34
2016,14,343
2016,8,343
2016,4,100
2016,9,63
2016,16,2184
2016,19,141
2019,4,132
2019,1,267
2019,14,143
2019,18,323
2019,7,3217
2019,9,4077
2019,3,6553
2019,11,1963
2019,16,6200
2019,5,76
2019,17,3548
2019,13,427
2019,19,380
2019,8,2207
2019,10,244
2019,6,341
2019,2,417
2007,3,12
2007,16,212
2007,2,3086
2024,1,108
2024,14,153
2024,7,913
2024,3,6801
2024,6,129
2024,4,517
2024,19,12
2024,8,141
2024,2,88
2024,5,12
2024,17,818
2024,16,775
2024,9,137
2024,11,65
2022,16,549
2022,6,22
2022,3,119
2022,17,299
2022,14,64
2022,9,12
2022,2,34
2022,13,12
2022,8,64
2022,7,48
2022,19,76
2022,11,34
2023,13,76
2023,17,137
2023,14,441
2023,4,17
2023,16,652
2023,3,690
2023,7,141
2023,2,1520
2023,8,85
2023,11,41
2023,9,22
2902,7,2455
2902,16,11981
2902,3,10353
2902,17,2231
2902,13,226
2902,5,100
2902,1,381
2902,11,2418
2902,9,1884
2902,4,420
2902,12,39
2902,6,946
2902,10,75
2902,8,1650
2902,19,261
2902,2,1341
2902,18,51
2902,14,29
2929,7,5587
2929,13,2815
2929,17,917
2929,16,3353
2929,9,1344
2929,6,459
2929,3,28584
2929,8,577
2929,4,4116
2929,19,472
2929,1,2211
2929,11,452
2929,5,302
2929,2,553
2929,10,124
2929,12,12
2918,7,77222
2918,16,71147
2918,3,243461
2918,9,50398
2918,17,31000
2918,19,7982
2918,14,15261
2918,11,30388
2918,6,11960
2918,1,2933
2918,4,12463
2918,8,10026
2918,10,37433
2918,12,4185
2918,13,65964
2918,2,2234
2918,5,1582
2918,18,3035
2901,17,4973
2901,11,5391
2901,16,20489
2901,19,369
2901,3,23976
2901,7,8660
2901,6,2252
2901,9,4750
2901,1,1113
2901,4,3316
2901,10,301
2901,8,1156
2901,12,104
2901,5,614
2901,13,384
2901,2,772
2901,18,87
2901,14,91
2911,7,3462
2911,4,2027
2911,16,10204
2911,3,7323
2911,19,223
2911,17,2490
2911,8,1083
2911,9,1899
2911,11,3141
2911,2,2411
2911,1,1703
2911,6,616
2911,10,233
2911,5,87
2911,18,12
2911,13,259
2911,14,99
2911,12,64
2904,7,2049
2904,17,1530
2904,9,2097
2904,16,10784
2904,11,2751
2904,3,4782
2904,19,109
2904,4,785
2904,5,139
2904,1,161
2904,2,34
2904,10,94
2904,8,367
2904,13,133
2904,18,17
2904,6,29
2218,1,1468
2218,2,303
2218,6,117
2218,18,119
2218,14,64
2218,19,90
2218,5,48
2924,7,1152
2924,18,36
2924,17,1016
2924,16,3012
2924,4,158
2924,3,4245
2924,11,1070
2924,19,139
2924,9,509
2924,14,80
2924,10,12
2924,8,916
2924,1,357
2924,6,110
2924,2,56
2924,5,17
2928,7,1364
2928,16,4796
2928,1,2572
2928,4,317
2928,17,911
2928,19,841
2928,3,2993
2928,11,483
2928,10,65
2928,8,1047
2928,9,755
2928,2,391
2928,6,482
2928,13,36
2928,5,12
2916,7,1139
2916,4,314
2916,17,1375
2916,16,3571
2916,19,231
2916,3,9118
2916,11,4897
2916,6,760
2916,9,901
2916,2,246
2916,8,341
2916,1,841
2916,13,105
2916,14,56
2916,10,236
2916,12,64
2916,5,103
2912,1,1572
2912,16,9257
2912,9,1084
2912,3,3639
2912,4,828
2912,17,1297
2912,11,777
2912,7,1676
2912,13,202
2912,18,41
2912,19,321
2912,8,168
2912,6,553
2912,10,145
2912,2,29
2912,5,27
2921,7,13443
2921,19,2290
2921,16,16517
2921,3,25753
2921,9,9676
2921,6,3526
2921,2,425
2921,17,11524
2921,4,1809
2921,13,2450
2921,11,5889
2921,1,969
2921,18,465
2921,5,73
2921,10,3808
2921,8,2758
2921,12,245
2921,14,708
2913,7,3592
2913,3,7398
2913,16,5490
2913,11,1474
2913,4,462
2913,9,1619
2913,1,1589
2913,17,1616
2913,19,153
2913,13,237
2913,8,350
2913,10,329
2913,2,277
2913,6,526
2913,18,12
2908,7,6737
2908,3,16949
2908,17,3536
2908,16,12648
2908,11,2935
2908,9,3464
2908,1,1637
2908,13,1121
2908,18,297
2908,6,703
2908,4,1527
2908,2,309
2908,19,451
2908,5,153
2908,8,1125
2908,10,919
2908,14,161
2908,12,173
2907,16,5313
2907,17,1231
2907,3,3128
2907,9,531
2907,8,460
2907,1,605
2907,7,967
2907,11,689
2907,5,17
2907,4,85
2907,6,46
2907,2,282
2907,19,160
2907,10,48
2907,18,39
2907,13,56
2925,7,1911
2925,16,12182
2925,4,568
2925,3,5363
2925,17,1341
2925,11,2273
2925,10,363
2925,9,1170
2925,13,345
2925,8,299
2925,19,262
2925,1,269
2925,2,352
2925,6,36
2925,18,82
2925,5,56
2925,12,12
2920,7,1845
2920,16,9863
2920,9,1571
2920,3,2982
2920,6,462
2920,11,3564
2920,17,2110
2920,4,1151
2920,18,41
2920,8,1807
2920,1,2543
2920,19,206
2920,10,309
2920,2,46
2920,5,34
2920,13,331
2920,14,49
2920,12,58
2910,7,5894
2910,9,648
2910,16,9245
2910,17,1191
2910,3,3473
2910,2,139
2910,6,226
2910,10,153
2910,8,1958
2910,11,1281
2910,4,326
2910,5,76
2910,19,142
2910,1,1676
2910,13,163
2910,14,22
2910,12,64
2910,18,12
2922,7,706
2922,16,729
2922,9,769
2922,4,70
2922,11,363
2922,17,215
2922,10,60
2922,3,2811
2922,2,22
2922,1,58
2922,18,36
2922,19,17
2922,12,12
2927,7,1696
2927,17,1415
2927,16,6010
2927,1,2717
2927,11,695
2927,2,955
2927,3,14035
2927,4,327
2927,6,284
2927,8,734
2927,13,348
2927,9,442
2927,5,170
2927,19,464
2927,10,138
2927,12,24
2927,14,12
2906,3,5242
2906,16,4032
2906,8,439
2906,1,1851
2906,9,533
2906,2,663
2906,10,84
2906,7,738
2906,11,723
2906,17,333
2906,4,370
2906,19,75
2906,5,88
2906,6,92
2906,13,44
2906,18,12
2919,7,1614
2919,16,7953
2919,1,915
2919,3,9463
2919,2,774
2919,4,950
2919,19,440
2919,11,8485
2919,6,1069
2919,17,1677
2919,5,224
2919,9,1404
2919,8,309
2919,13,157
2919,10,165
2919,18,29
2919,14,64
2919,12,34
2923,7,7018
2923,1,2950
2923,9,5459
2923,16,14293
2923,3,22884
2923,5,85
2923,11,2388
2923,12,127
2923,4,1613
2923,17,4797
2923,19,787
2923,18,99
2923,10,1498
2923,8,1684
2923,13,934
2923,6,838
2923,14,1610
2923,2,29
2905,7,1718
2905,16,5333
2905,2,357
2905,3,2920
2905,17,1386
2905,5,460
2905,6,227
2905,9,888
2905,8,209
2905,11,845
2905,4,131
2905,19,103
2905,13,335
2905,10,138
2905,1,258
2905,18,34
2930,7,1705
2930,3,17052
2930,16,4809
2930,9,882
2930,19,100
2930,17,1268
2930,11,765
2930,1,1947
2930,2,914
2930,13,536
2930,10,302
2930,8,548
2930,4,484
2930,6,255
2930,12,12
2914,7,4204
2914,1,19568
2914,16,11694
2914,3,6365
2914,6,1121
2914,17,3574
2914,11,2026
2914,4,962
2914,19,681
2914,10,1353
2914,9,1643
2914,13,1081
2914,8,870
2914,5,237
2914,2,221
2914,14,110
2914,18,137
2917,7,6036
2917,3,13405
2917,16,14324
2917,5,511
2917,4,674
2917,13,383
2917,1,2870
2917,17,2245
2917,2,1076
2917,19,1191
2917,11,1679
2917,10,1127
2917,9,1786
2917,6,816
2917,8,1512
2915,7,4394
2915,1,1539
2915,16,8454
2915,3,31950
2915,9,2792
2915,10,786
2915,11,2694
2915,4,1375
2915,17,3226
2915,19,1119
2915,2,830
2915,13,446
2915,6,334
2915,8,359
2915,14,71
2915,5,12
2915,18,81
2915,12,64
2909,16,8396
2909,3,9288
2909,11,2305
2909,1,1875
2909,2,173
2909,17,2191
2909,4,1259
2909,7,2371
2909,9,2028
2909,6,581
2909,13,365
2909,19,659
2909,8,956
2909,10,235
2909,5,73
2909,18,12
2926,7,426
2926,17,382
2926,16,2707
2926,11,330
2926,6,90
2926,9,392
2926,4,70
2926,3,455
2926,1,86
2926,8,158
2926,10,41
2926,2,81
2926,5,27
3211,11,4440
3211,16,25504
3211,3,45806
3211,10,1842
3211,4,1658
3211,9,4155
3211,17,8130
3211,8,3427
3211,1,6984
3211,6,2112
3211,7,8844
3211,19,1828
3211,14,766
3211,13,813
3211,5,459
3211,2,39
3211,18,296
3208,14,3915
3208,16,43302
3208,4,4008
3208,3,68671
3208,11,35422
3208,7,32839
3208,10,20507
3208,19,3766
3208,17,21995
3208,5,999
3208,8,11699
3208,18,1189
3208,13,7822
3208,2,614
3208,9,15544
3208,6,5459
3208,1,4840
3208,12,51
3209,3,7945
3209,9,3944
3209,7,2552
3209,10,677
3209,14,374
3209,18,137
3209,11,1268
3209,8,1392
3209,17,3922
3209,19,198
3209,1,351
3209,13,524
3209,16,11168
3209,4,1046
3209,2,139
3209,5,39
3209,6,559
3202,3,24931
3202,1,1027
3202,14,965
3202,17,10032
3202,16,29638
3202,11,5355
3202,8,1738
3202,19,2315
3202,4,1558
3202,7,10394
3202,10,1343
3202,9,3962
3202,5,396
3202,6,2098
3202,13,631
3202,18,330
3202,2,1015
3202,12,17
3201,10,403
3201,16,15872
3201,11,1475
3201,3,7941
3201,4,1111
3201,7,3463
3201,9,1106
3201,17,3503
3201,19,456
3201,13,218
3201,14,658
3201,8,905
3201,5,132
3201,2,570
3201,18,58
3201,1,854
3201,6,703
3201,12,12
3213,1,5490
3213,19,1732
3213,16,29816
3213,3,79446
3213,11,5005
3213,9,3534
3213,7,14981
3213,17,8936
3213,10,1168
3213,8,1311
3213,4,1806
3213,2,580
3213,13,757
3213,14,1478
3213,6,1556
3213,18,408
3213,5,94
3210,16,27042
3210,11,5642
3210,7,10891
3210,3,16652
3210,6,1505
3210,10,1606
3210,17,9684
3210,14,702
3210,9,5729
3210,13,925
3210,4,1739
3210,18,213
3210,19,1117
3210,5,183
3210,1,508
3210,8,1935
3210,2,389
3204,3,21081
3204,11,5756
3204,4,2730
3204,16,34954
3204,10,1949
3204,9,5075
3204,7,12737
3204,17,12199
3204,5,358
3204,13,1295
3204,8,3141
3204,14,377
3204,19,1458
3204,1,1526
3204,2,456
3204,6,3769
3204,12,75
3204,18,211
3205,11,3487
3205,7,10427
3205,16,44958
3205,10,935
3205,9,3379
3205,8,2789
3205,13,1110
3205,5,237
3205,4,1498
3205,3,10305
3205,14,996
3205,6,1590
3205,1,1180
3205,17,11685
3205,19,1106
3205,18,604
3205,2,785
3205,12,29
3206,11,4181
3206,14,1395
3206,7,7516
3206,16,27909
3206,3,22979
3206,6,2441
3206,4,1439
3206,9,3191
3206,10,538
3206,8,2432
3206,1,703
3206,17,8743
3206,18,557
3206,13,973
3206,5,490
3206,19,1660
3206,2,418
3212,1,94
3212,11,3778
3212,14,1084
3212,17,6794
3212,16,15457
3212,10,976
3212,3,7825
3212,7,6693
3212,19,583
3212,2,519
3212,4,899
3212,8,1555
3212,6,683
3212,9,1623
3212,5,119
3212,18,29
3212,13,463
3214,4,2095
3214,11,67601
3214,19,9612
3214,16,36475
3214,9,6721
3214,3,27922
3214,10,26943
3214,17,13153
3214,14,2700
3214,8,9312
3214,7,15669
3214,5,603
3214,1,1203
3214,6,3298
3214,13,4032
3214,18,2061
3214,12,36
3214,2,832
3207,3,35623
3207,16,36857
3207,9,7872
3207,17,15755
3207,11,11399
3207,1,913
3207,10,2244
3207,7,18025
3207,14,941
3207,5,128
3207,8,3676
3207,19,2579
3207,4,2831
3207,13,2039
3207,6,2742
3207,12,173
3207,2,660
3207,18,608
3203,19,401
3203,9,1709
3203,3,5598
3203,16,9468
3203,11,1127
3203,10,170
3203,8,1165
3203,17,3515
3203,6,710
3203,4,723
3203,7,2441
3203,14,910
3203,1,214
3203,13,452
3203,5,159
3203,18,159
3203,2,284
3101,16,1515
3101,14,127
3101,17,495
3101,8,185
3101,1,615
3101,9,156
3101,3,487
3101,19,64
3101,4,226
3101,7,219
3101,18,76
3101,6,153
3101,11,12
2348,17,165
2348,16,1002
2348,3,49
2348,6,17
2348,7,12
2348,8,12
2348,11,24
2344,2,4025
2344,3,2099
2344,17,754
2344,7,164
2344,16,1506
2344,11,163
2344,6,88
2344,5,22
2344,4,83
2344,9,3721
2344,8,60
2342,17,563
2342,14,141
2342,16,517
2342,3,145
2342,4,41
2342,5,17
2342,11,84
2342,8,36
2342,19,12
2342,6,12
2342,7,24
2340,2,1621
2340,6,1387
2340,16,5123
2340,17,826
2340,3,2114
2340,11,441
2340,13,110
2340,7,237
2340,14,156
2340,8,88
2340,1,110
2340,9,167
2340,10,22
2340,4,99
2340,5,22
2340,18,12
2330,4,1858
2330,2,1517
2330,6,1004
2330,14,1676
2330,3,1629
2330,17,1422
2330,16,5004
2330,13,265
2330,1,125
2330,11,526
2330,8,411
2330,7,720
2330,18,112
2330,9,1523
2330,19,29
2330,5,12
2330,10,48
2303,11,555
2303,3,373
2303,17,377
2303,16,2373
2303,8,214
2303,4,41
2303,7,70
2303,9,60
2303,18,24
2303,14,12
2303,5,12
2327,10,2162
2327,11,5373
2327,17,5386
2327,8,1147
2327,3,5021
2327,9,3964
2327,16,17057
2327,14,5798
2327,7,7453
2327,6,1211
2327,5,884
2327,18,260
2327,13,1552
2327,12,221
2327,19,408
2327,4,105
2350,3,3074
2350,16,1882
2350,9,282
2350,14,209
2350,13,64
2350,7,240
2350,8,153
2350,17,275
2350,11,404
2350,6,61
2350,10,41
2350,18,24
2308,14,2559
2308,2,472
2308,16,4185
2308,3,400
2308,17,616
2308,8,154
2308,11,378
2308,5,141
2308,13,105
2308,7,290
2308,6,44
2308,4,141
2308,9,108
2338,2,4292
2338,3,3968
2338,14,1813
2338,16,4975
2338,4,415
2338,17,1020
2338,7,1031
2338,8,476
2338,11,1067
2338,6,216
2338,5,51
2338,9,208
2338,10,41
2338,13,53
2311,3,967
2311,16,2477
2311,11,587
2311,17,493
2311,9,136
2311,14,146
2311,8,158
2311,13,91
2311,7,170
2311,4,82
2311,19,17
2311,1,12
2305,3,284
2305,16,1711
2305,8,86
2305,17,302
2305,14,64
2305,11,192
2305,4,91
2305,7,63
2305,9,348
2305,18,48
2305,13,12
2320,3,11551
2320,16,4216
2320,17,856
2320,7,755
2320,11,469
2320,6,64
2320,8,218
2320,9,308
2320,5,61
2320,4,92
2320,14,56
2320,19,34
2320,18,48
2320,2,12
2321,3,16546
2321,1,214
2321,7,730
2321,17,436
2321,16,1809
2321,6,88
2321,14,64
2321,8,193
2321,9,122
2321,11,297
2321,4,80
2321,13,12
2336,17,64
2336,16,356
2336,11,41
2336,2,12
2336,7,36
2336,3,12
2336,14,12
2341,4,349
2341,16,956
2341,17,285
2341,8,98
2341,7,64
2341,14,64
2341,11,101
2341,9,12
2304,3,3784
2304,17,1948
2304,1,349
2304,16,6926
2304,9,939
2304,14,1136
2304,6,248
2304,10,365
2304,11,1312
2304,7,1205
2304,4,163
2304,13,81
2304,8,148
2304,18,29
2304,19,29
2304,12,17
2331,4,178
2331,16,2391
2331,17,355
2331,3,572
2331,7,207
2331,9,73
2331,14,56
2331,11,329
2331,10,34
2331,8,58
2331,6,22
2331,5,17
2331,13,12
2331,1,12
2332,19,534
2332,3,1950
2332,17,868
2332,14,380
2332,16,4179
2332,8,175
2332,1,205
2332,11,663
2332,9,663
2332,7,342
2332,13,22
2332,4,41
2332,10,12
2322,7,8771
2322,17,7936
2322,3,23086
2322,16,22261
2322,9,4443
2322,10,2881
2322,14,2252
2322,11,4309
2322,8,2539
2322,5,238
2322,4,1170
2322,18,402
2322,13,814
2322,19,241
2322,6,371
2322,12,216
2322,1,75
2334,7,3839
2334,17,3433
2334,16,9222
2334,11,1761
2334,9,1896
2334,3,3847
2334,14,396
2334,4,260
2334,8,348
2334,10,416
2334,19,205
2334,1,394
2334,18,244
2334,5,76
2334,6,349
2334,2,64
2334,13,227
2347,16,1908
2347,11,332
2347,6,161
2347,7,134
2347,17,159
2347,8,66
2347,3,97
2347,14,164
2347,9,65
2347,5,17
2347,10,17
2347,19,24
2347,4,12
2333,7,870
2333,3,2138
2333,17,716
2333,16,2666
2333,4,166
2333,8,177
2333,2,629
2333,13,156
2333,14,251
2333,11,520
2333,5,64
2333,10,39
2333,9,143
2333,6,44
2333,18,12
2349,17,1134
2349,3,377
2349,16,962
2349,11,492
2349,4,91
2349,10,76
2349,9,1060
2349,7,222
2349,13,29
2349,19,36
2349,14,48
2349,18,12
2349,8,12
2323,3,4861
2323,11,1172
2323,14,1605
2323,16,6013
2323,4,437
2323,7,931
2323,5,575
2323,8,451
2323,17,817
2323,9,1623
2323,13,156
2323,6,129
2323,1,151
2323,2,64
2323,10,36
2337,14,294
2337,17,199
2337,16,1105
2337,3,282
2337,7,206
2337,11,117
2337,6,85
2337,1,22
2337,4,29
2337,9,36
2337,13,12
2302,3,742
2302,16,1408
2302,17,209
2302,11,308
2302,7,124
2302,8,114
2302,19,12
2302,13,12
2335,3,717
2335,16,2174
2335,17,346
2335,13,76
2335,10,76
2335,14,444
2335,7,223
2335,8,168
2335,11,272
2335,4,34
2335,9,51
2335,1,12
2315,4,546
2315,3,221
2315,16,907
2315,17,68
2315,14,22
2315,8,29
2315,11,12
2315,2,12
2315,7,12
2315,9,144
2309,17,368
2309,11,294
2309,16,1397
2309,14,140
2309,3,165
2309,18,17
2309,7,36
2309,8,12
2309,9,300
2329,3,5934
2329,16,778
2329,7,136
2329,9,1241
2329,17,73
2329,11,111
2329,2,17
2329,1,168
2329,6,24
2329,8,24
2325,3,1273
2325,7,748
2325,16,3232
2325,17,348
2325,19,76
2325,13,91
2325,11,124
2325,1,64
2325,4,157
2325,8,198
2325,5,71
2325,18,22
2325,9,24
2317,17,2609
2317,16,3384
2317,3,1622
2317,10,205
2317,7,959
2317,9,206
2317,14,547
2317,4,192
2317,11,642
2317,5,91
2317,6,98
2317,8,97
2317,19,44
2317,2,24
2313,17,782
2313,14,641
2313,6,299
2313,16,3749
2313,3,409
2313,11,364
2313,4,76
2313,19,100
2313,13,103
2313,7,174
2313,5,39
2313,9,176
2313,10,12
2313,8,12
2310,3,2619
2310,14,709
2310,16,7607
2310,17,910
2310,13,171
2310,9,386
2310,10,158
2310,4,557
2310,7,848
2310,1,115
2310,11,644
2310,5,27
2310,12,27
2310,8,126
2310,19,34
2310,6,24
2312,3,1453
2312,17,316
2312,9,246
2312,19,64
2312,16,1336
2312,7,93
2312,4,56
2312,14,66
2312,13,17
2312,8,17
2312,11,24
2328,3,2392
2328,4,760
2328,7,2587
2328,14,967
2328,17,403
2328,16,3778
2328,5,193
2328,1,168
2328,8,214
2328,9,148
2328,11,510
2328,18,71
2328,10,12
2328,13,12
2328,19,12
2339,6,175
2339,16,2641
2339,17,501
2339,3,1535
2339,9,389
2339,2,64
2339,8,134
2339,11,314
2339,7,247
2339,4,163
2339,10,34
2339,14,41
2339,13,29
2339,19,12
2339,1,12
2343,14,5049
2343,7,651
2343,17,628
2343,8,300
2343,16,2382
2343,5,64
2343,11,432
2343,6,22
2343,3,87
2343,2,17
2343,10,24
2343,9,24
2319,16,1952
2319,4,205
2319,14,127
2319,17,173
2319,13,228
2319,11,384
2319,5,64
2319,12,27
2319,7,231
2319,10,17
2319,8,65
2319,6,53
2319,9,12
2301,16,197
2301,17,64
2301,3,34
2301,11,68
2301,18,41
2301,7,12
2301,14,12
2306,17,433
2306,3,280
2306,16,2590
2306,10,98
2306,8,76
2306,9,135
2306,11,314
2306,13,61
2306,18,56
2306,7,104
2306,4,29
2306,14,12
2306,1,12
2345,17,224
2345,14,348
2345,16,1833
2345,11,212
2345,5,64
2345,10,64
2345,8,64
2345,4,44
2345,3,213
2345,6,46
2345,9,70
2345,18,17
2345,7,12
2346,3,596
2346,16,834
2346,17,113
2346,7,158
2346,13,64
2346,4,120
2346,11,127
2307,3,765
2307,17,266
2307,9,334
2307,16,582
2307,7,110
2307,11,205
2307,14,88
2307,13,46
2307,6,17
2307,8,48
2307,4,24
2307,10,12
2318,17,1883
2318,3,4732
2318,19,502
2318,16,4927
2318,7,1642
2318,6,808
2318,8,207
2318,14,384
2318,11,1295
2318,18,206
2318,4,543
2318,10,270
2318,9,544
2318,5,34
2318,13,24
2318,1,12
2314,2,763
2314,4,388
2314,17,981
2314,9,3721
2314,16,822
2314,5,64
2314,11,112
2314,8,44
2314,7,58
2314,14,51
2314,19,29
2314,13,34
2314,6,12
2326,16,3305
2326,3,146
2326,11,458
2326,7,158
2326,17,190
2326,6,76
2326,8,63
2326,4,34
2326,9,293
2326,2,17
2326,10,12
2726,16,19636
2726,4,1049
2726,11,3562
2726,6,297
2726,17,3813
2726,7,4418
2726,8,1747
2726,10,662
2726,19,1087
2726,9,4533
2726,5,723
2726,3,14659
2726,12,51
2726,1,859
2726,13,492
2726,18,158
2705,8,966
2705,11,2961
2705,16,5562
2705,17,2333
2705,14,762
2705,3,753
2705,4,202
2705,18,188
2705,10,1124
2705,7,1098
2705,1,207
2705,9,172
2705,13,451
2705,6,146
2705,2,193
2705,19,12
2705,5,75
2707,4,1651
2707,16,17845
2707,9,988
2707,6,221
2707,17,3214
2707,1,533
2707,14,969
2707,11,2291
2707,5,664
2707,8,3148
2707,7,2564
2707,18,206
2707,19,292
2707,3,2789
2707,10,241
2707,12,61
2707,13,362
2707,2,12
2719,1,570
2719,4,749
2719,18,343
2719,6,401
2719,5,110
2719,2,12
2727,8,2593
2727,11,1662
2727,17,1811
2727,7,1013
2727,10,215
2727,3,3004
2727,16,17452
2727,13,98
2727,4,867
2727,9,316
2727,18,88
2727,19,171
2727,6,108
2727,1,2065
2727,5,29
2727,14,34
2710,3,5032
2710,4,435
2710,16,7577
2710,17,1531
2710,10,132
2710,11,875
2710,7,289
2710,8,816
2710,14,24
2710,1,268
2710,19,850
2710,9,101
2710,6,185
2710,2,17
2710,13,129
2704,11,1683
2704,8,2434
2704,17,962
2704,16,10593
2704,4,899
2704,13,190
2704,6,105
2704,1,518
2704,7,1051
2704,14,188
2704,10,120
2704,19,316
2704,9,847
2704,18,53
2704,3,12088
2704,5,256
2713,11,1487
2713,16,9022
2713,8,1218
2713,2,2958
2713,17,2190
2713,13,373
2713,7,1440
2713,4,680
2713,3,4512
2713,12,63
2713,9,1229
2713,14,753
2713,1,292
2713,6,2264
2713,19,178
2713,10,44
2713,5,39
2713,18,12
2702,16,16993
2702,11,2305
2702,10,229
2702,17,1494
2702,8,1403
2702,13,392
2702,4,1214
2702,7,2005
2702,5,90
2702,3,5432
2702,9,783
2702,18,150
2702,19,348
2702,6,127
2702,12,22
2702,1,39
2712,3,1549
2712,11,331
2712,16,6698
2712,4,1143
2712,17,1335
2712,8,934
2712,7,192
2712,10,64
2712,13,180
2712,19,93
2712,9,48
2712,14,91
2712,6,139
2712,1,17
2712,12,166
2711,16,7770
2711,7,926
2711,3,2416
2711,14,115
2711,13,51
2711,11,773
2711,17,1392
2711,4,959
2711,10,173
2711,1,217
2711,9,284
2711,19,24
2711,8,681
2711,6,51
2711,2,64
2716,16,2749
2716,11,434
2716,4,268
2716,10,24
2716,8,516
2716,14,105
2716,7,214
2716,1,103
2716,17,428
2716,19,27
2716,9,144
2716,3,516
2703,8,4516
2703,16,23224
2703,9,1094
2703,11,3152
2703,4,2112
2703,10,396
2703,1,1852
2703,7,2207
2703,17,3601
2703,13,202
2703,14,446
2703,3,10428
2703,6,187
2703,18,378
2703,19,202
2703,5,63
2703,12,12
2703,2,27
2718,16,3914
2718,11,747
2718,3,6369
2718,4,75
2718,17,872
2718,13,115
2718,19,24
2718,10,17
2718,9,201
2718,7,698
2718,8,349
2718,6,12
2718,5,29
2718,2,267
2718,14,22
2734,7,8085
2734,17,5098
2734,11,6054
2734,16,21377
2734,4,1172
2734,8,1913
2734,13,2344
2734,5,258
2734,10,918
2734,6,811
2734,19,403
2734,18,202
2734,9,3444
2734,3,61994
2734,12,103
2734,1,1440
2734,14,104
2734,2,453
2728,16,14632
2728,3,7254
2728,7,1747
2728,8,602
2728,11,750
2728,4,548
2728,10,165
2728,9,919
2728,17,1516
2728,1,22
2728,6,151
2728,18,147
2728,19,22
2728,5,44
2728,13,165
2728,2,22
2722,11,81215
2722,5,4934
2722,17,48815
2722,3,137973
2722,16,88205
2722,9,60896
2722,13,102227
2722,14,18114
2722,7,72113
2722,12,2414
2722,10,61515
2722,8,30360
2722,6,17691
2722,4,7655
2722,18,8375
2722,19,9961
2722,1,849
2722,2,24
2723,7,9340
2723,11,23482
2723,4,204
2723,10,6170
2723,6,1927
2723,19,2429
2723,8,5164
2723,17,5242
2723,16,7970
2723,13,22878
2723,5,434
2723,3,11523
2723,18,1625
2723,9,8830
2723,14,5679
2723,12,1033
2709,4,4075
2709,3,33906
2709,7,13054
2709,16,27938
2709,11,10412
2709,8,4542
2709,2,784
2709,10,5367
2709,13,2834
2709,17,13821
2709,9,5810
2709,19,1543
2709,6,1502
2709,14,835
2709,12,592
2709,18,494
2709,5,825
2709,1,861
2715,17,2889
2715,16,14095
2715,11,1660
2715,8,2252
2715,3,4137
2715,4,612
2715,14,1107
2715,10,215
2715,5,83
2715,9,628
2715,7,1666
2715,19,144
2715,13,268
2715,18,270
2715,1,753
2715,6,310
2715,12,24
2715,2,12
2701,16,8097
2701,11,692
2701,13,577
2701,17,698
2701,4,241
2701,7,394
2701,10,46
2701,8,453
2701,9,224
2701,1,73
2701,3,2745
2701,5,91
2701,6,64
2720,8,6477
2720,11,8810
2720,16,34184
2720,4,2935
2720,17,8078
2720,1,1272
2720,10,5140
2720,3,89785
2720,9,6252
2720,7,10760
2720,18,874
2720,6,1684
2720,14,166
2720,13,2019
2720,19,1075
2720,12,161
2720,5,117
2720,2,152
2729,11,12416
2729,13,924
2729,16,10580
2729,4,434
2729,8,1034
2729,14,39
2729,10,24
2729,18,87
2729,17,836
2729,3,6953
2729,19,111
2729,7,755
2729,9,321
2729,6,252
2729,1,207
2729,2,12
2729,12,34
2717,16,8868
2717,3,1006
2717,11,630
2717,4,429
2717,17,1116
2717,14,741
2717,1,1630
2717,7,679
2717,6,60
2717,9,335
2717,10,158
2717,8,735
2717,5,51
2717,18,71
2717,13,129
2717,2,76
2725,10,72375
2725,11,30928
2725,4,4723
2725,7,41230
2725,8,13104
2725,16,66129
2725,19,2494
2725,17,23256
2725,3,161224
2725,9,31979
2725,13,24730
2725,5,864
2725,18,3584
2725,6,9262
2725,14,7098
2725,1,1842
2725,12,2326
2204,10,529
2204,5,447
2204,12,29
2732,1,1031
2732,17,2015
2732,14,170
2732,11,1707
2732,8,3514
2732,10,514
2732,16,6189
2732,3,7229
2732,7,1595
2732,13,250
2732,4,1530
2732,9,1892
2732,6,462
2732,5,12
2732,18,58
2732,19,46
2732,2,311
2735,10,497
2735,16,14435
2735,11,2278
2735,8,2195
2735,7,2843
2735,4,1093
2735,3,20912
2735,17,3744
2735,13,365
2735,1,497
2735,9,953
2735,5,419
2735,19,63
2735,18,134
2735,14,22
2735,6,206
2731,16,20127
2731,9,5044
2731,11,3803
2731,6,805
2731,8,3423
2731,7,4234
2731,17,4211
2731,4,1312
2731,3,34651
2731,10,477
2731,13,914
2731,12,41
2731,18,343
2731,5,349
2731,19,217
2731,1,905
2731,2,17
2733,8,2432
2733,11,1006
2733,10,115
2733,7,1082
2733,4,294
2733,13,228
2733,3,4353
2733,16,5135
2733,17,1572
2733,18,44
2733,9,877
2733,12,12
2733,1,326
2733,19,133
2733,2,390
2733,6,76
2733,5,22
2730,11,2848
2730,13,3126
2730,16,24736
2730,17,4921
2730,8,2896
2730,10,166
2730,4,1012
2730,3,33872
2730,9,1979
2730,7,4417
2730,14,66
2730,18,131
2730,5,667
2730,19,137
2730,1,246
2730,6,163
2721,3,164147
2721,11,17839
2721,17,19259
2721,16,43107
2721,8,24540
2721,4,4653
2721,7,21815
2721,10,21735
2721,9,18657
2721,13,12498
2721,18,2082
2721,6,3408
2721,19,3468
2721,5,584
2721,14,10614
2721,1,4438
2721,12,201
2721,2,435
2708,16,4365
2708,11,1013
2708,3,4748
2708,9,204
2708,7,672
2708,1,460
2708,8,226
2708,17,788
2708,4,129
2708,13,163
2708,2,68
2708,19,17
2708,14,29
2706,17,251
2706,8,1087
2706,11,369
2706,10,73
2706,7,477
2706,4,146
2706,16,3653
2706,5,12
2706,9,82
2706,19,152
2706,3,418
2706,18,24
2706,13,12
2706,6,12
2706,2,24
2714,11,2428
2714,16,13524
2714,8,3469
2714,4,699
2714,3,3901
2714,7,1870
2714,10,142
2714,17,2116
2714,14,1355
2714,13,223
2714,9,711
2714,19,311
2714,5,115
2714,18,12
2714,1,865
2714,2,2314
2714,6,64
1702,17,269
1702,7,440
1702,6,790
1702,3,169
1702,14,64
1702,4,49
1702,16,478
1702,8,22
1702,9,17
1702,1,12
1702,11,12
1706,13,655
1706,4,1313
1706,17,3678
1706,10,661
1706,3,1072
1706,7,2943
1706,8,473
1706,14,274
1706,16,9570
1706,11,1113
1706,9,1933
1706,2,445
1706,18,239
1706,6,473
1706,19,336
1706,1,90
1705,3,4510
1705,6,373
1705,4,278
1705,16,1713
1705,9,269
1705,8,175
1705,18,64
1705,17,275
1705,1,278
1705,7,325
1705,5,27
1705,2,56
1705,11,111
1703,2,858
1703,6,221
1703,16,486
1703,17,197
1703,7,738
1703,4,22
1703,11,24
1703,8,24
1703,13,12
1703,1,792
1703,3,36
1703,9,120
1703,19,12
1701,17,1281
1701,4,366
1701,16,3333
1701,3,1643
1701,1,801
1701,8,105
1701,14,76
1701,2,275
1701,6,280
1701,11,228
1701,19,63
1701,7,365
1701,13,22
1701,9,150
1701,18,12
1701,10,12
1707,3,2375
1707,2,7350
1707,7,100
1707,17,320
1707,16,1706
1707,11,289
1707,19,22
1707,10,58
1707,8,29
1707,6,17
1707,9,24
1707,18,24
1707,12,12
1707,1,48
1704,17,657
1704,3,608
1704,2,1014
1704,4,129
1704,16,1277
1704,8,199
1704,7,70
1704,11,65
1704,6,17
1704,10,12
1503,16,5368
1503,7,642
1503,11,265
1503,17,1835
1503,18,29
1503,10,53
1503,4,39
1503,9,302
1503,2,110
1503,3,961
1503,8,124
1503,14,89
1503,6,39
1503,5,27
1504,16,562
1504,17,255
1504,3,73
1504,7,102
1504,11,12
1504,10,12
1504,8,12
1502,3,224
1502,16,597
1502,17,192
1502,4,17
1507,16,465
1507,17,132
1507,7,12
1507,11,12
1506,16,1425
1506,17,322
1506,11,39
1506,3,39
1506,7,12
1506,8,22
1501,17,229
1501,16,348
1501,11,12
1501,3,226
1501,8,66
1508,16,170
1508,17,129
1508,11,34
1508,10,12
1508,7,12
1508,13,12
1505,16,593
1505,17,287
1505,2,12
1505,3,235
1505,7,29
1505,11,12
1305,16,5491
1305,7,612
1305,9,133
1305,10,92
1305,11,581
1305,14,81
1305,6,29
1305,17,992
1305,3,1334
1305,13,41
1305,19,85
1305,8,36
1305,4,27
1305,2,27
1309,16,645
1309,14,217
1309,19,97
1309,11,24
1309,17,141
1309,4,27
1310,16,4130
1310,19,478
1310,17,1211
1310,3,187
1310,1,76
1310,2,297
1310,9,391
1310,6,383
1310,7,196
1310,11,402
1310,10,41
1310,8,64
1310,18,17
1308,16,665
1308,17,129
1308,19,70
1308,6,64
1308,11,12
1302,16,3345
1302,17,857
1302,3,1661
1302,19,227
1302,11,90
1302,7,81
1302,10,12
1302,8,44
1302,1,29
1302,9,17
1301,16,571
1301,3,453
1301,19,39
1301,17,129
1301,7,44
1301,2,86
1311,16,845
1311,17,76
1311,7,22
1311,13,12
1311,11,29
1311,2,17
1311,3,12
1311,19,17
1306,16,947
1306,3,241
1306,11,12
1306,19,75
1306,17,88
1306,1,41
1307,16,1294
1307,3,36
1307,19,399
1307,17,115
1307,14,81
1307,1,12
1307,7,22
1304,16,1073
1304,17,540
1304,7,29
1304,3,105
1304,14,27
1304,11,51
1304,8,12
1304,10,17
1304,1,12
1304,6,64
1304,19,424
1304,4,500
1304,2,22
1303,16,1890
1303,17,374
1303,19,94
1303,3,76
1303,11,12
1303,7,12
2108,16,2578
2108,4,221
2108,11,10648
2108,9,399
2108,3,3004
2108,10,494
2108,7,2438
2108,19,34
2108,8,70
2108,18,120
2108,17,245
2108,1,1712
2112,7,3889
2112,8,1032
2112,3,9548
2112,11,6504
2112,17,3928
2112,18,824
2112,9,1048
2112,13,323
2112,16,12003
2112,5,165
2112,10,521
2112,4,649
2112,19,85
2112,1,1678
2112,6,576
2112,14,93
2117,9,6470
2117,17,11212
2117,14,1690
2117,8,1160
2117,1,853
2117,3,9167
2117,16,21954
2117,6,761
2117,18,2532
2117,7,4935
2117,11,4823
2117,19,654
2117,13,2639
2117,4,1064
2117,5,129
2117,10,3060
2117,12,58
2117,2,76
3404,16,4091
3404,17,1091
3404,1,226
3404,19,388
3404,14,588
3404,7,1121
3404,3,3682
3404,11,261
3404,8,244
3404,9,236
3404,2,500
3404,4,17
3404,10,27
3404,6,12
3404,13,214
3403,7,923
3403,16,1076
3403,11,104
3403,17,645
3403,9,76
3403,10,76
3403,8,34
3403,3,543
3403,14,12
3403,4,149
3403,19,64
3402,13,2816
3402,3,31649
3402,10,4436
3402,16,13881
3402,4,533
3402,7,7795
3402,14,1788
3402,17,6010
3402,11,1796
3402,8,1352
3402,19,647
3402,9,3502
3402,1,359
3402,6,948
3402,5,220
3402,18,263
3401,16,1168
3401,3,967
3401,10,34
3401,9,224
3401,5,81
3401,11,22
3401,1,60
3401,8,76
3401,17,728
3401,14,22
3401,13,12
3401,7,267
3401,4,39
0315,16,16965
0315,17,3802
0315,1,12
0315,13,1569
0315,14,555
0315,3,13153
0315,7,2705
0315,4,1490
0315,5,91
0315,19,1278
0315,9,4418
0315,10,765
0315,11,2691
0315,8,1348
0315,6,141
0315,2,12
0320,17,517
0320,3,7621
0320,16,6733
0320,9,338
0320,11,262
0320,13,247
0320,7,656
0320,4,749
0320,8,261
0320,14,142
0320,5,12
0320,10,64
0320,12,22
0320,19,39
0312,16,11603
0312,11,1061
0312,17,2361
0312,7,1444
0312,10,110
0312,8,667
0312,4,1290
0312,3,13463
0312,5,64
0312,18,141
0312,19,407
0312,14,141
0312,13,156
0312,1,117
0312,9,945
0312,12,120
0312,6,81
0311,3,3745
0311,16,7008
0311,17,1369
0311,13,12
0311,11,604
0311,1,314
0311,4,190
0311,18,17
0311,9,138
0311,19,153
0311,7,749
0311,6,17
0311,14,17
0311,8,105
0311,12,129
0311,10,64
0306,16,7987
0306,3,22486
0306,7,802
0306,1,49
0306,8,365
0306,4,706
0306,19,447
0306,11,624
0306,17,666
0306,6,81
0306,9,395
0306,5,12
0309,16,12496
0309,17,1578
0309,3,11732
0309,11,900
0309,8,84
0309,7,1154
0309,1,58
0309,13,44
0309,4,1002
0309,9,428
0309,19,438
0309,10,142
0309,18,153
0309,6,24
0301,11,1818
0301,8,749
0301,17,2194
0301,3,6429
0301,10,278
0301,16,20751
0301,7,2220
0301,4,2046
0301,19,548
0301,14,350
0301,9,633
0301,5,22
0301,1,170
0301,18,34
0301,13,88
0301,6,120
0304,4,1464
0304,16,17866
0304,11,1392
0304,8,396
0304,10,251
0304,3,13706
0304,17,2026
0304,7,2429
0304,19,336
0304,9,445
0304,1,178
0304,14,225
0304,5,280
0304,6,168
0304,13,161
0303,3,29416
0303,16,17915
0303,11,3247
0303,19,1568
0303,7,4492
0303,17,5234
0303,8,1286
0303,13,390
0303,4,3155
0303,9,2086
0303,14,41
0303,10,506
0303,18,270
0303,1,93
0303,5,411
0303,6,479
0302,19,203
0302,16,12979
0302,3,8091
0302,9,937
0302,4,502
0302,8,267
0302,11,1020
0302,17,2089
0302,7,1580
0302,13,122
0302,10,76
0302,12,12
0307,17,6876
0307,3,157406
0307,16,28928
0307,7,10215
0307,8,1027
0307,11,5955
0307,1,428
0307,4,2270
0307,5,153
0307,9,2456
0307,14,661
0307,19,1206
0307,10,744
0307,13,1871
0307,12,68
0307,6,141
0307,18,175
0313,10,36
0313,8,522
0313,19,97
0313,9,77
0313,13,22
0313,17,488
0313,16,6913
0313,4,125
0313,7,267
0313,12,17
0313,11,352
0313,1,64
0313,3,7504
0308,16,11344
0308,3,8736
0308,17,1142
0308,4,877
0308,8,934
0308,11,588
0308,7,638
0308,10,110
0308,19,39
0308,13,27
0308,14,22
0308,6,27
0308,9,153
0308,1,17
0308,18,64
0314,16,21876
0314,4,724
0314,17,2799
0314,8,517
0314,13,127
0314,10,149
0314,19,421
0314,11,2655
0314,1,526
0314,3,16906
0314,7,3380
0314,9,1738
0314,18,127
0314,14,217
0314,5,103
0317,16,7119
0317,7,1810
0317,3,3457
0317,17,1057
0317,4,1181
0317,9,595
0317,8,703
0317,11,730
0317,14,541
0317,19,304
0317,1,136
0317,13,87
0317,10,920
0317,5,295
0317,6,76
0317,18,27
0318,11,857
0318,7,9784
0318,9,1895
0318,19,814
0318,3,27612
0318,14,1648
0318,13,423
0318,6,1075
0318,1,998
0318,8,1900
0318,16,10212
0318,17,1245
0318,4,1231
0318,10,3671
0318,18,210
0318,5,29
0318,12,139
0319,16,20046
0319,4,1407
0319,3,24811
0319,11,1234
0319,19,785
0319,17,1320
0319,8,551
0319,10,108
0319,7,1236
0319,5,260
0319,13,392
0319,6,210
0319,9,311
0319,14,51
0319,1,516
0319,12,12
0305,16,6944
0305,17,1460
0305,4,2026
0305,19,298
0305,7,727
0305,3,2708
0305,11,441
0305,8,64
0305,1,34
0305,6,93
0305,9,436
0305,10,17
0305,13,64
0310,16,9328
0310,1,117
0310,3,8724
0310,4,718
0310,11,647
0310,13,110
0310,17,1114
0310,10,153
0310,7,598
0310,8,439
0310,14,110
0310,9,199
0310,5,103
0310,6,24
0310,19,226
0316,17,1214
0316,16,10588
0316,3,8265
0316,7,390
0316,1,92
0316,11,630
0316,19,670
0316,4,956
0316,14,134
0316,9,200
0316,8,241
0821,11,2512
0821,4,2567
0821,16,15376
0821,14,1171
0821,3,14185
0821,9,1718
0821,6,948
0821,7,3387
0821,17,3980
0821,12,78
0821,8,1091
0821,19,214
0821,13,141
0821,1,333
0821,10,637
0821,18,175
0821,2,51
0821,5,29
0806,10,1025
0806,5,272
0806,16,12263
0806,11,1756
0806,8,1064
0806,9,763
0806,3,18634
0806,7,831
0806,12,12
0806,17,2760
0806,4,545
0806,6,133
0806,19,132
0806,13,258
0806,1,385
0806,18,77
0806,14,27
0827,11,395
0827,3,6198
0827,17,1223
0827,16,5663
0827,2,205
0827,7,472
0827,4,425
0827,13,146
0827,10,361
0827,8,263
0827,9,58
0827,14,86
0827,5,12
0827,6,34
0827,19,12
0830,16,5617
0830,10,81
0830,4,1594
0830,9,154
0830,5,39
0830,13,34
0830,17,834
0830,11,289
0830,6,197
0830,14,303
0830,19,12
0830,7,394
0830,3,1186
0830,8,443
0830,18,12
0817,11,444
0817,17,929
0817,16,2755
0817,7,967
0817,10,178
0817,2,680
0817,13,328
0817,4,1108
0817,9,210
0817,5,407
0817,6,255
0817,3,3397
0817,19,100
0817,8,64
0817,14,189
0817,1,12
0807,16,11945
0807,8,866
0807,18,243
0807,1,121
0807,17,1817
0807,3,12511
0807,7,1289
0807,4,968
0807,10,95
0807,11,664
0807,13,302
0807,14,528
0807,5,256
0807,9,222
0807,19,178
0807,2,266
0824,2,890
0824,3,30215
0824,16,7883
0824,11,1131
0824,10,122
0824,4,919
0824,13,120
0824,17,2681
0824,7,1576
0824,5,205
0824,14,623
0824,19,24
0824,8,312
0824,9,282
0824,6,75
0824,1,46
0824,18,29
0803,11,1410
0803,4,784
0803,13,417
0803,16,7620
0803,3,10166
0803,8,330
0803,7,1869
0803,17,1836
0803,19,12
0803,10,177
0803,9,612
0803,18,51
0803,14,261
0803,2,719
0803,12,22
0803,1,103
0803,5,24
0803,6,17
0823,16,3696
0823,6,76
0823,17,467
0823,4,416
0823,3,3095
0823,7,488
0823,8,63
0823,11,320
0823,13,346
0823,2,349
0823,14,12
0823,9,17
0823,5,61
0828,16,4287
0828,3,5817
0828,17,841
0828,7,910
0828,9,848
0828,13,171
0828,2,144
0828,4,1374
0828,18,72
0828,11,493
0828,14,194
0828,5,115
0828,8,268
0828,10,404
0828,1,24
0828,19,142
0828,6,129
0804,16,10709
0804,17,1000
0804,9,58
0804,10,56
0804,11,613
0804,8,209
0804,5,340
0804,14,117
0804,4,590
0804,3,3411
0804,2,64
0804,1,105
0804,18,39
0804,7,145
0804,19,161
0804,13,64
0811,2,614
0811,16,7652
0811,17,576
0811,13,404
0811,4,511
0811,3,3989
0811,18,70
0811,7,315
0811,10,64
0811,8,178
0811,14,587
0811,11,412
0811,9,219
0811,19,46
0811,5,24
0808,1,12
0808,16,2725
0808,5,64
0808,3,4217
0808,11,116
0808,4,587
0808,17,469
0808,7,275
0808,6,17
0808,18,39
0808,8,323
0808,9,41
0808,13,64
0826,16,2795
0826,3,1343
0826,9,198
0826,17,645
0826,7,895
0826,2,103
0826,8,153
0826,14,683
0826,6,129
0826,4,152
0826,11,250
0826,1,12
0826,19,12
0802,16,7849
0802,14,378
0802,3,20499
0802,11,447
0802,7,355
0802,4,395
0802,17,850
0802,8,350
0802,13,151
0802,19,361
0802,10,63
0802,1,190
0802,9,101
0802,18,22
0802,5,12
0812,3,75229
0812,10,5302
0812,16,52265
0812,11,11257
0812,17,14100
0812,8,5971
0812,5,713
0812,7,16556
0812,13,2799
0812,4,2591
0812,6,1285
0812,9,11767
0812,14,5126
0812,12,426
0812,18,1078
0812,1,177
0812,19,1152
0816,9,786
0816,17,127
0816,11,121
0816,5,12
0816,4,103
0816,16,1034
0816,14,29
0816,10,166
0816,3,307
0816,2,422
0816,7,76
0816,6,214
0816,19,64
0818,3,792
0818,16,2081
0818,7,282
0818,17,533
0818,4,579
0818,14,24
0818,11,282
0818,8,157
0818,9,163
0818,2,34
0818,19,56
0818,13,149
0818,10,27
0831,16,5483
0831,17,1428
0831,3,1629
0831,7,582
0831,4,539
0831,11,294
0831,12,12
0831,10,76
0831,13,36
0831,5,76
0831,9,58
0831,6,119
0831,14,226
0831,18,12
0831,1,24
0831,19,76
0831,8,41
0805,16,19113
0805,5,239
0805,11,441
0805,3,6240
0805,13,110
0805,17,1889
0805,4,990
0805,9,499
0805,1,242
0805,19,225
0805,6,34
0805,8,857
0805,14,197
0805,7,536
0805,10,141
0805,18,12
0805,2,27
0815,16,12971
0815,11,2726
0815,8,745
0815,4,1500
0815,3,9716
0815,17,3001
0815,7,1796
0815,9,2437
0815,18,454
0815,14,752
0815,6,70
0815,2,183
0815,1,479
0815,19,236
0815,13,173
0815,10,562
0815,5,1582
0815,12,12
0809,5,86
0809,19,295
0809,17,787
0809,4,479
0809,8,395
0809,6,34
0809,11,211
0809,16,5513
0809,3,1235
0809,9,255
0809,7,120
0809,10,81
0809,2,29
0809,14,86
0809,1,12
0829,11,1480
0829,5,132
0829,7,3330
0829,9,944
0829,17,3741
0829,10,664
0829,16,14386
0829,3,7840
0829,8,552
0829,14,39
0829,6,426
0829,4,1137
0829,2,1256
0829,13,236
0829,1,220
0829,18,153
0829,19,64
0814,2,913
0814,5,273
0814,6,88
0814,1,535
0814,11,592
0814,4,1077
0814,8,363
0814,3,4140
0814,13,39
0814,7,1645
0814,16,13199
0814,17,1653
0814,14,435
0814,9,122
0814,19,233
0814,10,34
0820,16,7224
0820,4,581
0820,11,1111
0820,17,1279
0820,9,525
0820,10,232
0820,14,277
0820,3,13812
0820,2,671
0820,7,1090
0820,6,655
0820,1,195
0820,8,987
0820,13,132
0820,5,268
0820,19,371
0820,18,34
0942,16,7405
0942,4,340
0942,2,127
0942,8,307
0942,6,17
0942,17,1189
0942,11,408
0942,10,29
0942,13,41
0942,3,3638
0942,19,24
0942,7,417
0942,18,12
0942,9,168
0942,14,149
0825,17,731
0825,16,4623
0825,4,358
0825,3,6406
0825,5,22
0825,11,469
0825,9,702
0825,2,2304
0825,14,117
0825,7,273
0825,18,41
0825,1,12
0825,19,241
0825,13,36
0825,10,17
0825,6,66
0825,8,210
0810,16,6514
0810,11,524
0810,4,363
0810,6,158
0810,17,782
0810,9,767
0810,7,279
0810,8,382
0810,14,312
0810,1,80
0810,18,83
0810,13,24
0810,3,629
0810,10,91
0810,5,12
0813,3,11826
0813,16,20530
0813,11,762
0813,4,1939
0813,14,44
0813,17,2252
0813,7,2033
0813,9,364
0813,13,188
0813,1,304
0813,5,262
0813,19,180
0813,18,86
0813,6,385
0813,8,207
0813,2,370
0819,8,392
0819,14,458
0819,16,4495
0819,5,217
0819,11,697
0819,4,474
0819,3,4473
0819,6,644
0819,17,1585
0819,9,1820
0819,19,343
0819,13,81
0819,10,93
0819,18,533
0819,7,336
0819,2,100
0801,3,23391
0801,16,11626
0801,2,81
0801,17,1776
0801,5,124
0801,11,1127
0801,10,486
0801,4,704
0801,9,307
0801,7,1415
0801,12,12
0801,8,560
0801,13,99
0801,1,615
0801,14,115
0801,19,64
0801,18,22
0801,6,64
0822,16,8312
0822,17,758
0822,6,865
0822,7,311
0822,4,960
0822,3,2439
0822,8,105
0822,11,232
0822,2,115
0822,18,41
0822,13,158
0822,12,12
0822,19,129
0822,5,305
0822,14,215
0822,9,24
0832,16,14885
0832,17,4015
0832,9,4164
0832,8,946
0832,6,166
0832,7,4007
0832,3,11695
0832,11,2098
0832,4,953
0832,10,960
0832,18,465
0832,13,839
0832,14,802
0832,19,370
0832,1,103
0832,5,88
0832,12,12
0832,2,1403
1104,16,6745
1104,19,92
1104,7,850
1104,3,5634
1104,14,394
1104,17,1082
1104,9,2226
1104,4,716
1104,6,652
1104,18,417
1104,10,667
1104,8,251
1104,11,773
1104,5,161
1104,13,158
1101,16,864
1101,9,58
1101,17,183
1101,4,22
1101,11,12
1101,19,17
1103,11,84
1103,16,3015
1103,9,116
1103,17,253
1103,4,90
1103,10,12
1103,3,1880
1103,14,86
1103,13,64
1103,7,76
1103,6,64
1103,19,12
1103,8,64
1102,17,164
1102,16,2854
1102,9,199
1102,6,202
1102,3,102
1102,14,64
1102,4,349
1102,11,24
1102,7,24
1102,19,12
3315,3,2549
3315,16,2486
3315,11,194
3315,7,625
3315,17,286
3315,4,75
3315,19,103
3315,5,76
3315,9,58
3315,18,12
3315,2,76
3315,8,175
3315,1,214
3315,14,12
3315,6,12
3302,3,29571
3302,16,5772
3302,7,26140
3302,18,1189
3302,9,12022
3302,5,170
3302,14,2493
3302,11,5859
3302,17,6529
3302,12,720
3302,8,3814
3302,4,1494
3302,13,2947
3302,19,1626
3302,10,10444
3302,6,1575
3331,18,571
3331,3,110423
3331,16,19634
3331,17,7167
3331,14,1895
3331,11,5665
3331,7,18729
3331,6,814
3331,9,7466
3331,2,223
3331,19,823
3331,1,468
3331,4,1860
3331,13,1535
3331,8,4938
3331,10,5673
3331,5,262
3331,12,153
3316,16,13177
3316,3,11038
3316,1,359
3316,7,3709
3316,8,1684
3316,11,1604
3316,17,2390
3316,9,1076
3316,13,4255
3316,10,546
3316,6,246
3316,4,1446
3316,19,58
3316,2,361
3316,5,103
3316,18,85
3316,14,76
3329,2,1004
3329,7,1721
3329,9,355
3329,13,710
3329,3,5861
3329,16,7630
3329,1,304
3329,17,851
3329,11,514
3329,4,368
3329,18,349
3329,8,1825
3329,19,273
3329,10,238
3329,5,12
3329,14,22
3329,6,12
3311,1,860
3311,3,27700
3311,16,8669
3311,7,5252
3311,8,695
3311,10,262
3311,11,1170
3311,9,1765
3311,17,2060
3311,4,568
3311,13,449
3311,18,65
3311,2,68
3311,5,73
3311,6,169
3311,12,100
3311,19,159
3311,14,173
3309,16,6874
3309,9,1023
3309,3,53125
3309,19,224
3309,4,701
3309,17,1335
3309,7,5806
3309,1,619
3309,8,1383
3309,5,361
3309,11,1140
3309,18,89
3309,13,192
3309,6,216
3309,2,70
3309,10,231
3309,12,64
3309,14,76
3303,3,128623
3303,7,22010
3303,16,27561
3303,18,1672
3303,9,10748
3303,8,4578
3303,11,3892
3303,10,32649
3303,5,1172
3303,6,1859
3303,17,6076
3303,2,41
3303,4,3131
3303,1,424
3303,19,1089
3303,13,2346
3303,12,399
3303,14,213
3328,16,22097
3328,3,36907
3328,1,3042
3328,11,1458
3328,2,136
3328,7,4878
3328,13,1105
3328,17,6108
3328,5,81
3328,4,1869
3328,9,1352
3328,8,3275
3328,6,369
3328,10,576
3328,19,309
3328,18,283
3328,12,12
3328,14,27
3312,16,4068
3312,9,688
3312,3,8475
3312,7,2323
3312,2,85
3312,1,48
3312,4,195
3312,6,64
3312,11,474
3312,17,749
3312,8,262
3312,13,12
3312,10,12
3312,18,12
3312,19,88
3312,14,12
3330,3,44172
3330,16,8660
3330,1,2153
3330,19,80
3330,17,1368
3330,12,129
3330,2,608
3330,7,2529
3330,6,110
3330,5,80
3330,11,494
3330,10,446
3330,9,848
3330,4,601
3330,18,65
3330,8,1865
3330,13,357
3330,14,17
3322,16,13698
3322,3,26111
3322,8,1745
3322,9,4248
3322,19,327
3322,7,10463
3322,17,4059
3322,11,3273
3322,10,1187
3322,13,803
3322,4,825
3322,18,100
3322,2,243
3322,1,91
3322,5,58
3322,14,105
3322,6,694
3322,12,41
3317,1,415
3317,16,5402
3317,17,351
3317,9,1146
3317,3,2639
3317,11,352
3317,7,1628
3317,4,822
3317,19,302
3317,8,682
3317,13,58
3317,10,241
3317,6,12
3317,14,64
3317,2,129
3308,3,37135
3308,8,652
3308,16,16105
3308,17,1227
3308,7,5716
3308,10,267
3308,4,591
3308,9,2064
3308,13,933
3308,1,2104
3308,6,602
3308,2,85
3308,11,1252
3308,18,53
3308,14,144
3308,5,64
3308,19,48
3308,12,12
3310,16,6327
3310,3,7292
3310,17,1069
3310,10,336
3310,11,818
3310,1,988
3310,4,644
3310,9,3209
3310,7,1180
3310,19,29
3310,13,76
3310,8,734
3310,18,205
3310,14,205
3310,6,12
3310,12,17
3314,7,959
3314,19,24
3314,9,554
3314,11,245
3314,18,29
3314,3,1158
3314,14,27
3314,1,117
3314,16,1558
3314,4,100
3314,13,41
3314,5,17
3314,8,220
3314,17,229
3314,2,17
3320,16,9513
3320,3,10671
3320,1,151
3320,8,588
3320,7,1249
3320,12,24
3320,4,805
3320,2,536
3320,17,1411
3320,6,244
3320,19,105
3320,5,192
3320,9,357
3320,11,757
3320,13,53
3320,18,12
3325,16,5488
3325,11,560
3325,3,2322
3325,17,1215
3325,5,100
3325,9,550
3325,8,702
3325,6,100
3325,4,224
3325,7,1727
3325,1,477
3325,19,175
3325,10,64
3325,13,29
3325,12,17
3307,16,18233
3307,3,30511
3307,17,4549
3307,7,10051
3307,6,1426
3307,1,1766
3307,19,1591
3307,9,2145
3307,13,1884
3307,2,401
3307,11,3236
3307,8,4811
3307,4,2239
3307,10,251
3307,14,277
3307,18,163
3307,5,56
3307,12,34
3321,16,8804
3321,11,1008
3321,1,258
3321,17,1705
3321,4,240
3321,3,9085
3321,19,336
3321,7,1336
3321,9,516
3321,18,88
3321,8,941
3321,6,78
3321,10,170
3321,5,12
3321,14,22
3321,13,22
3319,16,13138
3319,4,379
3319,3,4015
3319,19,256
3319,11,1712
3319,9,2736
3319,7,5505
3319,17,2608
3319,8,642
3319,18,157
3319,10,486
3319,14,46
3319,6,88
3319,13,465
3319,1,22
3319,5,129
3323,3,6264
3323,16,4476
3323,11,94
3323,1,210
3323,7,1863
3323,17,764
3323,9,319
3323,13,105
3323,8,92
3323,19,41
3323,18,29
3323,6,12
3323,10,76
3323,5,17
3318,17,258
3318,3,1149
3318,1,105
3318,16,2760
3318,7,1692
3318,11,624
3318,10,159
3318,19,24
3318,8,204
3318,18,12
3318,9,387
3318,4,97
3318,6,17
3326,3,20658
3326,16,8726
3326,17,2096
3326,1,134
3326,11,975
3326,7,7062
3326,9,667
3326,8,649
3326,18,24
3326,13,51
3326,10,302
3326,4,1267
3326,2,415
3326,19,272
3326,6,90
3326,5,39
3326,14,76
3313,3,11110
3313,7,12554
3313,9,3807
3313,17,4924
3313,11,1972
3313,16,20243
3313,4,595
3313,1,250
3313,2,93
3313,13,478
3313,18,92
3313,10,1627
3313,19,444
3313,6,372
3313,8,883
3313,14,122
3313,5,116
3313,12,68
3327,16,14814
3327,3,17116
3327,11,1264
3327,4,876
3327,17,3034
3327,7,4930
3327,9,593
3327,8,1472
3327,10,153
3327,1,139
3327,18,24
3327,19,83
3327,13,81
3327,5,12
3327,14,129
3327,12,41
3327,2,80
3327,6,295
3332,3,133391
3332,16,4662
3332,7,5538
3332,11,805
3332,5,177
3332,9,1185
3332,2,130
3332,8,994
3332,17,699
3332,4,709
3332,13,804
3332,10,335
3332,1,487
3332,6,154
3332,12,29
3332,14,36
3332,19,229
3332,18,104
3301,3,78837
3301,16,12049
3301,8,4170
3301,17,1955
3301,9,3603
3301,5,691
3301,4,3689
3301,6,1152
3301,7,9639
3301,11,1603
3301,14,213
3301,1,60
3301,10,4179
3301,19,735
3301,13,469
3301,2,149
3301,18,77
3301,12,124
3305,16,12762
3305,3,10716
3305,7,2664
3305,17,1404
3305,8,1196
3305,4,1388
3305,11,1370
3305,1,170
3305,9,907
3305,18,135
3305,13,269
3305,10,95
3305,19,267
3305,2,92
3305,6,115
3305,5,56
3305,14,64
3304,7,4162
3304,16,13408
3304,3,48502
3304,19,551
3304,8,2029
3304,9,1968
3304,11,1395
3304,4,805
3304,17,2873
3304,13,166
3304,10,1014
3304,5,91
3304,2,265
3304,18,142
3304,1,182
3304,6,70
3304,14,76
3306,16,12983
3306,11,1195
3306,3,6930
3306,13,65
3306,4,1123
3306,17,1514
3306,18,171
3306,9,1260
3306,7,2969
3306,8,876
3306,5,277
3306,2,205
3306,1,346
3306,10,98
3306,6,168
3306,19,210
3306,14,12
3306,12,12
3324,3,98666
3324,2,156
3324,1,135
3324,16,8792
3324,11,1316
3324,4,770
3324,17,1609
3324,7,3641
3324,9,1414
3324,10,387
3324,6,193
3324,18,126
3324,19,214
3324,8,811
3324,13,645
3324,5,53
3601,3,10498
3601,16,12369
3601,1,2845
3601,11,1175
3601,7,1964
3601,4,258
3601,5,248
3601,9,1098
3601,10,290
3601,17,1885
3601,8,2876
3601,18,240
3601,14,300
3601,13,519
3601,6,88
3601,2,8168
3601,19,166
3605,7,60267
3605,10,93829
3605,11,16219
3605,13,22791
3605,9,48580
3605,8,6097
3605,3,54256
3605,14,6252
3605,18,2208
3605,17,23058
3605,5,6506
3605,19,6756
3605,6,192726
3605,4,3953
3605,16,48449
3605,12,5220
3605,1,110
3605,2,1103
3603,3,63877
3603,16,18051
3603,4,1814
3603,2,9564
3603,17,3194
3603,19,1757
3603,13,423
3603,7,3284
3603,11,2044
3603,6,261
3603,9,1129
3603,1,511
3603,18,631
3603,8,3512
3603,10,268
3603,5,108
3610,11,3060
3610,4,864
3610,2,7948
3610,16,19341
3610,17,5014
3610,13,1439
3610,14,1700
3610,7,5470
3610,10,641
3610,3,10803
3610,9,2035
3610,5,148
3610,6,643
3610,1,691
3610,8,2948
3610,19,754
3610,18,687
3610,15,12
3610,12,91
3607,3,28624
3607,11,1455
3607,1,2456
3607,17,4642
3607,16,21339
3607,19,1906
3607,10,571
3607,14,408
3607,5,529
3607,4,804
3607,6,595
3607,9,1611
3607,7,2133
3607,18,602
3607,8,3335
3607,13,60
3607,2,81
3604,11,1312
3604,3,102956
3604,17,3871
3604,13,597
3604,9,1292
3604,16,17828
3604,4,1654
3604,10,423
3604,19,226
3604,1,4867
3604,2,488
3604,8,2575
3604,7,2376
3604,5,88
3604,12,64
3604,6,999
3604,18,193
3604,14,332
3608,3,34920
3608,16,27172
3608,1,2318
3608,6,1526
3608,9,2235
3608,8,6385
3608,4,2792
3608,10,641
3608,7,3440
3608,11,2661
3608,13,1245
3608,17,4440
3608,19,552
3608,5,187
3608,2,287
3608,18,165
3608,14,275
3608,12,29
3602,7,2131
3602,11,1530
3602,3,137220
3602,16,18805
3602,14,24
3602,1,1944
3602,17,2346
3602,6,301
3602,8,3497
3602,5,12
3602,10,543
3602,9,1150
3602,18,238
3602,19,289
3602,4,715
3602,13,110
3606,3,149516
3606,9,10970
3606,14,1442
3606,10,66340
3606,16,57985
3606,7,19147
3606,5,889
3606,8,8149
3606,4,876
3606,11,3608
3606,13,8238
3606,1,5448
3606,19,1105
3606,6,1876
3606,17,10011
3606,18,1041
3606,12,156
3606,2,582
3609,16,29339
3609,17,4379
3609,3,14413
3609,7,3258
3609,19,2101
3609,18,563
3609,10,699
3609,8,5375
3609,11,2337
3609,6,618
3609,4,1995
3609,1,649
3609,2,3329
3609,9,1922
3609,14,100
3609,13,24
3609,5,81
3609,12,22
1603,16,3773
1603,14,12
1603,17,592
1603,4,217
1603,5,24
1603,3,237
1603,11,60
1603,8,58
1603,7,41
1603,10,17
1603,1,12
1603,19,149
1604,3,955
1604,16,7095
1604,1,160
1604,8,194
1604,7,231
1604,10,68
1604,11,315
1604,4,366
1604,17,1400
1604,6,22
1604,14,34
1604,5,85
1604,19,34
1604,9,24
1604,13,36
1602,16,9049
1602,3,926
1602,9,29
1602,4,336
1602,17,1408
1602,11,231
1602,7,94
1602,13,17
1602,19,12
1602,6,64
1602,8,88
1602,14,17
1602,1,269
1602,5,39
1602,10,17
1601,16,24348
1601,17,3620
1601,3,5491
1601,7,2055
1601,4,1882
1601,11,1891
1601,19,433
1601,1,321
1601,5,95
1601,9,384
1601,8,836
1601,10,403
1601,6,360
1601,14,349
1601,13,601
1601,18,64
1601,2,500
0915,8,1460
0915,4,29
0915,11,1883
0915,3,12068
0915,7,2469
0915,5,61
0915,16,8569
0915,10,304
0915,17,1998
0915,9,2210
0915,14,451
0915,18,236
0915,13,113
0915,6,158
0915,12,12
0915,19,51
0912,16,8082
0912,11,468
0912,7,1069
0912,3,12062
0912,17,1387
0912,4,231
0912,8,803
0912,13,134
0912,6,243
0912,9,285
0912,18,285
0912,1,334
0912,10,247
0912,19,12
0912,12,27
0944,16,10762
0944,3,4998
0944,11,401
0944,17,2269
0944,7,678
0944,8,184
0944,4,63
0944,5,129
0944,1,125
0944,2,71
0944,6,27
0944,18,98
0944,10,132
0944,9,163
0944,14,414
0944,13,108
0944,19,17
0947,11,274
0947,3,2467
0947,16,6762
0947,4,166
0947,17,180
0947,7,189
0947,8,80
0947,13,12
0947,9,64
0906,4,123
0906,3,9809
0906,16,4863
0906,9,321
0906,17,485
0906,8,115
0906,7,185
0906,18,17
0906,6,12
0906,11,150
0906,10,29
0906,14,500
0931,16,3767
0931,11,82
0931,8,36
0931,17,152
0931,3,153
0931,7,65
0931,13,129
0931,6,81
0931,18,60
0931,9,24
0960,16,9278
0960,11,663
0960,10,17
0960,4,76
0960,17,1345
0960,3,5328
0960,7,695
0960,18,12
0960,8,29
0960,9,53
0960,19,12
0918,13,161
0918,16,3105
0918,11,185
0918,3,6135
0918,8,288
0918,4,48
0918,1,24
0918,18,22
0918,6,72
0918,17,531
0918,7,105
0918,9,12
0908,16,2285
0908,3,7565
0908,7,151
0908,11,155
0908,1,12
0908,17,156
0908,4,56
0908,10,64
0908,18,94
0908,19,12
0949,16,2864
0949,3,2527
0949,17,709
0949,8,154
0949,7,426
0949,11,353
0949,9,44
0949,18,81
0949,19,27
0962,11,221
0962,17,312
0962,16,3416
0962,8,1007
0962,3,457
0962,13,12
0962,7,151
0962,18,34
0951,16,819
0951,3,1651
0951,17,163
0951,11,126
0951,9,76
0951,8,64
0951,7,46
0951,4,17
0939,16,1058
0939,3,120
0939,17,232
0939,5,12
0939,4,12
0939,11,146
0939,10,12
0939,18,34
0939,6,88
0939,9,64
0939,7,22
0939,13,22
0945,3,13299
0945,7,1032
0945,16,4276
0945,17,1133
0945,8,509
0945,11,444
0945,9,98
0945,19,103
0945,1,98
0945,4,214
0945,18,12
0945,10,414
0919,11,1103
0919,3,9061
0919,16,5733
0919,1,12
0919,17,2324
0919,7,796
0919,19,65
0919,18,170
0919,13,17
0919,8,73
0919,10,161
0919,9,244
0919,4,149
0919,6,12
0954,3,1996
0954,16,3026
0954,11,486
0954,7,1219
0954,4,76
0954,17,606
0954,13,581
0954,10,195
0954,9,382
0954,1,563
0954,14,232
0954,5,64
0954,8,564
0954,19,64
0903,11,693
0903,16,9561
0903,3,14409
0903,9,507
0903,7,474
0903,4,75
0903,19,135
0903,17,843
0903,8,794
0903,10,39
0903,13,137
0903,18,86
0903,1,22
0903,14,166
0911,11,288
0911,16,5159
0911,3,11695
0911,1,747
0911,4,102
0911,18,24
0911,6,76
0911,14,17
0911,7,758
0911,8,121
0911,17,309
0911,9,36
0911,10,12
0965,17,384
0965,16,2872
0965,4,117
0965,3,3643
0965,11,152
0965,8,91
0965,7,355
0965,1,12
0965,5,12
0965,9,12
0940,16,1054
0940,17,56
0940,3,103
0940,7,24
0940,11,12
0959,8,292
0959,3,3373
0959,16,5851
0959,13,17
0959,11,381
0959,17,169
0959,7,80
0959,18,133
0959,4,29
0959,10,64
0959,14,64
0959,9,64
0970,11,753
0970,16,4611
0970,3,2359
0970,1,214
0970,8,834
0970,7,164
0970,17,127
0970,12,22
0970,4,130
0970,9,34
0970,10,12
0970,18,114
0930,8,303
0930,3,979
0930,11,388
0930,16,3651
0930,17,879
0930,7,364
0930,9,93
0930,4,76
0930,6,27
0930,1,12
0930,18,34
0930,10,349
0930,13,76
0930,19,17
0946,8,798
0946,7,831
0946,16,6730
0946,13,34
0946,4,70
0946,3,3386
0946,11,586
0946,6,108
0946,10,134
0946,17,871
0946,14,24
0946,9,212
0946,19,149
0946,1,12
0946,5,12
0928,16,2761
0928,3,3921
0928,17,750
0928,11,275
0928,10,76
0928,4,64
0928,7,163
0928,8,909
0928,18,136
0928,9,29
0941,16,4806
0941,11,349
0941,8,808
0941,6,22
0941,17,782
0941,7,139
0941,3,9744
0941,1,22
0941,18,29
0941,13,185
0941,5,12
0941,14,555
0941,4,29
0941,10,12
0916,3,82191
0916,8,2469
0916,16,5461
0916,11,456
0916,17,408
0916,7,710
0916,14,22
0916,5,12
0916,19,81
0916,9,279
0916,1,27
0916,10,27
0916,18,53
0910,3,185525
0910,8,4783
0910,16,18943
0910,7,24832
0910,10,38612
0910,11,5169
0910,13,13820
0910,4,3579
0910,12,4425
0910,14,16867
0910,17,6544
0910,6,5049
0910,19,2129
0910,9,4094
0910,18,202
0910,5,684
0909,16,10375
0909,3,56676
0909,11,1108
0909,7,6239
0909,10,777
0909,6,431
0909,17,3138
0909,9,1063
0909,12,146
0909,8,1152
0909,18,261
0909,13,150
0909,14,2045
0909,4,353
0909,19,730
0909,5,149
0909,1,86
0964,11,541
0964,16,10862
0964,3,5450
0964,17,143
0964,8,1257
0964,5,149
0964,1,54
0964,7,195
0964,18,233
0964,13,24
0964,19,12
0964,9,17
0964,10,149
0964,14,12
0952,11,163
0952,8,58
0952,16,2213
0952,3,1298
0952,17,110
0952,9,92
0952,7,143
0952,4,81
0957,11,999
0957,17,3867
0957,13,41
0957,16,13035
0957,8,954
0957,7,1542
0957,3,12097
0957,6,136
0957,18,180
0957,1,80
0957,9,1176
0957,4,234
0957,14,12
0957,10,166
0957,19,129
0957,12,64
0957,5,22
0937,5,39
0924,16,5547
0924,7,195
0924,3,3516
0924,11,313
0924,17,587
0924,6,64
0924,9,12
0924,8,558
0924,4,12
0913,16,1937
0913,7,292
0913,8,187
0913,3,2004
0913,11,282
0913,1,22
0913,18,97
0913,17,133
0913,13,64
0934,16,5263
0934,17,360
0934,3,934
0934,4,63
0934,7,324
0934,18,29
0934,11,153
0934,8,12
0934,1,17
0934,9,88
0963,16,10586
0963,17,1070
0963,3,5964
0963,6,70
0963,11,434
0963,8,668
0963,7,599
0963,9,451
0963,5,17
0963,10,12
0963,13,12
0935,11,425
0935,8,149
0935,17,1649
0935,16,4523
0935,3,2974
0935,2,1386
0935,7,879
0935,9,84
0935,1,153
0935,18,65
0935,13,64
0935,4,81
0935,10,64
0935,19,22
0929,16,4057
0929,7,180
0929,11,230
0929,3,918
0929,8,1206
0929,17,129
0929,9,29
0929,4,12
0929,13,27
0932,3,11886
0932,11,34
0932,16,3385
0932,9,102
0932,7,447
0932,17,276
0932,8,17
0932,5,168
0932,13,86
0932,1,172
0932,6,17
0932,18,66
0932,14,141
0933,16,16048
0933,3,43435
0933,13,1006
0933,11,4510
0933,10,1695
0933,8,6509
0933,7,5511
0933,1,175
0933,4,2287
0933,5,1899
0933,18,370
0933,9,2497
0933,19,129
0933,17,6496
0933,6,972
0933,12,86
0933,14,377
0971,3,2250
0971,16,2022
0971,8,46
0971,4,34
0971,7,289
0971,1,12
0971,11,80
0971,17,66
0971,18,17
0943,3,15596
0943,16,1456
0943,8,12
0943,7,76
0943,17,64
0943,11,41
0958,13,29
0958,3,4192
0958,11,315
0958,16,3932
0958,6,17
0958,18,65
0958,17,214
0958,4,17
0958,8,103
0958,7,161
0958,10,29
0958,1,64
0958,14,48
0922,3,4747
0922,16,4487
0922,9,68
0922,11,470
0922,7,795
0922,8,479
0922,17,542
0922,18,17
0922,12,12
0922,14,149
0936,16,1393
0936,11,200
0936,10,49
0936,7,315
0936,2,580
0936,4,76
0936,3,114
0936,13,27
0936,17,243
0936,9,17
0936,6,17
0936,18,12
0936,5,22
0936,8,64
0926,11,4468
0926,16,23998
0926,17,5735
0926,9,2571
0926,7,5274
0926,10,670
0926,8,1805
0926,4,448
0926,3,7686
0926,19,612
0926,5,24
0926,18,263
0926,14,244
0926,13,795
0926,6,637
0926,12,288
0926,1,248
0926,2,64
0956,11,134
0956,3,6282
0956,16,2653
0956,7,77
0956,19,22
0956,17,153
0956,12,48
0956,8,29
0956,1,64
0938,11,207
0938,2,98
0938,17,129
0938,16,1487
0938,8,231
0938,3,1712
0938,7,129
0938,12,12
0917,17,628
0917,11,452
0917,7,150
0917,14,12
0917,8,509
0917,16,4715
0917,3,2038
0917,9,12
0917,18,39
0917,10,64
0914,8,185
0914,11,212
0914,19,375
0914,9,760
0914,7,272
0914,16,3643
0914,17,348
0914,3,5451
0914,13,149
0914,6,17
0914,4,48
0914,18,36
0914,10,173
0914,12,12
0961,3,1928
0961,4,175
0961,11,311
0961,16,6440
0961,9,24
0961,10,163
0961,17,1123
0961,1,91
0961,14,51
0961,8,415
0961,18,12
0961,7,141
0907,10,855
0907,3,29951
0907,16,9243
0907,11,747
0907,7,3279
0907,1,122
0907,8,939
0907,4,702
0907,17,1269
0907,9,552
0907,18,164
0907,14,93
0907,19,53
0907,13,17
0968,7,452
0968,10,12
0968,11,340
0968,3,15361
0968,16,2553
0968,8,98
0968,17,374
0968,9,49
0968,13,295
0968,1,41
0904,17,1394
0904,3,20543
0904,8,431
0904,11,1071
0904,4,53
0904,16,9287
0904,10,86
0904,13,431
0904,7,1323
0904,9,579
0904,18,111
0904,14,98
0904,6,39
0902,11,1088
0902,16,6537
0902,3,20380
0902,7,532
0902,17,1727
0902,18,1459
0902,5,24
0902,9,60
0902,4,177
0902,19,76
0902,10,158
0902,8,220
0902,14,564
0902,1,17
0920,11,396
0920,17,834
0920,3,13651
0920,4,405
0920,16,2842
0920,7,586
0920,8,206
0920,1,12
0920,5,12
0920,19,64
0920,9,51
0920,14,64
0920,10,129
0942,1,12
0927,3,7145
0927,16,4139
0927,17,628
0927,9,192
0927,8,684
0927,7,468
0927,13,36
0927,1,278
0927,19,76
0927,6,17
0927,11,376
0927,4,100
0927,10,12
0905,16,2854
0905,3,7051
0905,9,98
0905,17,810
0905,1,56
0905,7,262
0905,8,201
0905,11,439
0905,19,12
0905,14,64
0905,4,12
0905,18,76
0901,9,80
0901,16,4605
0901,7,424
0901,3,8513
0901,6,22
0901,18,73
0901,17,453
0901,4,117
0901,1,81
0901,11,405
0901,10,366
0901,8,108
0901,19,149
0955,11,103
0955,3,1014
0955,16,984
0955,17,156
0955,7,70
0955,9,17
0955,8,17
0955,4,12
0967,3,36363
0967,9,29
0967,16,1160
0967,8,24
0967,17,168
0967,7,17
0967,11,369
0967,14,12
0921,4,183
0921,3,5724
0921,16,4682
0921,11,601
0921,7,506
0921,17,502
0921,8,158
0921,9,144
0921,10,12
0921,19,17
0950,16,1175
0950,3,792
0950,17,280
0950,7,24
0950,13,361
0950,9,64
0950,4,17
0950,11,12
0950,8,12
0953,7,216
0953,8,27
0953,11,316
0953,16,2932
0953,17,222
0953,3,7703
0953,18,24
0953,4,22
0923,11,517
0923,16,5482
0923,3,6782
0923,17,949
0923,10,311
0923,7,606
0923,8,717
0923,1,76
0923,4,12
0923,19,68
0923,6,17
0923,9,415
0923,14,576
0923,18,39
0923,13,12
0969,16,925
0969,6,64
0969,13,209
0969,3,545
0969,11,186
0969,9,64
0969,8,36
0969,19,129
0969,17,214
0969,4,527
0969,2,1000
0969,12,63
0969,10,24
0969,7,22
0948,16,11304
0948,17,1473
0948,3,32514
0948,11,294
0948,8,12
0948,5,12
0948,13,63
0948,9,63
0948,7,360
0948,10,76
0948,19,22
0925,16,2307
0925,4,22
0925,11,162
0925,10,12
0925,3,6964
0925,8,282
0925,7,834
0925,1,12
0925,17,499
0925,18,87
0925,9,24
0966,16,13569
0966,11,1215
0966,8,1339
0966,7,2230
0966,10,182
0966,1,100
0966,3,7470
0966,13,541
0966,17,3105
0966,9,1709
0966,4,202
0966,19,194
0966,18,304
0966,6,227
0966,14,414
0509,3,995
0509,16,3547
0509,8,205
0509,9,328
0509,17,205
0509,4,125
0509,6,211
0509,11,233
0509,7,56
0509,18,17
0509,19,41
0509,14,12
0509,10,12
0508,16,1732
0508,6,12
0508,3,134
0508,13,12
0508,7,41
0508,2,53
0508,9,172
0508,17,210
0508,11,71
0508,8,34
0508,4,151
0502,9,663
0502,16,3756
0502,19,214
0502,5,64
0502,17,278
0502,8,170
0502,3,88
0502,4,241
0502,1,91
0502,2,27
0502,11,202
0502,7,80
0502,14,34
0502,10,12
0502,6,12
0502,13,12
0510,16,2313
0510,19,64
0510,7,212
0510,3,102
0510,8,41
0510,1,107
0510,12,12
0510,18,12
0510,17,117
0510,6,81
0510,11,97
0510,5,34
0510,4,17
0505,17,6181
0505,16,23676
0505,7,6044
0505,9,6577
0505,11,3525
0505,13,808
0505,1,287
0505,4,945
0505,3,30900
0505,19,582
0505,18,534
0505,10,2519
0505,5,215
0505,12,146
0505,14,85
0505,8,1205
0505,6,550
0513,11,1230
0513,7,2727
0513,9,3557
0513,16,10621
0513,18,504
0513,8,971
0513,3,87701
0513,6,447
0513,1,204
0513,10,53
0513,4,450
0513,17,2468
0513,5,266
0513,19,279
0513,13,376
0513,12,76
0513,14,383
0513,2,553
0511,16,9061
0511,5,39
0511,3,4246
0511,6,110
0511,19,437
0511,17,2073
0511,9,3780
0511,7,2143
0511,1,666
0511,11,1470
0511,10,201
0511,12,51
0511,18,236
0511,8,295
0511,13,158
0511,2,127
0511,4,185
0506,16,8858
0506,8,326
0506,3,2279
0506,7,379
0506,10,161
0506,6,161
0506,17,663
0506,13,166
0506,9,721
0506,5,168
0506,11,368
0506,18,76
0506,4,76
0506,19,212
0506,1,105
0506,14,22
0507,16,4850
0507,4,295
0507,6,214
0507,17,292
0507,11,416
0507,10,98
0507,2,61
0507,3,94
0507,7,87
0507,18,51
0507,9,41
0507,8,36
0507,1,12
0507,19,12
0507,5,24
0503,19,349
0503,1,349
0503,4,188
0503,17,175
0503,16,2369
0503,7,34
0503,8,22
0503,5,22
0503,11,29
0503,9,82
0503,3,48
0503,14,12
0503,18,12
0503,10,12
0504,16,7249
0504,3,564
0504,11,237
0504,7,151
0504,17,443
0504,9,1354
0504,4,536
0504,18,89
0504,8,100
0504,6,390
0504,5,512
0504,10,86
0512,3,71382
0512,6,789
0512,8,1705
0512,16,8699
0512,7,5195
0512,11,1327
0512,17,1483
0512,19,286
0512,9,1888
0512,1,1023
0512,5,505
0512,13,173
0512,10,181
0512,4,111
0512,14,39
0512,12,56
0512,2,34
0512,18,12
0501,16,2610
0501,11,148
0501,17,455
0501,4,366
0501,8,149
0501,19,64
0501,6,44
0501,9,51
0501,7,70
0501,10,17
0501,5,17
0501,1,17
0501,3,41
1913,17,2669
1913,3,10510
1913,7,968
1913,14,2018
1913,16,18631
1913,18,144
1913,9,613
1913,8,1967
1913,11,1061
1913,1,618
1913,4,271
1913,10,86
1913,5,22
1913,13,482
1913,2,76
1913,6,414
1913,19,130
1909,3,68890
1909,4,6749
1909,16,33651
1909,17,7549
1909,11,7686
1909,14,10190
1909,8,3803
1909,5,284
1909,19,2013
1909,7,6109
1909,10,826
1909,9,2176
1909,18,546
1909,6,1316
1909,2,10444
1909,13,574
1909,1,815
1908,7,2309
1908,3,13400
1908,16,12651
1908,8,1198
1908,10,115
1908,17,1982
1908,11,1210
1908,4,830
1908,9,1447
1908,18,1305
1908,14,783
1908,1,14688
1908,19,966
1908,6,496
1908,12,12
1908,2,1581
1908,13,243
1903,8,923
1903,16,8454
1903,17,1858
1903,3,5263
1903,2,193
1903,11,1454
1903,4,309
1903,10,97
1903,7,1061
1903,9,360
1903,6,76
1903,14,631
1903,19,120
1903,18,159
1903,1,137
1903,12,22
1903,13,12
1903,5,22
1905,16,10142
1905,3,4859
1905,9,63
1905,7,422
1905,10,29
1905,8,251
1905,18,307
1905,19,299
1905,11,650
1905,14,88
1905,17,1289
1905,6,17
1905,4,239
1905,1,166
1905,12,129
1901,16,11792
1901,13,301
1901,11,2188
1901,3,23951
1901,17,4422
1901,10,683
1901,7,2240
1901,1,645
1901,8,720
1901,6,523
1901,19,311
1901,5,34
1901,18,455
1901,9,2977
1901,14,420
1901,4,729
1912,3,31567
1912,16,22656
1912,11,2945
1912,7,1906
1912,8,4187
1912,4,1001
1912,6,739
1912,17,4469
1912,19,550
1912,9,1009
1912,13,209
1912,10,667
1912,18,2383
1912,14,2836
1912,5,453
1912,1,129
1915,3,43892
1915,13,943
1915,19,5571
1915,16,14362
1915,17,4145
1915,8,3234
1915,7,2386
1915,11,2967
1915,10,1281
1915,6,801
1915,18,6621
1915,9,623
1915,4,1695
1915,14,398
1915,1,98
1915,5,321
1915,12,322
1902,7,2839
1902,14,997
1902,4,632
1902,16,14072
1902,11,1866
1902,8,1556
1902,17,3970
1902,18,180
1902,6,357
1902,9,975
1902,10,216
1902,13,416
1902,19,484
1902,3,25410
1902,2,149
1902,12,12
1902,1,1662
1916,16,26018
1916,3,30199
1916,7,16216
1916,8,5668
1916,14,11108
1916,17,20780
1916,11,18250
1916,9,9620
1916,19,3680
1916,13,5319
1916,10,5074
1916,4,2011
1916,6,2431
1916,5,995
1916,18,4295
1916,12,712
1916,1,76
1906,8,767
1906,3,8489
1906,16,12335
1906,14,380
1906,7,1436
1906,17,1910
1906,9,3842
1906,11,905
1906,4,318
1906,18,161
1906,10,81
1906,19,34
1906,1,190
1906,5,17
1906,6,34
1907,3,13998
1907,16,20222
1907,9,568
1907,11,1749
1907,8,1144
1907,17,3248
1907,7,1207
1907,14,214
1907,5,34
1907,4,489
1907,10,331
1907,1,221
1907,6,743
1907,13,97
1907,18,98
1907,19,120
1910,7,1623
1910,16,24315
1910,3,22478
1910,19,1200
1910,9,1609
1910,17,5186
1910,8,817
1910,11,2450
1910,10,1237
1910,6,793
1910,1,406
1910,13,453
1910,4,477
1910,14,490
1910,18,81
1910,5,214
1911,4,2801
1911,16,32474
1911,17,8498
1911,8,3091
1911,3,67580
1911,7,8437
1911,11,11107
1911,14,46015
1911,10,14480
1911,6,2341
1911,19,3180
1911,18,1662
1911,9,4982
1911,1,2244
1911,2,76
1911,13,4922
1911,5,92
1911,12,149
1919,3,24004
1919,16,23173
1919,10,51
1919,7,2882
1919,11,2901
1919,8,1995
1919,17,3794
1919,13,173
1919,4,973
1919,5,316
1919,9,2545
1919,6,893
1919,14,1411
1919,19,386
1919,12,12
1919,18,509
1919,1,1005
1919,2,17
1914,4,1622
1914,16,11429
1914,11,1383
1914,8,440
1914,3,7370
1914,9,367
1914,14,411
1914,10,56
1914,7,734
1914,13,81
1914,18,333
1914,17,2352
1914,1,397
1914,19,39
1914,6,41
1914,5,175
1914,2,149
1917,3,44717
1917,16,29111
1917,9,1434
1917,7,6079
1917,17,4454
1917,19,707
1917,8,901
1917,10,623
1917,13,900
1917,4,991
1917,14,968
1917,6,377
1917,11,4459
1917,18,632
1917,12,64
1917,5,68
1917,1,1575
1904,17,2183
1904,8,739
1904,7,740
1904,11,1825
1904,13,166
1904,3,5139
1904,16,8243
1904,9,258
1904,4,272
1904,14,923
1904,1,236
1904,18,193
1904,6,137
1904,10,120
1904,19,46
1918,4,938
1918,16,25792
1918,17,3917
1918,11,2690
1918,10,627
1918,6,477
1918,8,2212
1918,19,4346
1918,18,1196
1918,3,16620
1918,7,2319
1918,9,7656
1918,1,1371
1918,13,832
1918,5,541
1918,14,134