S.No.,Name of the Establishment,Address,Major Activity Description,Broad Activity Code,NIC,Owners hip Code,"Employ ment Class
Interval"
3233,R B A BRICKS INDUSTRIS,Bhushaw Thawe Gopalganj  Thawe Bhusanw  841440,MANUFACTURING BRICKS,6,239,2,30-99
3234,RAJ BRICKS INDUSTRIES,Jagmalwa Thawe  Gopalgnj  Thawe Jagmalwa  841440,MANUFACTURING OF BRICKS,6,239,2,30-99
3235,A C C BRICKS INDUSTRIES,Jagmalwa Thawe Gopalganj Thawe Jagmalwa 841440,MANUFACTURING OF BRICKS,6,239,2,30-99
3236,1 X BRICKS INDUSTRIES,Jagmalwa Thawe  Gopalganj  Thawe Jagmalwa  841440,MANUFACTURING OF BRICKS,6,239,2,30-99
3237,D A V COLLEGE MANAGING COMITTIE,Thawe Thawe  Gopalganj  Thawe Thawe  841440,EDUCATION INSTITUTION,20,851,9,30-99
3238,MOTHER INDIA PUBLIC SCHOOL,Line Bazar Hathua Gopalganj 65 Hathua Barka Amtha Line Bazar 841436,EDUCATIONAL INSTITUTION,20,851,2,30-99
3239,S R TEACHER TRAINING COLLEGE,Line Bazar Hathua Gopalganj 3 Hathua Lain Bazar Line Bazar 841436,TEACHER TRAINING,20,854,2,10-14
3240,CLOD STORE,Line Bazar Hathua   Gopalganj 19 Hathua Lain Bazar Main Road 841436,STORE FOOD METARIAL,13,521,2,15-19
3241,SARASWATI GAYAN MANDIR,Machhagar Jagdish Hathua  Gopalganj 76 Hathua Machhagar Patti Jagdish  841436,EDUCATION INSTITUTION,20,851,2,10-14
3242,K G N ENGHLISH ACADEMY,Machhagar Jagdish Hathua  Gopalganj 136 Hathua Machhagar Patti Jagdish Line Bazar 841436,EDUCATIONAL INSTITUTION,20,851,2,10-14
3243,STATE BANK OF INDIA,Ratan Chowk Hathua Gopalganj Hathua Ratan Chak 841436,FINANCIAL TRANSACTION,16,641,1,10-14
3244,IMPORIAL SCHOOL,Ratan Chowk Hathua Gopalganj 156 Hathua Ratan Chak Bank Road Hathua 841436,EDUCATIONAL INSTITUTION,20,853,2,30-99
3245,POST OFFICE,Ratan Chowk Hathua   Gopalganj  Hathua Ratan Chak  841436,POST RELATED WORK,13,531,1,30-99
3246,ALUMINIUM FACTORY,Barwa Kaparpura Hathua Gopalganj 82 Hathua Ratan Chak 841436,MANUFACTURING OF GODREJ ALMARI,6,239,2,30-99
3247,S S PUBLIC SCHOOL,Barwa Kaparpura Hathua Gopalganj 3 Hathua Barwa Kaparpura  841436,EDUCATION INSTUTION,20,852,2,20-24
3248,AARYAWART VIDYAPITH VIDHYALAY,Barwa Kaparpura Hathua   Gopalganj 7 Hathua Barwa Kaparpura  841436,EDUCATIONAL INSTITUTION,20,852,2,10-14
3249,MANJEET SINGH BRICKS INDUSTRIES,Pipra Khash Hathua Gopalganj 45 Hathua Pipra Khas 841436,BRICKS MANUFACTURING,6,239,1,20-24
3250,MIDILE SCHOOL,Magha Phulwariya Gopalganj Phulwaria Mangha 841425,EDUCATOINAL INSTITUTION,20,852,1,10-14
3251,REFERAL HOSPITAL,Fhulwariya Gopalganj Phulwaria Phulwaria 841428,TRITMENT WORK,21,861,1,15-19
3252,MIDDILE SCHOOL,Fulwariya Gopalganj Phulwaria Phulwaria 841428,EDUACATIONAL INSTITUTION,20,852,1,10-14
3253,KISHAN BHAWAN,Selar Kala Phulwariya  Gopalganj  Phulwaria Salar Khurd  841425,FOR FARMER,19,821,1,10-14
3254,VEGITABLE SHOP,Koyla Deva Phulwariya Gopalganj Phulwaria Salar Khurd 841425,VEGITABLE HOCKER,12,472,3,20-24
3255,UPGRADE SCHOOL,Koreya Bhore Gopalganj 1 Bhorey Koera  841426,EDUCATIONAL INSTITUTE,20,852,1,10-14
3256,GOVERMENT MIDDLE SCHOOL,Hardiya Bhore Gopalganj Bhorey Hardia  841426,EDUCATIONLA INSTITUTION,20,851,1,10-14
3257,S M P SCHOOL,Bhore Bhore  Gopalganj 78 Bhorey Bhore 841426,EDUCATIONAL INSTITUTE,20,851,1,15-19
3258,CANARA BANK,Bhore Bhore Gopalganj Bhorey Bhore  841426,FINANCIAL AND INSURENCE,16,641,1,10-14
3259,RAJ NARAYAN KANYA HIGH SCHOOL,Bhore Bhore Gopalganj 43 Bhorey Bhore 841426,EDUCATION,20,852,1,10-14
3260,GOVERMENT MIDDILE SCHOOL,Bhore Bhore Gopalganj 44 Bhorey Bhore 841426,EDUCATION,20,851,1,25-29
3261,GANDHI SMARAK HIGH SCHOOL,Bhore Bhore Gopalganj 84 Bhorey Bhore 841426,EDUCATION,20,852,1,10-14
3262,GAUDARAM COLD STORE,Bhore Bhore Gopalganj 46 Bhorey Bhore 841426,FOOD MATERIAL STORE,13,521,2,10-14
3263,BHOLA PRASAD SINGH MAHAVIDHYALE,Lachhi Chowk Bhore Gopalganj 71 Bhorey Lachchhi Chak 841426,EDUCATION,20,853,1,20-24
3264,GOVERMENT MIDDLE SCHOOL,Kalyanpur Bhore Gopalganj 226 Bhorey Kalyanpur 841426,EDCUCATION,20,851,1,25-29
3265,MIDDLE SCHOOL,Siswa Bhore Gopalganj 98 Bhorey Khajurha Panre  841426,EDUCATION,20,851,1,10-14
3266,GOVERMENT MIDDLE SCHOOL,Noniya Chhapar Bhore Gopalganj 72 Bhorey Nonia Chhapar 841426,EDUCATIONAL WORK,20,851,1,10-14
3267,SUGAM MUSICAL AND DANCE PARTI,Hussepur Bhore Gopalganj 72 Bhorey Husepur  841426,DANCING,22,900,2,15-19
3268,CHANDANI DANCE PARTY,Hussepur Bhore  Gopalganj 61 Bhorey Husepur  841426,DANCING,22,900,2,15-19
3269,GOVERMENT PRIMARY SCHOOL,Hussepur Bhore Gopalganj 190 Bhorey Husepur  841426,EDUCATION,20,851,1,10-14
3270,GOVERMENT MIDDLE SCHOOL,Hussepur Bhore Gopalganj 44 Bhorey Husepur  841426,EDUCATIONAL INSTITUTION,20,851,1,10-14
3271,UPGRAD MIDDLE SCHOOL,Mishrwali Bhore Gopalganj 52 Bhorey Misrauli  841426,EDUCATION,20,851,1,15-19
3272,GOVERMENT PRIMARY SCHOOL,Khjuraha Mishra Bhore Gopalganj 147 Bhorey Khajurha Misir 841426,EDUCATIONAL INSTITUTION,20,851,1,10-14
3273,PRIMARY MIDDILE SCHOOL,Kusha Bhore Gopalganj 1 Bhorey Kusaha 841426,EDUCATION,20,851,1,10-14
3274,PAKASH RICE MILE,Gopalpur Bhore Gopalganj 94 Bhorey Gopalpur 841426,MADE RICE,6,106,2,20-24
3275,UPGRADE MIDDLE SCHOOL,Sisai Bhore Gopalganj 55 Bhorey Sisai  841426,EDUCATION,20,851,1,10-14
3276,UPGRADE MIDDILE SCHOOL,Bairona Bhore Gopalganj 138 Bhorey Bairona  841426,EDUCATION,20,851,1,10-14
3277,GOVERMENT MIDDILE SCHOOL,Kuaadidia Bhore Gopalganj 88 Bhorey Kuaridih  841426,EDUCATIONAL INSTITUTION,20,851,1,10-14
3278,GOVERMENT MIDDILE SCHOOL,Lamichawar Bhore Gopalganj 190 Bhorey Lami Chaur 841426,EDUCATION,20,852,1,25-29
3279,UPGRADE MIDDILE SCHOOL,Laxmipur 1 Bhore Gopalganj Bhorey Lachhmipur 841426,EDUCATION,20,851,1,15-19
3280,GOVERMENT MIDDLE SCHOOL,Baghwa Mishar Bhore Gopalganj 45 Bhorey Bagahwa Misir 841426,EDUCATION,20,851,1,10-14
3281,RAMRUP SMARAK HIGH SCHOOL,Dharhara Bhore Gopalganj Bhorey Dharahra 841426,EDUCATION,20,852,2,10-14
3282,C B RAMAN HIGH SCHOOL,Mirganj Uchkagaon Gopalganj 14 Uchkagaon Mirganj  Np   841438,EDUCATIONAL WORK,20,853,2,15-19
3283,NAGAR PUNCHAYAT OFFICE,Mirganj  Uchkagaon Gopalganj Uchkagaon Mirganj  Np  841438,CLEAN WORK,19,821,1,10-14
3284,MANU SINGH TRAVEL,Mirganj  Uchkagaon Gopalganj Uchkagaon Mirganj  Np  841438,TRAVEL WORK,13,491,2,30-99
3285,STATE BANK OF INDIA,Mirganj  Uchkagaon Gopalganj Uchkagaon Mirganj  Np  841438,FINANCIAL TRANSECTION,16,641,1,15-19
3286,DOCTOR SUBHASH CANDRA HOSPITAL,Mirganj Uchkagaon Gop alganj 67 Uchkagaon Mirganj  Np   841438,CLINIC,21,861,2,15-19
3287,SENT FRANCIS SCHOOL,Mirganj  Uchkagaon Gopalganj Uchkagaon Mirganj  Np  841438,EDUATIONAL INSTITUTION,20,851,2,30-99
3288,HATHUA PUBLIC SCHOOL,Mirganj  Uchkagaon Gopalganj Uchkagaon Mirganj  Np  841438,EDUCATION WORK,20,851,2,10-14
3289,GOVERMENT MIDDILE SCHOOL,Mirganj  Uchkagaon Gopalganj Uchkagaon Mirganj  Np  841438,EDUCATIONAL WORK,20,852,1,10-14
3290,G M PUBLIC SCHOOL,Harkhowli Mirganj Uchkagaon Gop alganj  Uchkagaon Mirganj  Np   841438,EDUCATIONAL INSTITUTION,20,851,2,20-24
3291,DOCTOR ACADAMY PUBLIC SCHOOL,Mirganj Uchkagaon Gopalganj 82 Uchkagaon Mirganj  Np   841438,EDUCATIONAL INSTITUTION,20,851,2,10-14
3292,ISHALAMIA URDU HIGH SCHOOL,Mirganj  Uchkagaon Gopalganj Uchkagaon Mirganj  Np  841438,EDUCATION,20,853,1,20-24
3293,GALAXY PUBLIC SCHOOL,Mirganj Uchkagaon Gopalganj Uchkagaon Mirganj  Np  841438,EDUCATION,20,851,2,20-24
3294,MAYA MOTORS SERVICE,Main Road Mirganj  Uchkagaon Gopalganj Uchkagaon Mirganj  Np  841438,MOTERCYCLE SALE AND SERVICE,10,454,2,25-29
3295,SUDHA GAS,Mirganj  Uchkagaon Gopalganj 7 Uchkagaon Mirganj  Np  841438,SALE HP GAS,7,352,2,30-99
3296,PRIMARY SCHOOL,Salehpur  Sidhwaliya  Gopalganj  Sidhwalia Salehpur  841423,EDUCATION,20,851,1,10-14
3297,GOVERMENT MIDDLE SCHOOL,Pakadi  Sidhwaliya Gopalganj 67 Sidhwalia Pakri  841423,EDUCATION,20,852,1,30-99
3298,UPGRADE MIDDILE SCHOOL,Supauli Sidhwaliya Gopalganj 95 Sidhwalia Supauli 841423,EDUCATION,20,852,1,15-19
3299,UPGRADE MIDDILE SCHOOL,Jhajhawa Sidhwaliya Gopalganj 78 Sidhwalia Jhajhwa 841423,EDUCATION,20,852,1,10-14
3300,UPGRADE MIDDILE SCHOOL,Lohjira Sidhwaliya Gopal ganj  Sidhwalia Lohjra 841423,EDUCATIONAL INSTITUTION,20,852,1,10-14
3301,INTER COLLEGE,Sher Sidhwaliya  Gopalganj 1 Sidhwalia Sher  841423,EDUCATIONAL INSTITUTION,20,853,9,25-29
3302,MIDDILE SCHOOL,Sher Sidhwaliya Gopalga nj 20 Sidhwalia Sher 841423,EDUCATIONAL INSTITUTION,20,852,1,25-29
3303,UPGRADE MIDDILE SCHOOL,Bakhrora  Sidhwaliya Gopalganj 60 Sidhwalia Bakhraur 841423,EDUCATIONAL INSTUTION,20,852,1,10-14
3304,UPGRADE MIDDILE SCHOOL,Gangwa Sidhwaliya Gop alganj 84 Sidhwalia Bakhraur  841423,EDUCATION,20,852,1,10-14
3305,GOVERMENT MIDDILE SCHOOL,Jalalpur Sidhwaliya Gopa lganj  Sidhwalia Jalalpur Kalan  841423,EDUCATION,20,852,1,20-24
3306,UPGRADE MIDDILE SCHOOL,Budhsi Sidhwaliya Gopal ganj 59 Sidhwalia Budhsi  841423,EDUCATION,20,852,1,20-24
3307,UPGRADE MIDDILE SCHOOL,Bucheya Sidhwaliya Gop alganj  Sidhwalia Bucheya  841423,EDUCATION,20,852,1,15-19
3308,MIDILE SCHOOL,Bucheya Sidhwaliya Gop alganj 1 Sidhwalia Bucheya  841423,EDUCATION CENTER,20,852,1,20-24
3309,BLOCK AND CO OFFICE,Buchiya Sidhwaliya Gop alganj  Sidhwalia Bucheya  841423,RURAL DEVELOPMENT,19,821,1,15-19
3310,BHARAT SUGAR MILLS,Sidhwlia 0  Sidhwalia Bucheya  841423,MANUFACTURING  OF SUGAR,6,107,4,200-499
3311,DISTTRICT GOPALGANJ KHADI GRAMO UDH,Yog Union Center Sidhwaliya Bazar Sidhwalia Bucheya Arar More Gopalganj 841428,SALE OF KHADI CLOTH,6,139,1,30-99
3312,STATE BANK OF INDIA,Sidhwaliya Gopalganj Sidhwalia Bucheya 841428,FINANCIAL TRANSECTION,16,641,1,10-14
3313,UPGRADE MIDDILE SCHOOL,Buchiya  Sidhwaliya Gopalganj 10 Sidhwalia Bucheya 841423,EDUCATION,20,852,1,15-19
3314,GOVERMENT UPGRADE SCHOOL,Rampurwa  Sidhwaliya Gopalganj 50 Sidhwalia Rampurwa 841423,EDUCATION,20,853,1,10-14
3315,UPGRADE MIDDILE SCHOOL,Dumariya Sidhwaliya Go palganj 84 Sidhwalia Dumaria  841423,EDUCATION,20,852,1,10-14
3316,UPGRADE MIDDILE SCHOOL,Mohammadpur Sidhwaliy a Gopalganj 32 Sidhwalia Mahammadpur  841423,EDUCATION,20,852,1,10-14
3317,DOCTOR RAM MANOHAR LOHIYA HIGH SCHO,Ol Tekniwas Sidhwaliya Go palganj  Sidhwalia Teknewas  841423,EDUCATION,20,853,1,15-19
3318,STATE BANK OF INDIA,Kateya Kateya Gopalgan j  Katiya Kataiya  Np  841423,FINANCIAL TRANSECTION,16,641,2,10-14
3319,POLICE STATION,Kateya Kateya Gopalganj 104 Katiya Kataiya  Np  841437,PUBLIC HELP,19,821,1,25-29
3320,MIDDILE SCHOOL REPURA,Jaysauli  Kateya Gopalganj 27 Katiya Raipura  841437,EDUCATION,20,852,1,10-14
3321,GOVERMENT MIDDILE SCHOOL,Rasouti  Kateya Gopalganj 124 Katiya Rasauti  841437,EDUCATION,20,852,1,10-14
3322,UPGRADE MIDDILE SCHOOL,Duhona Kateya Gopalga nj 38 Katiya Duhauna 841437,EDUCATION,20,852,1,10-14
3323,GOVERMENT PRIMARY SCHOOL,Maksudpur Uchkagoan  Gopalganj   Uchkagaon Maqsudpur  841438,EDUCATION,20,851,1,10-14
3324,UPGRADE MIDDILE SCHOOL,Dahibhata Uchkagaon G opalganj   Uchkagaon Dahi Bhatta  841438,EDUCATION,20,852,1,20-24
3325,GOVERMENT PRIMARY SCHOOL,Dahibhat Uchkagaon Go pgalganj   Uchkagaon Dahi Bhatta  841438,EDUCATION,20,851,1,15-19
3326,GOVERMENT PUBLIC SCHOOL,Parsouni Khash Uchkagaon Gopal ganj   Uchkagaon Parsauni Khas  841438,EDUCATION,20,851,1,10-14
3327,PRIMARY SCHOOL,Piprahi Uchkagoan Gopa lganj   Uchkagaon Piprahi  841438,EDUCATION,20,851,1,10-14
3328,GOVERMENT PUBLIC SCHOOL,Kaparpura Uchkagaon G opalganj   Uchkagaon Kaparpura  841438,EDUCATION,20,851,1,10-14
3329,KUSHWAHA TENT HOUSE,Barmine Uchkagaon Go palganj  Uchkagaon Barhmani  841438,TENT HOUSE,19,772,2,10-14
3330,BRICKS INDUSTRIES,Pidra   Uchkagaon Gopalganj Uchkagaon Pirara 841438,MANUFACTURING BRICKS,6,239,3,30-99
3331,UPGRADE MIDDILE SCHOOL,Baleshra  Uchkagaon Gopalganj Uchkagaon Belsara 841438,EDUCATION,20,852,1,15-19
3332,GOVERMENT MIDDILE SCHOOL,Siswaniya Uchkagaon G opalganj   Uchkagaon Siswaniya  841438,EDUCATION,20,852,1,10-14
3333,PRIMARY SCHOOL,Sathi Uchkagaon Gopalganj Uchkagaon Sathi 841438,EDUCATION,20,851,1,10-14
3334,GOVERMENT PRIMARY SCHOOL,Balbhadrapati Uchkagao n Gopalganj Uchkagaon Balbhaddar Patti  841438,EDUCATION,20,851,1,10-14
3335,UPGRADE MIDDILE SCHOLL,Amawa Dubey Vijayipur Gopalga nj   Bijaipur Amawa 841508,EDUCATION,20,852,1,15-19
3336,GOVERMENT MIDDILE SCHOOL,Vijayipur Vijayipur Gopal ganj   Bijaipur Bijaipur 841508,EDUCATION,20,852,1,20-24
3337,GOVERMENT MIDDILE SCHOOL URDU,Matiyari Vijayipur Gopalg anj  Bijaipur Matiari 841508,EDUCATION,20,852,1,15-19
3338,GOVERMENT MIDDILE SCHOOL,Patkholi Vijayipur Gopalg anj 66 Bijaipur Patkhauli 841508,EDUCATION,20,852,1,10-14
3339,P P G COLLEGE,Choomukha Vijayipur Go palganj  Bijaipur Udaypura  841508,EDUCATION,20,853,1,30-99
3340,SAENING STAR PUBLIC SCHOOL,Derwa Kuchikote Gopalg anj   Kuchaikote Derwa Derwa 841501,EDUCATION,20,851,2,10-14
3341,UPGRADE MIDDILE SCHOOL,Dhodhwaliya Kuchikote  Gopalganj   Kuchaikote Dharhwalia  841501,EDUCATION,20,852,1,10-14
3342,GOVERMENT PRIMARY SCHOOL,Pahadhpur   Kuchikote Gopalganj Kuchaikote Paharpur Chhangur  841501,EDUCATION,20,851,2,10-14
3343,UPGRADE MIDDILE SCHOOL,Mathiya Hardo Kuchikote Gopalg anj 384 Kuchaikote Mathiya Hardo  841501,EDUCATION,20,852,1,20-24
3344,MAHENDRA DAS HIGH SCHOOL,Nechua Khurd Kuchikote Gopalg anj 30 Kuchaikote Nichua Khurd  841501,EDUCATION,20,853,1,10-14
3345,S M D DIGREE COLLEGE,Mathiya Dayaram Kuchikote Gop alganj  Kuchaikote Mathiya Dayaram 841501,HIGER EDUCATION,20,853,2,100-199
3346,UPGRADE MIDDILE SCHOOL,Bhathwa Rup Kuchikote Gopalgan j  Kuchaikote Bhatwa Rup  841501,EDUCATION,20,852,1,10-14
3347,BALIKA HIGH SCHOOL,Karmaini Mohabat  Kuchakote Gopalganj Kuchaikote Karmauni Mohabbat  841501,EDUCATION,20,853,1,15-19
3348,UPGRADE MIDDILE SCHOOL,Karmaini Mohabbat Kuchikot Gop algan J Kuchaikote Karmauni Mohabbat 841501,EDUCATION,20,852,1,10-14
3349,MIDDILE SCHOOL  BALAK ,Kuchakote Kuchakote G opalganj  Kuchaikote Kuchai Kote  841501,EDUCATION,20,852,1,15-19
3350,PRIMARY HEALTH CENTER,Kuchakot Kuchakot Gop alganj  Kuchaikote Kuchai Kote  841501,FIRST ADD,21,861,1,30-99
3351,BIHAR VIKASH SCHOOL,Kuchakot Kuchakot Gop alganj   Kuchaikote Kuchai Kote  841501,EDUCATION,20,852,2,30-99
3352,GAURI SHANKAR INDEN GAS SERVICE,Kuchaikote Gopalganj Kuchaikote Kuchai Kote 841501,GAS SERVICE,7,352,1,10-14
3353,I G S INTER COLLEGE,Kuchaikote Gopalganj Kuchaikote Kuchai Kote 841501,EDUCATION,20,853,3,30-99
3354,GOVERMENT MIDDILE SCHOOL,Vishambharpur  Kuchakot Gopalganj Kuchaikote Bishambharpur  841501,EDUCATION,20,852,2,10-14
3355,GOVERMENT UPGRADE MIDDILE SCHOOL,Shyampur Kuchaikote Gopalganj  Kuchaikote Shampur  841501,EDUCATIONAL WORK,20,852,1,10-14
3356,SASAMUSA SUGAR WORK LTD,Kuchaikote Sasamusa Lal Bazar Kolkata 1 841501,MANUFACTURING PURE CRYSTAL SUGAR,6,107,2,200-499
3357,ST PAUL S SCHOOL,Sasamusa Kuchakot Go palganj  Kuchaikote Sasamusa  841501,EDUCATION,20,851,2,15-19
3358,STATE BANK OF INDIA,Sasamusa Kuchaykot G opalganj  Kuchaikote Sasamusa  841501,FINANCIAL TRANSECTION,16,641,1,10-14
3359,MIDDILE SCHOOL,Khajuri Kuchakot Gopalganj 65 Kuchaikote Khajuri 841501,EDUCATION,20,852,1,10-14
3360,MIDDILE SCHOOL MAHUAWA HINDI,Asandhi Kuchakot Gopal ganj  111 Kuchaikote Asandi  841501,EDUCATION,20,852,1,25-29
3361,PRIMARY SCHOOL,Vishunpur  Gopalganj Gopalganj 67 Gopalganj Bishunpura 841428,EDUCATIONAL INSTITUTION,20,851,1,10-14
3362,SHRI RAMRATAN SAHI HIGHER SECONDERY,School Bishunpur Gopalganj Go palganj  Gopalganj Bishunpura  841428,EDUCATION,20,853,1,20-24
3363,GOVERMENT UPGRADE MIDDILE SCHOOL,Sihorwan Gopalganj Gop alganj  Gopalganj Bishunpura  841428,EDUCATION,20,852,1,10-14
3364,UPGRADE MIDDILE SCHOOL,Yadopur Shukul Gopalganj Gopalganj 49 Gopalganj Jadopur Shukul  841428,EDUCATION,20,852,1,15-19
3365,GOVERMENT RATAN SAHI HIGH SCHOOL,Yadopur Gopalganj Gop alganj   Gopalganj Jadopur Shukul  841428,EDUCATION,20,853,1,10-14
3366,UPGRADE MIDDILE SCHOOL,Olipur Gopalganj Gopalg anj 1 Gopalganj Walipur 841428,EDUCATION,20,852,1,10-14
3367,UPGRADE MIDDILE SCHOOL,Hirapakad Gopalganj Go palganj 11 Gopalganj Hirapakar  841428,EDUCATION,20,852,1,10-14
3368,GOVERMENT MIDDILE SCHOOL,Kotwa Gopalganj Gopalganj  Gopalganj Kotwa  841428,EDUCATION,20,852,1,15-19
3369,GOVERMENT PRIMARY SCHOOL,Tirbirwa Gopalganj Gopa lganj  Gopalganj Tirbirwa  841428,EDUCATION,20,851,1,10-14
3370,MIDDILE SCHOOL,Tirbirwa Gopalganj Gopalganj Gopalganj Tirbirwa 841428,EDUCATION,20,852,1,10-14
3371,GOVERMENT MIDDILE SCHOOL,Karariya Gopalganj Gop alganj  Gopalganj Kararia  841428,EDUCATION,20,852,1,20-24
3372,UPGRADE MIDDILE SCHOOL,Konhwa  Gopalganj Gopalganj Gopalganj Konhwa 841428,EDUCATION,20,852,1,10-14
3373,TENT HOUSE,Konhwa Gopalganj Gopa lganj  Gopalganj Konhwa  841428,TENT WORKS,19,772,2,10-14
3374,GOVERMENT MIDDILE SCHOOL,Chowraw Gopalganj Gop alganj  Gopalganj Chauranw  841428,EDUCATION,20,852,1,15-19
3375,M M URDU SCHOOL,Turkaha Gopalganj Gop alganj  Gopalganj Turkaha  841428,EDUCATION,20,851,1,15-19
3376,ASHOK BRICKS INDUSTRIES,Manikpur Gopalganj Gop alganj  Gopalganj Manpura  841428,MANUFACTURING OF BRICKS,6,239,2,25-29
3377,UPGRADE URDU KNEYA MIDDILE SCHOOL,Aadmapur  Manjha Gopalganj Manjha Gausia  841427,EDUCATION,20,852,1,10-14
3378,GRIMA MOTOR,Chhawahi Khash Manjha Gopalganj Manjha Chhabahi Khas 841427,MANUFACTURING OF VECHICLE BODY,10,452,7,10-14
3379,HEN PHARAM,Uper Chhanta Manjha Gopalganj Manjha Upar Chhanta 841427,SALE OF HEN,2,14,2,10-14
3380,UPGRADE MIDDILE SCHOOL,Goniayar Manjha Gopalg anj  Manjha Goniar 841427,EDUCATION,20,851,1,10-14
3381,GOVEMENT MIDDILE MAKTAB HIGH SCHOOL,Dhobliya Manjha Gopalganj Manjha Dhobaulia 841427,EDUCATION,20,852,1,15-19
3382,GOVERMENT BUNIYADI SCHOOL,Tarwa Manjha Gopalganj Manjha Tanrwa 841427,EDUCATION,20,851,1,10-14
3383,MIDDILE SCHOOL,Dharam Parasa  Manjha Gopalganj Manjha Dharam Parsa 841427,EDUCATION,20,852,1,20-24
3384,MIDDILE SCHOOL,Pathra Manjha Gopalgan j  Manjha Sareya 841427,EDUCATION,20,852,1,10-14
3385,UPGRADE MIDDILE SCHOOL,Phulwariya Manjha Gopalganj Manjha Mujauna 841427,EDUCATION,20,851,1,10-14
3386,AARA MASHINE AND ABABAS FURNITURE,Keshwpur Manjha Gopalganj Manjha Keshapur 841427,MANUFACTURING OF FURNITURE,6,161,2,10-14
3387,GOVERMENT UPGRADE MIDDILE SCHOOL,Himtapur Manjha Gopalganj Manjha Himtapur 841427,EDUCATION,20,851,1,10-14
3388,GOVERMENT UPGRADE MIDDILE SCHOOL,Lohjira Manjha Gopalganj Manjha Lohjira  841427,EDUCATION,20,851,1,10-14
3389,NIHARIKA SINGH RICE MILLS,Aadmapur  Manjha Gopalganj Manjha Admapur 841427,MANUFACTURING OF RICE,6,106,1,30-99
3390,GOPAL CONSTRACTION,Danapur Manjha Gopalg anj  Manjha Danapur 841427,MANUFACTURING ROAD,9,421,2,10-14
3391,UPGRADE MIDDILE SCHOOL,Madhuserya Manjha Go palganj   Manjha Madhu Sarea  841427,EDUCATION,20,851,1,15-19
3392,GOVERMENT MIDDILE SCHOOL,Pathra   Manjha Gopalganj Manjha Pathra  841427,EDUCATION,20,852,1,15-19
3393,SARGAM BAND PARTY,Sisai Brauli Gopalganj Barauli Barauli  Np  841405,ENJOY,22,900,2,10-14
3394,GROWING MISSION PUBLIC SCHOOL,Bhadkuiya  Barauli Gopalganj Barauli Barauli  Np  841405,EDUCATION,20,851,2,10-14
3395,HEALTH CENTER,Bhadkuiya  Barauli Gopalganj Barauli Barauli  Np  841405,HEALTH CENTER,21,861,1,30-99
3396,KASTUBA GANDHI AWASIYE GIRLS SCHOOL,Bhadhkuiya  Barauli Gopalganj Barauli Barauli  Np  841405,EDUCATION AND RESIDENTIAL,20,851,1,10-14
3397,B B C MISSION PUBLIC SCHOOL,Bhadhkuiya  Barauli Gopalganj Barauli Barauli  Np  841405,EDUCATION,20,852,2,25-29
3398,UNIQUE PUBLIC SCHOOL,Baruli Barauli Gopalganj Barauli Barauli  Np  841405,EDUCATION,20,851,2,10-14
3399,NATIONAL COLLEGE,Baruli Barauli Gopalganj Barauli Barauli  Np  841405,EDUCATION,20,853,2,30-99
3400,C T BRICKS INDUSTRIES,Ratan Saraye Barauli Gopalganj Barauli Barauli  Np  841405,MANUFACTURING OF BRICKS,6,239,2,100-199
3401,B H R BRICKS INDUSTRIES,Surbal  Barauli Gopalganj Barauli Barauli  Np  841405,PRODUCTION OF BRICKS,6,239,2,30-99
3402,MIDDILE SCHOOL,Rewtith  Baikuthpur Gopalganj Baikunthpur Rewtith 841409,EDUCATION,20,851,1,10-14
3403,CHURA AND AATA MASHINE,Gandhuaa  Baikunthpur Gopalganj Baikunthpur Gandhua 841409,MANUFACTURING FOOD GOODS,6,106,2,10-14
3404,ICE FACTORY,Dighwa  Baikunthpur Gopalganj Baikunthpur Dighwa 841409,MANUFACTURING OF ICE,6,110,2,10-14
3405,AARA MASHIN,Sirsa  Baikunthpur Gopalganj Baikunthpur Sirsa 841409,MANUFACTURING OF FURNITURE,6,161,2,10-14
3406,SARSWATI TAKIJ,Gopalganj  Gopalganj Gopalganj Gopalganj Gopalganj  Nagar Parishad  841428,PICTURE HALL,22,900,2,10-14
3407,SHRI GOPAL HERO,Gopalganj  Gopalganj Gopalganj Gopalganj Gopalganj  Nagar Parishad  841428,SALES TWOWHELER VEHICHLE,10,451,3,30-99
3408,BIHAR VIKAS VIDYALAYA,Gopalganj  Gopalganj Gopalganj Gopalganj Gopalganj  Nagar Parishad  841428,EDUCATION,20,851,2,15-19
3409,LAXMI HOTEL,Gopalganj  Gopalganj Gopalganj Gopalganj Gopalganj  Nagar Parishad  841428,RESTAURANT,14,561,2,20-24
3410,BAPU AADRASH CHILDEREN ACADEMY,Gopalganj  Gopalganj Gopalganj Gopalganj Gopalganj  Nagar Parishad  841428,EDUCATION,20,851,2,10-14
3411,SHREE MUDRIKA BAJAJ,Gopalganj Gopalganj Gopalganj Gopalganj Gopalganj  Nagar Parishad  841428,SALE TOW WHELER,10,451,3,20-24
3412,IDEAL PUBLIC SCHOOL,Gopalganj  Gopalganj Gopalganj Gopalganj Gopalganj  Nagar Parishad  841428,EDUCATION,20,851,2,15-19
3413,M G MISSION SCHOOL,Gopalganj Gopalganj Gopalganj Gopalganj Gopalganj  Nagar Parishad  841428,EDUCATION,20,851,2,10-14
3414,J D S PUBLIC SCHOOL,Gopalganj  Gopalganj Gopalganj Gopalganj Gopalganj  Nagar Parishad  841428,EDUCATION,20,851,2,20-24
3415,YATRI HOTEL,Yadopur Road  Gopalganj Gopalganj Gopalganj Gopalganj  Nagar Parishad  841428,MANUFACTURING FOOD,14,551,2,20-24
3416,DOCTOR NANDI GAAURD ENGLISH SCHOOL,Gopalganj Gopalganj Gopalganj Gopalganj  Nagar Parishad  841428,EDUCATION,20,851,2,10-14
3417,ALLAHABAD BANK,Gopalganj  Gopalganj Gopalganj Gopalganj Gopalganj  Nagar Parishad  841428,FINANCIAL TRANSECTION,16,641,1,10-14
3418,BABHAW HOTEL,Gopalganj  Gopalganj Gopalganj Gopalganj Gopalganj  Nagar Parishad  841428,FOOD AND REST HOUSE,14,551,2,20-24
3419,CENTRAL CO OPERATIVE BANK,Gopalganj  Gopalganj Gopalganj Gopalganj Gopalganj  Nagar Parishad  841428,FINANCEAL TRANSECTION,16,641,1,20-24
3420,ICICI BANK,Gopalganj  Gopalganj Gopalganj Gopalganj Gopalganj  Nagar Parishad  841428,FINANCIAL TRANSECTION,16,641,1,10-14
3421,IDBI BANK,Gopalganj  Gopalganj Gopalganj Gopalganj Gopalganj  Nagar Parishad  841428,BANKING,16,641,1,25-29
3422,STATE BANK OF INDIA,Gopalganj  Gopalganj Gopalganj Gopalganj Gopalganj  Nagar Parishad  841428,FINENCIAL TRANSECTION,16,641,1,20-24
3423,UNIQUE CHILDEREN SCHOOL,Gopalganj  Gopalganj Gopalganj Gopalganj  Nagar Parishad  841428,EDUCATION,20,851,2,20-24
3424,POST OFFICE,Gopalganj Gopalganj 0 Gopalganj Gopalganj  Nagar Parishad  841428,POST AND FIXED DEPOSIT,13,531,1,30-99
3425,DOCTOR SUMAN CLINIC,Gopalganj  Gopalganj Gopalganj Gopalganj  Nagar Parishad  841428,WOMEN SPECILIST,21,869,2,10-14
3426,SHOPING HALL,Chandragokhul Road Gopalganj Gopalganj Gopalganj Gopalganj  Nagar Parishad  841428,SALES GENERAL GOODS,12,479,2,10-14
3427,TAILOR MASTER SHOP,Gopalganj Gopalganj Gopalganj Gopalganj  Nagar Parishad  841428,MANUFACTURING SHORT AND PAINT,6,141,2,10-14
3428,BOMBAY TAILOR,Gopalganj  Gopalganj Gopalganj Gopalganj  Nagar Parishad  841428,MANUFACTURING OF SHIRT AND PAINT COAT,6,141,2,10-14
3429,PUNJAB NATIONAL BANK,Gopalganj Gopalganj Gopalganj Gopalganj  Nagar Parishad  841428,FINENCIAL TRANSECTION,16,641,1,10-14
3430,KAMLA RAY COLLEGE,Gopalganj   Gopalganj Gopalganj Gopalganj Gopalganj  Nagar Parishad  841428,EDUCATION,20,853,2,15-19
3431,SENT JOSEPH S SCHOOL,Gopalganj  Gopalganj Gopalganj Gopalganj  Nagar Parishad  841428,EDUCATION,20,851,2,25-29
3432,D A B MIDDILE SCHOOL,Gopalganj  Gopalganj Gopalganj Gopalganj  Nagar Parishad  841428,EDUCATION,20,852,7,15-19
3433,D A B HIGH SCHOOL,Gopalganj Gopalganj Gopalganj Gopalganj  Nagar Parishad  841428,EDUCATION,20,853,7,25-29
3434,D A V BALIKA SCHOOL,Gopalganj   Gopalganj Gopalganj Gopalganj  Nagar Parishad  841428,EDUCATION,20,851,7,15-19
3435,BAIDHNATH NURSING HOME,Gopalganj Gopalganj Gopalganj Gopalganj  Nagar Parishad  841428,HEALTH WORK,21,869,2,10-14
3436,VISHNU SUGAR MILLS,Harakhua Gopalganj Go palganj C 3 3 Gopalganj Gopalganj  Nagar Parishad  N S Path Kolkata 700001,MANUFACTURING SUGAR,6,107,4,200-499
3437,GOPAL MOTOR MAHINDRA TRECTOR AGENCY,Gopalganj Gopalganj Gopalganj Gopalganj Gopalganj  Nagar Parishad  841428,SALE TRECTOR,10,451,1,15-19
3438,BAL BIDYA MANDIR,Gopalganj Gopalganj Gopalganj Gopalganj  Nagar Parishad  841428,EDUCATION,20,851,2,10-14
3439,AASHISH AUTO MOTOR,Gopalganj Gopalganj Gopalganj Gopalganj  Nagar Parishad  841428,SALE PARTS OF MOTOR,10,451,2,10-14
3440,NAGINA MOTOR,Gopalganj Gopalganj Gopalganj Gopalganj  Nagar Parishad  841428,SALE MOTOR CYCLE PART,10,451,4,10-14
3441,HARISHANKAR SINGH PUBLIC SCHOOL,Gopalganj Gopalganj Gopalganj Gopalganj  Nagar Parishad  841428,EDUCATION,20,851,2,15-19
3442,JITENDRA SINGH PUBLIC SCHOOL,Gopalganj Gopalganj Gopalganj Gopalganj  Nagar Parishad  841428,EDUCATION,20,851,2,15-19
3443,ZENITH COACHING CENTER,Gopalganj Gopalganj Gopalganj Gopalganj  Nagar Parishad  841428,EDUCATION,20,852,3,10-14
3444,PRIVATE SCHOOL,Nawada Barauli Gopalga nj  Barauli Nawada 841405,EDUCATION,20,851,3,10-14
3445,PRIVATE SCHOOL,Nawada Brauli Gopalgan j  Barauli Nawada 841405,EDUCATION,20,851,3,10-14
3446,GOVEMENT SCHOO,Madan Pur  Barauli Gopalganj Barauli Nawada  841405,EDUCATION,20,851,1,10-14
3447,UPGRADE MIDDILE SCHOOL,Bakhraur Pachpatia Brauli Gopalganj Barauli Bakhraur Pachpatia  841405,EDUCAION,20,852,1,10-14
3448,I P S PUBLIC SCHOOL,Sareya Narendra  Barauli Gopalganj Barauli Sarean Narind 841405,EDUCATION,20,851,2,15-19
3449,MIDDILE SCHOOL,Mogale Birecha  Brauli Gopalganj Barauli Moghal Biraicha 841405,EDUCATION,20,852,1,15-19
3450,UPGRADE MIDDILE SCHOOL,Kahala  Brauli Gopalganj Barauli Kahla  841405,EDUCATION,20,852,1,10-14
3451,UPGRADE MIDDILE SCHOOL,Kahla  Brauli Gopalganj 1 Barauli Kahla  841405,EDUCATION,20,852,1,15-19
3452,UPGRADE MIDDELE SCHOOL URDU,Piprahiya Brauli Gopalga nj  Barauli Piprahia 841405,EDUCATION,20,852,1,10-14
3453,UPGRADE MIDDILE SCHOOL,Larauli Brauli Gopalganj Barauli Larauli  841405,EDUCATION,20,852,6,10-14
3454,UPGRADE MIDDILE SCHOOL,Khajuriya  Brauli Gopalganj Barauli Khajuria  841405,EDUCATION,20,851,1,10-14
3455,TATA CHEMNI,Khajuriya  Brauli Gopalganj Barauli Khajuria  841405,BRICKS INDUSTRIES,6,239,3,25-29
3456,UPGRADE MIDDILE SCHOOL,Sareya Pahar Brauli Gopalganj Barauli Barauli  Np  841405,EDUCATION,20,852,1,15-19
3457,GOVERMENT MIDDILE SCHOOL,Sadua Barauli Gopalganj Barauli Sadaua  841405,EDUCATION,20,852,1,15-19
3458,GOVERMENT MIDDILE SCHOOL,Baluaar Pipra Barauli Gopalganj Barauli Pipra  841405,EDUCATON,20,852,1,15-19
3459,UPGRADE MIDDILE SCHOOL,Bada Barehya  Brauli  Gopalganj  Barauli Barhea  841405,EDUCATION,20,852,1,10-14
3460,GOVERMENT PRIMARY SCHOOL,Pipra Brauli  Gopalganj Barauli Pipra  841405,EDUCATION,20,851,1,10-14
3461,SHRI RAMSAWRUP SINGH HIGHER SECONDE,Ry School Badheya   Brauli Gopalganj 34 Barauli Barhea  841405,EDUCATION ,20,853,1,20-24
3462,UPGRADE MIDDILE SCHOOL,Chhota Badheya Brauli Gopalga nj  Barauli Barhea 841405,EDUCATION,20,852,1,10-14
3463,MIDDILE SCHOOL,Bishunpur Barauli Gopal ganj  Barauli Sonbarsa 841405,EDUCATION,20,852,1,10-14
3464,HIGH SCHOOL,Devapur Brauli Gopalgan j  Barauli Dewapur 841405,EDUCATION,20,853,1,10-14
3465,GOVERMENT MIDDILE SCHOOL,Devapur  Barauli Gopalganj Barauli Dewapur 841405,EDUCATION ,20,852,1,10-14
3466,UPGARADE MIDDILE SCHOOL,Rupan  Barauli Gopalganj Barauli Rupan Chhap 841405,EDUCATION,20,852,1,20-24
3467,SHREE DURGA SHISHU MANDIR,Ramnagar Batardeh Brauli Gopalganj Barauli Batardeh 841405,EDUCATION,20,851,2,10-14
3468,UPGARADE MIDDILE SCHOOL,Batardeh  Barauli Gopalganj Barauli Batardeh 841405,EDUCATION,20,852,1,15-19
3469,UPGRADE MIDDILE SCHOOL,Sarad Barauli Gopalganj Barauli Sarar  841405,EDUCATION,20,852,1,10-14
3470,UPGRADE MIDDILE SCHOOL,Sikatia Barauli Gopalganj Barauli Sikatia Sirdhar Sahi  841405,EDUCATION,20,852,1,10-14
3471,BRICKS INDUSTRIES,Parsouni Brauli Gopalga nj  Barauli Parsauni 841405,MANUFACTURING BRICKS,6,239,2,10-14
3472,GOVERMENT MIDDILE SCHOOL,Kahjuriya Barauli  Gopalganj  Barauli Khajuria  841405,EDUCATION,20,852,1,20-24
3473,MIDDILE SCHOOL,Kateya Gopalganj Katiya Raipura  841437,EDUCATION,20,852,1,10-14
3474,MIDDILE SCHOOL,Kateya   Gopalganj Katiya Kataiya  Np  841437,EDUCATION,20,852,1,10-14
3475,GOVERMENT MIDDILE SCHOOL,Bithua  Bhore Gopalganj Bhorey Bithua  841426,EDUCATION,20,852,1,15-19
3476,MIDDILE SCHOOL,Renwariya Tiwari Bhore Gopalganj Bhorey Khajurha Panre 841426,EDUCATION,20,852,1,10-14
3477,JAI AMBEY PLY MANUFACTURING,Rewatiye Bainkunthpur Gopalganj Baikunthpur Rewtith 841409,MANUFACTURING PLY,6,310,2,20-24
3478,CEMENT SHOP,Majhwaliya Baikunthpur  Gopalganj  Baikunthpur Hardia  841409,SALE CEMENT,12,477,1,10-14
3479,GOVERMENT SCHOOL MADARSA,Katalpur Baikunthpur Go palganj  Baikunthpur Katalpura  841409,EDUCATION,20,851,1,20-24
3480,UPGRADE MIDDILE SCHOOL,Rajapatti Baikunthpur Go palganj  Baikunthpur Raja Patti  841409,EDUCATION,20,851,9,15-19
3481,SPRIT UDHOG FACTORY,Rajapttikothi Baikunthpur  Gopalganj  Baikunthpur Raja Patti  841409,MANUFACTURING SPRIT,6,110,1,100-199
3482,MIDDILE SCHOOL,Dighwa  Baikunthpur Gopalganj Baikunthpur Dighwa 841409,EDUCATION,20,852,9,10-14
3483,MUSKAN PLY INDUSTRIES,Hit Pati  Kuchaikote Gopalganj Kuchaikote Gulaura 841501,FURNITURE MAKING,6,310,2,30-99
3484,B B S DIGREE COLLEGE,Kuchikote  Kuchikote Gopalganj Kuchaikote Kuchai Kote 841501,EDUCATION,20,853,3,30-99
3485,UPGRADE MIDDILE SCHOOL,Rajapur Punchdewari Go palganj  Pach Deuri Rajapur  841441,EDUCATION,20,852,1,15-19
3486,UPGRADE MIDDILE SCHOOL,Dewariya Panchdewari G opalganj  Pach Deuri Deuria  841441,EDUCATION,20,852,1,10-14
3487,JANTA HIGH SCHOOL,Majhwaliya  Vijayipur Gopalganj Bijaipur Rande  841508,EDUCATION,20,852,1,10-14
3488,GOVERMENT HIGH MIDDILE SCHOOL,Nawkatola  Vijayipur Gopalganj Bijaipur Nauka Tola 841508,EDUCATION,20,852,1,20-24
3489,PRIMARY GIRLS HIGH MIDDILE SCHOOL,Nawtan Vijayipur Gopalg anj  Bijaipur Nautan 841508,EDUCATION,20,851,1,10-14
3490,KIRANA SHOP,Bangra Bazar  Vijayipur Gopalganj Bijaipur Bangra  841508,SALE FOOD MATERIAL,12,471,1,10-14
3491,BRICKS INDUSTRIES,Hariharpur Gopalganj Go palganj  Gopalganj Hariharpur  841428,MANUFACTURING BRICKS,6,239,5,30-99
3492,BRICKS INDUSTRIES,Hariharpur Gopalganj Go palganj  Gopalganj Hariharpur  841428,MANUFACTURING BRICKS,6,239,5,30-99
3493,GOVERMENT MIDDILE SCHOOL,Ekderawa Gopalganj Go palganj  Gopalganj Ekderwa  841428,EDUCATION,20,851,1,15-19
3494,GOVERMENT MIDDILE SCHOOL,Bhitbhera Gopalganj Go palganj  Gopalganj Bhit Bherwa  841428,EDUCATION,20,851,1,10-14
3495,NATIONAL HIGH SCHOOL,Turkaha Gopalganj Gop alganj  Gopalganj Turkaha  841428,EDUCATION,20,851,1,10-14
3496,GOVERMENT MIDDILE SCHOOL,Mirganj Uchkagaon Gop alganj   Uchkagaon Mirganj  Np   841438,EDUCATION,20,851,1,10-14
3497,GOVERMENT SCHOOL,Sakla Sidhwaliya Gopalg anj   Sidhwalia Jalalpur Kalan  841423,EDUCATION,20,851,1,10-14
3498,MIDDILE SCHOOL,Kushhar  Sidhwaliya Gopalganj Sidhwalia Jalalpur Kalan 841423,EDUCATION,20,851,1,10-14
3499,MIDDILE SCHOOL,Kushhar  Sidhwaliya Gopalganj Sidhwalia Jalalpur Khurd 841423,EDUCATION,20,851,1,10-14
3500,HIGH SCHOOL,Kushhar Sidhwaliya Gop alganj  Sidhwalia Jalalpur Khurd  841423,EDUCATION,20,851,1,10-14
3501,MIDDILE SCHOOL,Dumariya  Sidhwaliya Gopalganj Sidhwalia Jalalpur Khurd 841423,EDUCATION,20,851,1,10-14
3502,GOVERMENT MIDDILE SCHOOL,Salempur  Barauli Gopalganj Barauli Barauli  Np  841405,EDUCATIONAL INSTITUTION,20,852,1,20-24
