S.No.,Name of the Establishment,Address,Major Activity Description,Broad Activity Code,NIC,Owners hip Code,"Employ ment Class
Interval"
9758,VIJAY KUMAR INDIAN GAS AGENCY,Jehanabad P G Road Jehanabad  Jehanabad Jehanabad  804408,INDIAN GAS GODOWN,13,521,2,30-99
9759,VIRLA SUNLIFE INSURANCE,Jehanabad   Jehanabad Jehanabad  804408,LIFE INSURENCE,16,651,4,10-14
9760,SHIV SANKAR CHITRA MANDI CENEMA HALL,Jehanabad Near Jehanabad Pump Jehanabad Jehanabad 804408,CINEMA HALL,22,900,2,10-14
9761,D A V PUBLIC SCHOOL,Jehanabad Near Jehanabad Bazar Jehanabad Jehanabad 804408,SCHOOL,20,852,2,30-99
9762,M P C HIGH SCHOOL,Jehanabad Near Malahchk  Jehanabad Jehanabad  804408,SCHOOL,20,852,2,30-99
9763,PANJAB NETIONAL BANK JEHANABAD,Jehanabad Near Gaya Patna Road  Jehanabad Jehanabad  804408,BANK,16,641,1,15-19
9764,SAHARA INDIA JEHANABAD,Jehanabad Near Jehanabad Maai Town Jehanabad Jehanabad 804408,SAHARA INDIA,16,649,4,10-14
9765,RAM KRISHAN PRAMHANS VIDHALY,Jehanabad Ganghi Nagar  Jehanabad Jehanabad  804417,SCHOOL,20,852,2,30-99
9766,M P C HIGH SCHOOL,Jehanabad Near Professer Colony Jehanabad Jehanabad 804408,SCHOOL,20,852,2,30-99
9767,BHARAT DURSANCHAR NIGAM LIMITED,Jehanabad Kako Road 58 Jehanabad Jehanabad  804408,DURBHASH KENDRA,15,611,1,30-99
9768,DAV SCHOOL DHANGAMA,Jahanabad Near Dhangama  Jehanabad Jehanabad  804408,SCHOOL,20,852,1,30-99
9769,TOTUS WORLD NAULEGE COMPLEX,Jehanabad Khan Bahadur Road Jehanabad Jehanabad 804408,EDUCATION,20,852,2,10-14
9770,GPO,Patna   Jehanabad Jehanabad  800001,POST OFFICE,13,531,1,30-99
9771,LIC OFFICE ,Jehanabad Gandhi Maidan  Jehanabad Jehanabad  804408,LIC,16,651,3,30-99
9772,SHANTI KUNJ PUBLIC SCHOOL,Jehanabad Near Lic Office Jehanabad Jehanabad Jehanabad 804408,EDUCATION,20,852,2,10-14
9773,MANAS INTERNATIONAL SCHOOL,Jehanabad Ambedkar Nagar Chowk Jehanabad Jehanabad 804408,EDUCATION,20,852,2,10-14
9774,MADHYA BIHAR GRAMIN BANK,Patna Mina Pallaza Patna  Jehanabad Jehanabad  800001,BANK,16,641,1,10-14
9775,I T I NAVJYOTI,Jehanabad Thana Road Jehanabad Jehanabad 804408,EDUCATION,20,852,2,10-14
9776,B ED RAGHU SAROJ COLLEGE,Jehanabad Ambedkar Nagar  Jehanabad Jehanabad  804408,BED COLLEGE,20,853,2,10-14
9777,TANMAY PAWAN MALAKI BHRTIYA STATE BANK,Patna  7 1 Jehanabad Jehanabad  800001,BANK,16,641,1,20-24
9778,DOCTOR AJAY KUMAR SIDHARTHA TEACHAR,Trainig College Jehanabad Gaya Patna Road  Jehanabad Jehanabad  804408,TRAINING COLLEGE,20,853,2,10-14
9779,ARJUN PRASAD ANUPUM VASTRALAYA REDIMAD AND KAPRA DUKAN,Jahanabad Nababganj Jehanabad Makhdumpur  Np  804422,ANUPUM VASTRALAYA REDIMAID AND KAPRA DUKAN,12,477,2,10-14
9780,KLS ADARSH HIGH SCHOOL,Makhadumpur Jehanabad Nababganj Road  Jehanabad Makhdumpur  Np  804422,SCHOOL,20,852,2,10-14
9781,SWAMI VIVEKANAND ENGLISH SCHOOL,Makhadumpur Jehanabad Nababganj Road  Jehanabad Makhdumpur  Np  804422,SCHOOL,20,852,2,10-14
9782,NALKUP OFFICE,Block Road Jehanabad Ghoshi Road Jehanabad Makhdumpur  Np  804422,NALKUP BIBHAG,8,360,2,25-29
9783,RAJKIY MADHY VIDHALY,Makhadumpur Jahanabad Near Thana Makhadumpur Jehanabad Makhdumpur  Np  804408,SCHOOL,20,852,1,20-24
9784,GYAN DIP PUBLIC SCHOOL,Jahanabad Laroua Jehanabad Makhdumpur  Np  804422,SCHOOL,20,852,2,20-24
9785,SANJAY KUMAR SPOKEN SCHOOL,Makhadumpur Jehanabad Near Thana Jehanabad Makhdumpur  Np  804422,SPOKEN SCHOOL,20,851,1,10-14
9786,SURESH PRASAD BAL VIKASH VIDYALYA,Makhadumpur Jehanabad Saraiya Jehanabad Makhdumpur  Np  804422,BAL VIKASH VIDYALYA,20,851,2,10-14
9787,BRILLIENT PUBLIC SCHOOL,Makhadumpur Jehanabad Men Road Jehanabad Makhdumpur  Np  804422,SCHOOL,20,851,2,30-99
9788,BHARTIYA STATE BANK,Local Head Office Patna Main Road Gandhi Maidan 61 1 Jehanabad Makhdumpur  Np  800001,BANK,16,641,1,10-14
9789,RAILWAY STATION,Makhadumpur Jehanabad Makhadumpur Gaya Jehanabad Makhdumpur  Np  804422,RAILWAY STATION,13,491,1,10-14
9790,MADHAY  VIDHALY,Chiri Hulasganj Jehanabad Near Hulasganj  Jehanabad Chiri  804432,EDUCATION,20,851,1,10-14
9791,UTKRAMIK MADHY VIDHALY,Tira Hulasganj Jehanabad Near Brc Hulasganj  Jehanabad Jehanabad  804407,EDUCATION,20,852,1,10-14
9792,UTKRAMIC MADHY VIDHALY,Keur Hulasganj Jehanabad Near Hulasganj Bazar Jehanabad Keur 804407,SCHOOL,20,852,1,10-14
9793,PRATHAMIC VIDHALY,Hulasganj Jehanabad Near Hulasganj Bazar Jehanabad Surajpur 804407,SCHOOL,20,852,1,15-19
9794,VIDYA JYOTI SCHOOL,Hulasganj Jehanabad Near Hulasganj Bazar Jehanabad Surajpur 804407,VIDYA JYOTI SCHOOL,20,851,2,25-29
9795,MADHY VIDYALAYA,Jaru Hulasganj Jehanabad Jaru  804407,SCHOOL,20,852,1,10-14
9796,HIGH SCHOOL,Jaru Hulasganj Near Hulasganj Bazar Jehanabad Jaru  804233,HIGH SCHOOL,20,853,1,10-14
9797,MAGDH INT NIRMATA,Adrakhibigha Hulasganj Near Adrakhibigha Hulasganj Kandaul 804407,MAGADH BRICKS MANUFACTURING,6,239,2,30-99
9798,KAMTA PRASAD SHARMA DEEGRI COLLEGE,Hulasganj Jehanabad Hulasganj Utimpur 804407,COLLEGE,20,853,1,30-99
9799,HULASGANJ INTER COLLEGE,Hulasganj Jehanabad Near Hulasganj Bazar Hulasganj Utimpur 804407,COLLEGE,20,853,1,30-99
9800,MADHY VIDHALY,Hulasganj Jehanabad Near Hulasganj Bazar Hulasganj Surajpur 804407,SCHOOL,20,852,1,15-19
9801,UCHA VIDHALAYA,Hulasganj Jehanabad Near Hulasganj Bazar Hulasganj Surajpur 804407,HIGH SCHOOL,20,852,1,15-19
9802,MADHY VIDHALY,Bhagawanpur Jehanabad Near Bhagwanpur  Hulasganj Kokarsa  804407,SCHOOL,20,852,1,15-19
9803,MADHY VIDHALY,Birra Hulasganj Jehanabad Near Virra Hulasganj Bira  804407,EDUCATION,20,852,1,10-14
9804,MADHY VIDHALAY,Dumha Kako Jehanabad Near Damuha Kako  Kako Damuhan  804422,MIDDLE SCHOOL,20,852,1,10-14
9805,PANJAB NATIONAL BANK,Jehanabad Kako 3 2 Kako Kako  804408,BANK,16,641,1,10-14
9806,UTKRAMIT URDU MADHY VIDHALYA,Vivipur Jehanabad Kako Near Vivipur  Kako Bibipur  804418,EDUCATION,20,852,1,10-14
9807,UTKRAMIC MADHY VIDHAYALY,Bambai Kako Jehanabad Near Bambai  Kako Bemai 804418,EDUCATION,20,852,1,10-14
9808,JAL PATH PRAMANDAL,Modanganj Jehanabad Near Modanganj Modanganj Mandai 804422,TUIBEL,8,360,1,20-24
9809,MIDDILE SCHOOL,Nababganj Jahanabad Near Nawabganj Makhdumpur Chhariyari 804422,EDUCATIONAL,20,852,1,10-14
9810,VIVEKANAND VIDHALY,Tehta Makhadumpur Jehanabad Near Tehta Makhdumpur Saren 804427,EDUCATION,20,852,2,10-14
9811,HIGH SCHOOL,Tehta  Jehanabad Near Tehta Bazar Makhdumpur Saren 804427,EDUCATION,20,852,1,15-19
9812,MADHY VIDHALY,Tehta Jehanabad Near Tehta  Makhdumpur Saren  804427,EDUCATIONAL WORK,20,852,1,25-29
9813,GAYAN DIP SCHOOL,Tehta Jehanabad Near Tehta  Makhdumpur Saren  804427,EDUCATIONAL WORK,20,851,2,15-19
9814,PRAMHANS VIDHALY,Tehta Jehanabad Near Tehta  Makhdumpur Saren  804427,EDUCATIONAL WORK,20,851,1,10-14
9815,HIGH SCHOOL,Near Makhadumpur Jehanabad Near Railway Halt Makhdumpur Ner 804422,EDUCATIONAL WORK,20,852,1,15-19
9816,HIGH SCHOOL,Umta Makhadumpur Umta Road Makhdumpur Umta 804403,EDUCATIONAL WORK,20,852,1,10-14
9817,RAJKIY UTKRAMIT MADHY VIDHALY,Aatipur Makhadumpur Jehanabad Near Makhadumpur Makhdumpur Dharaut 804405,EDUCATIONAL WORK,20,852,2,10-14
9818,RAJKIYKRIT MADHY VIDHALY,Manchhil Makhadumpur Jehanabad Near Paybigha  Makhdumpur Machhil  804424,EDUCATIONAL WORK,20,852,1,10-14
9819,GOVERNMENT MIDDILE SCHOOL,Ikkil Jahanabad Near Ikkil  Makhdumpur Ikil Khas  804425,EDUCATIONAL WORK,20,852,1,15-19
9820,RAJKIY UTKRAMIC MADHY VIDHALY,Lohgadh Makhadumpur Makhdumpur Bhekh 804405,EDUCATIONAL WORK,20,852,1,10-14
9821,GOODVIL MISSION PUBLIC SCHOOL,Kachnawa Makhadumpur Makhdumpur Kachnanwan  804422,EDUCATIONAL WORK,20,851,2,10-14
9822,RAJKIY MADHY VIDHALY,Sagarpur Makhadumpur Makhdumpur Sagarpur 804422,EDUCATIONAL WORK,20,851,1,15-19
9823,RAJKIY MADHY VIDHALAYA,Chaadh Makha Dumpur Makhadumpur Makhdumpur Charh 804422,EDUCATION WORK,20,851,1,10-14
9824,UTKRAMIT MADHY VIDHALY,Solhanda Makhadumpur Jehanabad Near Makhadumpur Makhdumpur Solhanda 804422,EDUCATION WORK,20,852,1,10-14
9825,MIDDILE SCHOOL,Indrapur Jahanabad Indrapur Villege Makhdumpur Solhanda 804422,EDUCATIONAL WORK,20,852,1,10-14
9826,RAJIY UTKRAMIC MADHY VIDHALYA,Kumardih Makhadumpur Kumardih Villege Makhdumpur Kumardih 804427,EDUCATION WORK,20,852,1,10-14
9827,AADARSH MADHY VIDHALAYA,Prabhat Nagar Makhadumpur Near Prabhat Nagar Makhdumpur Bhekh 804405,EDUCATIONAL WORK,20,851,1,15-19
9828,MIDDILE SCHOOL,Serthua Makhadumpur Jehanabad Near Sarthua  Makhdumpur Sarthua  804427,EDUCATIONAL WORK,20,852,1,15-19
9829,RAJKIY MADHY VIDHALY,Supi Makhadumpur Near Supi Makhadumpur Makhdumpur Supi 804407,EDUCATIONAL WORK,20,852,1,10-14
9830,RAJKIY MADHY VIDHALY,Sumera Makhadumpur Jehanabad Near Sumera Makhadumpur Makhdumpur Sunera 804427,EDUCATIONAL WORK,20,852,1,10-14
9831,UTKRAMIC MADHY VIDHALAYA,Najarbigha Jahanabad Near Najarbigha Makhdumpur Kohara 804427,EDUCATIONAL WORK,20,852,1,10-14
9832,UTKRAMIC MADHY VIDHALAYA,Deokuli Makhadumpur Jehanabad Near Deokumli  Makhdumpur Dekuli  804427,EDUCATIONAL WORK,20,852,1,10-14
9833,RAJKIY UTKRAMIT MADHY VIDHALY,Kohra Makhadumpur Jehanabad Near Tehta Makhdumpur Kohara 804427,EDUCATIONAL WORK,20,852,1,20-24
9834,RAJKIY MADHY VIDHALY,Kinari Jehanabad Near Kinari  Jehanabad Kenari  804429,EDUCATIONAL WORK,20,852,1,20-24
9835,MADHY VIDHALY,Bhawanichak Jehanabad Near Bhawanichak Jehanabad Surangapur 804429,EDUCATIONAL WORK,20,852,1,10-14
9836,RAJKIY UTKRAMIT MADHY VIDHALY,Salarpur Jehanabad Near Salarpur Jehanabad Chainpura 804429,EDUCATIONAL WORK,20,852,1,10-14
9837,ATIRICT PRATHMIC SWASTH KENDRA,Sikariya Jehanabad Near Sikariya Jehanabad Sikariya 804454,HEALTH WORK,21,861,1,25-29
9838,HIGH SCHOOL,Sikariya Forth Jehanabad Near Sikariya  Jehanabad Sikariya  804454,HIGH SCHOOL,20,852,1,10-14
9839,KIRAN KUMARI ITI TRAINIG KENDRA,Jehanabad Karauna Near Patna Gaya Road Jehanabad Korauna 804417,ITI EDUCATIONAL KENDRA,20,852,2,20-24
9840,RAJKIY MADHY VIDHALY,Muther Jehanbad Near Muther  Jehanabad Muther  804425,EDUCATIONAL WORK,20,852,1,10-14
9841,MADHY VIDHALY,Patriya Jehanabad Near Patariya  Jehanabad Pataria  804454,EDUCATIONAL WORK,20,852,1,10-14
9842,MIDDILE SCHOOL,Salempur Jehanbad Near Salempur Jehanabad Salempur 804417,EDUCATIONAL WORK,20,852,1,10-14
9843,UTKRAMIT MIDDILE SCHOOL,Sultani Jehanabad Near Sultani  Jehanabad Sultani  804417,EDUCATIONAL WORK,20,852,1,10-14
9844,SHAKTI INT BHATTA UDHOG,Sultani Jehanabad Near Sultani  Jehanabad Sultani  804417,INT BANANA,6,239,2,100-199
9845,CHANDAN INT BHATTA,Sikariya Jehanabad Sikariya  Jehanabad Sultani  804417,INT BHATTA,6,239,2,30-99
9846,RAJKIY UTTKRAMIT MADHY VIDHALY,Sikariya Sikariya Jehanabad Sikaria 804454,EDUCATOINAL WORK,20,852,1,10-14
9847,RAJKIY MIDDILE SCHOOL,Bedauli Ratni Pharidpur Jehanabad Near Ratni Ratni Faridpur Bedauli 804425,EDUCATIONAL WORK,20,852,1,10-14
9848,UTKRAMIT MIDDILE SCHOOL,Rustamchak Jehanabad Near Rustamchak  Ratni Faridpur Rustan Chak 804424,EDUCATIONAL WORK,20,852,1,10-14
9849,RAJKIY MIDDILE SCHOOL,Utarpatti Ratni Pharidpur Jehanabad Uttarpatti 2  Ratni Faridpur Utra Patti 804421,EDUCATIONAL WORK,20,852,1,10-14
9850,SHANTI INTER NATIONAL PRIEVET SCHOOL,L Sakurabad Jehanabad Ghejan Road  Ratni Faridpur Shakurabad  804425,EDUCATIONAL WORK,20,852,1,20-24
9851,PRATHMIC SWASTH KENDRA,Ratni Pharidpur Sakurabad Jehanabad Sakurabad  Ratni Faridpur Shakurabad 804425,HOSPITAL KENDRA,21,861,1,30-99
9852,AADARSH RAJIYKRIT MIDDILE SCHOOL,Sakurabad Jehanabad Sakurabad Main Road Ratni Faridpur Shakurabad  804425,EDUCATIONAL WORK,20,852,1,15-19
9853,KASTURBA GANDHI GIRL SCHOOL,Shakurabad Jehanabad Near Sakurabad Men Road  Ratni Faridpur Shakurabad  804425,EDUCATIONAL WORK,20,852,1,10-14
9854,RAJKIYKRIT MIDDILE SCHOOL,Sribigha Ibrahimpur Sakurabad Near Sribigha  Ratni Faridpur Noawan  804429,EDUCATIONAL WORK,20,852,1,15-19
9855,HIGH SCHOOL,Ibrahimpur  Sakurabad Jahanabad Near Sakurabad  Ratni Faridpur Noawan 804429,EDUCATIONAL WORK,20,852,1,15-19
9856,HIGH SCHOOL,Ghamadihari Ratni Pharidpur Near Sakurabad  Ratni Faridpur Dhana Dihri 804429,EDUCATIONAL WORK,20,852,1,10-14
9857,MIDDILE SCHOOL,Ghamadihari Ratnipha Ridpur Near Sakurabad Ratni Faridpur Dhana Dihri  804429,EDUCATIONAL WORK,20,852,1,10-14
9858,MADHY VIDHALY,Kindui Ratni Faridpur Jehanabad Near Kendui Sakurabad  Ratni Faridpur Kindui  804427,EDUCATIONAL WORK,20,852,1,10-14
9859,MIDDILE SCHOOL,Athamal Gola Ratnifa Ridpur Jehanabad Near Ratni  Ratni Faridpur Abgila  804423,EDUCATIONAL WORK,20,852,1,10-14
9860,MADHY VIDHALY,Jethiyara Sohraiya Ratnifaridpur Near Sohraiya  Ratni Faridpur Sohraiya  804423,EDUCATIONAL WORK,20,852,1,10-14
9861,HIGH SCHOOL,Nehalpur Ratni Jehanabad Near Nehalpur  Ratni Faridpur Nehalpur  804429,EDUCATIONAL WORK,20,852,1,15-19
9862,MIDDILE SCHOOL,Sarta Ratnipharidpur Jehanabad Near Sarta Ratni Faridpur Sarta 804429,EDUCATIONAL WORK,20,852,1,10-14
9863,MIDDILE SCHOOL,Maulanachak Ratnipha Ridpur Jehanabad Near Maulnachak  Ratni Faridpur Maulna Chak 804429,EDUCATIONAL WORK,20,852,1,10-14
9864,KAYNAT INTERNATINAL SCHOOL,Kako Jehanabad Near Kako Bazar  Kako Kako 804420,EDUCATIONAL SANSTHAN,20,852,1,10-14
9865,MADHY VIDHALY,Kako Jehanabad Near Kako Bazar  Kako Kako 804420,EDUCATIONAL SASTHAN,20,852,1,10-14
9866,HIGH SCHOOL,Kako Jehanabad Near Kako  Kako Kako 804420,EDUCATIONAL SASTHAN,20,852,1,10-14
9867,AAWASIY KASTURWA VIDHALY,Kako Jehanabad Near Kako  Kako Kako 804420,EDUCATIONAL SASTHAN,20,851,1,10-14
9868,TARA INTER COLLEGE,Kako Jehanabad Near Kako  Kako Kako 804420,EDUCATIONAL SASTHAN,20,853,1,30-99
9869,MADHY VIDHALY,Dumuha Kako Jehanabad Near Kako Bazar  Kako Kako 804420,EDUCATIONAL SASTHAN,20,852,1,10-14
9870,UCHH VIDHALY,Hati  Kako Jehanabad Near Kako Bazar  Kako Kako  804420,EDUCATIONAL SASTHAN,20,852,1,10-14
9871,UTKRAMIT URDU MADHY VIDHALY,Vivipur Kako Jehanabad Near Kako  Kako Bibipur 804420,EDUCATIONAL SASTHAN,20,852,1,10-14
9872,PRATHAMIC UPSWASTH KENDRA,Saidabad Koko Jehanabad Near Kako Kako Saidabad Parsain 804420,HOSPITAL,21,861,1,15-19
9873,BAL VIDYA NIKETAN,Raja Bazar Jehanabad Machala  Jehanabad Jehanabad  804408,EDUCATIONAL SASTHAN,20,852,7,30-99
