S.No.,Name of the Establishment,Address,Major Activity Description,Broad Activity Code,NIC,Owners hip Code,"Employ ment Class
Interval"
1342,MAKING OF BRICKS,Bhagjhunki Teagachh Kishanganj  Terhagachh Bhagjhunki  855101,MAKING OF BRICKS,6,239,3,30-99
1343,MADARSA DARUL ULAM,Teragachh Kishanganj 0 62 Terhagachh Bhagjhunki  855101,EDUCATION SERVICES,20,851,7,10-14
1344,MADARSA ESLAM,Bhag Jhunki Teragachh Kishanganj 39 Terhagachh Bhagjhunki 855101,EDUCATION SERVICES,20,851,7,10-14
1345,MADARSA JAMIYA,Teragachh Kishanganj 54 Terhagachh Bhagjhunki  855101,EDUCATION SERVICES,20,851,7,10-14
1346,MADARSA NURUL,Bhag Jhunki Teragachh Kishanganj 57 Terhagachh Bhagjhunki 855101,EDUCATION SERVICES,20,851,7,10-14
1347,OM PARAKASH GUPTA,Farabari Teragachh Kiishanganj 49 Terhagachh Pharhabari 855101,BRICKS MAKING,6,239,3,30-99
1348,MDARSA AALIYA,Karabari Teragachh Dis Kishanganj 62 Terhagachh Pharhabari 855101,EDUCATION SERVICES,20,851,7,10-14
1349,MDARSA JAMIYA,Karabari Teragachh Dist Kishanganj 49 Terhagachh Pharhabari 855101,EDUCATION SERVICES,20,851,7,10-14
1350,MDARSA ESLAMIYA,Karabari Teragachh Kishanganj 62 Terhagachh Pharhabari 855101,EDUCATION SERVICES,20,851,7,10-14
1351,MD MANNAN,Karabari Teragachh Kishanganj  Terhagachh Pharhabari  855101,WOOD MILL,6,161,2,10-14
1352,MD DULAR,Karabari Teragachh Kishanganj 39 Terhagachh Pharhabari 855101,WOOD MILL,6,161,2,10-14
1353,ASHOK AGRWAL,Baluya Jhagipur Teragachh Kishanganj 85 Terhagachh Balua Jagir  855101,MAKING OF BRICK,6,239,2,30-99
1354,MDARSA SAH TEACHING,Baluaa Jhagir Teragachh Kishanganj Terhagachh Balua Jagir 855101,TECHINGS,20,851,7,10-14
1355,DARUL ULAM MDARSA,Teragachh Dist Kishanganj 62 Terhagachh Balua Jagir 855101,EDUCATION SERVICES,20,851,7,10-14
1356,MD SHARFE,Baluaa Jhagir Teragachh Dist Kishanganj 89 Terhagachh Balua Jagir 855101,WOOD MILL,6,161,2,10-14
1357,SHAMSHUL HAK,Baluaa Jhagir Teragachh Dist Kishanganj 85 Terhagachh Balua Jagir 855101,WOOD MILL,6,161,2,10-14
1358,ESLAMIYA MDARSA,Baluaa Jhagir Teragachh Dist Kishanganj 31 Terhagachh Balua Jagir 855101,EDUCATION SERVICES,20,851,7,10-14
1359,JE SE BO BRICKS POKHARIYA TERAGACHH,Kishanganj 0 Terhagachh Pokharia 855101,MAKING OF BRICKS,6,239,3,100-199
1360,MD ESMAEL,Pokhariya Teragachh Dist Kishanganj Terhagachh Pokharia 855101,LAKRI MIL,6,161,2,10-14
1361,MD NURUL,Pokhariya Teragachh Dist Kishaganj 32 Terhagachh Pokharia 855101,LAKRI MIL,6,161,2,10-14
1362,MDRSA JAMIYA,Pokhariya Teragachh Dist Jkishanganj 49 Terhagachh Pokharia 855101,EDUCATION SERVICES,20,851,7,10-14
1363,MDARSA ESLAMIYA,Pokhariya Teragachh Dist Kishanganj 31 Terhagachh Pokharia 855101,EDUCATION SERVICES,20,851,7,10-14
1364,MDARSA ESLAMIYA,Teragachh Dist Kishanganj  Terhagachh Pokharia  855101,EDUCATION SERVICES,20,851,7,10-14
1365,MILLI GIRLS SCHOOL,Tarabari Dighalbaik Dist Kishanganj 46 Dighalbank Mangra 855108,EDUCATION SERVICE,20,852,5,25-29
1366,POPULAR POINT CONVENT,Tarabari Dighalbank Dist Kishanganj  Dighalbank Mangra  855108,EDUCATION SERVICES,20,851,5,10-14
1367,ESHLAM JUNED,Tarabari Dighalbank Dist Kishanganj  Dighalbank Mangra  855108,WOODS MIL,6,161,2,10-14
1368,MAKBUL ALAM,Tarabari Dighalbank Dist Kishanganj 15 Dighalbank Mangra 855018,WOODS MIL,6,161,2,10-14
1369,MD JUNED,Dighalbank Dist Kishanganj 18 Dighalbank Mangra 855108,WOODS AARA MIL,6,161,2,10-14
1370,JAMIYA MDARSA,Dighalbank Dist Kishanganj  Dighalbank Mangra  855108,EDUCATION SERVICES,20,851,7,10-14
1371,MDARSA ESLAM,Dighalbank Dist Kishanganj 49 Dighalbank Mangra 855108,TEACHIG,20,851,7,10-14
1372,MDRSA TAKIYA,Dighalbank Dist Kishanganj 32 Dighalbank Mangra 855108,EDUCATION SERVICES,20,851,7,10-14
1373,MAKBUL HUSAIN,Dighalbank Dist Kishaganj 16 Dighalbank Mangra 855108,WOODS AARA MIL,6,161,2,10-14
1374,MDARSA DARUL,Dighalbank Dist Kishanganj 55 Dighalbank Mangra 855108,EDUCATION SERVICES,20,851,2,15-19
1375,MDRASA JAMIYA,Dighalbank Dist Kishanganj 59 Dighalbank Mangra 855108,EDUCATION SERVICES,20,851,7,10-14
1376,MDARSA JAMIYA,Dighalbank Dist Kishanganj  Dighalbank Mangra  855108,EDUCATION SERVICES,20,851,7,10-14
1377,BAJRANGNBALI AGROTECT  P  LIMITED,Dist Kishanganj 0 190 Thakurganj Bhatgaon Bhat Gaon Galgalia 855117,PRODUCTION OF TEA,19,821,3,30-99
1378,MANIK BABU,Thakurganj Dist Kishanganj  Thakurganj Rasia  855117,TEA GARDEN with suppot activites,1,16,2,30-99
1379,PACHMUKHI TEA GARDEN,Farsa Dangi Thakurganj Dist Kishanganj Thakurganj Sabodangi 855117,TEA GARDEN with suppot activites,1,16,2,20-24
1380,AAR BEE TEA,Thakurganj Dist Kishanganj 28 Thakurganj Besarbati 855116,PRODAK TEA GARDEN,1,16,4,15-19
1381,GOLD BRICKS,Thakurganj Dist Kishanganj 40 Thakurganj Besarbati 855116,MAKING OF BRICKS,6,239,2,30-99
1382,JAMIYA MDARSA,Thakurganj Dist Kishanganj  Thakurganj Sabodangi  855118,EDUCATION SERVICES,20,851,7,10-14
1383,CENTRAL BANK OF INDIA,De Market Kishanganj Dist Kishanganj Kishanganj Kishanganj  Nagar Parishad  855107,FINANCE,16,641,4,10-14
1384,S B I BANK KALTEX CHOCK KISHANGANJ,Parkhand Kishanganj Dist Kishaganj Kishanganj Kishanganj  Nagar Parishad  855107,FINANCE,16,641,4,10-14
1385,UNION BANK OF INDIA,Caltex Chock Parkhand Kishanganj Dist Kishanganj  Kishanganj Kishanganj  Nagar Parishad   855107,FINANCE,16,641,4,10-14
1386,S B I BANK,Pacim Pali City Kishanganj Dist Kishanganj  Kishanganj Kishanganj  Nagar Parishad   855107,FINANCE,16,641,4,10-14
1387,TEA GARDEN OFFICE,Gorukhal Pothia Dist Kishanganj 5 Pothia Gorukhal  733207,TEA GARDEN with suppot activites,1,16,4,30-99
1388,TEA GDRDEN OFFICE,Kalidas Pothia Dist Kishanganj 31 Pothia Kalidas  855017,TEA GARDEN with suppot activites,1,16,4,30-99
1389,BRICKS MANUFACTURE DONGRA,Naukatta Pothia Kishanganj Dist Kishanganj  Pothia Dongra  855117,BRICKS,6,239,1,30-99
1390,FIROZ ALAM,Pothia Dist Kshanganj 097 Pothia Charkhakati Dograbasti 855117,WOOD MILL,6,161,1,20-24
1391,RAJA ALAM,Pothia Dist Kishanganj 96 Pothia Charkhakati 855117,WOOD MILL,6,161,1,15-19
1392,MAJID HUSSAIN,Pothia Dist Kishanganj 98 Pothia Charkhakati 855117,WOOD MILL,6,161,1,10-14
1393,GOPI BAYATI,Pothia Dist Kishanganj 87 Pothia Charkhakati 855117,WOOD MILL,6,161,1,30-99
1394,UTTAM MITAL,Pothia Dist Kishanganj 95 Pothia Charkhakati 855117,WOOD MILL,6,161,1,15-19
1395,ESLAMIYA MDARSA,Gorukhal Pothia Dist Kishanganj 24 Pothia Gorukhal  733207,EDUCATION SERVICES,20,851,7,10-14
1396,JAMIYA MDARSA,Gorukhal Pothia Dist Kishanganj 40 Pothia Gorukhal  855117,EDUCATION SERVICES,20,851,7,10-14
1397,SHAMSUL HAK,Chharkhakati Pothia Dist Kishanganj 99 Pothia Charkhakati 855117,WOODS MIL,6,161,2,10-14
1398,DARUL ULAM MDARSA,Kalidsa Pothia Dist Kishanganj 26 Pothia Kalidas  855117,EDUCATION SERVICES,20,851,7,10-14
1399,DR MHENDARA SHIG,Gorukhal Pothia Dist Kishanganj 6 Pothia Gorukhal  733207,TEA GARDEN with suppot activites,1,16,2,10-14
1400,MADARSA MADNI BAITULULOON,Mahadevdighi Bhadurganj Dist Kishanganj Bahadurganj Mahadeo Dighi  855101,EDUCATION SERVICES,20,852,2,15-19
1401,JSMITULHAMID FAZUTOOM IDGHA,Bisanpur Road Bhadurganj Dist Kishanganj Bahadurganj Mahadeo Dighi  855101,EDUCATION SERVICES,20,852,2,10-14
1402,DR HAMIDA RAHMANI MEMORIAL,Medical Centre Bisanpur Bhadurganj Dist Kishanganj Bahadurganj Mahadeo Dighi  855101,HOSPITAL MENTEL,21,861,2,20-24
1403,BHARTIYE JIWAN BIMA,De Markit Kishanganj Dist Kishanganj Kishanganj Kishanganj  Nagar Parishad  855107,INSURANCE,16,651,4,15-19
1404,DENA BANK GANDHI CHOCK KISHANGANJ,City Kishanganj Dist Kishanganj  Kishanganj Kishanganj  Nagar Parishad   855107,FINANCE,16,641,2,10-14
1405,HAMARA PUMP IDGHA MOHRA,Grgaw Kochadhaman Dist Kishanganj 11 Kochadhamin Gurgaon 855115,PETROL AND DISEL PAMP,12,473,2,10-14
1406,DAKSHATA FUEL CENTER,Kathamara Kochodhaman Dist Kishanganj 22 Kochadhamin Katamata 855115,PETROL AND DISEL PUMP,12,473,2,10-14
1407,MDARSA TAKIA,Kathamara Kochadhaman Dist Kishanganj 42 Kochadhamin Katamata 855115,EDUCATION SERVICES,20,851,7,10-14
1408,ASFI FUEL CENTER,Kathamara Kochadhaman Dist Kishanganj 17 Kochadhamin Katamata 855115,PETROL AND DISEL PUMP,12,473,2,10-14
1409,AZMAT COLLEGE OF ENGINERING,Tengarmari Kishanganj Dist Kishanganj 76 Kishanganj Motihara Taluka  855107,WORK OF EDUCATION SERVICES,20,853,9,25-29
1410,HAWAL GANGA PASU ROAD,Pasu Road Kishanganj Dist Kishanganj Kishanganj Motihara Taluka  855107,COW MILK PRODUCTION,2,14,2,10-14
1411,SEABIRD PAKAZING  P  LIMITED,547 G T Road South Forth Floor Dist Kishanganj 2 Kishanganj Simalbari 711107,PRODUCTION OF CARTOON BOX,6,170,4,20-24
1412,PALAI WUD FAICTREE SIMALBRI,Bahadurganj Road Kishanganj Dist Kishanganj  Kishanganj Simalbari  855107,PALAI WUD NIRMAN,6,162,2,30-99
1413,SAREST COLD STOR PARAIWED LIMITED,Simalbari Bahadurganj Road Dist Kishanganj 402 Kishanganj Simalbari  855107,CONSERVATION OF VEGETABLALES AND FRUITS,13,521,4,10-14
1414,MD SRPHAY,Simalbari Dist Kishanganj 26 Kishanganj Simalbari 855107,WOODS AARA MIL,6,161,2,10-14
1415,MDARSA NURUL,Simalbari Dist Kishanganj 24 Kishanganj Simalbari 855017,EDUCATION SERVICES,20,851,2,10-14
1416,MDARSA ISLAMIYA,Simalbari Kishanganj Dist Kishanganj 20 Kishanganj Simalbari 855107,EDUCATION SERVICES,20,851,2,10-14
1417,MDARSA JAMIYA,Talukamotihara Kishanganj Dist Kishanganj 29 Kishanganj Motihara Taluka  855107,EDUCATION SERVICES,20,851,2,10-14
1418,MDARSA DARUL,Motihara Taluka Kishanganj Dist Kishanganj 57 Kishanganj Motihara Taluka  855107,EDUCATION SERVICES,20,852,2,10-14
1419,MD HUSEN,Tengarmari Kishanganj Dist Kishanganj 42 Kishanganj Tengramari 855107,WOODS AARA MIL,6,161,2,10-14
1420,MDARSA JAMIYA,Tengarmari Kishanganj Dist Kishanganj 52 Kishanganj Tengramari 855107,EDUCATION SERVICES,20,852,2,10-14
1421,DANGA FORM,Teusa Kishanganj Dist Kishanganj  Kishanganj Dheksara  855107,TEA GARDEN with suppot activites,1,16,2,15-19
1422,MDARSA ISLAMIYA,Deksara Kishanganj Dist Kishanganj Kishanganj Dheksara 855107,EDUCATION SERVICES,20,852,2,10-14
1423,H D F C BANK,De Markit Kishanganj Dist Kishanganj Kishanganj Kishanganj  Nagar Parishad  855107,FINANCE,16,641,4,10-14
1424,ALLAHABAD BANK,Gandhi Chock Kishanganj Dist Kishanganj  Kishanganj Kishanganj  Nagar Parishad   855107,FINANCE,16,641,4,10-14
1425,INDIAN BANK,Gandhi Chock Kishanganj Dist Kishanganj  Kishanganj Kishanganj  Nagar Parishad   855107,FINANCE,16,641,4,10-14
1426,IDRA CINEMA HALL,Dharamganj Dist Kishanganj  Kishanganj Kishanganj  Nagar Parishad   855107,MOTION PICTURE,15,591,2,15-19
1427,METRO CINEMA HALL,De Market Dist Kishanganj  Kishanganj Kishanganj  Nagar Parishad   855107,MOTION PICTURE,15,591,2,20-24
1428,SHARA INDIA LIMITED,De Market Dist Kishanganj  Kishanganj Kishanganj  Nagar Parishad   855107,FINANCE,16,641,4,15-19
1429,STATE BANK OF INDIA,Gandhi Chock Kishanganj Dist Kishanganj  Kishanganj Kishanganj  Nagar Parishad   855107,FINANCE,16,641,4,15-19
1430,SRI BRICKS BAHADURGAN J,Parkhand Bahadurganj Dist Kishanganj Bahadurganj Bahadurganj  Np  855101,MSKING OF BRICKS,6,239,2,10-14
1431,KANHHIYA GONI,Parkhand Bahadurganj Dist Kishanganj 282 Bahadurganj Bahadurganj  Np  855101,MOTAR SAEKAL AND TARACK KI BIKRETA,10,451,2,10-14
1432,S B I THAKURGANJ,Thakurganj Dist Kishanganj  Thakurganj Thakurganj  Np   855116,FINANCE   INSURANCE SERVICES,16,641,1,10-14
1433,S B I THAKURGANJ,Thakurganj Dist Kishanganj  Thakurganj Thakurganj  Np   855116,FINANCE,16,641,1,10-14
1434,U B G BANK,Thakurganj Dist Kishanganj  Thakurganj Thakurganj  Np   855116,FIANANCE,16,641,1,10-14
1435,BANK OF BRODA THAKURGANJ,Parkhand Thakurganj Dist Kishanganj Thakurganj Thakurganj  Np   855116,FINANCE,16,641,1,10-14
