S.No.,Name of the Establishment,Address,Major Activity Description,Broad Activity Code,NIC,Owners hip Code,"Employ ment Class
Interval"
8490,RAJKIYA KANYA MADHY VIDHALAY,Kochas Rohtas 64 Kochas Kochas  821112,EDUCATION SERVICES CENTER,20,851,1,10-14
8491,KANYA UCHCHVIDHALAY,Kochas Rohtas 0 65 Kochas Kochas  821112,EDUCATION SERVICES CENTER,20,852,1,10-14
8492,PANDIT TARKESHWAR BRIJNANDAN,Sanaskrit Mahavidhalay  Kochas Rohtas 15 2  Kochas Kochas  821112,HIGHER EDUCATION CENTER,20,853,1,10-14
8493,KOCHAS UCHCH VIDHALAY,Kochas Rohtas 47 Kochas Kochas Buxar Road 821112,EDUCATION SERVICES CENTER,20,853,1,10-14
8494,MILK PRODUCTION CENTER,Hatempur Kochas Rohtas 0  Kochas Hetampur  821112,MILK PRODUCTION CENTER,2,14,1,20-24
8495,DAV PUBLIC SCHOOL,Hatempur Kochas Rohtas 0  Kochas Hetampur  821112,EDUCATION SERVICES CENTER,20,852,3,20-24
8496,RAJKIYA MIDDLE SCHOOL,Balthari Kochas Rohtas 0 6 Kochas Balthari 821112,EDUCATION SERVICES CENTER,20,851,1,10-14
8497,SANSKRIT UCHCH VIDHALAY,Balthari Kochas Rohtas 0 7 Kochas Balthari 821107,EDUCATION SERVICES CENTER,20,852,1,10-14
8498,GANGA PASWAN HARIJAN UCHCH,Vidhalay Kochas Rohtas 40 Kochas Kochas 821112,EDUCATION SERVICES CENTER,20,852,1,10-14
8499,MAHATMA GANDHI MEMORIAL COLLEGE,Kochas Rohtas 0 5 Kochas Kochas  821112,HIGHER EDUCATION CENTER,20,853,1,30-99
8500,STATE BANK OF INDIA,Kochas Rohtas  143 Kochas Kochas  821112,BANKING CENTER,16,641,1,10-14
8501,PUNJAB NATIONAL BANK,Kochas Rohtas 158 Kochas Kochas  821112,BANKING CENTER,16,641,1,10-14
8502,B N INTER COLLEGE  INDOUR,Kochas Rohtas 0 47 Kochas Andaur  802213,EDUCATION SERVICES CENTER,20,853,1,30-99
8503,B  N COLLLEGE INDOUR,Kochas Rohtas 0 48 Kochas Andaur  802213,HIGHER EDUCATION SERVICES CENTER,20,853,1,100-199
8504,LAKHMEE JEE RICE MILL  CHITAWAN,Chitawan Kochas Rohtas 0 224 Kochas Chitawan  802213,MANUFACTURING RICE,6,106,1,30-99
8505,SHIVPUJAN SHASTRI UCHCH VIDHALAY,Narwar Bhagirath Kochas Rohtas  Kochas Bhagiratha  821112,EDUCATION SERVICES CENTER,20,852,1,10-14
8506,GOVERNMENTAL MIDDLE SCHOOL,Narwar Bhagirath Kochas Rohtas 38 Kochas Bhagiratha 821112,EDUCATION SERVICES CENTER,20,851,1,15-19
8507,CHAUDHARY CHARAN SINGH,Mahavidhalay  Bhagirath Kochas Rohtas 41 Kochas Bhagiratha  821112,EDUCATION SERVICES CENTER,20,853,1,30-99
8508,YOSHADAJEE RICE MILL,Usrawan Kochas Rohtas 0 39 Kochas Usrawan  821112,MANUFACTURING RICE,6,106,2,30-99
8509,BADRINARAYANJEE MODERN RICE MILL,Usrawan Kochas Rohtas 0 40 Kochas Usrawan  821112,MANUFACTURING RICE,6,106,2,30-99
8510,MIDDLE SCHOOL SARAIYA,Kochas Rohtas 0 15 Kochas Sareya  821112,EDUCATION SERVICES CENTER,20,852,1,10-14
8511,MIDDLE SCHOOL  REDIYA,Kochas Rohtas 0 4 1  Kochas Reniya  821112,EDUCATION SERVICES CENTER,20,852,1,10-14
8512,VINDESHWARI SINGH THIYETAR,Deluha Kochas Rohtas 0 72 Kochas Delhua 821112,ENTERTAINMENT,22,900,1,15-19
8513,MERSHASH KISAN INDUSTRIES,Bihar Dihra Kochas Rohtas 30 Kochas Bihar Dihra  821112,WHOLE SELLER,11,463,2,30-99
8514,R M DEVI CO RAI COLLEGE  NEON,Bihar Dihra Kochas Rohtas 32 Kochas Bihar Dihra  821112,EDUCATION SERVICES CENTER,20,853,1,100-199
8515,MIDDLE SCHOOL   RAJPUR,Dinara Rohtas 0 35 Dinara Rajpur  802213,EDUCATION SERVICES CENTER,20,851,1,15-19
8516,MIDDLE SCHOOL   BANSHDIHA,Dinara Rohtas 0 120 Dinara Basdiha  802213,EDUCATION SERVICES CENTER,20,851,1,10-14
8517,BALIKA UCHCH VIDHALAY GORASARA,Dinara Rohtas 0 1 Dinara Gorsara  802216,EDUCATION SERVICES CENTER,20,852,1,15-19
8518,SARVODYA HIGH SCHOOL  GADASARA,Dinara Rohtas 0 36 Dinara Gorsara  802218,EDUCATION SERVICES CENTER,20,852,1,15-19
8519,SARVODYA MAHAVIDHALAY GADSARA,Dinara Rohtas 0 65 1  Dinara Gorsara  802118,HIGHER EDUCATION CENTER,20,853,1,200-499
8520,HARIHAR SINGH,Rice Mill  Panditpur Dinara Rohtas 24 Dinara Panditpura 802213,RICE MANUFCTURING CENTER,6,106,2,20-24
8521,HIGH SCHOOL  BHANAS,Dinara Rohtas 0 1 Dinara Bhanas  802213,EDUCATION SERVICES CENTER,20,852,1,10-14
8522,BLOCK OFFICE,Dinara Rohtas 0 67 Dinara Dinara  802213,OFFICE ADMINISTRATION,19,821,1,30-99
8523,GOPIRATH KANYA UCHCH VIDHALAY,Tendua Dinara Rohtas 27 Dinara Tanuaj 802218,EDUCATION SERVICES CENTER,20,852,1,15-19
8524,NATWAR THANA,Rohtas 0 85 2  Dinara Tanuaj  802218,ADIMITRATION CENTER,19,802,1,15-19
8525,GIRLS HIGH SCHOOL  DINARA,Rohtas 0 32 Dinara Dinara  802213,EDUCATION SERVICES CENTER,20,852,1,10-14
8526,MIDDLE SCHOOL  GUNSEJ,Dinara Rohtas 0 2 Dinara Gunsej  802211,EDUCATION SERVICES CENTER,20,851,1,10-14
8527,PRAKHAND HEALTH CENTER  DINARA,Rohtas 0 186 Dinara Dinara  802213,EDUCATION SERVICES CENTER,21,861,1,30-99
8528,MODEL THANA,Dinara Rohtas 0 16 1  Dinara Dinara  802213,THANA,19,802,1,30-99
8529,MNREGA OFFICE,Dinara Rohtas 0 10 Dinara Dinara  802213,OFFICE ADMINISTRATION,19,821,1,25-29
8530,KASTURBA GANDHI SCHOOL,Dinara Rohtas 0 15 Dinara Dinara  802213,EDUCATION SERVICES CENTER,20,852,1,10-14
8531,BANDEV UCHCH VIDHALAY,Dinara Rohtas 0 7 Dinara Dinara  802213,EDUCATION SERVICES CENTER,20,852,1,20-24
8532,ALLAHABAD BANK,Kochas Rohtas   Dinara Dinara  802213,BANKING CENTER,16,641,1,10-14
8533,UKSHNI HIGH SCHOOL BHALUNI DHAM,Dinara Rohtas 0  Dinara Bhaluni  802218,EDUCATION SERVICES CENTER,20,852,1,10-14
8534,MIDDLE SCHOOL   BHALUNI DHAM,Dinara Rohtas 0  Dinara Bhaluni  802218,EDUCATION SERVICES CENTER,20,851,1,10-14
8535,MIDDLE SCHOOL KANIYARI,Dinara Rohtas 0 37 Dinara Kaniyari  802213,EDUCATION SERVICES CENTER,20,851,1,10-14
8536,PRIMARY SCHOOL BASUDEV DEHRI,Dinara Rohtas 0 75 Dinara Basedeo Dehri 802213,EDUCATION SERVICES CENTER,20,851,1,10-14
8537,MIDDLE SCHOOL  KUND,Dinara Rohtas 0 102 Dinara Kunr  802213,EDUCATION SERVICES CENTER,20,851,1,15-19
8538,RAJKIYA MIDDLE SCHOOL   JIGNA,Dinara Rohtas 0 31 Dinara Gigna  802213,EDUCATION SERVICES CENTER,20,851,1,10-14
8539,BAJRANG MINI RICE MILL,Bariyarpur Dinara Rohtas 4 Dinara Bariyarpur  802213,MANUFACTURING RICE,6,106,2,10-14
8540,MIDDLE SCHOOL BHADSARA,Dinara Rohtas 0 76 Dinara Bharsara  802218,EDUCATION SERVICES CENTER,20,852,1,10-14
8541,URDU VIDHALAY,Rohtas 0 37 Dinara Dinara  802218,EDUCATION SERVICES CENTER,20,851,1,10-14
8542,MIDDLE SCHOOL DINARA,Rohtas 0 93 Dinara Dinara  802213,EDUCATION SERVICES CENTER,20,851,1,15-19
8543,AMBIKAJEE MODERN RICE MILL,Tanuj Dinara Rohtas 0 24 6  Dinara Tanuaj 802218,MANUFACTURING RICE,6,106,2,15-19
8544,MAA VIDHYAWAINIJEE RICE MILL,Khairhi Dawath Rohtas Dawath Khairahi  802216,MANUFACTURING RICE,6,106,2,30-99
8545,RAJKIY MADHY VIDHALAY,Babhnaul Dawath Rohtas 0  Dawath Babhanaul  802211,EDUCATION SERVICES CENTER,20,851,1,10-14
8546,VINAY KUMAR JAISWAL,Abakari Shop Chornati Dawath Rohtas  Dawath Choranti  802211,SELLING DESHI WINE,12,472,2,10-14
8547,RAMRUP SAH  WHOLE SELLER,Bodarhi Dawath Rohtas 0  Dawath Bodarhi 802216,WHOLE SELLER,11,464,2,10-14
8548,FATHER KURIAN,Dolaich Dawath Rohtas 0 134 Dawath Dolaicha 802216,EDUCATION SERVICES CENTER,20,854,1,20-24
8549,RAJKIYA MADHY VIDHALAY,Ramnagar Dawath Rohtas 0 48 Dawath Ramnagar  802216,EDUCATION SERVICES CENTER,20,852,1,10-14
8550,HP GAS AGENCIE,Kowath Rohtas 0 55 Dawath Koath  Np  802216,GAS DISTRIBUTOR,12,473,2,15-19
8551,SAHARA INDIA BANK KOWATH,Rohtas  5 8  Dawath Koath  Np   802216,BANKING,16,643,2,20-24
8552,GAURISHANKAR SAH  ORNAMENT SELLER,Kowath Rohtas 0 14 1  Dawath Koath  Np  802216,ORNAMENT SELLER,11,466,2,10-14
8553,DIAMOND PUBLIC SCHOOL,Koath Rohtas 46 2  Dawath Koath  Np  802216,EDUCATION SERVICES CENTER,20,852,2,10-14
8554,GOVERNMENTAL MIDDLE SCHOOL,Balihar Suryapura Rohtas 55 Suryapura Balihar  802221,EDUCATION SERVICES CENTER,20,851,1,10-14
8555,KASTURBA GANDHI BALIKA VIDHALAY,Suryapura Rohtas 0 139 Suryapura Surajpura 802221,EDUCATION SERVICES CENTER,20,854,1,10-14
8556,PRIMARY HEALTH CENTER,Suryapura Rohtas 0 78 Suryapura Surajpura 802221,HEALTH CENTER,21,861,1,25-29
8557,MIDDLE SCHOOL   SURYAPURA,Rohtas 0 73 Suryapura Surajpura  802221,EDUCATION SERVICES CENTER,20,852,1,10-14
8558,RAJ RAJBANSHI HIGH SCHOOL,Suryapura Rohtas 74 Suryapura Surajpura 802221,EDUCATION SERVICES CENTER,20,853,1,10-14
8559,MIDDLE SCHOOL BALAN MILKI,Suryapura Rohtas 0 56 Suryapura Barun 802221,EDUCATION SERVICES CENTER,20,852,1,15-19
8560,MIDDLE SCHOOL BHADKUDIYA KALA,Suryapura Rohtas 0 1 Suryapura Bhur Kunriya Kalan  802221,EDUCATION SERVICES CENTER,20,852,1,10-14
8561,MIDDLE SCHOOL   RAMPUR,Suryapura Rohtas 0 1 Suryapura Rampur 802221,EDUCATION SERVICES CENTER,20,852,1,10-14
8562,MIDDLE SCHOOL SHIVBAHAR,Suryapura Rohtas 0 1 Suryapura Shiwa Bahar 802221,EDUCATION SERVICES CENTER,20,852,1,10-14
8563,MIDDLE SCHOOL KALAYANI,Suryapura Rohtas 0 42 Suryapura Kailani 802221,EDUCATION SERVICES CENTER,20,852,1,10-14
8564,HIRDYA FUEL SERVICE,Kalyani Suryapura Rohtas 0 82 Suryapura Kailani  802221,PETROL DISTRIBUTOR,12,473,4,10-14
8565,PRIMARY MIDDLE SCHOOL   GOTHANI,Suryapura Rohtas 0 1 Suryapura Gothani 802221,EDUCATION SERVICES CENTER,20,852,1,10-14
8566,GOVERNMENTAL MIDDLE SCHOOL,Gosal Dih Suryapura Rohtas 0 3 Suryapura Gosal Dih  802221,EDUCATION SERVICES CENTER,20,852,1,10-14
8567,HIGH SCHOOL   JAGODIH,Suryapura Rohtas 0 23 Suryapura Chaurasi 802221,EDUCATION SERVICES CENTER,20,853,1,10-14
8568,MIDDLE SCHOOL   KADAI,Suryapura Rohtas 0 5 Suryapura Kawai 802221,EDUCATION SERVICES CENTER,20,852,1,10-14
8569,MIDDLE SCHOOL,Imirta Suryapura Rohtas 0 30 Suryapura Imirta 802221,EDUCATION SERVICES CENTER,20,852,1,10-14
8570,PRABHAKAR SINGH CHIMENY BHATTA,Barna Bikramganj Rohtas 0 17 Bikramganj Barna  802213,MANUFACTURING BRICKS,6,239,2,30-99
8571,ADRASH RICE MILL KHAIRABHUDHAR,Natwar Rohtas 1 Bikramganj Khaira 802218,RICE MANUFACTURRING,6,106,2,30-99
8572,ADRASH CHAWAL MILL  KHAIRABHUDHAR,Natwar Rohtas 100 Bikramganj Khaira 802218,RICE MANUFACTURING,6,106,2,25-29
8573,HIGH SCHOOL  KASTAR,Bikramganj Rohtas 0 87 Bikramganj Kastar 802218,EDUCATION SERVICES CENTER,20,853,1,20-24
8574,MIDDLE SCHOOL GODPA,Bikramganj Rohtas 0 Bikramganj Gotpa 802213,EDUCATION SERVICES CENTER,20,852,1,10-14
8575,RAM AWADESH MISHRA,Pds Shop Maurana Bikramganj Rohtas 30 Bikramganj Morauna 802218,PDS SHOP,12,478,2,10-14
8576,PRIMARY HEALTH CENTER,Bikramganj 0 104 3 4  Bikramganj Bikramganj  Np   802212,HEALTH CENTER,21,861,1,30-99
8577,ANJBIT SINGH COLLEGE,Bikramaganj 0 24 Bikramganj Bikramganj  Np  College Road 802212,EDUCATION SERVICES CENTER,20,853,1,30-99
8578,STATE BANK OF INDIA,Bikramganj Branch  16 Bikramganj Bikramganj  Np  Sbi Lane 802212,BANKINGFACILITY,16,641,1,15-19
8579,RITA MEMORIAL HOSPITAL,Bikramganj 0 70 1  Bikramganj Bikramganj  Np   802212,HEALTH FACILITY,21,861,2,10-14
8580,D A V SCHOOL  BIKRAMGANJ,Rohtas 0 41 Bikramganj Bikramganj  Np  Ara Road 802212,EDUCATION SERVICES CENTER,20,852,2,30-99
8581,PRATIBHA PALLAWAN SCHOOL  BIKRAMGAN,J Rohtas 0 23 1  Bikramganj Bikramganj  Np  Vip Colony 802212,EDUCATION SERVICES CENTER,20,852,2,20-24
8582,SARSWATI SHISHU MANDIR  BIKRAMGANJ,Rohtas 0 23 2  Bikramganj Bikramganj  Np  Vip Colony 802212,EDUCATION SERVICES CENTER,20,851,2,10-14
8583,DR NAGENDRA JHA MAHILA COLLEGE,Bikrmaganj Rohtas 0 26 Bikramganj Bikramganj  Np  Vip  Colony 802212,EDUCATION SERVICES CENTER,20,853,2,30-99
8584,D K DOLPHINE SCHOOL,Bikramganj Rohtas 0 100 Bikramganj Bikramganj  Np  Dehri Road 802212,EDUCATION SERVICES CENTER,20,851,2,10-14
8585,WISE KIDS PRE SCHOOL BIKRMAGANJ,Rohtas 0 31 Bikramganj Bikramganj  Np  Teacher Colony 802212,EDUCATION SERVICES CENTER,20,851,2,10-14
8586,KRISHAN SUDARSHAN PUBLIC SCHOOL,Bikrmaganj Rohtas 0 20 2  Bikramganj Bikramganj  Np  Mahuli 802213,EDUCATION SERVICES CENTER,20,852,2,30-99
8587,RAJBAHADUR VEER KUNWAR SINGH,College Dharupur Bikramganj Rohtas 32 Bikramganj Bikramganj  Np   802212,EDUCATION SERVICES CENTER,20,853,1,30-99
8588,SHIVNATH SINGH KHAD DUKAN,Bikramganj Rohtas 0 11 1  Bikramganj Bikramganj  Np   802212,WHOLE SELLER,11,466,2,15-19
8589,HIGH SCHOOL   TENDUNI,Bikramganj Rohtas 0 34 Bikramganj Bikramganj  Np   802212,TEACCHING CENTER,20,853,1,10-14
8590,GOVERMENTAL MIDDLE SCHOOL,Bensagar Karakat Rohtas 0 46 Karakat Bensagar Ward No   5 802220,EDUCATION SERVICES CENTER,20,851,1,10-14
8591,HIGH SCHOOL SANJHAULI MATH,Karakat Rohtas 0 100 Karakat Bharat Kasba 802220,EDUCATION SERVICES CENTER,20,853,1,20-24
8592,GOVERNMENT HOSPITAL,Gorari Rohtas 0 7 Karakat Dahiari  802220,HEALTH FACILITIES,21,861,1,15-19
8593,ANNPURNA RICE MILL,Amiawar Nasriganj Rohtas 0  Nasriganj Amiawar  821310,MANUFACTURING RICE,6,106,2,30-99
8594,HIGH SCHOOL,Turkaulia Nasriganj Rohtas 0 162 Nasriganj Turkaulia  821310,EDUCATION SERVICES CENTER,20,853,1,15-19
8595,HIGH SCHOOL  PIPRADIH,Nasriganj Rohtas 0 1 1  Nasriganj Pipardih 821310,EDUCATION SERVICES CENTER,20,853,1,10-14
8596,PRIMARY SCHOOL  DEHRI,Nasriganj Rohtas 0 49 1  Nasriganj Dehri 821310,EDUCATION SERVICES CENTER,20,851,1,10-14
8597,MADRSA   DHANAW,Nasriganj Rohtas 0 113 Nasriganj Dhanawan English  821310,RELIGIOUS CENTER,23,949,7,10-14
8598,HIGH SCHOOL  ITIMAH,Nasriganj Rohtas 0 1 Nasriganj Itamha 821310,EDUCATION SERVICES CENTER,20,853,1,10-14
8599,PUNJAB NATIONAL BANK ITIMAH,Nasriganj Rohtas Nasriganj Itamha 821310,BANKING CENTER,16,643,1,10-14
8600,HIGH SCHOOL BARDIHA,Nasriganj Rohtas 0 Nasriganj Bardiha 821310,EDUCATION SERVICES CENTER,20,853,1,10-14
8601,MIDDLE SCHOOL KHIRIAW,Nasriganj Rohtas 0 106 Nasriganj Khiriawan 821310,EDUCATION SERVICES CENTER,20,852,1,15-19
8602,GOVERMENTAL MIDDLE  SCHOOL,Mahadewa Nasriganj Rohtas 0 4 Nasriganj Mahadewa  821310,EDUCATION SERVICES CENTER,20,852,1,10-14
8603,MIDDLE SCHOOL SOHAGI,Nasriganj Rohtas 0 39 Nasriganj Sahgi  821310,EDUCATION SERVICES CENTER,20,852,1,10-14
8604,GOVERNMENTAL MIDDLE SCHOOL,Panduri Nasriganj Rohtas 6 Nasriganj Panruri  821310,EDUCATION SERVICES CENTER,20,852,1,10-14
8605,MIDDLE SCHOOL,Itimah Nasriganj Rohtas 0 2 Nasriganj Itamha 821310,TECHING CENTER,20,852,1,10-14
8606,GIRLS HIGH SCHOOL,Mednipur Nasriganj Rohtas 0 8 Nasriganj Mednipur  821310,EDUCATION SERVICES CENTER,20,853,7,10-14
8607,MAHILA MAHAVIDHALAY,Mednipur Nasriganj Rohtas 0 9 Nasriganj Mednipur  821310,HIGHER EDUCATION SERVICES CENTER,20,853,7,100-199
8608,HIGH SCHOOL NASRIGANJ,Nasriganj Rohtas 0 Nasriganj Nasriganj  Np  821310,EDUCATION SERVICES CENTER,20,852,1,10-14
8609,SARSWATI SHISHU MANDIR,Nasriganj Rohtas 0 39 Nasriganj Nasriganj  Np  821310,EDUCATION SERVICES CENTER,20,852,2,15-19
8610,RAJKIYA KANYA MADHYA VIDHALAY,Hariharganj  Nasriganj Rohtas 27 Nasriganj Nasriganj  Np   821310,EDUCATION SERVICES CENTER,20,851,1,10-14
8611,KAMBAL BUNKAR SANSTHAN,Nasriganj Rohtas 0 1 Nasriganj Nasriganj  Np  821310,MANUFACTURING BLANKET,6,142,6,30-99
8612,GANDHI KAMBAL INDUSTRY,Nasriganj Rohtas 0 22 Nasriganj Nasriganj  Np  821310,MANUFACTURING BLANKET,6,142,2,15-19
8613,POWER HOUSE,Nasriganj Rohtas 0 19 Nasriganj Nasriganj  Np  821310,ELECTRIC SUPPLY,7,351,1,25-29
8614,CENTRAL BANK OF INDIA,Nasriganj Rohtas 119 1  Nasriganj Nasriganj  Np   821310,BANKING SYSTEM,16,643,1,10-14
8615,PRIMARY HEALTH CENTER,Primary Health Center 0 Nasriganj Nasriganj  Np  821310,HEALTH FACILITIES,21,861,1,30-99
8616,STATE BANK OF INDIA,Nasriganj Rohtas  86 1  Nasriganj Nasriganj  Np  821310,BANKING FACILITIES,16,643,1,10-14
8617,GUDDU BAKSA SHOP,Nasriganj Rohtas 0 20 Nasriganj Nasriganj  Np  821310,MANUFACTURING BOX,6,259,2,10-14
8618,SWAMI VIVEKANAND PUBLIC SCHOOL,Rajpur Rohtas 0  Rajpur Rajpur  802219,EDUCATION SERVICES CENTER,20,852,2,10-14
8619,RESIDENTIAL AMBEDKAR SCHOOL ,Rajpur  Rohtas 0 Rajpur Rajpur  802219,RESIDENTIAL SCHOOL,20,855,2,20-24
8620,SHONDIK HIGH SCHOOL,Rajpur   Rohtas 0 Rajpur Rajpur  802219,EDUCATION SERVICES CENTER,20,852,1,15-19
8621,SHRI KUBER RICE MILL,Rohtas 0 65 Sanjhauli Sajhauli Station Road Sanjhauli 802220,MANUFACTURING RICE,6,106,3,25-29
8622,RICE PLANT,Sanjhauli Rohtas 0 67 2  Sanjhauli Sajhauli 802220,MANUFCTURING RICE,6,106,3,15-19
8623,HANUMAN BHANDAR MODERN MINI RICE,Mill Sanjhaulee Rohtas 29 1  Sanjhauli Sajhauli Main Road Sanjhauli 802220,MANUFACTURING RICE,6,106,2,15-19
8624,BALIKA UCHCH VIDHALAY,Sanjhauli Rohtas 0 14 Sanjhauli Sajhauli Sanjhauli 802220,EDUCATION SERVICES CENTER,20,852,1,10-14
8625,KALI MANDIR  BARAULI,Sanjhauli Rohtas 0 12 Sanjhauli Barauli 821210,RELIGION CENTER,23,949,7,15-19
8626,SATYENDRA SINGH  MILK PRODUCTION,Barauli Sanjhauli Rohtas 0 13 Sanjhauli Barauli 821210,MILK PRODUCTION,2,14,2,10-14
8627,SHYAMLAL SINGH   MILK PRODUCTION,Barauli Sanjhauli Rohtas 0 40 Sanjhauli Barauli 802220,MILK PRODUCTION,2,14,2,10-14
8628,VISHESHWAR SINGH  MILK PRODUCTION,Barauli Sanjhauli   Rohtas 0 41 Sanjhauli Barauli  802220,MILK PRODUCTION,2,14,2,10-14
8629,RAMDEV SINGH,Milk Production Center Barauli Sanjhauli Rohtas 3 Sanjhauli Sikati 802220,MILK PRODUCTION,2,14,2,10-14
8630,PARASNATH SINGH,Sikati Sanjhauli Rohtas 0 15 2  Sanjhauli Sikati 802220,TRANSPORT WORK,13,492,2,10-14
8631,KALI MANDIR,Sanjhauli Rohtas 0 Sanjhauli Sikati  802220,RELIGION CENTER,23,949,7,30-99
8632,ANSHU SINGH  CARPENTER WORK,Sikati Sanjhauli Rohtas 0 51 Sanjhauli Sikati 802220,CARPENTER CENTER,6,310,2,10-14
8633,KALI MANDIR,Dokra Sanjhauli Rohtas 0 6 Sanjhauli Sikati 802220,RELIGION CENTER,23,949,7,15-19
8634,PRIMARY SCHOOL,Dhokra Sanjhauli Rohtas 0 7 Sanjhauli Sikati  802220,EDUCATION SERVICES CENTER,20,851,1,15-19
8635,BASHISHTH MISHRA  CLOTH SELLER,Dhokra Sanjhauli Rohtas 0  Sanjhauli Sikati  802220,CLOTH SELLER,12,478,2,25-29
8636,HIRANANDAN MISHRA,Dhokra Sanjhauli Rohtas 0 27 3  Sanjhauli Sikati  802220,CARPENTER CENTER,6,310,2,10-14
8637,MAHAVIR MANDIR,Dhokra Sanjhauli Rohtas 0  Sanjhauli Sikati  802220,RELIGION CENTER,23,949,7,10-14
8638,MANOJ KUMAR  FISH PRODUCTION,Udaipur Sanjhauli Rohtas 0 42 Sanjhauli Barauli  802220,FISH PRODUCTION,4,32,2,10-14
8639,GAURISHANKAR SINGH  DEYREE PHARM,Udaipur Sanjhauli Rohtas 0 58 Sanjhauli Barauli  802220,MILK PRODUCTION,2,14,2,10-14
8640,GYAN JYOTI ACADEMY PUBLIC SCHOOL,Sanjhauli Rohtas 0 46 Sanjhauli Sajhauli 802220,EDUCATION SERVICES CENTER,20,853,3,20-24
8641,GRAMIN BANK SANJHAULI,Rohtas  20 20  Sanjhauli Sajhauli 802220,BANKING CENTER,16,643,1,10-14
8642,PRAKHAND SANSADHAN KENDRA,Sanjhauli Rohtas 0 Sanjhauli Sajhauli 802220,MANAGEMENT CENTER,18,702,1,10-14
8643,POST OFFICE,Sanjhauli Rohtas Sanjhauli Sajhauli 802220,POST OFFICE,13,531,1,10-14
8644,PRIMARY HEALTH CENTER,Sanjhauli Rohtas 0 77 1  Sanjhauli Sajhauli 802220,HEALTH FACILITY,21,861,2,10-14
8645,GOVERNMENTAL HIGH SCHOOL,Sanjhauli Rohtas 0 78 Sanjhauli Sajhauli 802220,EDUCATION SERVICES CENTER,20,853,1,10-14
8646,GOVERMENTAL MIDDLE SCHOOL,Sanjhauli  Rohtas 0 79 Sanjhauli Sajhauli 802220,EDUCATION SERVICES CENTER,20,851,1,10-14
8647,ROHTAS RICE MILL,Sanjhauli Rohtas 0 95 2  Sanjhauli Sajhauli 802220,RICE MANUFACTURING,6,106,2,20-24
8648,SHYAMJEE RICE MILL,Sanjhauli Rohtas 0 98 2  Sanjhauli Sajhauli 802220,RICE MANUFACTURING,6,106,2,15-19
8649,SHIV MANDIR,Dhokra Sanjhauli Rohtas 0 8 Sanjhauli Dhokra  802220,WORSHIP PLACE,23,949,7,10-14
8650,MANOJ KUMAR,Fish Production Center Sanjhauli Rohtas 42 Sanjhauli Barauli 802220,FISH PRODUCTION,4,32,2,10-14
8651,TAGORE ACADEMY,Sisirit Nokha Rohtas 0 62 Nokha Rampur Gazi 802215,EDUCATION SERVICES CENTER,20,852,2,20-24
8652,SHRI ANUGAHA NARAYAN HIGH SCHOOL,Sisrit Nokha Rohtas Nokha Rampur Gazi 802215,EDUCATION SERVICES CENTER,20,852,1,10-14
8653,GOVERNMENT MIDDLE SCHOOL  JABRA,Nokha Rohtas 0  Nokha Jabra  802215,EDUCATION SERVICES CENTER,20,851,1,10-14
8654,RICE MILL  TILAI,Nokha Rohtas 0 88 Nokha Charnarh 802215,MANUFACTURING RICE,6,106,2,30-99
8655,RAJKIYA KRIT MIDDLE SCHOOL,Ropahatha Nokha Rohtas 101 Nokha Rupahtha  802215,EDUCATION SERVICES  CENTER,20,851,1,10-14
8656,MAHAYOGEE PILOT BABA MAHILA,Mahavidhalay Bishnpura Nokha Rohtas 171 Nokha Bishanpura 802215,HIGHER EDUCATION SERVICES CENTER,20,853,2,100-199
8657,UPGRADED MIDDLE SCHOOL VISHUNPURA,Bishanpura Nokha Rohtas 0 70 Nokha Bishanpura  802215,EDUCATION SERVICES CENTER,20,851,1,10-14
8658,GOVERNMENTAL MIDDLE SCHOOL HATHINI,Nokha Rohtas 0 7 Nokha Hathni  802215,EDUCATION SERVICES CENTER,20,851,1,10-14
8659,HIGH SCHOOL BARAWAN,Nokha Rohtas 0 38 Nokha Barawan  802215,EDUCATION SERVICES CENTER,20,852,1,15-19
8660,MARKANDEY PANDEY RICE MILL  BARAWAN,Nokha Rohtas 0  Nokha Barawan  802215,MANUFACTURING RICE,6,106,2,100-199
8661,BISENI KHURD HIGH SCHOOL,Biseni Nokha Rohtas 0 4 Nokha Biseni Khurd 802215,EDUCATION SERVICES CENTER,20,852,1,15-19
8662,MIDDLE SCHOOL KADWAN,Nokha Rohtas 0 82 Nokha Kadwa  802215,EDUCATION SERVICES CENTER,20,851,1,10-14
8663,HIGH SCHOOL  MEYARI BAZAR,Nokha Rohtas 0 161 Nokha Meyari  802215,EDUCATION SERVICES CENTER,20,852,1,10-14
8664,UTKRAMIT MIDDLE SCHOOL  MAUDIHA,Nokha Rohtas 0 11 Nokha Maudiha  802215,EDUCATION SERVICES CENTER,20,851,1,10-14
8665,BHAGAUTI JI RICE MILL   JAKHINI,Nokha Rohtas 0 33 Nokha Jakhani  802216,MANUFACTURING RICE,6,106,3,10-14
8666,PRIMARY SCHOOL  GOPALPUR,Nokha Rohtas 0  Nokha Gopalpur  802216,EDUCATION SERVICES CENTER,20,851,1,10-14
8667,MADHY VIDHALAY   GHOSIA,Nokha Rohtas 0 43 Nokha Ghusia  802215,EDUCATION SERVICES CENTER,20,851,1,10-14
8668,BIHAR STATE HYDROELECTRIC POWER,Corporation Rajpur Road 10 Nokha Sirkhinda  802215,POWER GENERATION,7,351,1,15-19
8669,MADHAY VIDHALY SHRIKHANDA,Nokha Rohtas 0  Nokha Sirkhinda  802215,EDUCATION SERVICES CENTER,20,851,1,20-24
8670,ADARSH MIDDLE SCHOOL  CHHATAUNA,Nokha Rohtas 0 122 Nokha Chhatauna 802215,TEACING CENTER,20,851,1,10-14
8671,UTKRAMIT MADHAY VIDHALYA  KARAN,Nokha Rohtas 0 02 Nokha Karan  802217,EDUCATION SERVICES CENTER,20,851,1,10-14
8672,GANDHI SAMARK HIGH SCHOOL,Panchpokhari Nokha Rohtas 81 2  Nokha Pach Pakhri  802217,EDUCATION SERVICES CENTER,20,852,1,10-14
8673,UPGRADED MIDDLE SCHOOL   MAJHIYAW,Nokha Rohtas 0 79 Nokha Majhiyawan 802217,EDUCATION SERVICES CENTER,20,851,1,10-14
8674,PRIMARY SCHOOL  BHAWPHOKHAR,Nokha Rohtas 0 21 Nokha Bhaon  802217,EDUCATION SERVICES CENTER,20,851,1,10-14
8675,MIDDLE SCHOOL  CHANAKI,Nokha Rohtas 0 72 Nokha Chanki  802217,TACHING CENTER,20,851,1,10-14
8676,UTKRAMIT MADHAY VIDHALY,Eghara Nokha Rohtas Nokha Eghara  802215,EDUCATION SERVICES CENTER,20,851,1,10-14
8677,MIDDLE SCHOOL  SHIVPUR,Nokha Rohtas 0 1 Nokha Shivpur  802215,EDUCATION SERVICES CENTER,20,852,1,10-14
8678,SHRI VINDESHWARI RICE MILL,Jakhani Nokha Rohtas 0 68 Nokha Jakhani 802216,RICE MANUFACTURING,6,106,2,20-24
8679,GOVERNMENTAL MIDDLE SCHOOL,Panchpakhari Nokha Rohtas 0 81 1  Nokha Pach Pakhri  802217,EDUCATION SERVICES CENTER,20,852,1,10-14
8680,MIDDLE SCHOOL BASTALWA,Kargahar Rohtas 0 93 Kargahar Bastalwa 821107,EDUCATION SERVICES CENTER,20,851,1,10-14
8681,HIGHER SECONDARY SCHOOL,Akhtiyarpur Kargahar Rohtas 4 Kargahar Akhtiarpur  821108,EDUCATION SERVICES CENTER,20,852,1,10-14
8682,MIDDLE SCHOOL PIPRA,Kargahar Rohtas 0 63 Kargahar Pipra  821107,EDUCATION SERVICES CENTER,20,851,1,15-19
8683,MIDDLE SCHOOL SAMARDIHA,Kargahar Rohtas 0 87 Kargahar Samdiha 821107,EDUCATION SERVICES CENTER,20,851,1,10-14
8684,SUBEDAR SINGH MAHAVIDHALAY,Kargahar Rohtas 1 Kargahar Kargahar 821107,EDUCATION SERVICES CENTER,20,853,1,30-99
8685,HIGH SCHOOL KARGAHAR,Rohtas 0 10 Kargahar Kargahar  821107,EDUCATION SERVICES CENTER,20,852,1,10-14
8686,RAJKIYA ADARSH MIDDLE SCHOOL,Kargahar Rohtas 74 Kargahar Kargahar 821107,EDUCATION SERVICES CENTER,20,851,1,10-14
8687,PROJECT BALIKA HIGH SCHOOL,Karghar Rohtas 70 Kargahar Kargahar 821107,EDUCATION SERVICES CENTER,20,852,1,15-19
8688,MIDDLE SCHOOL   SEMARI,Kargahar Rohtas 0 2 Kargahar Semri  821107,EDUCATION SERVICES CENTER,20,851,1,10-14
8689,PRIMARY SCHOOL SIRISIYA,Kargahar Rohtas 0 86 Kargahar Sirsia  821107,EDUCATION SERVICES CENTER,20,851,1,10-14
8690,HIGH SCHOOL DIBHIYAN,Kargahar Rohtas 0 1 Kargahar Anrudhpur 821107,EDUCATION SERVICES CENTER,20,852,1,10-14
8691,GOVERNMENTAL MIDDLE SCHOOL,Dibhiyan Kargahar Rohtas 7 Kargahar Dibhiya  821107,EDUCATION SERVICES CENTER,20,851,1,10-14
8692,MIDDLE SCHOOL RAMPUR,Kargahar Rohtas 0 62 Kargahar Rampur 802215,EDUCATION SERVICES CENTER,20,851,1,15-19
8693,MIDDLE SCHOOL,Siwan Kargahar Rohtas 0 112 Kargahar Siwan 821107,EDUCATION SERVICES CENTER,20,852,1,10-14
8694,GOAT PALAN,Balapur Kargahar Rohtas 0 42 2  Kargahar Balapur 821107,ANIMAL,2,14,2,10-14
8695,SIRJEE CHAND SAH  SWEET SHOP,Balapur Kargahar Rohtas 0 64 Kargahar Balapur  821107,SWEET SHOP,14,562,2,10-14
8696,PRIMARY SCHOOL  BALAPUR,Kargahar Rohtas 0 3 Kargahar Balapur 821107,EDUCATION SERVICES CENTER,20,851,1,10-14
8697,FISHERY AGRICULTURE,Balapur Kargahar Rohtas 0 4 Kargahar Balapur  821107,FISHERY PRODUCTION,4,32,2,10-14
8698,POLICE STATION,Chenari Rohtas Chenari Bhardua  Ct  821104,THANA,19,802,1,30-99
8699,GANGOTRI PROJECT BALIKA SCHOOL,Khurmabad Chenari Rohtas 0  Chenari Bhardua  Ct  Nehru Road 821104,EDUCATION SERVICES CENTER,20,852,1,15-19
8700,PUNJAB NATIONAL BANK,Khurmabad Chenari Rohtas   Chenari Bhardua  Ct   821204,BANKING FACILITY,16,641,4,10-14
8701,MAHILA KUTIR,Naraura Chenari Rohtas 0  Chenari Naraura 8 821104,SHELF HELP GROUP,16,643,5,10-14
8702,SHELF HELP GROUP,Pachaura Chenari Rohtas  Chenari Pachaura  821104,SELF HELP GROUP,16,643,3,30-99
8703,HIGH SCHOOL   MAHALIPUR,Chenari Rohtas 0 Chenari Malahipur Mahalipur Road 821104,EDUCATION SERVICES CENTER,20,852,1,10-14
8704,SHOBH NATH RAM,Hata Chenari Rohtas 0 34 Chenari Hata 4 821104,BAND PARTY,22,900,2,10-14
8705,RAJKIYA MIDDLE SCHOOL  TELARI,Chenari Rohtas 0 98 Chenari Telari  821108,EDUCATION SERVICES CENTER,20,852,1,15-19
8706,KANYA PRATHMIK VIDHALAY TELARI,Rohtas 0 154 2  Chenari Telari  821108,EDUCATION SERVICES CENTER,20,851,1,10-14
8707,SHIV PARVTI BRICKS INDUSTRIES,Chenari Rohtas 0 130 Chenari Telari  821108,MANUFACTURING BRICKS,6,239,2,30-99
8708,R K BRICKS CENTER,Baniadih Telari Chenari Rohtas 0 1 Chenari Baniadih  821108,BRICKS MANUFACTURING,6,239,2,200-499
8709,SONA BRICKS CENTER,Telari Chenari Rohtas 0 2 Chenari Baniadih 821108,BRICKS MANUFACTURING,6,239,2,200-499
8710,SWAMI ATYAVEENAND HIGH SCHOOL,Rediya Chenari Rohtas 0 5 Chenari Baniadih 821108,EDUCATION SERVICES CENTER,20,853,1,10-14
8711,FURNITURE SHOP,Hata Chenari Rohtas 0 14 3  Chenari Hata 821104,MANUFACTURING FURNITURE ARTICLES,6,161,2,10-14
8712,PRIVATE SCHOOL,Hata Chenari Rohtas 0 10 1  Chenari Hata 821104,EDUCATION SERVICES CENTER,20,852,3,10-14
8713,BAND PARTY   HATTA,Chenari Rohtas 0 138 Chenari Hata  821104,BAND PARTY,22,900,4,10-14
8714,MIDDLE SCHOOL   LODHI,Chenari Rohtas 0 71 Chenari Lodhi  821104,EDUCATION SERVICES CENTER,20,852,1,10-14
8715,MIDDLE SCHOOL   KHURNU KALA,Chenari Rohtas 0 54 Chenari Khurnu Kalan 821104,EDUCATION SERVICES CENTER,20,852,1,10-14
8716,MIDDLE SCHOOL   UGAHANEE,Chenari Rohtas 0 34 Chenari Ugahni  821104,EDUCATION SERVICES CENTER,20,851,1,10-14
8717,HIGH SCHOOL  NAIKPUR,Chenari Rohtas 0 4 Chenari Nayakpur 821104,EDUCATION SERVICES CENTER,20,853,1,10-14
8718,CONVENT SCHOOL,Hata Chenari Rohtas 0 2 Chenari Hata  821104,EDUCATION SERVICES CENTER,20,852,3,10-14
8719,KALIN MANUFACTURING,Hata Chenari Rohtas 0 11 2  Chenari Hata 821104,MANUFCTURING KALIN,6,143,3,10-14
8720,HIGH SCHOOL CHENARI,Rohtas 0 1 Chenari Bhardua  Ct   821104,EDUCATION SERVICES CENTER,20,853,1,15-19
8721,NEW LIFE ACEDEMY SCHOOL,Telari Rohtas 0 105 3  Chenari Telari  821106,EDUCATION SERVICES CENTER,20,852,2,15-19
8722,GOVERNMENTAL MIDDLE SCHOOL,Tilokhar Nauhatta Rohtas 9 Nauhatta Tilokhar  821304,EDUCATION SERVICES CENTER,20,851,1,15-19
8723,RAJKIYA MIDDLE SCHOOL  LOHARA,Nauhatta Rohtas 0 45 Nauhatta Lohara 821304,EDUCATION SERVICES CENTER,20,851,1,10-14
8724,POWER GRID LOHARA,Nauhatta Rohtas 0 02 Nauhatta Lohara 821304,POWER SUB CENTER,7,351,1,10-14
8725,JAMES PRARENA HOME,Gaurisot Nauhatta Rohtas 0 139 Nauhatta Gurisot  821304,EDUCATION SERVICES CENTER,20,855,2,10-14
8726,RAJKIYA MIDDLE SCHOOL,Balia Nauhatta Rohtas 0 21 Nauhatta Bhangia 821304,EDUCATION SERVICES CENTER,20,851,1,10-14
8727,SARSWATI SHISHU MANDIR,Lohara Nauhatta Rohtas 0 78 Nauhatta Lohara 821304,EDUCATION SERVICES CENTER,20,853,1,10-14
8728,CHARWAHA VIDHALAY,Lohara Nauhatta Rohtas 0 79 Nauhatta Lohara 821304,EDUCATION SERVICES CENTER,20,853,1,10-14
8729,DOMA SAH RICE MILL,Pakhnari Shivsagar Rohtas 0 1 Sheosagar Pakhnari  821111,RICE MANUFACTURING,6,106,2,10-14
8730,PETROL PUMP,Pakhnari Shivsagar Rohtas 0 1 2  Sheosagar Pakhnari 821111,PETROL DEALER,12,473,2,15-19
8731,TATA MOTORS,Pakhnari Shivsagar Rohtas 0 1 4  Sheosagar Pakhnari 821111,REPAIR MOTOR VEHICLE,10,452,2,20-24
8732,CENTRAL PUBLIC SCHOOL,Pakhnari Shivsagar Rohtas 0 1 6  Sheosagar Pakhnari 821111,EDUCATION SERVICES CENTER,20,852,2,20-24
8733,A1 PALAZA,Pakhnari Shivsagar Rohtas 0 2 Sheosagar Pakhnari  821111,RESTURANT,14,561,2,10-14
8734,PRAMARTH ITI,Bamauhar Shivsagar Rohtas 0 1 Sheosagar Bamhaur  821111,EDUCATION SERVICES CENTER,20,854,2,10-14
8735,MIDDLE SCHOOL BAHUARA,Shivsagar Rohtas 0 43 Sheosagar Bahuwara 821111,EDUCATION SERVICES CENTER,20,851,1,10-14
8736,VISHWANTH SINGH HIGH SCHOOL,Bahuara Shivsagar Rohtas 44 Sheosagar Bahuwara  821111,EDUCATION SERVICES CENTER,20,852,1,10-14
8737,PRIMARY SCHOOL  DUMARI,Shivsagar Rohtas 0 90 Sheosagar Dumri 804701,EDUCATION SERVICES CENTER,20,851,1,10-14
8738,MIDDLE SCHOOL  TORNI,Shivsagar Rohtas 0 51 Sheosagar Torana 811101,EDUCATION SERVICES CENTER,20,851,1,10-14
8739,MIDDLE SCHOOL PATADHI,Shivsagar Rohtas 0 57 Sheosagar Patarhi 821111,EDUCATION SERVICES CENTER,20,851,1,10-14
8740,MIDDLE SCHOOL GARUNA,Shivsagar Rohtas 0 90 Sheosagar Garura 821111,EDUCATION SERVICES CENTER,20,851,1,10-14
8741,HIGH SCHOOL KONAR,Shivsagar Rohtas 0 136 Sheosagar Konar 821111,EDUCATION SERVICES CENTER,20,852,1,10-14
8742,RAMPRAVESH GUPTA RICE MILL,Konar Shivsagar Rohtas 0 156 Sheosagar Konar 821111,MANUFACTURING RICE,6,106,2,20-24
8743,PRASHANT KISHOR GUPTA RICE MILL,Konar Shivsagar Rohtas 0 178 Sheosagar Konar 821111,RICE MANUFACTURING,6,106,2,20-24
8744,RAM ASHISH RAI,Rice Mill Konar Shivsagar Rohtas 0 1 2  Sheosagar Konar 821111,RICE MANUFACTURING,6,106,2,20-24
8745,AYODHYA SINGH HOTEL,Auwan Shivsagar Rohtas 0 118 Sheosagar Auwan 821111,HOTEL,14,561,1,10-14
8746,SCHOOL PRAGYA NIKETAN,Shivsagar Rohtas 0 1 Sheosagar Semri Patak 821114,EDUCATION SERVICES CENTER,20,852,2,10-14
8747,MIDDLE SCHOOL SEMARI,Shivsagar Rohtas 0 1 Sheosagar Semri 821115,EDUCATION SERVICES CENTER,20,851,1,10-14
8748,MIDDLE SCHOOL SONEVERSHA,Shivsagar Rohtas 0 94 Sheosagar Sonbarsa 821111,EDUCATION SERVICES CENTER,20,851,1,10-14
8749,BUDDHA ACEMADY,Girdhria Shivsagar Rohtas 0 1 Sheosagar Girdharia  821111,EDUCATION SERVICES CENTER,20,852,2,20-24
8750,MIDDLE SCHOOL SONAHAR,Shivsagar Rohtas 0 1 Sheosagar Sonahar 821111,EDUCATION SERVICES CENTER,20,851,1,10-14
8751,SHRI DURGA UCHCH VIDHALAY,Shivsagar Rohtas 19 Sheosagar Shiusagar 821111,EDUCATION SERVICES CENTER,20,852,1,20-24
8752,MIDDLE SCHOOL SHIVSAGAR,Rohtas 0 20 Sheosagar Shiusagar  821111,EDUCATION SERVICES CENTER,20,851,1,15-19
8753,GOVERNMENTAL HOSPITAL,Shivsagar Rohtas 0 29 Sheosagar Shiusagar 821111,HEALTH CENTER,21,861,1,25-29
8754,JAI KISAN FOOD PRODUCT PRIVATE,Limited Shivsagar Rohtas 0 6 Sheosagar Chanua Chanua 821111,RICE MANUFACTURING,6,106,2,100-199
8755,MIDDLE SCHOOL CHANDWA,Shivsagar Rohtas 0 20 Sheosagar Chanua 821111,EDUCATION SERVICES CENTER,20,851,1,10-14
8756,JAI MATADEE RICE MILL,Danrwa Shivsagar Rohtas 0  Sheosagar Danrwa  821113,RICE MANUFACTURING,6,106,2,15-19
8757,HIGH SCHOOL NISHAN NAGAR BADDI,Shivsagar Rohtas 0 Sheosagar Danrwa 821113,EDUCATION SERVICES CENTER,20,852,1,10-14
8758,RAJKIYA MIDDLE SCHOOL,Baddi Shivsagar Rohtas Sheosagar Baddi 821113,EDUCATION SERVICES CENTER,20,851,1,10-14
8759,HIGH SCHOOL MOHANIA,Shivsagar Rohtas 0 Sheosagar Mohanian 821113,EDUCATION SERVICES CENTER,20,852,1,15-19
8760,RAJKIYAKRIT UCHACH VIDHALAY,Chaukhanda Chitauli Sasaram Rohtas Sasaram Chaukhanda Chitauli  821113,EDUCATION SERVICES,20,852,1,10-14
8761,RAJKIY MIDDLE SCHOOL SAMARDIHAN,Sasaram 0 86 Sasaram Samarodiha  821113,EDUCATION SERVICES,20,851,1,10-14
8762,RAJKIY MIDDLE SCHOOL SHIVPUR,Chitauli 0 50 Sasaram Shivpur Chitauli  821113,EDUCATION SERVICES,20,851,1,10-14
8763,PRIMARY SCHOOL SIKARIA,Sasaram Rohtas 0 149 Sasaram Sikaria 821113,EDUCATION SERVICES,20,851,1,10-14
8764,MAA TARACHANDI DHAM,Sasaram Rohtas 0 Sasaram Kota  821115,WORKSHIP,23,949,7,15-19
8765,RAJKIYA MIDDLE SCHOOL KARPURWA,Sasaram Rohtas 0 Sasaram Karpurwa 821115,EDUCATION SERVICES,20,851,1,10-14
8766,RAJKIYAKRIT MIDDLE SCHOOL BEDA,Sasaram Rohtas 0 139 Sasaram Beda  821115,EDUCATION SERVICES,20,851,1,10-14
8767,RAJIKIYA MADHAY VIDHALAY ,Mahadiganj Sasaram Rohtas  Sasaram Kanserwa  821115,EDUCATION SERVICES,20,851,1,15-19
8768,SHISHU  GYAN MANDIR,Mahadiganj Sasaram Rohtas 0 140 Sasaram Mohaddi Ganj  821115,EDUCATION SERVICES,20,851,2,10-14
8769,PRAMOD ENGINEERING WORKS,Tetari Sasaram 0  22  Sasaram Tetari  821115,MANUFACTURING IRON GOODS GATE,6,259,2,20-24
8770,RAJKIYA MIDDLE SCHOOL MURADABAD,Kala Sasaram Rohtas 13 Sasaram Muradabad Kalan  821113,EDUCATION SERVICES,20,851,1,15-19
8771,ROHTAS LAW COLLEGE SASARAM ROHTAS,0  Sasaram Uchitpur 821115,EDUCATION SERVICES,20,853,1,30-99
8772,SHERSHAH COLLEGE SASARAM  ROHTAS,0  Sasaram Uchitpur 821115,TACHING,20,853,1,100-199
8773,ABR FOUNDATION SCHOOL,Shanti Nagar Nekra Sasaram Rohtas Sasaram Nekara 821113,EDUCATION SERVICES,20,853,2,20-24
8774,RAJKIYAKRIT MIDDLE SCHOOL KOTHRA,Sasaram Rohtas 0 Sasaram Kothara 821115,EDUCATION SERVICES,20,851,1,10-14
8775,SRI HANUMANJI MODERN RICE MILL,Baijla Mokar  Rohtas 0 Sasaram Baijla  821115,RICE MANUFACTURING,6,106,3,20-24
8776,HARINARAYAN SINGH B  ED COLLEGE,Baijla Mokar Rohtas 0 Sasaram Baijla  821115,TACHING,20,852,7,15-19
8777,OXFORD CONVENT SCHOOL,Baijla  Mokar   Rohtas 0 Sasaram Baijla  821115,EDUCATION SERVICES,20,852,7,10-14
8778,SRI BASANTJI OIL EXTRACTION,Baijla  Mokar  Rohtas 0 Sasaram Baijla  821115,MANUFACTURING BRAND OIL,6,106,2,15-19
8779,SRI HANUMANJI MODERN RICE UDYOG,Baijla Rohatas 0 Sasaram Baijla  821115,RICE MANUFACTURING,6,106,2,30-99
8780,POPULAR I T I BAIJLA  MOKAR ROHTAS,0  Sasaram Baijla 821115,INDUSTRIAL EDUCATION SERVICES,20,854,3,30-99
8781,BABA JANKINATH I  T I BAIJLA ,Mokar Rohtas 0 Sasaram Baijla  821115,INDUSTRIAL EDUCATION SERVICES,20,854,3,25-29
8782,SANSKRIT VIDHALY GOTPA,Sasaram Rohtas 0 88 Sasaram Gotpa  821113,EDUCATION SERVICES,20,851,1,20-24
8783,MADHYA VIDHLAYA GOTPA,Sasaram Rohtas 0 90 Sasaram Gotpa  821113,EDUCATION SERVICES,20,851,1,10-14
8784,BABAVISHWANATH MINI RICE MILL,Rakesh Singh Rampur Rohtas  10  Sasaram Rampur  825101,MANUACTURING RICE,6,106,2,10-14
8785,RAILWAY OFFICE KARWANDIYA,Sasaram Rohtas 0 124 Sasaram Karwania 821316,OFFICE WORK,13,491,1,25-29
8786,HIGH SCHOOL KARWANDIYA,Sasaram Rohtas 0 Sasaram Karwania 821316,TEACING CENTER,20,852,1,10-14
8787,JEMS I T I  SCHOOL,Amri Sasaram Rohtas 0 67 3  Sasaram Amri 821316,INDUSTRIAL TECHING CENTER,20,852,5,30-99
8788,TATIYA CONSTRUCTION LIMITED,Camp  Amri Head Office  Kolkata  25 27 Sasaram Amri Nsroad,RAIL  ROAD CONSTRUCTION,9,421,4,30-99
8789,HILL NEW FUEL  G T ROAD   AMRI,Sasaram Rohtas 0 12 Sasaram Amri  821316,SUPPLY PETROL AND DIESEL,12,478,3,10-14
8790,R B C PUBLIC SCHOOL,Amri Sasaram Rohtas 0 78 Sasaram Amri 821316,EDUCATION SERVICES CENTER,20,851,2,15-19
8791,D A V SCHOOL,Admapur Sasaram Rohtas 0 124 Sasaram Admapur  821115,EDUCATION SERVICES CENTER,20,852,3,100-199
8792,A K BUILDERS AND TRANSPORT COMPANY,Lalganj  Sasaram  Rohtas 0  2  Sasaram Haripur  821115,BUILDERS   AND CONSTRUCTION WORKS,9,410,2,10-14
8793,SHRI LAKSHMEEJEE MINI RICE MILL,Mosahebpur Sasaram Rohtas 0 85 Sasaram Mosahebpur  821113,MANUFACTURING RICE,6,106,3,20-24
8794,SHRI SHANKAR COLLEGE SASARAM,Rohtas 0 49 Sasaram Sasaram  Nagar Parishad   821115,HIGHER EDUCATION SERVICES CENTER,20,853,1,100-199
8795,SHRI SHANKAR HIGH SCHOOL,Takiya   Sasaram 0 48 Sasaram Sasaram  Nagar Parishad  821115,HIGHER EDUCATION SERVICES CENTER,20,853,1,20-24
8796,OXFORD SCHOOL SASARAM,Rohtas 0  Sasaram Sasaram  Nagar Parishad   821115,EDUCATION SERVICES CENTER,20,851,2,15-19
8797,SCOTISH SCHOOL  GAURAKSHNI,Sasa6am Rohtas 0 Sasaram Sasaram  Nagar Parishad  821115,EDUCATION SERVICES CENTER,20,852,2,25-29
8798,MODERN PUBLIC SCHOOL,Sasaram Rohtas 37 Sasaram Sasaram  Nagar Parishad  11 H  821115,EDUCATION SERVICES CENTER,20,852,2,20-24
8799,SUNARISE PUBLIC SCHOOL,Sasaram Rohtas 115 Sasaram Sasaram  Nagar Parishad  11 821115,EDUCATION SERVICES CENTER,20,852,2,15-19
8800,SHERSHAH MEDICAL AND RESEARCH,Center Sasaram Rohtas 46 Sasaram Sasaram  Nagar Parishad  821115,HOSTEL OF NURSING CENTER,20,855,2,15-19
8801,ROHTAS DIESEL SASARAM,Sasaram Rohtas 0 Sasaram Sasaram  Nagar Parishad  821115,DIESEL DISTRIBUTOR,12,477,3,10-14
8802,HERO MOTORCYCLE AGENCY,Sasaram Rohtas Sasaram Sasaram  Nagar Parishad  821115,DISTRIBUTOR OF MOTORCYCLE,10,451,3,15-19
8803,SANT JOSEPH SCHOOL,Sasaram Rohtas 63 Sasaram Sasaram  Nagar Parishad  821115,EDUCATION SERVICES CENTER,20,852,2,15-19
8804,A B R FOUNDATION SCHOOL,Sasaram Rohtas 104 1  Sasaram Sasaram  Nagar Parishad  821115,HIGHER EDUCATION SERVICES CENTER,20,852,2,15-19
8805,STATE BANK OF INDIA,G T Road Sasaram Rohtas   Sasaram Sasaram  Nagar Parishad   821115,BANKING FACILITY,16,641,1,30-99
8806,PUNJAB NATIONAL BANK,G T Road Sasaram Sasaram Sasaram  Nagar Parishad  821115,BANKING FACILITY,16,641,1,20-24
8807,ROHTAS MAHILA COLLEGE  SASARAM,0  Sasaram Sasaram  Nagar Parishad  821115,HIGHER EDUCATION CENTER,20,853,6,30-99
8808,SASARAM BHABHUA CENTRAL,Co Operative Bank 0 Sasaram Sasaram  Nagar Parishad  821115,BANKING FACILITY,16,641,6,10-14
8809,SANGAM MEDICAL AGENCY,Sangam Complex Sasaram 0  Sasaram Sasaram  Nagar Parishad   821115,WHLOE SELLER 0F MEDICINE,11,466,2,10-14
8810,ISHWAR CHANDRA VIDHA SAGAR  RAUZA,Road  Balbharti Public School Civil Line Sasaram Rohtas Sasaram Sasaram  Nagar Parishad  821115,HIGHER SECONDARY,20,852,2,15-19
8811,VISHWANATH CONVENT  SCHOOL,Civil Line Sasaram Rohtas  Sasaram Sasaram  Nagar Parishad   821115,PRIMARY EDUCATION SERVICES CENTER,20,851,2,20-24
8812,DEHRI C D AND C M U,Fajalganj  Sasaram Rohtas  Sasaram Sasaram  Nagar Parishad   821115,DISTRIBUTOR OF LPG GAS,12,473,4,10-14
8813,TULIKA ENTERPRISES   FAZALGANJ,Sasaram Rohtas Sasaram Sasaram  Nagar Parishad  821115,WHOLE SELLER OF COMMUNICATION GOODS,11,465,2,10-14
8814,SANTPAL SCHOOL  CIVIL LINE SASARAM,Rohtas 0  Sasaram Sasaram  Nagar Parishad   821115,EDUCATION SERVICES CENTER,20,853,2,30-99
8815,IDBI BANK CIVIL LINE SASARAM,Sasaram Sasaram  Nagar Parishad  821115,BANKING FACILITY,16,641,1,10-14
8816,SHIVANANDJI KIDS PLAY SCHOOL,Sasaram Rohtas 0 Sasaram Sasaram  Nagar Parishad  Gitaghat Ashram  Marg 821115,EDUCATION SERVICES CENTER,20,851,2,15-19
8817,SCHOOL RENJ INTERNATIONAL ,Fajaganj  Sasaram Rohtas  Sasaram Sasaram  Nagar Parishad   821115,EDUCATION SERVICES CENTER,20,851,2,10-14
8818,SANJAY ANAND HOSPITAL,Fajalganj  Sasaram 0 Sasaram Sasaram  Nagar Parishad  821115,HOSPITAL,21,861,2,30-99
8819,PRAGYA NIKETAN PUBLIC SCHOOL,Fajalganj Sasaram 0 Sasaram Sasaram  Nagar Parishad  821115,PRIMARY SCHOOL,20,851,5,30-99
8820,SHISHU MANDIR SCHOOL,Fajalganj Sasaram 0 Sasaram Sasaram  Nagar Parishad  821115,EDUCATION SERVICES CENTER,20,852,2,10-14
8821,NATIONAL PUBLIC SCHOOL,Saket Nagar Sasaram 0 Sasaram Sasaram  Nagar Parishad  821115,EDUCATION SERVICES CENTER,20,852,2,10-14
8822,STENFORD SCHOOL,Rauza Road Sasaram Rohtas  Sasaram Sasaram  Nagar Parishad  1 821115,EDUCATION SERVICES CENTER,20,851,2,10-14
8823,ANJALI AROGYA MANDIR,Rauza Road  1 Sasaram Rohtas Sasaram Sasaram  Nagar Parishad  821115,HEALTH CENTER,21,861,2,10-14
8824,UNITED BANK SASARAM ROHTAS,Sasaram Sasaram  Nagar Parishad  821115,BANKING,16,641,1,10-14
8825,CENTRAL BANK OF INDIA,Sasaram Rohtas Sasaram Sasaram  Nagar Parishad  821115,BANKING,16,641,1,15-19
8826,ALLAHABAD BANK,Sasaram Rohtas Sasaram Sasaram  Nagar Parishad  821115,BANKING,16,641,1,10-14
8827,JAI HOTEL,Sasaram Rohtas Sasaram Sasaram  Nagar Parishad  821115,HOTEL,14,551,2,10-14
8828,AXIS BANK LIMITED,Sasaram Rohtas Sasaram Sasaram  Nagar Parishad  821115,BANKING,16,641,1,10-14
8829,ICICI BANK LIMITED,Sasaram Rohtas Sasaram Sasaram  Nagar Parishad  821115,BANKING,16,641,1,10-14
8830,BANK OF BARODA SASARAM BRANCH,Sasaram Sasaram  Nagar Parishad  821115,BANKING,16,641,1,15-19
8831,MAHILA TEACHER TRAINNING,Sasaram Rohtas 0 Sasaram Sasaram  Nagar Parishad  Bandh Road 821115,TEACHER TRAINING CENTER,20,854,1,10-14
8832,HAZARIMAL RUNGATA MIDDLE SCHOOL,Sasaram Rohtas 0 Sasaram Sasaram  Nagar Parishad  Rauza Road 821115,EDUCATION SERVICES CENTER,20,851,1,10-14
8833,HIGH  SCHOOL CHAUKHANDI PATH,Sasaram  Rohtas Sasaram Sasaram  Nagar Parishad  Rauza Road 821115,EDUCATION SERVICES CENTER,20,852,1,15-19
8834,BAL VIKASH VIDHALAY,Sasaram Rohtas Sasaram Sasaram  Nagar Parishad  821115,EDUCATION SERVICES CENTER,20,853,2,30-99
8835,ROHTAS BHOJPUR GRAMIN BANK,Sasaram 0  Sasaram Sasaram  Nagar Parishad   821115,BANKING,16,641,1,10-14
8836,SHIVGANGA BABY GARDEN,Madar Darwaja  Sasaram 0  Sasaram Sasaram  Nagar Parishad   821115,EDUCATION SERVICES CENTER,20,851,2,10-14
8837,MIDDLE SCHOOL KILA,Sasaram Rohtas 0 Sasaram Sasaram  Nagar Parishad  821115,EDUCATION SERVICES CENTER,20,851,6,10-14
8838,SANT SHIVA NAND VIDHALAY,Sasaram Rohtas Sasaram Sasaram  Nagar Parishad  821115,EDUCATION SERVICES CENTER,20,852,6,10-14
8839,GURUTEG BAHADUR BIDHA NIKETAN,Sasaram Rohtas 0 15 Sasaram Sasaram  Nagar Parishad  Sonar Toli 821115,EDUCATION SERVICES CENTER,20,852,2,15-19
8840,SURYA CLINIC,Sasaram Rohtas 0 Sasaram Sasaram  Nagar Parishad  Baulia Road 821115,CLINIC CENTER,21,861,2,15-19
8841,ANARA DEVI,Sasaram Rohtas 0 Sasaram Sasaram  Nagar Parishad  Jindal Steel Ke Bagal Me 821115,SWEET MANUFACTURING,6,107,2,10-14
8842,JINDAL STEEL,Chhar  Cement Shoap Sasaram Rohtas Sasaram Sasaram  Nagar Parishad  G T Road Sasaram 821115,DELEAR OF CEMENT AND ROD,12,471,2,15-19
8843,SURENDRA YAMAHA AGENCY,Sasaram Rohtas 0 1 Sasaram Sasaram  Nagar Parishad  G T Road Diliyan 821115,MOTORCYCLE DEALER,10,451,2,10-14
8844,ADMINISTRATIVE BUILDING,Bsnl Office Sasaram Rohtas 2 Sasaram Sasaram  Nagar Parishad  Ashikpur 821115,COMUNICATION ACTIVITY,15,611,1,25-29
8845,S P JAIN COLLEGE,Sasaram Rohtas 0 219 Sasaram Sasaram  Nagar Parishad  S P Jain Road 821115,HIGHER EDUCATION SERVICES CENTER,20,853,1,30-99
8846,KAMLA SARSAWATI VIDHA NIKATAN,Sasaram Rohtas 0 63 Sasaram Sasaram  Nagar Parishad  821115,PRIVATE EDUCATION SERVICES CENTER,20,852,2,10-14
8847,BUDH MISSION SCHOOL,Sasaram Rohtas 0 133 1  Sasaram Sasaram  Nagar Parishad   821115,EDUCATION SERVICES CENTER,20,852,3,30-99
8848,AMBIKA ICECREAM,Sasaram Rohtas 0 132 Sasaram Sasaram  Nagar Parishad  821115,MANUFACTURIG ICE  CREAM,6,110,3,10-14
8849,UCHCHA MADHAYAMIK VIDHALAY,  2staria  Sasaram Rohtas  Sasaram Sasaram  Nagar Parishad   821115,EDUCATION CENTER,20,853,6,15-19
8850,SHRI GURUTEK BAHADUR VIDHA NIKETAN,Shobhaganj Sasaram Rohtas  Sasaram Sasaram  Nagar Parishad   821115,EDUCATION SERVICES CENTER,20,851,2,15-19
8851,SWAMI VIVEKANAND VIDHAYA MANDIR,School Sasaram Rohtas 65 1  Sasaram Sasaram  Nagar Parishad  Alamganj 821115,EDUCATION SERVICES CENTER,20,852,3,10-14
8852,SHRI SHANKAR MADHAY VIDHALAY,Sasaram Rohtas 0 82 Sasaram Sasaram  Nagar Parishad  Takiya 821115,EDUCATION SERVICES CENTER,20,851,1,15-19
8853,BSNL  SASARAM,Sasaram Rohtas 0 Sasaram Sasaram  Nagar Parishad  G T Road 821115,TELEPHONE EXCHANGE,15,611,1,25-29
8854,MAHENDRA FINANCE COMPANY,Sasaram Rohtas 0 59 Sasaram Sasaram  Nagar Parishad  821115,INSURANCE COMPANY,16,651,4,20-24
8855,SHIVSHANKAR CONSTRUCTION COMPANY,Private Limited New Aria Sasaram Rohtas 62 Sasaram Sasaram  Nagar Parishad  821115,IRRIGATION CONRSTRUCTION,9,422,2,10-14
8856,TRACTOR AND MACHINARY,Sasaram Rohtas 0 74 Sasaram Sasaram  Nagar Parishad  Gt Road Sasaram 821115,TRACOR DEALER,10,451,2,30-99
8857,NEW DELHI PUBLIC SCHOOL,Sasaram Rohtas 0 74 2  Sasaram Sasaram  Nagar Parishad  New Aria 821115,EDUCATION SERVICES CENTER,20,852,2,15-19
8858,PANDIT JAWAHAR LAL NEHRU,Awasia School Sasaram Rohtas 18 2  Sasaram Sasaram  Nagar Parishad   821115,EDUCATION SERVICES CENTER,20,852,2,10-14
8859,JAWAHARLAL NEHRU AWASIA SCHOOL,Sasaram Rohtas 0 55 3  Sasaram Sasaram  Nagar Parishad  821115,PRIVATE SCHOOL,20,852,2,10-14
8860,RAJKIYAKRIT MIDDLE SCHOOL,Kajipura Nuranganj Sasaram Rohtas 111 Sasaram Sasaram  Nagar Parishad  821115,EDUCATION SERVICES CENTER,20,851,1,10-14
8861,HEAD POST OFFICE,Sasaram Rohtas 0 1 Sasaram Sasaram  Nagar Parishad  821115,POST,13,531,1,30-99
8862,VSNL OFFICE,Sasaram Rohtas 0 2 Sasaram Sasaram  Nagar Parishad  821115,TELEPHONE WORK,15,619,1,20-24
8863,SHERSHAH INTER COLLEGE,Sasaram Rohtas 0 Sasaram Sasaram  Nagar Parishad  821115,EDUCATION SERVICES CENTER,20,853,1,30-99
8864,CENRA BANK SASARAM ROHTAS,59 16  Sasaram Sasaram  Nagar Parishad   821115,BANKING CENTER,16,643,1,10-14
8865,PATEL NARSING TRAINING CENTER,Sasaram Rohtas 0 98 Sasaram Sasaram  Nagar Parishad  821115,NURSING CENTER,20,854,2,10-14
8866,RAJENDRA VIDHALAY KURAICH,Sasaram Rohtas 9 Sasaram Sasaram  Nagar Parishad  821115,EDUCATION SERVICES CENTER,20,853,2,30-99
8867,ROHTAS MAHILA MAHAVIDHALAY,Sasaram 0 45 Sasaram Sasaram  Nagar Parishad   821115,EDUCATION SERVICES CENTER,20,853,1,30-99
8868,SASARAM BHABHUA CENTRAL,Coperative Bank  143 Sasaram Sasaram  Nagar Parishad  821115,BANKING SYSTEM,16,643,6,10-14
8869,GOKULAM VIDHAYPITH,Sasaram Rohtas 13 Sasaram Sasaram  Nagar Parishad  821115,EDUCATION SERVICES CENTER,20,854,1,15-19
8870,GOVERNMENTAL PRIMARY SCHOOL,Habbupur Akorhigola Rohtas 23 Akorhi Gola Habbupur  802219,EDUCATION SERVICES CENTER,20,851,1,10-14
8871,MIDDLE SCHOOL  TENDUBAHAR,Rohtas 0  Akorhi Gola Tendubahar  802219,EDUCATION SERVICES CENTER,20,851,1,10-14
8872,RICE MILL  VEERODIH,Akorhigola Rohtas 0 62 Akorhi Gola Birodih 821310,MANUFACTURING RICE,6,106,2,10-14
8873,RAJKIYA PRIMARY SCHOOL  VEERODIH,Akorhigola Rohtas 0 01 Akorhi Gola Birodih 821310,EDUCATION SERVICES CENTER,20,851,1,10-14
8874,HIGH SCHOOL BHIM KARUP,Akorhigola Rohtas 0 67 Akorhi Gola Karup 802219,EDUCATION SERVICES CENTER,20,853,1,10-14
8875,PRIMARY SCHOOL BUDHUAN,Akorhigola Rohtas 0 153 Akorhi Gola Budhua 821310,EDUCATION SERVICES CENTER,20,851,1,10-14
8876,RAJKIYA MIDDLE SCHOOL TENDUA KALA,Tilauthu Rohtas 0 Akorhi Gola Barka Tenua  821301,EDUCATION SERVICES CENTER,20,851,1,10-14
8877,RAJKIYA HOSPITAL,Karakatpur Akorhigola Rohtas 0 162 Akorhi Gola Karkatpur  821301,EDUCATION SERVICES CENTER,21,861,1,10-14
8878,MIDDLE SCHOOL MUDIYAR,Akorhigola Rohtas 0 84 Akorhi Gola Munriar 821301,EDUCATION SERVICES CENTER,20,851,1,25-29
8879,BLANKET FACTORY,Akorhigola Rohtas 51 Akorhi Gola Akorhi 821301,MANUFACTURING BLANKET,6,143,6,30-99
8880,MIDDLE SCHOOL,Madhurampur Akorhigola Rohtas 0 82 Akorhi Gola Madhurampur Dehri 821301,EDUCATION SERVICESCENTER,20,851,1,10-14
8881,THE D A V PUBLIC SCHOOL,Madhurampur Akorhigola Rohtas 0 Akorhi Gola Madhurampur Dehri 821301,EDUCATION SERVICES CENTER,20,853,2,10-14
8882,S V M SCHOOL,Madhurampur Akorhigola Rohtas 0 Akorhi Gola Madhurampur Dehri Madhurampur 821301,EDUCATION SERVICES CENTER,20,851,2,10-14
8883,BALIKA DEVI RAM UCHCH VIDHALAY,Akorhigola Rohtas Madhurampur  Akorhi Gola Madhurampur Dehri  821301,EDUCATION SERVICES CENTER,20,853,1,10-14
8884,RAJKIYA MIDDLE SCHOOL  ,Madhurampur Akorhigola Rohtas 22 Akorhi Gola Madhurampur Dehri 821301,EDUCATION SERVICES CENTER,20,851,1,10-14
8885,MIDDLE SCHOOL CHHAPARA,Akorhigola Rohtas 0 01 Akorhi Gola Chhapra 821301,EDUCATION SERVICES CENTER,20,851,1,15-19
8886,SANSKRIT VIDHALAY  BARARHI,Akorhigola Rohtas 0 33 Akorhi Gola Bararhi 821301,EDUCATION SERVICES CENTER,20,853,1,10-14
8887,KANYA PRIMARY SCHOOL,Akorhigola Rohtas 0 71 Akorhi Gola Bararhi Bhuiya Tola  Bararhi 821301,EDUCATION SERVICES CENTER,20,851,1,10-14
8888,MIDDLE SCHOOL   BARARHI,Akorhigola Rohtas 0 125 Akorhi Gola Bararhi Rajpur   Dehri Road 821301,EDUCATION SERVICES CENTER,20,851,1,15-19
8889,VIDHYAPITH VIDHALAY,Bararhi Akorhigola Rohtas 0 44 Akorhi Gola Bararhi Rajpur  Dehriroad 821301,EDUCATION SERVICES CENTER,20,852,2,10-14
8890,MADAN MOHAN SINGH,Brick Industry Ugra Akorhigola Rohtas 16 Akorhi Gola Mathurapur 821301,MANUFACTURING BRICKS,6,239,2,15-19
8891,MIDDLE SCHOOL,Akorhigola Rohtas 0 59 Akorhi Gola Gobardhanpur Govardhanpur 821305,EDUCATION SERVICES CENTER,20,851,1,10-14
8892,LALU PRASAD YADAV COLLEGE,Bank Akorhigola Rohtas 0 222 Akorhi Gola Bank 821301,EDUCATION SERVICES CENTER,20,853,2,100-199
8893,SANSKRIT VIDHALAY,Bank Akorhigola Rohtas 0 127 2  Akorhi Gola Bank  821301,EDUCATION SERVICES CENTER,20,853,7,15-19
8894,GUPTAJEE RICE MILL,Bank Akorhigola Rohtas 0 08 Akorhi Gola Bank 821301,MANUFACTURING RICE,6,106,2,20-24
8895,MIDDLE SCHOOL,Bank Akorhigola Rohtas 0 53 Akorhi Gola Bank 821301,EDUCATION SERVICES CENTER,20,851,1,10-14
8896,ROHTAS CENTRAL ACADEMY,Bank Akorhigola Rohtas 0 11 Akorhi Gola Bank 821301,EDUCATION SERVICES CENTER,20,853,1,10-14
8897,MIDDLE SCHOOL GOPI CHAND,Bank Akorhigola Rohtas 0 88 Akorhi Gola Bank 821301,EDUCATION SERVICES CENTER,20,851,1,10-14
8898,MIDDLE SCHOOL BANK,Akorhigola Rohtas 0 01 Akorhi Gola Bank 821301,EDUCATION SERVICES CENTER,20,851,1,15-19
8899,RAMKISHOR SINGH   MAHAVIDHALAY,Dalmiyanagar Rohtas Akorhi Gola Bank 821305,EDUCATION SERVICES CENTER,20,853,1,100-199
8900,MIDDLE SCHOOL HAUDIH,Akorhigola Rohtas 0 1 Akorhi Gola Haundih 802219,EDUCATION SERVICES CENTER,20,851,1,10-14
8901,MADAN MOHAN SINGH,Mathurapur Akorhigola Rohtas 0 18 Akorhi Gola Mathurapur  802219,TRANSPORTING WORK,10,453,1,15-19
8902,HIGH SCHOOL   PREM NAGAR,Bank Akorhigola Rohtas 0 25 Akorhi Gola Bank 821301,EDUCATION SERVICES CENTER,20,853,1,30-99
8903,RAJKIYA MIDDLE SCHOOL  GOHI,Dehri Rohtas 0 66 Dehri Gohi  821306,EDUCATION SERVICES CENTER,20,851,1,10-14
8904,R S PUBLIC SCHOOL,Ganua Dehri Rohtas 118 Dehri Gonuwan 821306,EDUCATION SERVICES CENTER,20,852,2,10-14
8905,KAMESHWAR RAM CLINIC  MAUDIHA,Dehri Rohtas 0 65 Dehri Maudiha  821306,CLINIC CENTER,21,861,2,15-19
8906,RAJKIYA MADHY VIDHALAY  BARANW KALA,Dehri Rohtas 0 172 Dehri Barawan  821306,EDUCATION SERVICES CENTER,20,851,1,15-19
8907,SHRI SITARAM UCHCH VIDHALAY,Baranw Kala Dehri Rohtas 174 Dehri Barawan  821306,EDUCATION SERVICES CENTER,20,852,1,10-14
8908,RAJKIYA MIDDLE SCHOOL  CHILBILA,Dehri Rohtas 0 34 Dehri Chilbila  821306,EDUCATION SERVICES CENTER,20,851,1,10-14
8909,RAJKIYA MIDDLE SCHOOL,Tandwan Dehri Rohtas 86 Dehri Tanrwa 821306,EDUCATION SERVICES CENTER,20,851,1,10-14
8910,MODERN RICE MILL,Majhiyaw P S   Darihat Dehri Rohtas  Dehri Majhiawan  821306,MANUFACTURING RICE,6,106,2,25-29
8911,MADHY GRAMIN BANK,Ayar Kotha Bazar Dehri Rohtas 61 Dehri Ayar Kotha  821906,BANKING FACILITY,16,641,1,10-14
8912,MADHY VIDHALAY DARIHAT,Dehri Rohtas 0 5 Dehri Darihat  821306,EDUCATION SERVICES CENTER,20,851,1,10-14
8913,DHARAM KATA,Berkap Dehri Rohtas 87 1  Dehri Berkap 821306,DHARAMKATA,11,461,2,10-14
8914,MADHY VIDHALAY   BERKAP,Dehri Rohtas 0 47 Dehri Berkap  821306,EDUCATION SERVICES CENTER,20,851,1,10-14
8915,DAV SCHOOL,Bharkuria Dehri Rohtas Dehri Bharkunria 821306,EDUCATION SERVICES FACILITY,20,852,2,30-99
8916,MIDDLE SCHOOL  PAHLEJA,Dehri Rohtas 0 02 Dehri Pahleza  821305,EDUCATION SERVICES FACILITY,20,851,1,10-14
8917,RESIDENTIAL TRAINNING CENTER,Middle School Tendua Dusadhi Dehri Rohtas 86 Dehri Tendua Dusadhi  821305,EDUCATION SERVICES CENTER,20,851,1,15-19
8918,HIGHER SECONDARY SCHOOL,Mahadeva Dehri Rohtas 52 Dehri Mahdewa 821305,EDUCATION SERVICES CENTER,20,853,1,10-14
8919,SONA BRICKS  CHORMARA,Dehri Rohtas 0 4 Dehri Chormara  821305,MANUFACTURING BRICKS,6,239,3,30-99
8920,KANYA MIDDLE SCHOOL,Jamuhar Dehri Rohtas 0 13 Dehri Jamuhar 821305,EDUCATION SERVICES CENTER,20,851,1,15-19
8921,DEV MANGAL MEMORIAL TRUST,Jamuhar Dehri Rohtas 20 Dehri Jamuhar 821305,HOSPITAL AND MEDICAL COLLEGE,21,861,7,200-499
8922,DEV MANGAL MEMORIAL TRUST,Jamuhar Dehri Rohtas 81 Dehri Jamuhar 821305,EDUCATION SERVICES CENTER  MEDICAL AND NURSING ,20,854,7,100-199
8923,HIGH SCHOOL  JAMUHAR,Dehri Rohtas 0 30 Dehri Jamuhar  821305,EDUCATION SERVICES CENTER,20,852,1,10-14
8924,BABA MANIKNATH MAHAVIDHALAY,Jamuhar Dehri Rohtas 249 Dehri Jamuhar 821305,HIGHER EDUCATION CENTER,20,853,7,30-99
8925,J V L OIL AND FOODS,Chakiya Dehri Rohtas Dehri Chakia  821305,MANUFACTURING BANASPATI OIL,6,104,4,100-199
8926,JAWAHAR LAL NEHRU COLLEGE,Dehri Rohtas 0 101 Dehri Chakia Manaura 821307,HIGHER EDUCATION SERVICES CENTER,20,853,1,30-99
8927,PRIMARY SCHOOL  PATPURA,Dehri Rohtas 0 27 Dehri Patpura  821308,EDUCATION SERVICES CENTER,20,851,1,10-14
8928,GOVERMENTAL MIDDLE SCHOOL,Bhadkuria Dehri Rohtas 45 Dehri Bharkunria 821308,EDUCATION SERVICES CENTER,20,851,1,10-14
8929,GOVERMENTAL MIDDLE SCHOOL,Bharkidiya Dehri Rohtas 0 46 Dehri Bharkunria 821308,EDUCATION SERVICES CENTER,20,851,1,10-14
8930,MIDDLE SCHOOL  GHONGHAT  DILIA,Dehri Rohtas 0 51 Dehri Ghonghaha  821305,EDUCATION SERVICES CENTER,20,851,1,10-14
8931,RAJKIYA UTKRITMIT MIDDLE SCHOOL,Khairhan Dehri Rohtas 44 Dehri Khairaha 821305,EDUCATION SERVICES CENTER,20,851,1,10-14
8932,CENTRAL PUBLIC SCHOOL,Bastipur  Bmp 2  Dehri Rohtas 82 Dehri Bastipur  821305,EDUCATION SERVICES CENTER,20,851,2,10-14
8933,R S K PUBLIC SCHOOL,Bastipur Dehri Rohtas 46 Dehri Bastipur 821305,EDUCATION SERVICES CENTER,20,852,2,15-19
8934,DAV PUBLIC SCHOOL,Dehri Rohtas 0 112 Dehri Katar  821308,EDUCATION SERVICES CENTER,20,852,3,30-99
8935,MIDDLE SCHOOL,Bhaluari Dehri Rohtas 25 Dehri Bhaluari 821308,EDUCATION SERVICES CENTER,20,851,1,10-14
8936,MIDDLE SCHOOL NAWADIH,Dehri Rohtas 0 145 Dehri Nawadih  821308,EDUCATION SERVICES CENTER,20,851,1,10-14
8937,UPGRADED MIDDLE SCHOOL,Chakmaha Dehri Rohtas 67 Dehri Chaknaha  821308,EDUCATION SERVICES CENTER,20,851,1,10-14
8938,JAMES HOSPITAL,Sikaria Dehri Rohtas 68 Dehri Sikaria  821308,HEALTH FACILITY,21,861,2,30-99
8939,EDUCATION OFFICE,Dehri Rohtas 0 81 Dehri Sikaria  821308,OFFICIAL WORK,20,855,2,25-29
8940,JAMES ENGLISH SCHOOL,Sikaria Dehri Rohtas 154 Dehri Sikaria 821308,EDUCATION CENTER,20,852,2,15-19
8941,HIGH SCHOOL  DARIHAT,Dehri Rohtas 0 3 Dehri Darihat  821306,EDUCATION SERVICES EDUCATION SERVICES CENTER,20,853,1,10-14
8942,ARCHI ITI   MATHURI,Dehri Rohtas 0 38 Dehri Mathuri  821305,EDUCATION SERVICES CENTER,20,854,4,20-24
8943,GOVERNMENTAL HIGH SCHOOL BHERIYA,Dehri Rohtas 0 56 Dehri Sakhara  821305,EDUCATION SERVICES CENTER,20,853,1,15-19
8944,GOVERNMENTAL MIDDLE SCHOOL,Bheriya Dehri Rohtas 57 Dehri Sakhara  821305,EDUCATION SERVICES CENTER,20,852,1,10-14
8945,MIDDLE SCHOOL MANIIKPUR,Dehri Rohtas 0 30 Dehri Manikpur  821305,EDUCATION SERVICES CENTER,20,852,1,10-14
8946,S T  R SCHOOL,Dehri Rohtas 0  Dehri Dehri  Nagar Parishad  Purnawasi Bigha 821305,EDUCATION SERVICES CENTER,20,852,2,20-24
8947,REETA DAYAL,Dehri Rohtas 0 163 2  Dehri Dehri  Nagar Parishad  Thakurbadi Road 821305,EDUCATION SERVICES CENTER,20,851,2,10-14
8948,MODEL SCHOOL,Dehri Rohtas 0  Dehri Dehri  Nagar Parishad  Dalmianagar  Rohtas 821305,EDUCATION SERVICES CENTER,20,853,1,30-99
8949,BALIKA VIDHALAY,Dalmianagar  Dehri 0 Dehri Dehri  Nagar Parishad   821305,EDUCATION SERVICES CENTER,20,852,1,10-14
8950,SBI  DALMIANAGAR  DEHRI,67 Dehri Dehri  Nagar Parishad   821305,BANKING FACILITY,16,641,1,10-14
8951,DEVNARAYAN SINGH MADHY VIDHALAYA,Dehri Rohtas 0  Dehri Dehri  Nagar Parishad  821305,EDUCATION SERVICES CENTER,20,851,1,10-14
8952,HOTEL BUDDHA VIHAR,Dehri Rohtas 0 05 Dehri Dehri  Nagar Parishad  Pali Road 821307,HOTEL,14,551,2,30-99
8953,RASTRIYA HIGH SCHOOL DILIAN,Dehri Rohtas 0  Dehri Dehri  Nagar Parishad  821307,EDUCATION SERVICES CENTER,20,852,1,20-24
8954,URBASHI HOTEL,Gandhinagar Dehri On  Sone 0  Dehri Dehri  Nagar Parishad  821307,HOTEL,14,559,2,20-24
8955,SHAHABAD ENGINEERING PRIVATE,Limited  Dehri On Sone Dehri Dehri  Nagar Parishad   821307,HYDRO ELECTRIC POWER,6,271,4,10-14
8956,HANLISTIK HAIRITEZ ACEDEMY SCHOOL,Pali Road  Dehri On  Sone Rohtas  Dehri Dehri  Nagar Parishad  821307,EDUCATION SERVICES CENTER,20,852,2,25-29
8957,ROHTAS VIDHAPITH SCHOOL,Viran Bigha  Gandhi Nagar  Dehri Rohtas Dehri Dehri  Nagar Parishad   821307,EDUCATION SERVICES CENTER,20,852,2,10-14
8958,MOHINI ENTERPRISES,Dehri Rohtas 0 2 1  Dehri Dehri  Nagar Parishad  Pali Road  Dehri 821307,LPG  DISTRIBUTOR,12,473,2,15-19
8959,CHILDERN PAIRADISE NURSSERY,School Dehri Rohtas 9 1  Dehri Dehri  Nagar Parishad  Nill Kothi 821307,EDUCATION SERVICES CENTER,20,851,2,10-14
8960,PUNJAB NATIONAL BANK,Dehri  30 15  Dehri Dehri  Nagar Parishad  821307,BANKING,16,641,1,15-19
8961,CHHATRA PUSTAK BHANDAR,Dehri Rohtas 0 43 Dehri Dehri  Nagar Parishad  Thana Road  Dehri 821307,BOOK SHOP,12,471,2,10-14
8962,BJAJ ALLIANCE LIFE INSURANCE,Dehri Rohtas 0 46 6  Dehri Dehri  Nagar Parishad   821307,INSURANCE COMPANY,16,651,1,10-14
8963,THE ORIENTAL INSURANCE,Dehri Rohtas  46 7  Dehri Dehri  Nagar Parishad   821307,INSURANCE COMPANY,16,651,1,10-14
8964,STATE BANK OF INDIA,Dehri Rohtas  46 8  Dehri Dehri  Nagar Parishad  Pali Road 821307,BANKING,16,641,1,15-19
8965,LIFE INSURANCE CORPORATION,Dehri Rohtas  46 9  Dehri Dehri  Nagar Parishad   821307,INSURANCE COMPANY,16,651,1,30-99
8966,DEHRI ON SONE  POSTOFFICE,48 3  Dehri Dehri  Nagar Parishad  821307,POST OFFICE,13,531,1,10-14
8967,BANK OF INDIA,Dehri Rohtas  50 1  Dehri Dehri  Nagar Parishad   821307,BANKING,16,641,1,15-19
8968,CENTRAL BANK OF INDIA,Dehri  51 7  Dehri Dehri  Nagar Parishad  821307,BANKING,16,641,1,10-14
8969,SARDAR BUTTA SINGH AND SANS,0 54 Dehri Dehri  Nagar Parishad  Pali Road  Dehri 821307,CLOTH WHOLE SELLER,11,466,3,10-14
8970,BACHCHA BAND,Dehri Rohtas 0 60 11  Dehri Dehri  Nagar Parishad  Pali Road  Dehri 821307,BAND PARTY,22,900,2,10-14
8971,SWARAJ PUBLIC SCHOOL,Dehri Rohtas 0  Dehri Dehri  Nagar Parishad  Pani Tanki Road  Dehri 821307,EDUCATION SERVICES CENTER,20,852,2,10-14
8972,LEVLI CHILDERN ACEDAMY,Idgah Muhalla Dehri Rohtas 47 2  Dehri Dehri  Nagar Parishad  821307,EDUCATION SERVICES CNETER,20,852,2,10-14
8973,SRIRAM WOOLEN INDUTRISE  DEHRI,Rohtas 0 124 Dehri Dehri  Nagar Parishad  821307,MANUFACTURING BLANKET,6,142,2,20-24
8974,WHEEL SHOP,Dehri Rohtas 0 125 Dehri Dehri  Nagar Parishad   821307,MANUFACTURING TAYAR WHEEL ,6,221,2,30-99
8975,SHAHABAD DUGDH UTPADAN KENDRA,Dehri Rohtas 0 136 Dehri Dehri  Nagar Parishad   821307,MILK PRODUCATION,6,105,1,20-24
8976,RAJKIYA MIDDLE SCHOOL,Dehri Rohtas 0 96 Dehri Dehri  Nagar Parishad  821307,EDUCATION SERVICES CENTER,20,851,1,10-14
8977,JAGJIWAN COLLEGE  DEHRI,Rohtas 0 61 Dehri Dehri  Nagar Parishad  821307,EDUCATION SERVICES CENTER,20,853,1,100-199
8978,MAHATMA GANDHI ITI,Dehri Rohtas 0 125 Dehri Dehri  Nagar Parishad   821307,TRAINNING CENTER,20,854,2,10-14
8979,BOSE CLINIC,Canal Road  Dehri Rohtas  Dehri Dehri  Nagar Parishad  821307,HOSPITAL,21,861,2,20-24
8980,GEVERNMENTAL HIGH SCHOOL,Dehri Rohtas 1 Dehri Dehri  Nagar Parishad  821307,EDUCATION SERVICES CENTER,20,853,1,10-14
8981,RAJKIYA SANSKRIT UCHCH VIDHALAY,Dehri Rohtas 0 2 Dehri Dehri  Nagar Parishad  821307,TEAACHING CENTER,20,853,1,10-14
8982,MIDDLE SCHOOL   AURANGABAD,Saraiya Tilauthu Rohtas 0 102 Tilouthu Saraiya  Ct   821312,EDUCATION SERVICES CENTER,20,851,1,15-19
8983,MADRASA JAFARIA AURANGBAD,Saraiya Tilauthu Rohtas 27 Tilouthu Saraiya  Ct  821312,EDUCATION SERVICES CENTER,20,852,1,10-14
8984,MIDDLE SCHOOL,Shevhi Tilauthu Rohtas 120 Tilouthu Sewahi 821312,EDUCATION SERVICES CENTER,20,851,1,10-14
8985,INGURVASO KUNWAR,Hurka Tilauthu Rohtas 0 48 Tilouthu Hurka 821312,TRANSPORTING BUS ,13,492,2,10-14
8986,WINE SHOP,Indarpura Tilauthu Rohtas 0 88 Tilouthu Indarpura  821312,RETAILER SHOP,12,472,1,10-14
8987,GOVERMENTAL MIDDLE SCHOOL,Jarahan Tilauthu Rohtas 94 Tilouthu Jaraha 821312,EDUCATION SERVICES CENTER,20,851,1,10-14
8988,MIDDLE SCHOOL HARNACHITI,Tilauthu Rohtas 0 72 Tilouthu Harnachiti 821312,EDUCATION SERVICES CENTER,20,851,1,10-14
8989,MIDDLE SCHOOL   MIRZAPUR,Tilauthu Rohtas 0 122 Tilouthu Mirzapur 821312,EDUCATION SERVICES CENTER,20,851,1,10-14
8990,SARSWATI VIDHA MANDIR TILAUTHU,Rohtas 0  Tilouthu Tilauthu  821312,EDUCATION SERVICES CENTER,20,851,2,30-99
8991,GOVERNMENTAL MIDDLE SCHOOL,Maharajganj Tilauthu Rohtas 28 Tilouthu Tilauthu  821312,EDUCATION SERVICES CENTER,20,851,1,10-14
8992,PNS BRICK CENTER,Renaria Tilauthu Rohtas 0 105 Tilouthu Renria 821312,MANUFACTURING BRICKS,6,239,3,200-499
8993,RAHUL BRICK CENTER,Renaria Tilauthu Rohtas 0 106 Tilouthu Renria 821312,MANUFACTURING BRICKS,6,239,3,200-499
8994,MIDDLE SCHOOL PARARIYA,Tilauthu Rohtas 0 Tilouthu Panraria 821312,EDUCATION SERVICES CENTER,20,851,1,10-14
8995,RESIDENTIAL B C MIDDLE SCHOOL,Prariya Tilauthu Rohtas Tilouthu Panraria 821312,EDUCATION SERVICES CENTER,20,851,1,10-14
8996,AMAR SHAHID JAGDEO HIGH SCHOOL,Tilauthu Rohtas 0 147 Tilouthu Jago Dih 821312,EDUCATION SERVICES CENTER,20,852,1,10-14
8997,RAJKIYA MADHY VIDHALAY,Kerpa Tilauthu Rohtas 117 Tilouthu Kerpa 821312,EDUCATION SERVICES CENTER,20,851,1,10-14
8998,MIDDLE SCHOOL ROPAHATHA,Tilauthu Rohtas 0 23 Tilouthu Rupahtha 821312,EDUCATION SERVICES CENTER,20,851,1,10-14
8999,MIDDLE SCHOOL  CHITAULI,Tilauthu Rohtas 0 Tilouthu Chitauli  821312,EDUCATION SERVICES CENTER,20,851,1,10-14
9000,RAJKIYA MIDDLE SCHOOL  CHANDANPURA,Tilauthu Rohtas 0 15 Tilouthu Chanpura 821312,EDUCATION SERVICES CENTER,20,851,1,10-14
9001,MIDDLE SCHOOL INDRAPURI,Tilauthu Rohtas 0 142 1  Tilouthu Indarpura  821312,EDUCATION SERVICES CENTER,20,851,1,10-14
9002,S V P UCHCH VIDHALAY INDRAPURI,Tilauthu Rohtas 0 142 2  Tilouthu Indarpura  821312,EDUCATION SERVICES CENTER,20,852,1,10-14
9003,MAHILA MANDAL TILAUTHU,Rohtas 0 40 Tilouthu Tilauthu  821312,MAHILA MANDAL AND EDUCATION SERVICES CENTER,20,855,7,30-99
9004,AHMAD KHAN,Brick Industry Kusdihra Rohtas 73 1  Rohtas Kusdihra  821311,MANUFACTURING BRICKS,6,106,2,30-99
9005,KALAYANPUR CEMENT LIMITED,Banjari  Rohtas 0 97 Rohtas Kalyanpur 821311,MANUFACTURING CEMENT,6,239,2,>=500
9006,NATIONAL PUBLIC SCHOOL,Nokha Rohtas 0 4 2  Nokha Nokha  Np  802215,EDUCATION SERVICES,20,853,3,10-14
9007,SHRI,Budhan Chaudhary Samark Uchcha Vidhalya Nokha Rohtas 50 1  Nokha Nokha  Np   802215,EDUCATION SERVICES,20,853,1,10-14
9008,SHRI BUDHAN CHAUDHARY SMARAK,Vidhalya  Nokha Rohtas 50 2  Nokha Nokha  Np  802215,EDUCATION SERVICES,20,851,1,10-14
9009,KANYA MADHYA VIDHALYA  NOKHA,Rohtas 0 50 2  Nokha Nokha  Np   802215,EDUCATION SERVICES,20,851,1,10-14
9010,PRIMARY HEALTH CENTER NOKHA,Rohtas  93 1  Nokha Nokha  Np   802215,EDUCATION SERVICES,21,861,1,30-99
9011,SWAMI VIVEKANAND VIDHYAPITH NOKHA,Rohtas 0 108 Nokha Nokha  Np   802215,EDUCATION SERVICES,20,852,1,15-19
9012,ADARSH  VIDHA NIKETAN  NOKHA,Rohtas 0 120 Nokha Nokha  Np   802215,EDUCATION SERVICES,20,852,3,10-14
9013,LAKSHMIJI RAISH MILL,Nokha Rohtas 0  Nokha Nokha  Np   802215,RICE MANUFACTURING,6,106,3,15-19
9014,AXON SCHOOL NOKHA,Rohtas 0  Nokha Nokha  Np   802215,EDUCATION SERVICES,20,852,2,20-24
9015,SITAJI  RICE MILL NOKHA,Nokha Rohtas 0  Nokha Nokha  Np   802215,RICE MANUFACTURING,6,106,3,25-29
9016,STATE BANK OF INDIA,Nokha Rohtas  66 7  Nokha Nokha  Np  802215,BANKING,16,641,1,10-14
9017,SHANTI NIKETAN NOKHA,Rohtas 0 66 2  Nokha Nokha  Np   802215,EDUCATION SERVICES,20,852,2,15-19
9018,SANT JE P SCHOOL NOKHA,Rohtas 0 87 Nokha Nokha  Np   802215,EDUCATION SERVICES,20,852,2,10-14
9019,SARVODYA  UCHACH VIDHALYA  NOKHA,Rohtas 0 121 Nokha Nokha  Np   802215,EDUCATION SERVICES,20,852,1,10-14
9020,SARVODYA MADHYA VIDHALYA   NOKHA,Rohtas 0 125 Nokha Nokha  Np   802215,EDUCATION SERVICES,20,851,1,10-14
9021,KSTURBA GANDHI NOKHA,Rohtas 0 129 Nokha Nokha  Np   802215,EDUCATION SERVICES,20,851,1,10-14
9022,PROJECT BALIKA UCHACH VIDHALAYA,Nokha Rohtas 0 130 Nokha Nokha  Np  802215,EDUCATION SERVICES,20,852,1,10-14
9023,CHAKBANDI OFFICE,Nokha Rohtas 0  Nokha Nokha  Np   802215,OFFICE WORK,19,821,1,10-14
9024,UCHACH VIDHALYA GARH NOKHA,Rohtas 0 79 Nokha Nokha  Np  Ghosia Path 802215,EDUCATION SERVICES,20,852,2,10-14
9025,SHRI KESHRI JI RICE MILL,Nokha Rohtas 0 65 Nokha Nokha  Np  Ghoshia Path 802215,MANUFACTURING RICE,6,106,2,30-99
9026,BHAGWAN SAH   RICE MILL  ,Nokha Rohtas 0  Nokha Nokha  Np   802215,MANUFACTURING RICE,6,106,2,10-14
9027,GYAN KENDRA VIDHALYA,Nokha Rohtas 0 15 3  Nokha Nokha  Np  Nokha  Patelpuri   802215,EDUCATION SERVICES,20,852,3,20-24
9028,DR AMBIKA PRASAD SINGH,Radhika Kanya Uchach Vidhalya Nokha Rohtas 39 Nokha Nokha  Np  802215,EDUCATION SERVICES,20,852,1,10-14
9029,SANJAY GANDHI KANYA UCHACH,Vidhalaya  Nokha Rohtas 79 Nokha Nokha  Np   802215,EDUCATION SERVICES,20,852,1,10-14
9030,SHRI DURGAJI RICE MILL,Nokha Rohtas 0 15 Nokha Nokha  Np  802215,RICE MANUFACTURING,6,106,3,20-24
9031,JANKIJI RICE MILL  ARUN KUMAR ,Nokha Rohtas 0 20 Nokha Nokha  Np  802215,RICE MANUFACTURING,6,106,3,15-19
9032,LAKSHMANJI RICE MILL NOKHA,Nokha Rohtas 0 40 Nokha Nokha  Np  802215,MANUFACTURING RICE,6,106,3,15-19
9033,MAHAJAN RICE MILL PRIVATE LIMITED,Nokha Rohtas 0 41 Nokha Nokha  Np  802215,RICE MANUFACTURING,6,106,4,30-99
9034,JAGDAMBAJI RICE MILL,Nokha Rohtas 0 42 Nokha Nokha  Np  802215,RICE MANUFACTURING,6,106,2,15-19
9035,RADHIKAJI HANUMANJI  MODERN RICE,Nokha Rohtas 0 43 Nokha Nokha  Np  802215,RICE MANUFACTURING,6,106,3,15-19
9036,ISHWAR DAYAL BHAGWAT PRATAP SINGH,Mahavidhalay  Nokha Rohtas 44 Nokha Nokha  Np   802215,EDUCATION SERVICES,20,853,1,30-99
9037,RAM AWADH CHAUDHARY KA  RICE MILL,Nokha Rohtas 1 11  Nokha Nokha  Np  802215,MANUFACTURING RICE,6,106,3,20-24
9038,HANUMANJI RICE MILL NOKHA,Rohtas 0 10 Nokha Nokha  Np   802215,RICE MANUFACTURING,6,106,3,20-24
9039,SARSWATI SHISHU MANDIR,Nokha Rohtas 0 30 Nokha Nokha  Np  802215,EDUCATION SERVICES CENTER,20,852,7,20-24
