S.No.,Name of the Establishment,Address,Major Activity Description,Broad Activity Code,NIC,Owners hip Code,"Employ ment Class
Interval"
21279,lakshmi auto garage,101    m n halli road 563131,Maintenance And Repair Of Motor Vehicles,10,452,2,10-14
25590,ravindra kumar,24        563101,Maintenance And Repair Of Motor Vehicles,10,452,2,20-24
36505,afroz scrap factory,main road    563129,Maintenance And Repair Of Motor Vehicles,10,452,2,10-14
43636,shivakumar,563101,Maintenance And Repair Of Motor Vehicles,10,452,2,10-14
49196,hospital,563134,Hospital Activities,21,861,1,10-14
49197,gramapanchaythi,563161,Other Social Work Activities Without Accommodation N E C ,21,889,1,10-14
49198,govt high school,2282        563134,Secondary Education,20,852,1,15-19
49199,gownament school,563134,Primary Education,20,851,1,10-14
49200,p h c rayalpad,49        563134,Hospital Activities,21,861,1,10-14
49201,shalom vidya samste,192        563134,Other Social Work Activities Without Accommodation N E C ,21,889,2,10-14
49202,govt pu college gownipalli,141        563161,Secondary Education,20,852,1,15-19
49203,sapthagiri vidya samsthe,22        563161,Primary Education,20,851,2,30-99
49204,venkateshivareddy,563135,Retail Sale Of Food  Beverages And Tobacco In Specialized Stores,12,472,2,20-24
49205,govt hospital,563135,Hospital Activities,21,861,1,15-19
49206,rajaravana,563135,Animal Production,2,14,2,10-14
49207,clinic,30        563135,Medical And Dental Practice Activities,21,862,1,10-14
49208,bank,288        563135,Monetary Intermediation,16,641,1,10-14
49209,ramappa,17        563135,Primary Education,20,851,2,10-14
49210,school,1922        563135,Primary Education,20,851,2,10-14
49211,seenappa,25        563135,Quarrying Of Stone  Sand And Clay,5,81,2,10-14
49212,bathyeppa,52        563135,Animal Production,2,14,2,10-14
49213,school,563135,Secondary Education,20,852,1,10-14
49214,school,563153,Primary Education,20,851,1,10-14
49215,bayareddy,563135,Animal Production,2,14,2,10-14
49216,munivenkatappa,563135,Animal Production,2,14,2,10-14
49217,venkatarayappa,73        563138,Animal Production,2,14,2,10-14
49218,venkatareddy,70        563138,Animal Production,2,14,2,10-14
49219,venkatareddy,563135,Animal Production,2,14,2,10-14
49220,venkatareddy,563135,Animal Production,2,14,2,10-14
49221,venkatareddy,563135,Animal Production,2,14,2,10-14
49222,p h c muthakapalli,39        563138,Hospital Activities,21,861,1,10-14
49223,munikrishnegowda,124        563138,Manufacture Of Non  Metallic Mineral Products N E C ,6,239,2,20-24
49224,govt,school   110  563138,Primary Education,20,851,1,10-14
49225,sandappa,563138,Animal Production,2,14,1,10-14
49226,sri preethi vidyamandira,24        563138,Primary Education,20,851,2,10-14
49227,sri preethi vidyamandira,24        563138,Primary Education,20,851,2,10-14
49228,power supply,6        563138,Electric power generation  transmission   distribution,7,351,1,10-14
49229,govt hospital,97        563135,Hospital Activities,21,861,1,30-99
49230,govt degree college,32        563135,Higher Education,20,853,1,20-24
49231,pu girls college,58        563135,Secondary Education,20,852,2,15-19
49232,p w d office,56 1        563135,Construction Of Buildings,9,410,1,10-14
49233,p w d office,56 1        563135,Construction Of Buildings,9,410,1,10-14
49234,power supply,562        563135,Electric power generation  transmission   distribution,7,351,1,15-19
49235,govt p u coleg boyes,1        563135,Secondary Education,20,852,1,20-24
49236,power supply,169        563135,Electric power generation  transmission   distribution,7,351,1,10-14
49237,juniyar boys coleg govranment,276        563135,Primary Education,20,851,1,10-14
49238,k s r t c bas dipo,193        563135,Other Land Transport,13,492,4,200-499
49239,sapthagiri school,180        563135,Secondary Education,20,852,2,15-19
49240,municiple court,1442        563135,Legal Activities,18,691,1,25-29
49241,sri venu central school,165 1        563135,Secondary Education,20,852,2,20-24
49242,sree venuvidya samsthe,1653        563135,Secondary Education,20,852,2,30-99
49243,sri venu pu colege,165 3        563135,Secondary Education,20,852,2,10-14
49244,i t m vidya samsthe,41735        563135,Secondary Education,20,852,2,10-14
49245,nobel hospetal,41765        563135,Medical And Dental Practice Activities,21,862,2,20-24
49246,allamin school,691        563135,Secondary Education,20,852,9,10-14
49247,bharath petrol,121        563135,Retail Sale Of Automotive Fuel In Specialized Stores,12,473,2,10-14
49248,raami jah bi,96        563135,Support Activities To Agriculture And Post  Harvest Crop Activities,1,16,2,20-24
49249,shylendra vidya samsthe,41653        563135,Primary Education,20,851,2,15-19
49250,sathyanarayanareddy,85        563135,Other Financial Service Activities  Except Insurance And Pension Funding Activities,16,649,2,15-19
49251,sathyanarayanareddy,85        563135,Other Financial Service Activities  Except Insurance And Pension Funding Activities,16,649,2,15-19
49252,pavan nursing home,901        563135,Hospital Activities,21,861,2,25-29
49253,shabhir,9        563135,Animal Production,2,14,2,10-14
49254,shek ahamed,662        563135,Support Activities To Agriculture And Post  Harvest Crop Activities,1,16,2,10-14
49255,canara bank,563101,Monetary Intermediation,16,641,1,10-14
49256,school,165        563101,Primary Education,20,851,1,10-14
49257,inyathullasahrep,563151,Support Activities To Agriculture And Post  Harvest Crop Activities,1,16,2,10-14
49258,enayath ulla sharif,563151,Spinning  Weaving And Finishing Of Textiles,6,131,2,10-14
49259,abdul barshith,563151,Spinning  Weaving And Finishing Of Textiles,6,131,2,10-14
49260,kiran school,563151,Primary Education,20,851,2,10-14
49261,syad khadar phasha,563151,Spinning  Weaving And Finishing Of Textiles,6,131,2,10-14
49262,govt high school,Madderi  563102 vemgal hobli,Secondary Education,20,852,1,10-14
49263,ambarish,563102,Animal Production,2,14,2,25-29
49264,bgs school,563101,Secondary Education,20,852,2,25-29
49265,keb office,563101,Electric power generation  transmission   distribution,7,351,1,10-14
49266,murthy,563101,Manufacture Of Non  Metallic Mineral Products N E C ,6,239,3,10-14
49267,shakila bhasha,563101,Manufacture Of Non  Metallic Mineral Products N E C ,6,239,2,10-14
49268,rajamatha garmentes,vishwanagara 563102,Manufacture Of Wearing Apparel  Except Fur Apparel,6,141,2,200-499
49269,narayanaswamy,563102,Other Social Work Activities Without Accommodation N E C ,21,889,2,30-99
49270,thoppanna,563102,Other Social Work Activities Without Accommodation N E C ,21,889,2,20-24
49271,sarkariprwodashale,563102,Secondary Education,20,852,2,10-14
49272,bahanna,563102,Animal Production,2,14,2,10-14
49273,rajanna,563102,Animal Production,2,14,2,10-14
49274,veeramma,563102,Animal Production,2,14,2,10-14
49275,esvarappa,563102,Animal Production,2,14,2,10-14
49276,air bedding company,vemgal to narsapur road    563101,Manufacture Of Other Textiles,6,139,2,30-99
49277,nanjudappa,563101,Animal Production,2,14,2,10-14
49278,m t b foctory,563133,Manufacture Of Non  Metallic Mineral Products N E C ,6,239,2,15-19
49279,akash solid hallo bricks,563133,Manufacture Of Non  Metallic Mineral Products N E C ,6,239,2,15-19
49280,narayanaswamy2,563133,Plant Propagation,1,13,2,10-14
49281,span kankrit company,41692    Chikkavallabi 563133,Quarrying Of Stone  Sand And Clay,5,81,2,25-29
49282,chandregowda,563133,Animal Production,2,14,2,10-14
49283,primary health center,Narasapura road 563133,Hospital Activities,21,861,1,15-19
49284,suma new public school,NH4    Narasapura road    563133,Primary Education,20,851,2,30-99
49285,ramesh,563133,Manufacture Of Non  Metallic Mineral Products N E C ,6,239,2,10-14
49286,manjunath,563133,Manufacture Of Non  Metallic Mineral Products N E C ,6,239,2,20-24
49287,prakash,563133,Manufacture Of Non  Metallic Mineral Products N E C ,6,239,2,20-24
49288,govt welfare shop,87        563133,Primary Education,20,851,1,20-24
49289,track component ltd,563133,Manufacture Of Furniture,6,310,4,200-499
49290,panchyithi office,16        563133,Other Education,20,854,1,10-14
49291,nandish gowda,563133,Quarrying Of Stone  Sand And Clay,5,81,2,15-19
49292,baiyanna,563133,Manufacture Of Non  Metallic Mineral Products N E C ,6,239,2,30-99
49293,babu,563133,Quarrying Of Stone  Sand And Clay,5,81,2,25-29
49294,chamundeswari works,563133,Quarrying Of Stone  Sand And Clay,5,81,2,20-24
49295,appannareddy,563133,Quarrying Of Stone  Sand And Clay,5,81,2,30-99
49296,raviyanna,563133,Quarrying Of Stone  Sand And Clay,5,81,2,30-99
49297,byanna,563133,Quarrying Of Stone  Sand And Clay,5,81,2,30-99
49298,ganesh patil,563133,Quarrying Of Stone  Sand And Clay,5,81,2,20-24
49299,annadareddy,563133,Quarrying Of Stone  Sand And Clay,5,81,2,25-29
49300,ananthareddy,Uddappanahalli 563133,Quarrying Of Stone  Sand And Clay,5,81,2,20-24
49301,chodappa,563133,Quarrying Of Stone  Sand And Clay,5,81,2,15-19
49302,sudhakarreddy stone crasher,563133,Quarrying Of Stone  Sand And Clay,5,81,2,15-19
49303,krishnappa jalli crasher,563133,Quarrying Of Stone  Sand And Clay,5,81,2,15-19
49304,sathishappa stone crasher,563133,Quarrying Of Stone  Sand And Clay,5,81,2,25-29
49305,sagar stone crasher,563133,Quarrying Of Stone  Sand And Clay,5,81,2,30-99
49306,somanna,563133,Quarrying Of Stone  Sand And Clay,5,81,2,15-19
49307,lokesh,563133,Quarrying Of Stone  Sand And Clay,5,81,2,20-24
49308,sonnappa,563133,Quarrying Of Stone  Sand And Clay,5,81,2,15-19
49309,prem seva charitruble trast,563133,Primary Education,20,851,7,25-29
49310,prem seva vidyalaya,563133,Primary Education,20,851,7,30-99
49311,usha bricks,563133,Manufacture Of Non  Metallic Mineral Products N E C ,6,239,2,20-24
49312,byanodo,563133,Manufacture Of Motor Vehicles,6,291,4,30-99
49313,nippan conpro india pvt ltd,561000,Support Activities For Transportation,13,522,4,100-199
49314,vanarajappa fabrickes,563101,Manufacture Of Non  Metallic Mineral Products N E C ,6,239,2,10-14
49315,munichannappa,563101,Manufacture Of Non  Metallic Mineral Products N E C ,6,239,2,10-14
49316,mujayeth,122        563101,Manufacture Of Non  Metallic Mineral Products N E C ,6,239,2,30-99
49317,vazeer phasha,563101,Manufacture Of Non  Metallic Mineral Products N E C ,6,239,2,30-99
49318,mujaayed,563101,Manufacture Of Non  Metallic Mineral Products N E C ,6,239,2,30-99
49319,sab bay,563101,Manufacture Of Non  Metallic Mineral Products N E C ,6,239,2,15-19
49320,ramaswamy,563101,Animal Production,2,14,2,20-24
49321,a s sonnegowda,563133,Animal Production,2,14,2,10-14
49322,janardanappa,563133,Animal Production,2,14,2,10-14
49323,harish,37 1        563101,Manufacture Of Structural Metal Products  Tanks  Reservoirs And Steam Generators,6,251,2,25-29
49324,nurulla,37 2        563101,Animal Production,2,14,2,10-14
49325,noorulla,563101,Manufacture Of Non  Metallic Mineral Products N E C ,6,239,2,10-14
49326,harish,563101,Casting Of Metals,6,243,2,25-29
49327,nanjudappa,563101,Animal Production,2,14,2,10-14
49328,munihanumappa,563101,Animal Production,2,14,2,10-14
49329,narayanappa,563101,Plant Propagation,1,13,2,10-14
49330,venkateshappa,563101,Animal Production,2,14,2,10-14
49331,muniyappa,563101,Animal Production,2,14,2,15-19
49332,venkataravanappa,563101,Animal Production,2,14,2,10-14
49333,venkateshappa,563101,Animal Production,2,14,2,10-14
49334,rammappa,563101,Animal Production,2,14,2,15-19
49335,sriramappa,563101,Animal Production,2,14,2,15-19
49336,hanumappa,563101,Animal Production,2,14,2,15-19
49337,lakshmidevamma,563101,Animal Production,2,14,2,10-14
49338,narayanappa,563101,Animal Production,2,14,2,10-14
49339,narasamma,563101,Animal Production,2,14,2,15-19
49340,b e o office,563101,Primary Education,20,851,1,10-14
49341,hospital,38        563101,Hospital Activities,21,861,1,15-19
49342,markandappa,35        563101,Manufacture Of Non  Metallic Mineral Products N E C ,6,239,2,10-14
49343,srinivas,142        563130,Beverage Serving Activities,14,563,2,15-19
49344,godrej poultry  form,562101,Animal Production,2,14,7,20-24
49345,ramachandra,563101,Animal Production,2,14,2,10-14
49346,saraswathi vidya mandira,4    vanivillas road 560004,Secondary Education,20,852,2,30-99
49347,karnataka hostel commite association,malleshwaram 560063,Primary Education,20,851,1,10-14
49348,narayanaswamy,563101,Animal Production,2,14,2,15-19
49349,c krishnamurty,563101,Animal Production,2,14,2,10-14
49350,krishnappa k m,69        563102,Other Land Transport,13,492,2,10-14
49351,sabaramathi school,32 1        563102,Primary Education,20,851,1,30-99
49352,thirumalappa,563102,Other Land Transport,13,492,2,10-14
49353,narasimhappa,563102,Other Land Transport,13,492,2,10-14
49354,munikadirappa,563102,Other Land Transport,13,492,2,10-14
49355,syed sardar,136        563102,Animal Production,2,14,2,10-14
49356,joshef,563102,Secondary Education,20,852,2,10-14
49357,sri maruty vidya mandira,563101,Primary Education,20,851,2,15-19
49358,chowdareddy,563126,Animal Production,2,14,2,15-19
49359,govt higher primary school,563126,Secondary Education,20,852,1,10-14
49360,papireddy,563126,Manufacture Of Other Chemical Products,6,202,2,10-14
49361,sriramegowda,563126,Animal Production,2,14,2,25-29
49362,basker,563126,Manufacture Of Non  Metallic Mineral Products N E C ,6,239,2,20-24
49363,lotes varam,563126,Animal Production,2,14,2,30-99
49364,sriharireddy,563126,Animal Production,2,14,2,20-24
49365,b e o office,563101,Primary Education,20,851,1,10-14
49366,b e o office,563101,Secondary Education,20,852,1,10-14
49367,muniyappa,563101,Manufacture Of Non  Metallic Mineral Products N E C ,6,239,2,15-19
49368,rammu,563101,Manufacture Of Non  Metallic Mineral Products N E C ,6,239,2,20-24
49369,b e o office,563101,Secondary Education,20,852,1,10-14
49370,bislery water factory,563114,Water Collection  Treatment And Supply,8,360,2,10-14
49371,navazpasha,563101,Manufacture Of Non  Metallic Mineral Products N E C ,6,239,2,10-14
49372,m b w bricks,563101,Manufacture Of Non  Metallic Mineral Products N E C ,6,239,2,15-19
49373,anwar pasha,563101,Manufacture Of Non  Metallic Mineral Products N E C ,6,239,2,15-19
49374,f t b bricks,563101,Manufacture Of Non  Metallic Mineral Products N E C ,6,239,2,20-24
49375,kudrath,563101,Manufacture Of Non  Metallic Mineral Products N E C ,6,239,2,10-14
49376,eliyas,563101,Manufacture Of Non  Metallic Mineral Products N E C ,6,239,2,15-19
49377,muniyappa,563133,Plant Propagation,1,13,2,10-14
49378,maruthi suzuki car sheed,563101,Travel Agency And Tour Operator Activities,19,791,3,10-14
49379,gokul college,pettechamanahalli main road    563101,Secondary Education,20,852,2,15-19
49380,vidya jyothi school,563101,Secondary Education,20,852,2,30-99
49381,sri devaraj college,225        563101,Higher Education,20,853,2,30-99
49382,s d c college,563101,Secondary Education,20,852,2,30-99
49383,sarkara gramina,563136,Primary Education,20,851,2,10-14
49384,munihanawapa,563136,Animal Production,2,14,2,10-14
49385,gopal,bangarprt main road 563101,Manufacture Of Non  Metallic Mineral Products N E C ,6,239,2,10-14
49386,venkateswara hot chariear,rayakoti road 655109,Animal Production,2,14,2,30-99
49387,bhaskhar,563101,Animal Production,2,14,2,10-14
49388,sanu,563101,Canteen,14,562,2,10-14
49389,p g college,563101,Higher Education,20,853,2,10-14
49390,narsing school,563101,Higher Education,20,853,2,10-14
49391,ravishankar,563101,Restaurent,14,561,2,10-14
49392,n r hostel,563101,hostel,14,559,2,10-14
49393,shankar,563101,Beverage Serving Activities,14,563,2,10-14
49394,woodies hotel,563101,Beverage Serving Activities,14,563,2,30-99
49395,jalappa school,563101,Primary Education,20,851,2,20-24
49396,guptha school,125        563101,Primary Education,20,851,2,15-19
49397,ajantha indastires,563101,Manufacture Of Other Chemical Products,6,202,2,10-14
49398,kamalkumar bhuwalka,17  19  18  20    16b 563101,Manufacture Of Non  Metallic Mineral Products N E C ,6,239,2,100-199
49399,tasiullakahan,d2 d6    563101,Repair Of Fabricated Metal Products  Machinery And Equipment,6,331,2,15-19
49401,s l v mosic tiles,563101,Manufacture Of Non  Metallic Mineral Products N E C ,6,239,2,10-14
49402,b a shankarnarayan,563101,Manufacture Of Other Chemical Products,6,202,2,30-99
49403,harish,563101,Manufacture Of Vegetable And Animal Oils And Fats,6,104,2,10-14
49404,sri sai balaji agarabathi produtes,563101,Manufacture Of Other Chemical Products,6,202,2,10-14
49405,k c varghese,16a    563101,Manufacture Of Dairy Products,6,105,2,10-14
49406,shabari metales,v15    563101,Manufacture Of Furniture,6,310,2,10-14
49407,kamalakumar bhuvalka,richmond town 560025,Manufacture Of Non  Metallic Mineral Products N E C ,6,239,2,200-499
49408,resolex coir products,563101,Manufacture Of Other Textiles,6,139,2,30-99
49409,n jayaraju,563101,Sale Of Motor Vehicle Parts And Accessories,10,453,2,20-24
49410,mohan raju,563101,Sale Of Motor Vehicle Parts And Accessories,10,453,2,10-14
49411,venkatesh,563101,Sale Of Motor Vehicle Parts And Accessories,10,453,2,10-14
49413,srinivasreddy,563101,Manufacture Of Non  Metallic Mineral Products N E C ,6,239,2,10-14
49414,dinesh,563101,Water Collection  Treatment And Supply,8,360,2,15-19
49415,dr  prabakerreddy,563101,Hospital Activities,21,861,2,15-19
49416,meer naveed ahamad,old bus stand 563101,Retail Sale Of Automotive Fuel In Specialized Stores,12,473,2,10-14
49417,govt junire college,bangarpet main road    563101,Secondary Education,20,852,1,25-29
49418,hope hospital,etcm circal    563101,Hospital Activities,21,861,2,20-24
49419,manjunatha helth care,kanakanapalya 563101,Hospital Activities,21,861,2,15-19
49420,suguna foods ltd,kanakapalya 563101,Wholesale On A Fee Or Contract Basis,11,461,2,10-14
49421,bangales factory,kanakapalya 563101,Manufacture Of Games And Toys,6,324,2,15-19
49422,ram,19    563101,Retail Sale Of Food  Beverages And Tobacco In Specialized Stores,12,472,2,10-14
49423,vishal,20    563101,Retail Sale Of Food  Beverages And Tobacco In Specialized Stores,12,472,2,10-14
49424,shaker,20    563101,Retail Sale Of Food  Beverages And Tobacco In Specialized Stores,12,472,2,10-14
49425,t n shetty,563101,Sale Of Motor Vehicle Parts And Accessories,10,453,2,15-19
49426,saraswthi videyani keten,6th main road 563101,Secondary Education,20,852,2,15-19
49427,instute for youth   devlopment,563101,Other Social Work Activities Without Accommodation N E C ,21,889,1,30-99
49428,heritej market,563101,Retail Sale Of Other Goods In Specialized Stores,12,477,2,15-19
49429,krishnamurthy,563101,Retail Sale Of Automotive Fuel In Specialized Stores,12,473,2,10-14
49430,life insurence office,mahatma gandhi road    560001,Monetary Intermediation,16,641,1,10-14
49431,birla insurence company,841    one india milles central tower 1  400013 15th   16th,Monetary Intermediation,16,641,4,10-14
49432,new india insurence co ltd,XI 4TH FLO    tower blak   j c road   unite buliding  560002,Monetary Intermediation,16,641,4,10-14
49433,i n g vysya bank,22    m g road    560001,Monetary Intermediation,16,641,4,15-19
49434,corporeshan bank,574141,Monetary Intermediation,16,641,1,10-14
49435,state bank of mysore,560001,Monetary Intermediation,16,641,1,30-99
49436,post office,vidana souda road 560001,Postal activities,13,531,1,30-99
49437,banglore unniversity,560002,Higher Education,20,853,1,30-99
49438,reliance life insurence,m g road    561000,Monetary Intermediation,16,641,2,10-14
49439,ganesh,563101,Hospital Activities,21,861,2,15-19
49440,chanmaya mission,563101,Primary Education,20,851,2,30-99
49441,b r rureesh arya,563101,Retail Sale Of Other Goods In Specialized Stores,12,477,1,10-14
49442,dr shalini,563101,Hospital Activities,21,861,2,10-14
49443,smt usha gangadar,563101,Secondary Education,20,852,2,30-99
49444,k s c a   r d m d,563101,Monetary Intermediation,16,641,1,10-14
49445,ramathmananda,chinmya seva trast 560038    indira nagar,Primary Education,20,851,4,30-99
49446,canara bank,j c road    560002,Monetary Intermediation,16,641,1,20-24
49447,parvathamma,563101,Primary Education,20,851,5,10-14
49448,srinivasa,p c  extention 563101,Retail Sale Of Other Household Equipment In Specialized Stores,12,475,2,10-14
49449,sentjones school,563101,Secondary Education,20,852,2,30-99
49450,radhakrishna,tekal road    563101,Secondary Education,20,852,2,15-19
49451,radhakrishna,tekal road    563101,Secondary Education,20,852,2,15-19
49452,p g hostel,563101,Accomodation,14,559,2,10-14
49453,ramanjaneyareddy,563101,Sale Of Motor Vehicle Parts And Accessories,10,453,2,15-19
49455,sri gokul primary school,563101,Primary Education,20,851,2,10-14
49456,gulabjan,563101,Support Activities To Agriculture And Post  Harvest Crop Activities,1,16,2,15-19
49457,saleembeig,563101,Support Activities To Agriculture And Post  Harvest Crop Activities,1,16,2,20-24
49458,s aslamphasha,shaheednagar 563101,Support Activities To Agriculture And Post  Harvest Crop Activities,1,16,2,10-14
49459,s aslampasha,shahead nagar 563101,Support Activities To Agriculture And Post  Harvest Crop Activities,1,16,2,10-14
49460,m d   khaleel,563101,Support Activities To Agriculture And Post  Harvest Crop Activities,1,16,2,20-24
49461,shubala vidyalaya,k h b calony 563101,Primary Education,20,851,2,15-19
49462,sanik public school,563101,Primary Education,20,851,2,25-29
49463,m n g  pu college,k h b  colony 563101,Secondary Education,20,852,2,10-14
49464,ezaz pasha,563101,Retail Sale Of Other Household Equipment In Specialized Stores,12,475,2,10-14
49465,abdul rahid,563101,Retail Sale Of Other Household Equipment In Specialized Stores,12,475,2,10-14
49466,amier kan,563101,Retail Sale Of Other Household Equipment In Specialized Stores,12,475,2,10-14
49467,j k internatinol school,563101,Primary Education,20,851,2,20-24
49468,basha,563101,Manufacture Of Tobacco Products,6,120,2,10-14
49469,hkms school,563101,Secondary Education,20,852,2,10-14
49470,shaik hyder,563101,Support Activities To Agriculture And Post  Harvest Crop Activities,1,16,2,15-19
49471,abdul khaleel,1st main road 563101,Manufacture Of Tobacco Products,6,120,2,10-14
49472,ejaz pasha,563101,Support Activities To Agriculture And Post  Harvest Crop Activities,1,16,2,15-19
49473,siraj ahamed,563101,Support Activities To Agriculture And Post  Harvest Crop Activities,1,16,2,25-29
49477,manjunath,563101,Sale  Maintenance And Repair Of Motorcycles And Related Parts And Accessories,10,454,2,10-14
49478,b sanjanla,563101,Secondary Education,20,852,2,10-14
49479,presidency school,563101,Primary Education,20,851,2,20-24
49480,sabbir pasha,darga    563101,Support Activities To Agriculture And Post  Harvest Crop Activities,1,16,2,25-29
49481,sadiqpasha,1st main road 563101,Support Activities To Agriculture And Post  Harvest Crop Activities,1,16,2,15-19
49482,nousad khan,darga    563101,Support Activities To Agriculture And Post  Harvest Crop Activities,1,16,2,10-14
49483,mustaj ahmed,3rd cross    563101,Support Activities To Agriculture And Post  Harvest Crop Activities,1,16,2,30-99
49484,dr shivakumar,563101,Hospital Activities,21,861,2,15-19
49485,prabhakar,563101,Hospital Activities,21,861,2,30-99
49486,syed akmal pasha,563101,Repair Of Personal And Household Goods,23,952,2,10-14
49487,d manohar,563101,Retail Sale Of Other Goods In Specialized Stores,12,477,2,15-19
49488,abdulrehman,m b road    563101,Construction Of Buildings,9,410,2,10-14
49489,mohamad irshad,m b road    563101,Retail Sale Of Other Goods In Specialized Stores,12,477,2,10-14
49490,a bhaskhar,m b road    563101,Manufacture Of Grain Mill Products  Starches And Starch Products,6,106,2,25-29
49491,star healt insurence,563101,Activities Auxiliary To Insurance And Pension Funding,16,662,2,10-14
49492,m v narayanaswamy,563101,Other Education,20,854,2,15-19
49493,suguna nursing home,563101,Hospital Activities,21,861,2,15-19
49494,new kolar nursing home,563101,Hospital Activities,21,861,2,15-19
49495,pallavi takies,563101,Motion Picture  Video And Television Programme Activities,15,591,2,15-19
49496,jhon devid ceramo,563101,Real Estate Activities With Own Or Leased Property,17,681,2,10-14
49497,vijay bank,560002,Monetary Intermediation,16,641,1,10-14
49498,s b i bank,560002,Monetary Intermediation,16,641,1,20-24
49499,l c c microsoft computer,563101,Other Education,20,854,2,10-14
49500,k s f c,563101,Monetary Intermediation,16,641,1,15-19
49501,new govt high school,kumbarpet    563101,Secondary Education,20,852,1,30-99
49502,alla public school,563101,Primary Education,20,851,2,10-14
49503,alla bakash,563101,Manufacture Of Tobacco Products,6,120,2,10-14
49504,s ameer,k g mohalla 563101,Manufacture Of Tobacco Products,6,120,2,30-99
49505,alameen english higher primary school,563101,Secondary Education,20,852,2,15-19
49506,alameen d ed college,563101,Secondary Education,20,852,2,15-19
49507,abdul khaleel,563101,Manufacture Of Tobacco Products,6,120,2,10-14
49508,b e o office,563101,Primary Education,20,851,1,15-19
49509,alameen urdu high school,563101,Secondary Education,20,852,2,10-14
49510,alameen m a k college,563101,Secondary Education,20,852,2,15-19
49511,alameen primary school,563101,Primary Education,20,851,2,10-14
49512,mayura bakery,563101,Retail Sale Of Food  Beverages And Tobacco In Specialized Stores,12,472,2,10-14
49513,lakhmanna,563101,Canteen,14,562,2,10-14
49514,manohar nusing home,563101,Hospital Activities,21,861,2,15-19
49515,hotel sahana,563101,Canteen,14,562,2,10-14
49516,l i c office,563101,Activities Auxiliary To Insurance And Pension Funding,16,662,1,30-99
49517,riti jewellars,563101,Retail Sale Of Other Goods In Specialized Stores,12,477,2,15-19
49518,giyakanth ali,563101,Manufacture Of Structural Metal Products  Tanks  Reservoirs And Steam Generators,6,251,2,10-14
49519,vijaya chandra war,563101,Other Land Transport,13,492,2,10-14
49520,shanthiniketan central school,7th cross    563101,Primary Education,20,851,2,10-14
49521,ramchandregowda,10th cross    563101,Primary Education,20,851,2,10-14
49522,mahadevahai,kellukote    563101,Hospital Activities,21,861,2,10-14
49523,syed mohamed,kellukote    563101,Manufacture Of Non  Metallic Mineral Products N E C ,6,239,2,10-14
49524,md waiz khan,563101,Support Activities To Agriculture And Post  Harvest Crop Activities,1,16,2,10-14
49525,bhasir,563101,Manufacture Of Tobacco Products,6,120,2,20-24
49526,ejas,563101,Manufacture Of Tobacco Products,6,120,2,10-14
49527,azam,563101,Manufacture Of Tobacco Products,6,120,2,30-99
49528,aslam pasha,563101,Manufacture Of Tobacco Products,6,120,2,10-14
49529,fairoz,563101,Manufacture Of Tobacco Products,6,120,2,20-24
49530,sardar pasha,563101,Manufacture Of Vegetable And Animal Oils And Fats,6,104,2,10-14
49531,gress jyothi memorial school,4th cross    563101,Primary Education,20,851,2,10-14
49532,vahab jhon,3rd cross    563101,Manufacture Of Tobacco Products,6,120,2,20-24
49533,sardhar,4th cross    563101,Manufacture Of Tobacco Products,6,120,2,10-14
49534,noushad pasha,563101,Manufacture Of Tobacco Products,6,120,2,25-29
49535,mubeentaj,563101,Support Activities To Agriculture And Post  Harvest Crop Activities,1,16,2,10-14
49536,syed shameer,main road    563101,Support Activities To Agriculture And Post  Harvest Crop Activities,1,16,2,10-14
49537,inthiyaj,563101,Support Activities To Agriculture And Post  Harvest Crop Activities,1,16,2,10-14
49538,samiulla,563101,Manufacture Of Other Food Products,6,107,2,10-14
49539,syed shamir,563101,Support Activities To Agriculture And Post  Harvest Crop Activities,1,16,2,20-24
49540,sayed,563101,Manufacture Of Tobacco Products,6,120,2,15-19
49541,chand pasha,563101,Manufacture Of Tobacco Products,6,120,2,10-14
49542,fare zan,563101,Manufacture Of Tobacco Products,6,120,2,15-19
49543,inthiyaz,2nd cross    563101,Manufacture Of Tobacco Products,6,120,2,100-199
49544,reyaz ahamed,3rd cross    563101,Manufacture Of Tobacco Products,6,120,2,25-29
49545,chand pasha,4th cross    563101,Manufacture Of Tobacco Products,6,120,2,20-24
49546,riyaz ahamed,2nd croos    563101,Manufacture Of Tobacco Products,6,120,2,25-29
49547,mohammed shakeer,563101,Primary Education,20,851,2,10-14
49548,azmath ulla,563101,Saw Milling And Planing Of Wood,6,161,2,10-14
49549,maruthy,1st cross    563101,Retail Sale Of Automotive Fuel In Specialized Stores,12,473,2,10-14
49550,attaulla,1st main road 563101,Manufacture Of Non  Metallic Mineral Products N E C ,6,239,2,10-14
49551,venkatarayappa,563130,Manufacture Of Non  Metallic Mineral Products N E C ,6,239,2,10-14
49552,ramayya,563130,Animal Production,2,14,2,15-19
49553,babu,563130,Manufacture Of Non  Metallic Mineral Products N E C ,6,239,2,10-14
49554,sharya,563130,Animal Production,2,14,2,10-14
49555,sumra agro export kali,563130,Plant Propagation,1,13,4,30-99
49556,b n entar seets,563130,Manufacture Of Non  Metallic Mineral Products N E C ,6,239,4,100-199
49557,a s k auto motive,563130,Manufacture Of Motor Vehicles,6,291,2,>=500
49558,shree ishan kyantars,mmain road side 563130,Restaurent,14,561,2,10-14
49559,shree rabeen kyantars,main road side 563130,Restaurent,14,561,2,10-14
49560,kyantars,563130,Restaurent,14,561,2,20-24
49561,honda motar chycle,563130,Manufacture Of Motor Vehicles,6,291,2,>=500
49562,bhyregowda,563130,Manufacture Of Non  Metallic Mineral Products N E C ,6,239,2,10-14
49563,farest,563130,Plant Propagation,1,13,1,15-19
49564,neel metal product lfd,563130,Manufacture Of Furniture,6,310,4,200-499
49565,muralidhr,tempal road 563130,Manufacture Of Non  Metallic Mineral Products N E C ,6,239,2,15-19
49566,rajaram sing,vemgal road 563130,Manufacture Of Non  Metallic Mineral Products N E C ,6,239,2,10-14
49567,ansar pasha,563130,Manufacture Of Non  Metallic Mineral Products N E C ,6,239,2,15-19
49568,jayamma,563130,Manufacture Of Non  Metallic Mineral Products N E C ,6,239,2,15-19
49569,kempanna,563130,Manufacture Of Non  Metallic Mineral Products N E C ,6,239,2,30-99
49570,s v b,narasapura road 563130,Manufacture Of Non  Metallic Mineral Products N E C ,6,239,2,30-99
49571,prakashappa u r,563130,Manufacture Of Non  Metallic Mineral Products N E C ,6,239,2,25-29
49572,venu gopal,narasapura road 563130,Manufacture Of Non  Metallic Mineral Products N E C ,6,239,2,30-99
49573,m t b,narasapura road 563130,Manufacture Of Non  Metallic Mineral Products N E C ,6,239,2,15-19
49574,govt high school,563130,Primary Education,20,851,1,10-14
49575,s l v varadenahalli,narasapura road 563130,Manufacture Of Non  Metallic Mineral Products N E C ,6,239,2,20-24
49576,s n raghunath,narasapura road 563130,Animal Production,2,14,2,20-24
49577,siddaratha,narasapuraa road 563130,Animal Production,2,14,2,10-14
49578,partha sarthi,563130,Manufacture Of Non  Metallic Mineral Products N E C ,6,239,2,10-14
49579,hrundavana dhas,kanivenahalli road 563130,Manufacture Of Non  Metallic Mineral Products N E C ,6,239,2,10-14
49580,ramesh,563130,Manufacture Of Non  Metallic Mineral Products N E C ,6,239,2,20-24
49581,narayan,563130,Manufacture Of Non  Metallic Mineral Products N E C ,6,239,2,20-24
49582,jayasila,563130,Manufacture Of Non  Metallic Mineral Products N E C ,6,239,2,20-24
49583,basaweshwara high school,563130,Primary Education,20,851,2,10-14
49584,rudresh,563130,Manufacture Of Non  Metallic Mineral Products N E C ,6,239,2,20-24
49585,shivakumar,563130,Manufacture Of Non  Metallic Mineral Products N E C ,6,239,2,15-19
49586,narayanamma,563130,Manufacture Of Non  Metallic Mineral Products N E C ,6,239,2,15-19
49587,venkatesh,563130,Manufacture Of Non  Metallic Mineral Products N E C ,6,239,2,20-24
49588,krishnappa,vakkaleri road 563130,Manufacture Of Non  Metallic Mineral Products N E C ,6,239,2,25-29
49589,narayanaswamy,kollara road 563130,Manufacture Of Non  Metallic Mineral Products N E C ,6,239,2,10-14
49590,karnal rajagopalachari,563130,Manufacture Of Furniture,6,310,2,30-99
49591,muniyappa,563130,Manufacture Of Non  Metallic Mineral Products N E C ,6,239,2,25-29
49592,subramanya,563130,Manufacture Of Non  Metallic Mineral Products N E C ,6,239,2,15-19
49593,narayanappa,563130,Manufacture Of Non  Metallic Mineral Products N E C ,6,239,2,20-24
49594,ramanjinappa,563130,Manufacture Of Non  Metallic Mineral Products N E C ,6,239,2,10-14
49595,shanka reddy,563130,Manufacture Of Non  Metallic Mineral Products N E C ,6,239,2,10-14
49596,narayanaswamy,563130,Manufacture Of Non  Metallic Mineral Products N E C ,6,239,2,10-14
49597,srinivasa,harohalli road 536313,Manufacture Of Non  Metallic Mineral Products N E C ,6,239,2,15-19
49598,marikabha,563130,Manufacture Of Non  Metallic Mineral Products N E C ,6,239,2,15-19
49599,srinivasa,563130,Manufacture Of Non  Metallic Mineral Products N E C ,6,239,2,20-24
49600,k r m,madivala road 563130,Manufacture Of Non  Metallic Mineral Products N E C ,6,239,2,10-14
49601,papareddy,chikkakadathur road 563130,Manufacture Of Non  Metallic Mineral Products N E C ,6,239,2,20-24
49602,janrdan reddy,563130,Manufacture Of Non  Metallic Mineral Products N E C ,6,239,2,15-19
49603,hollo bricks work,563130,Manufacture Of Non  Metallic Mineral Products N E C ,6,239,2,10-14
49604,srinivas,563130,Manufacture Of Non  Metallic Mineral Products N E C ,6,239,2,10-14
49605,muniraj,563130,Manufacture Of Non  Metallic Mineral Products N E C ,6,239,2,10-14
49606,anjinappa,563130,Manufacture Of Non  Metallic Mineral Products N E C ,6,239,2,30-99
49607,bidappa,563130,Manufacture Of Non  Metallic Mineral Products N E C ,6,239,2,30-99
49608,s v b,563130,Manufacture Of Non  Metallic Mineral Products N E C ,6,239,2,10-14
49609,srinath,563130,Manufacture Of Non  Metallic Mineral Products N E C ,6,239,2,15-19
49610,venkatesh,563130,Manufacture Of Non  Metallic Mineral Products N E C ,6,239,2,20-24
49611,bricks,563130,Manufacture Of Non  Metallic Mineral Products N E C ,6,239,2,10-14
49612,s f s school,563130,Primary Education,20,851,2,30-99
49613,bhapoogi school,563130,Primary Education,20,851,2,15-19
49614,sunitha prabhu,563130,Hospital Activities,21,861,2,30-99
49615,corporation bank,563130,Monetary Intermediation,16,641,2,10-14
49616,s b m venkateha,563130,Manufacture Of Non  Metallic Mineral Products N E C ,6,239,2,30-99
49617,ramayya,563130,Manufacture Of Non  Metallic Mineral Products N E C ,6,239,2,15-19
49618,narayana swamy,563130,Plant Propagation,1,13,2,10-14
49619,somanna,563130,Manufacture Of Non  Metallic Mineral Products N E C ,6,239,2,25-29
49620,s b m narayana swamy,563130,Manufacture Of Non  Metallic Mineral Products N E C ,6,239,2,25-29
49621,rajappa,563130,Manufacture Of Non  Metallic Mineral Products N E C ,6,239,2,15-19
49622,gopal shetty,563130,Manufacture Of Non  Metallic Mineral Products N E C ,6,239,2,30-99
49623,seenappa,563130,Manufacture Of Non  Metallic Mineral Products N E C ,6,239,2,15-19
49624,rajanna c,563130,Manufacture Of Non  Metallic Mineral Products N E C ,6,239,2,15-19
49625,narendra kumar,563130,Manufacture Of Non  Metallic Mineral Products N E C ,6,239,2,30-99
49626,narayanswamy,563130,Manufacture Of Non  Metallic Mineral Products N E C ,6,239,2,20-24
49627,ramakrishne gowda,563160,Manufacture Of Non  Metallic Mineral Products N E C ,6,239,2,10-14
49628,rajendra,563160,Manufacture Of Non  Metallic Mineral Products N E C ,6,239,2,10-14
49629,ramachandre gowda,563160,Manufacture Of Non  Metallic Mineral Products N E C ,6,239,2,10-14
49630,anjinappa,563160,Manufacture Of Non  Metallic Mineral Products N E C ,6,239,2,10-14
49631,anjinappa,563160,Manufacture Of Non  Metallic Mineral Products N E C ,6,239,2,10-14
49632,shivakumar,563160,Animal Production,2,14,2,15-19
49633,veerabadraswamy bricks factory,563130,Manufacture Of Non  Metallic Mineral Products N E C ,6,239,2,10-14
49634,puttappa,563130,Manufacture Of Non  Metallic Mineral Products N E C ,6,239,2,10-14
49635,governament high school,563130,Primary Education,20,851,2,10-14
49636,venkateshappa,563130,Canteen,14,562,2,30-99
49637,krishnappa,563130,Manufacture Of Non  Metallic Mineral Products N E C ,6,239,2,30-99
49638,venkatesh,563130,Manufacture Of Non  Metallic Mineral Products N E C ,6,239,2,30-99
49639,veerasangappa,563130,Manufacture Of Non  Metallic Mineral Products N E C ,6,239,2,20-24
49640,munirajappa,563130,Other Land Transport,13,492,2,20-24
49641,nagaraj,byalahalli    563130,Manufacture Of Non  Metallic Mineral Products N E C ,6,239,2,20-24
49642,munirajappa,koragandahalli road 563130,Manufacture Of Non  Metallic Mineral Products N E C ,6,239,2,30-99
49643,manmtha ram,byalahalli road 563130,Manufacture Of Non  Metallic Mineral Products N E C ,6,239,2,10-14
49644,ramachandrappa,563130,Manufacture Of Non  Metallic Mineral Products N E C ,6,239,2,15-19
49645,linkesh,563130,Manufacture Of Non  Metallic Mineral Products N E C ,6,239,2,10-14
49646,vinayaka bricks work,563130,Manufacture Of Non  Metallic Mineral Products N E C ,6,239,2,10-14
49647,g v gore,563130,Water Collection  Treatment And Supply,8,360,2,30-99
49648,somashekar,563130,Retail Sale Of Other Goods In Specialized Stores,12,477,2,30-99
49649,gland chemical,563130,Manufacture Of Pharmaceuticals  Medicinal Chemical And Botanical   Products,6,210,2,30-99
49650,sriram,563130,Computer Programming  Consultancy And Related Activities,15,620,2,20-24
49651,c m pai,563130,Casting Of Metals,6,243,2,25-29
49652,sheshagiri,563130,Electrical  Plumbing And Other Construction Installation Activities,9,432,2,30-99
49653,narayana e,563130,Repair Of Personal And Household Goods,23,952,2,30-99
49654,krishnareddy,563130,Manufacture Of Other Chemical Products,6,202,2,30-99
49655,bricks work,563130,Manufacture Of Non  Metallic Mineral Products N E C ,6,239,2,15-19
49656,ovobel,563130,Manufacture Of Pharmaceuticals  Medicinal Chemical And Botanical   Products,6,210,2,30-99
49657,nithish,563130,Manufacture Of Non  Metallic Mineral Products N E C ,6,239,2,10-14
49658,kantharaju,563130,Manufacture Of Non  Metallic Mineral Products N E C ,6,239,2,10-14
49659,r s granite,563130,Manufacture Of Non  Metallic Mineral Products N E C ,6,239,2,10-14
49660,mothiya granite,563130,Manufacture Of Non  Metallic Mineral Products N E C ,6,239,2,10-14
49661,surendar,563130,Manufacture Of Pharmaceuticals  Medicinal Chemical And Botanical   Products,6,210,2,200-499
49662,sunil athavar,563130,Manufacture Of Pharmaceuticals  Medicinal Chemical And Botanical   Products,6,210,2,200-499
49663,best oils,563130,Retail Sale Of Automotive Fuel In Specialized Stores,12,473,2,20-24
49664,l a k steel pipes,563130,Casting Of Metals,6,243,2,10-14
49665,josejames,563130,Manufacture Of Plastics Products,6,222,2,30-99
49666,joyees,563130,Manufacture Of Plastics Products,6,222,2,15-19
49667,prasad,563130,Manufacture Of Dairy Products,6,105,2,25-29
49668,mehul gandhi,563130,Sale Of Motor Vehicle Parts And Accessories,10,453,2,30-99
49669,gyabriel indian ltd,563130,Sale Of Motor Vehicle Parts And Accessories,10,453,2,20-24
49670,south indian pulvarsis,563130,Retail Sale Of Other Household Equipment In Specialized Stores,12,475,2,10-14
49671,papuji agarwal,563130,Manufacture Of Non  Metallic Mineral Products N E C ,6,239,2,20-24
49672,shanthi a,563130,Repair Of Personal And Household Goods,23,952,2,10-14
49673,sandeep,563130,Manufacture Of Non  Metallic Mineral Products N E C ,6,239,2,20-24
49674,r g industries,kurandahalli 563130,Manufacture Of Non  Metallic Mineral Products N E C ,6,239,2,15-19
49675,vikas,563130,Manufacture Of Non  Metallic Mineral Products N E C ,6,239,2,15-19
49676,sushanth,563130,Manufacture Of Non  Metallic Mineral Products N E C ,6,239,2,20-24
49677,maru granaites,563130,Manufacture Of Non  Metallic Mineral Products N E C ,6,239,2,25-29
49678,naleen guptha,563130,Manufacture Of Non  Metallic Mineral Products N E C ,6,239,2,25-29
49679,azmeerbeg,563130,Manufacture Of Plastics Products,6,222,2,10-14
49680,pratap,563130,Retail Sale Of Other Goods In Specialized Stores,12,477,2,10-14
49681,d k suresh,563130,Manufacture Of Other Chemical Products,6,202,2,10-14
49682,gomathi suresh,563130,Manufacture Of Other Chemical Products,6,202,2,30-99
49683,a m w rollingmill,563130,Casting Of Metals,6,243,2,10-14
49684,nakul,563130,Retail Sale Of Other Goods In Specialized Stores,12,477,2,25-29
49685,gopal krishna,563130,Electrical  Plumbing And Other Construction Installation Activities,9,432,2,10-14
49686,aurangabeg,563130,Manufacture Of Other Food Products,6,107,2,10-14
49687,s murali,563130,Manufacture Of Other Chemical Products,6,202,2,30-99
49688,shamoja,563130,Animal Production,2,14,2,20-24
49689,siddarthmishra,563130,Casting Of Metals,6,243,2,30-99
49690,shobanbabu,563130,Casting Of Metals,6,243,2,15-19
49691,tajunnisa,563130,Casting Of Metals,6,243,2,20-24
49692,ramesh sn,563130,Primary Education,20,851,2,30-99
49693,murali,563130,Manufacture Of Plastics Products,6,222,2,30-99
49694,geetha entarprasss,563130,Electrical  Plumbing And Other Construction Installation Activities,9,432,2,20-24
49695,manjappa,563130,Electrical  Plumbing And Other Construction Installation Activities,9,432,2,30-99
49696,rajagopal,563130,Sale Of Motor Vehicle Parts And Accessories,10,453,2,30-99
49697,fayaz,563130,Manufacture Of Non  Metallic Mineral Products N E C ,6,239,2,20-24
49698,nagesh,563130,Manufacture Of Non  Metallic Mineral Products N E C ,6,239,2,30-99
49699,mallesh,563130,Manufacture Of Non  Metallic Mineral Products N E C ,6,239,2,20-24
49700,mohan,563130,Manufacture Of Non  Metallic Mineral Products N E C ,6,239,2,20-24
49701,krishnamurthi,563130,Manufacture Of Non  Metallic Mineral Products N E C ,6,239,2,20-24
49702,mohan,housr    563130,Manufacture Of Non  Metallic Mineral Products N E C ,6,239,2,30-99
49703,ravendra sigal,indrceyeriya road 563130,Manufacture Of Non  Metallic Mineral Products N E C ,6,239,2,30-99
49704,k n rajesh,563130,Manufacture Of Wearing Apparel  Except Fur Apparel,6,141,2,30-99
49705,anandakumar,main road    563130,Manufacture Of Non  Metallic Mineral Products N E C ,6,239,2,10-14
49706,manjuntha,563130,Manufacture Of Non  Metallic Mineral Products N E C ,6,239,2,30-99
49707,kodhanaraman,main road    563130,Manufacture Of Non  Metallic Mineral Products N E C ,6,239,2,30-99
49708,ramegowda,housr main road 563130,Manufacture Of Non  Metallic Mineral Products N E C ,6,239,2,15-19
49709,ramesh k p,housr road    563130,Manufacture Of Non  Metallic Mineral Products N E C ,6,239,2,10-14
49710,nilas,563130,Manufacture Of Non  Metallic Mineral Products N E C ,6,239,2,20-24
49711,seemasharma,main road    563130,Manufacture Of Non  Metallic Mineral Products N E C ,6,239,2,30-99
49712,manjuntha,main road    563130,Manufacture Of Non  Metallic Mineral Products N E C ,6,239,2,10-14
49713,sagar,nosagere main road 563130,Manufacture Of Non  Metallic Mineral Products N E C ,6,239,2,10-14
49714,srinivasa,563130,Manufacture Of Non  Metallic Mineral Products N E C ,6,239,2,20-24
49715,laksmi,nosageremain road 563130,Manufacture Of Non  Metallic Mineral Products N E C ,6,239,2,20-24
49716,prakash,563130,Manufacture Of Non  Metallic Mineral Products N E C ,6,239,2,25-29
49717,shamsudin,housr road    563130,Manufacture Of Non  Metallic Mineral Products N E C ,6,239,2,30-99
49718,asees  rathod,563130,Manufacture Of Non  Metallic Mineral Products N E C ,6,239,2,20-24
49719,jinnu,main road    563130,Manufacture Of Non  Metallic Mineral Products N E C ,6,239,2,200-499
49720,ramchndra reddy,563130,Manufacture Of Non  Metallic Mineral Products N E C ,6,239,2,10-14
49721,murgesh,housr main road 563130,Printing And Service Activities Related To Printing,6,181,2,20-24
49722,jakir ghan,main road    563130,Printing And Service Activities Related To Printing,6,181,2,15-19
49723,prdeef,housr main road 563130,Manufacture Of Non  Metallic Mineral Products N E C ,6,239,2,30-99
49724,venkatesh gowda,563130,Manufacture Of Non  Metallic Mineral Products N E C ,6,239,2,30-99
49725,emujiser,mani road    563130,Manufacture Of Non  Metallic Mineral Products N E C ,6,239,2,15-19
49726,vijay kumar,563130,Manufacture Of Non  Metallic Mineral Products N E C ,6,239,2,10-14
49727,nagaraj,housr road    563136,Manufacture Of Non  Metallic Mineral Products N E C ,6,239,2,30-99
49728,babu,villege road 563130,Manufacture Of Non  Metallic Mineral Products N E C ,6,239,2,30-99
49729,dinesh,gramadha road 563130,Manufacture Of Non  Metallic Mineral Products N E C ,6,239,2,20-24
49730,ambrish,563130,Manufacture Of Non  Metallic Mineral Products N E C ,6,239,2,10-14
49731,vasu,villege road 563130,Manufacture Of Non  Metallic Mineral Products N E C ,6,239,2,15-19
49732,vasantha,villege road 563130,Manufacture Of Non  Metallic Mineral Products N E C ,6,239,2,10-14
49733,changanna,563130,Manufacture Of Non  Metallic Mineral Products N E C ,6,239,2,15-19
49734,mallesh,main road    563130,Manufacture Of Non  Metallic Mineral Products N E C ,6,239,2,15-19
49735,nagesh,main road    563130,Manufacture Of Non  Metallic Mineral Products N E C ,6,239,2,10-14
49736,mohan,malur main  road 563130,Manufacture Of Non  Metallic Mineral Products N E C ,6,239,2,10-14
49737,nagaeraj,villege    563130,Manufacture Of Non  Metallic Mineral Products N E C ,6,239,2,20-24
49738,ramkrisnappa,villege roda 563130,Manufacture Of Non  Metallic Mineral Products N E C ,6,239,2,15-19
49739,munishmai,villege road 563130,Manufacture Of Non  Metallic Mineral Products N E C ,6,239,2,30-99
49740,book krisnappa,villege road 563130,Manufacture Of Non  Metallic Mineral Products N E C ,6,239,2,30-99
49741,vijayendra,villege road 563130,Manufacture Of Non  Metallic Mineral Products N E C ,6,239,2,30-99
49742,ramakrishna,563130,Manufacture Of Non  Metallic Mineral Products N E C ,6,239,2,10-14
49743,ansar bricks factory,563130,Manufacture Of Non  Metallic Mineral Products N E C ,6,239,2,15-19
49744,kariyappa,563130,Manufacture Of Non  Metallic Mineral Products N E C ,6,239,2,15-19
49745,chikkanna,563130,Manufacture Of Non  Metallic Mineral Products N E C ,6,239,2,10-14
49746,narayanaswamy,563160,Manufacture Of Non  Metallic Mineral Products N E C ,6,239,2,10-14
49747,bricks fatory,563160,Manufacture Of Non  Metallic Mineral Products N E C ,6,239,2,10-14
49748,thimmarayswamy bricks works,563160,Manufacture Of Non  Metallic Mineral Products N E C ,6,239,2,10-14
49749,shri hari,563130,Manufacture Of Non  Metallic Mineral Products N E C ,6,239,2,10-14
49750,ramesh,563130,Manufacture Of Non  Metallic Mineral Products N E C ,6,239,2,10-14
49751,senthil adhani agrilogistic ltd,563130,Retail Sale Of Food  Beverages And Tobacco In Specialized Stores,12,472,2,15-19
49752,channakeshava,malur road    563130,Manufacture Of Non  Metallic Mineral Products N E C ,6,239,2,20-24
49753,s v b bricks,563130,Manufacture Of Non  Metallic Mineral Products N E C ,6,239,2,15-19
49754,v k ramachandrayya,563130,Manufacture Of Non  Metallic Mineral Products N E C ,6,239,2,10-14
49755,santhosh s d,563130,Manufacture Of Non  Metallic Mineral Products N E C ,6,239,2,15-19
49756,marikamba bricks,563130,Manufacture Of Non  Metallic Mineral Products N E C ,6,239,2,15-19
49757,k narayanappa,563130,Manufacture Of Non  Metallic Mineral Products N E C ,6,239,2,100-199
49758,dayanada,563130,Manufacture Of Non  Metallic Mineral Products N E C ,6,239,2,10-14
49759,narayanswamy,563130,Manufacture Of Non  Metallic Mineral Products N E C ,6,239,2,10-14
49760,karna,563130,Manufacture Of Non  Metallic Mineral Products N E C ,6,239,2,15-19
49761,ramachandrappa   narayanaswamy,563130,Animal Production,2,14,2,15-19
49762,narayanappa,563130,Animal Production,2,14,2,20-24
49763,bricks factary,563130,Manufacture Of Non  Metallic Mineral Products N E C ,6,239,2,10-14
49764,bricks factory,563130,Manufacture Of Non  Metallic Mineral Products N E C ,6,239,2,15-19
49765,briks factory,563130,Manufacture Of Non  Metallic Mineral Products N E C ,6,239,2,10-14
49766,bricks factory,563130,Manufacture Of Non  Metallic Mineral Products N E C ,6,239,2,15-19
49767,chinnareddy,563130,Manufacture Of Non  Metallic Mineral Products N E C ,6,239,2,15-19
49768,sanga,563130,Primary Education,20,851,3,10-14
49769,anadareddy,563130,Manufacture Of Non  Metallic Mineral Products N E C ,6,239,2,15-19
49770,bricks factory,563130,Manufacture Of Non  Metallic Mineral Products N E C ,6,239,2,15-19
49771,bricks factory,563130,Manufacture Of Non  Metallic Mineral Products N E C ,6,239,2,15-19
49772,bricks factory,563130,Manufacture Of Non  Metallic Mineral Products N E C ,6,239,2,15-19
49773,venkateshwara bricks factory,563130,Manufacture Of Non  Metallic Mineral Products N E C ,6,239,2,15-19
49774,venkataswamy bricks work,563130,Manufacture Of Non  Metallic Mineral Products N E C ,6,239,2,10-14
49775,laksmamma,r f road    563130,Manufacture Of Non  Metallic Mineral Products N E C ,6,239,2,10-14
49776,anansda marga,563130,Secondary Education,20,852,2,30-99
49777,narayanaswamy,563130,Manufacture Of Non  Metallic Mineral Products N E C ,6,239,2,15-19
49778,nagarajappa,563130,Manufacture Of Non  Metallic Mineral Products N E C ,6,239,2,10-14
49779,chandrappa,563130,Manufacture Of Non  Metallic Mineral Products N E C ,6,239,2,15-19
49780,venkataswamy,563130,Manufacture Of Non  Metallic Mineral Products N E C ,6,239,2,10-14
49781,narayana gowda,563130,Manufacture Of Non  Metallic Mineral Products N E C ,6,239,2,10-14
49782,narayanaswamy,563130,Manufacture Of Non  Metallic Mineral Products N E C ,6,239,2,25-29
49783,ramegowda,563130,Manufacture Of Non  Metallic Mineral Products N E C ,6,239,2,15-19
49784,praksh,563130,Manufacture Of Non  Metallic Mineral Products N E C ,6,239,2,15-19
49785,kudiyanooru high school,masthi road 563160,Secondary Education,20,852,1,10-14
49786,chndra chodeswari,rampura road 563130,Manufacture Of Non  Metallic Mineral Products N E C ,6,239,2,10-14
49787,grama panchyit,563160,Other Social Work Activities Without Accommodation N E C ,21,889,2,15-19
49788,chandrachudeshwari bricks,rampur road 563160,Manufacture Of Non  Metallic Mineral Products N E C ,6,239,2,15-19
49789,govt primary school,busstand    563160,Primary Education,20,851,1,15-19
49790,krishnappa,563139,Manufacture Of Non  Metallic Mineral Products N E C ,6,239,2,25-29
49791,sushnth,563160,Manufacture Of Non  Metallic Mineral Products N E C ,6,239,2,10-14
49792,eregowda,563130,Manufacture Of Non  Metallic Mineral Products N E C ,6,239,2,10-14
49793,anandappa,turugalur road 563130,Manufacture Of Non  Metallic Mineral Products N E C ,6,239,2,10-14
49794,anjinappa,manishettahalli road 563130,Manufacture Of Non  Metallic Mineral Products N E C ,6,239,2,20-24
49795,anjinappa,manisettahalli 563130,Manufacture Of Non  Metallic Mineral Products N E C ,6,239,2,20-24
49796,narayanaswamy,manishettahalli 563130,Manufacture Of Non  Metallic Mineral Products N E C ,6,239,2,15-19
49797,ramakrushnappa,563130,Animal Production,2,14,2,15-19
49798,mahesh,medahatti    563130,Manufacture Of Non  Metallic Mineral Products N E C ,6,239,2,10-14
49799,mahesh,malur road    563130,Manufacture Of Non  Metallic Mineral Products N E C ,6,239,2,25-29
49800,rajppa,malur road    563130,Animal Production,2,14,2,10-14
49801,ramakrisnappa,malur road    563130,Animal Production,2,14,2,15-19
49802,c b w,anjineyadevalaya road    563103,Manufacture Of Non  Metallic Mineral Products N E C ,6,239,2,15-19
49803,andareddy,hulimangala road 563130,Manufacture Of Non  Metallic Mineral Products N E C ,6,239,2,10-14
49804,a,a b w    563130,Manufacture Of Non  Metallic Mineral Products N E C ,6,239,2,15-19
49805,arun,main road seethanayakahalli 563130,Manufacture Of Non  Metallic Mineral Products N E C ,6,239,2,15-19
49806,r y b,main road    563130,Manufacture Of Non  Metallic Mineral Products N E C ,6,239,2,15-19
49807,c b w,main road    563130,Manufacture Of Non  Metallic Mineral Products N E C ,6,239,1,15-19
49808,cenara bank,main road    563130,Monetary Intermediation,16,641,1,10-14
49809,adeel pasha,563130,Retail Sale Of Food  Beverages And Tobacco In Specialized Stores,12,472,2,10-14
49810,chandhu,563130,Retail Sale Of Food  Beverages And Tobacco In Specialized Stores,12,472,2,10-14
49811,dasthagiri,mani road    563130,Retail Sale Of Food  Beverages And Tobacco In Specialized Stores,12,472,2,10-14
49812,verabadrappa m,563130,Manufacture Of Non  Metallic Mineral Products N E C ,6,239,2,30-99
49813,c p m school,chikkathirupathi road    563130,Secondary Education,20,852,2,25-29
49814,high school,school filed 563130,Secondary Education,20,852,1,10-14
49815,govt premaree school,govt school filed 563130,Primary Education,20,851,2,10-14
49816,govt middle school,govt school filed 563130,Primary Education,20,851,2,10-14
49817,narayanappa,j p colony    563130,Wired Telecommunications Activities,15,611,2,10-14
49818,k m  krishnareddy,563130,Manufacture Of Non  Metallic Mineral Products N E C ,6,239,2,20-24
49819,krishnappa k m,563130,Manufacture Of Non  Metallic Mineral Products N E C ,6,239,2,20-24
49820,s v b,kodahalli main road 563130,Manufacture Of Non  Metallic Mineral Products N E C ,6,239,2,10-14
49821,s v b,malur main road 563130,Manufacture Of Non  Metallic Mineral Products N E C ,6,239,2,20-24
49822,krishnareddy,12    hosur road 563130,Manufacture Of Non  Metallic Mineral Products N E C ,6,239,2,20-24
49823,krishnareddy,20        563130,Manufacture Of Non  Metallic Mineral Products N E C ,6,239,2,20-24
49824,janardhanareddy,131        563130,Manufacture Of Non  Metallic Mineral Products N E C ,6,239,2,10-14
49825,suvarnamma,563130,Manufacture Of Non  Metallic Mineral Products N E C ,6,239,2,10-14
49826,vinayaka granite factory,563130,Manufacture Of Non  Metallic Mineral Products N E C ,6,239,2,10-14
49827,golden inter national school,school filed 563130,Primary Education,20,851,2,15-19
49828,vovt high school,22        563160,Secondary Education,20,852,1,10-14
49829,muniyappa,64    malur road 563160,Manufacture Of Non  Metallic Mineral Products N E C ,6,239,2,10-14
49830,harish,183    malur road 563160,Manufacture Of Non  Metallic Mineral Products N E C ,6,239,2,10-14
49831,harish,563160,Manufacture Of Non  Metallic Mineral Products N E C ,6,239,2,10-14
49832,veerabhadraswamy,malur    563160,Manufacture Of Non  Metallic Mineral Products N E C ,6,239,2,15-19
49833,madappa,563160,Animal Production,2,14,2,10-14
49834,sampgiramaya,hosur road    563160,Manufacture Of Non  Metallic Mineral Products N E C ,6,239,2,15-19
49835,bricks works,malur road    563160,Manufacture Of Non  Metallic Mineral Products N E C ,6,239,2,10-14
49836,srinivas,563160,Manufacture Of Non  Metallic Mineral Products N E C ,6,239,2,10-14
49837,palkshappa,563160,Manufacture Of Non  Metallic Mineral Products N E C ,6,239,2,10-14
49838,rajappa,563130,Manufacture Of Non  Metallic Mineral Products N E C ,6,239,2,10-14
49839,venkataramanappa,563130,Manufacture Of Non  Metallic Mineral Products N E C ,6,239,2,30-99
49840,sudrshn,563130,Manufacture Of Non  Metallic Mineral Products N E C ,6,239,2,10-14
49841,prabakar,563130,Manufacture Of Non  Metallic Mineral Products N E C ,6,239,2,10-14
49842,narasima bricks,563130,Manufacture Of Non  Metallic Mineral Products N E C ,6,239,2,20-24
49843,manjunatha,563130,Manufacture Of Non  Metallic Mineral Products N E C ,6,239,2,20-24
49844,m s muniyappa,563130,Animal Production,2,14,2,15-19
49845,shiva,563130,Animal Production,2,14,2,10-14
49846,srinivasa,gonooru road 563130,Animal Production,2,14,2,15-19
49847,yallappa,563130,Animal Production,2,14,2,15-19
49848,vemmanna,563130,Animal Production,2,14,2,15-19
49849,kempanna,563130,Animal Production,2,14,2,25-29
49850,muniyappa,563130,Manufacture Of Products Of Wood  Cork  Straw And Plaiting Materials,6,162,2,15-19
49851,muniyappa,563130,Manufacture Of Non  Metallic Mineral Products N E C ,6,239,2,25-29
49852,seenappa,563130,Manufacture Of Non  Metallic Mineral Products N E C ,6,239,2,30-99
49853,venkatesh,chalaganahalli road 563130,Manufacture Of Non  Metallic Mineral Products N E C ,6,239,2,20-24
49854,gundappa,86        563130,Manufacture Of Non  Metallic Mineral Products N E C ,6,239,2,25-29
49855,nagaraja b v,134        563139,Manufacture Of Non  Metallic Mineral Products N E C ,6,239,2,10-14
49856,narayanaswamy,563130,Manufacture Of Non  Metallic Mineral Products N E C ,6,239,2,20-24
49857,muniyappa,19        563137,Manufacture Of Non  Metallic Mineral Products N E C ,6,239,2,30-99
49858,govt high school,563130,Secondary Education,20,852,1,10-14
49859,grama panchyat,563137,Activities Of Other Membership Organizations,23,949,1,30-99
49860,aruna hen formar,51        563130,Animal Production,2,14,1,15-19
49861,a b w,563130,Manufacture Of Non  Metallic Mineral Products N E C ,6,239,2,10-14
49862,a bw bricks works,563130,Manufacture Of Non  Metallic Mineral Products N E C ,6,239,2,10-14
49863,k b m,563132,Manufacture Of Non  Metallic Mineral Products N E C ,6,239,2,10-14
49864,rajappa,131        563132,Manufacture Of Non  Metallic Mineral Products N E C ,6,239,2,15-19
49865,shakeeb,134    hasandahalli road 563132,Manufacture Of Non  Metallic Mineral Products N E C ,6,239,2,10-14
49866,school,563132,Primary Education,20,851,1,10-14
49867,krishnachari,75        563132,Manufacture Of Non  Metallic Mineral Products N E C ,6,239,2,15-19
49868,rasid,563130,Animal Production,2,14,2,10-14
49869,school,563139,Primary Education,20,851,2,10-14
49870,sabbar beg,main road masthi 563139,Manufacture Of Non  Metallic Mineral Products N E C ,6,239,2,25-29
49871,villege panchyai,main road masthi 563139,Activities Of Other Membership Organizations,23,949,2,15-19
49872,govt college,masthi main road 563139,Primary Education,20,851,1,10-14
49873,govt premari school,b    563139,Primary Education,20,851,2,20-24
49874,govt school,masthi road 563139,Primary Education,20,851,1,10-14
49875,nagaraj,563130,Quarrying Of Stone  Sand And Clay,5,81,2,30-99
49876,ramesh,563130,Quarrying Of Stone  Sand And Clay,5,81,2,30-99
49877,umer,563130,Quarrying Of Stone  Sand And Clay,5,81,2,30-99
49878,nagaraj s g,mastghi road 563139,Quarrying Of Stone  Sand And Clay,5,81,2,30-99
49879,umesh,masthi road 563139,Quarrying Of Stone  Sand And Clay,5,81,2,30-99
49880,ramesh,masthi road 563139,Quarrying Of Stone  Sand And Clay,5,81,2,30-99
49881,munilakshmamma,563130,Manufacture Of Non  Metallic Mineral Products N E C ,6,239,2,10-14
49882,paparao,23 1     tekal main road    563137,Manufacture Of Non  Metallic Mineral Products N E C ,6,239,2,20-24
49883,s v v mandira,154        563137,Primary Education,20,851,2,10-14
49884,srinivasa,563137,Manufacture Of Non  Metallic Mineral Products N E C ,6,239,2,15-19
49885,srinivasa,54    bandur agrahara road    563137,Manufacture Of Non  Metallic Mineral Products N E C ,6,239,1,15-19
49886,govt pu college,563137,Primary Education,20,851,1,20-24
49887,govt high school,563137,Primary Education,20,851,1,20-24
49888,sir m v v school,7    kolar    563137,Primary Education,20,851,2,25-29
49889,ramesh,563130,Manufacture Of Non  Metallic Mineral Products N E C ,6,239,2,15-19
49890,satish c,bangalore road 563130,Retail Sale Of Automotive Fuel In Specialized Stores,12,473,2,20-24
49891,satish c,bangalore    563130,Retail Sale Of Automotive Fuel In Specialized Stores,12,473,2,20-24
49892,sayeed asraf,563130,Manufacture Of Furniture,6,310,2,10-14
49893,k mohan,563130,Manufacture Of Non  Metallic Mineral Products N E C ,6,239,2,10-14
49894,vishwanath kanvension hall,bangalore road 563130,Accomodation,14,551,2,10-14
49895,vishwanath kanvension hall,bangalore road 563130,Accomodation,14,551,2,10-14
49896,srikanth,563130,Manufacture Of Non  Metallic Mineral Products N E C ,6,239,2,15-19
49897,sri krishna m,563130,Primary Education,20,851,2,10-14
49898,nagalakshmi,kolar    563130,Primary Education,20,851,2,30-99
49899,vinidh jadhv,563130,Medical And Dental Practice Activities,21,862,2,30-99
49900,ananth kumar t r,kolar    563130,Retail Sale Of Information And Communications Equipment In Specialized  Stores,12,474,2,15-19
49901,ramakrishna vidya pittike,kuppasetti bhavi 563130,Primary Education,20,851,2,25-29
49902,bescom office,563130,Electric power generation  transmission   distribution,7,351,1,10-14
49903,bekaryre,563130,Manufacture Of Other Food Products,6,107,2,10-14
49904,j s s mahavidyalaya,shivarathri rajendra rutha    563130,Secondary Education,20,852,2,30-99
49905,s b i,sentmarks road 563130,Monetary Intermediation,16,641,1,10-14
49906,manjunatha,araleri road 563130,Primary Education,20,851,2,30-99
49907,umadevi,563130,Retail Sale Of Other Goods In Specialized Stores,12,477,2,10-14
49908,marikambha,near najamma hospetal    563130,manufacture of gas  distribution of gaseous fuels through mains,7,352,2,15-19
49909,revnyu office,563130,Travel Agency And Tour Operator Activities,19,791,2,25-29
49910,sanjana hospetal,563130,Hospital Activities,21,861,2,10-14
49911,thirumala choutri,563130,Accomodation,14,551,2,15-19
49912,millik dayri,563130,Veterinary Activities,18,750,1,10-14
49913,municipal office,563130,Activities Of Other Membership Organizations,23,949,1,30-99
49914,post office,563130,Postal activities,13,531,2,10-14
49915,cenara bank,563130,Monetary Intermediation,16,641,1,10-14
49916,b s n l office,housr    563130,Other Information Service Activities,15,639,1,15-19
49917,givt hospetal,govt bus stand 563130,Hospital Activities,21,861,2,30-99
49918,g p u c college,563130,Primary Education,20,851,2,30-99
49919,g b p u c malur,563130,Primary Education,20,851,1,30-99
49920,manjunatha,563130,Secondary Education,20,852,2,30-99
49921,takoji,563130,Wholesale Of Food  Beverages And Tobacco,11,463,2,30-99
49922,agriculture,563130,Activities Of Call Centres,19,822,1,10-14
49923,aricluture,563130,Construction Of Buildings,9,410,1,15-19
49924,subrigestr office,563130,Renting And Leasing Of Personal And Household Goods,19,772,1,20-24
49925,police stion,563130,Security Systems Service Activities,19,802,1,30-99
49926,sarve dep,563130,Renting And Leasing Of Personal And Household Goods,19,772,2,20-24
49927,taluk panchyit office,563130,Construction Of Buildings,9,410,2,15-19
49928,taluk taseldararu,563130,Veterinary Activities,18,750,1,100-199
49929,d  saiprasad,housr main road 563130,Hospital Activities,21,861,2,20-24
49930,siddeswra poutry bridas,areleri    563130,Computer Programming  Consultancy And Related Activities,15,620,2,20-24
49931,govt samuctha p u college,housr main road 563130,Primary Education,20,851,1,30-99
49932,govt frist grede college,hold s b m rad 563130,Primary Education,20,851,1,15-19
49933,ravi j reddy,housr road    563130,Primary Education,20,851,2,10-14
49934,moraji desi high school,hold sb m road 563130,Secondary Education,20,852,1,10-14
49935,d t puttappa,563130,Manufacture Of Non  Metallic Mineral Products N E C ,6,239,2,30-99
49936,ralwai office,563130,Other Land Transport,13,492,1,15-19
49937,b g s college,563130,Secondary Education,20,852,2,10-14
49938,srinivas,563130,Manufacture Of Non  Metallic Mineral Products N E C ,6,239,2,30-99
49939,pancyait raj engaring,hold masthi road 563130,Construction Of Buildings,9,410,1,20-24
49940,p w d goovt high school,563130,Primary Education,20,851,1,10-14
49941,srinivas,563130,Manufacture Of Non  Metallic Mineral Products N E C ,6,239,2,20-24
49942,tails,masti road    563130,Retail Sale Of Other Household Equipment In Specialized Stores,12,475,2,10-14
49943,gopal gowda,563130,Manufacture Of Non  Metallic Mineral Products N E C ,6,239,2,15-19
49944,manjunatha brick works,kolar main road 563114,Manufacture Of Non  Metallic Mineral Products N E C ,6,239,2,30-99
49945,n s narayanaswamy,kolar main road 563114,Accomodation,14,551,2,10-14
49946,munavr,vatakunte    563114,Manufacture Of Non  Metallic Mineral Products N E C ,6,239,2,15-19
49947,munavr,vatakunte    563114,Manufacture Of Non  Metallic Mineral Products N E C ,6,239,2,15-19
49948,munavar,vartakunte    563114,Manufacture Of Non  Metallic Mineral Products N E C ,6,239,2,15-19
49949,govt,563114,Secondary Education,20,852,1,10-14
49950,hotel,563114,Secondary Education,20,852,1,10-14
49951,kanada,563114,Primary Education,20,851,2,10-14
49952,s venkatesh gowda,563114,Animal Production,2,14,2,20-24
49953,s n narayanaswamy,17    hkolar main road 563114,Accomodation,14,551,2,10-14
49954,jain school,kolar main road 563114,Primary Education,20,851,2,20-24
49955,s n convention hall,kolar main road 563114,Accomodation,14,551,2,10-14
49956,jain school,kolar main road 563114,Secondary Education,20,852,2,10-14
49957,s n resorts,kolar main road 563114,Accomodation,14,551,2,10-14
49958,s n lodge,kolar main road 563114,Accomodation,14,551,2,10-14
49959,s n resorts,s n restorant 563114,Restaurent,14,561,2,10-14
49960,jain school,kolar main road 563137,Secondary Education,20,852,2,30-99
49961,shashi,563114,Animal Production,2,14,2,10-14
49962,syed taj uddin,563114,Manufacture Of Non  Metallic Mineral Products N E C ,6,239,2,10-14
49963,shavar pasha,563114,Manufacture Of Non  Metallic Mineral Products N E C ,6,239,2,10-14
49964,vishnu collage,563114,Higher Education,20,853,2,30-99
49965,vishnu college,aanadgiri    563114,Higher Education,20,853,1,30-99
49966,venkatappa,s g kote    563114,Manufacture Of Non  Metallic Mineral Products N E C ,6,239,2,10-14
49967,govt puc college,karamanahalli 563114,Secondary Education,20,852,1,20-24
49968,govt high school,budikote main road 563114,Secondary Education,20,852,1,20-24
49969,govt high school,budikote main road 563114,Secondary Education,20,852,1,20-24
49970,govt primary school,budikote main road 563114,Primary Education,20,851,1,10-14
49971,govt primary school,budikote main road 563114,Primary Education,20,851,1,10-14
49972,beo office,bangarpet main road    563114,Secondary Education,20,852,1,20-24
49973,bescom,budikte main road 563114,Electric power generation  transmission   distribution,7,351,3,10-14
49974,state bank of mysore,bangaluru    560000,Monetary Intermediation,16,641,1,15-19
49975,state bank of mysore,bangaluru    560000,Monetary Intermediation,16,641,1,15-19
49976,chandramurthy,budikote    563129,Animal Production,2,14,2,10-14
49977,kamalamma,563129,Manufacture Of Wearing Apparel  Except Fur Apparel,6,141,2,10-14
49978,muarjidesai residenial school,marcket road 563129,Primary Education,20,851,1,15-19
49979,development resorse centere,kamasamudra 563129,Manufacture Of Wearing Apparel  Except Fur Apparel,6,141,3,10-14
49980,governament high school,kamasamudra 563129,Secondary Education,20,852,1,15-19
49982,ddpi office,bagarpete road 563101,Primary Education,20,851,1,20-24
49983,govindappa,thambarlahalli 563116,Animal Production,2,14,2,10-14
49984,govindappa,thambarlahalli 563116,Animal Production,2,14,2,10-14
49985,sister selistin school,t gollahalli    563129,Primary Education,20,851,2,15-19
49986,sister sona meri school,t gollahalli    563114,Primary Education,20,851,2,10-14
49987,balakrishna,t gollahalli    563114,Primary Education,20,851,2,30-99
49988,srinivasappa,16    badamakanahalli 563162,Manufacture Of Non  Metallic Mineral Products N E C ,6,239,2,10-14
49989,raghavendra,ayyapalli    563121,Manufacture Of Non  Metallic Mineral Products N E C ,6,239,2,15-19
49990,tempee,563111,Activities Of Other Membership Organizations,23,949,1,10-14
49991,guttahalli temple,70    guttahalli    563114,Activities Of Other Membership Organizations,23,949,1,20-24
49992,d d p i office,bangarprt main road 563101,Secondary Education,20,852,1,20-24
49993,n j jojan,k kote    563121,Manufacture Of Non  Metallic Mineral Products N E C ,6,239,2,10-14
49994,ramachaadrdappa,563114,Animal Production,2,14,2,10-14
49995,muniyap pa,563121,Animal Production,2,14,2,10-14
49996,krishnappa,563121,Animal Production,2,14,2,10-14
49997,chaluvappa,563121,Animal Production,2,14,2,10-14
49998,prabhakarreddy,kagginahalli road 563122,Manufacture Of Non  Metallic Mineral Products N E C ,6,239,2,20-24
49999,prakash,563122,Animal Production,2,14,1,10-14
50000,venkateshwara temple,16        563114,Activities Of Other Membership Organizations,23,949,1,10-14
50001,m babu,563122,Manufacture Of Other Chemical Products,6,202,9,20-24
50002,navaz jhon,563122,Manufacture Of Other Chemical Products,6,202,9,20-24
50003,shaik mohammed,563122,Manufacture Of Tobacco Products,6,120,9,20-24
50004,sabhu sab,563122,Retail Sale Of Food  Beverages And Tobacco In Specialized Stores,12,472,1,20-24
50005,someshekar  reddy,563121,Animal Production,2,14,2,10-14
50006,b h s,563122,Primary Education,20,851,1,10-14
50007,mohammad,563114,Retail Sale Of Food  Beverages And Tobacco In Specialized Stores,12,472,2,10-14
50008,hamida,563114,Retail Sale Of Food  Beverages And Tobacco In Specialized Stores,12,472,2,10-14
50009,venkateswara primary school,krishnapur road 563116,Primary Education,20,851,2,10-14
50010,shlimar cattle feed mill,kesireddy gandlahalli    563121,Animal Production,2,14,2,30-99
50011,shalimar feed storage,k c   563121  reddy gandlahalli,Animal Production,2,14,2,15-19
50012,srinivasa,563121,Animal Production,2,14,2,10-14
50013,venkatareddy,563121,Animal Production,2,14,2,10-14
50014,obalareddy,563121,Animal Production,2,14,2,10-14
50015,ranappa,563121,Animal Production,2,14,2,10-14
50016,shankara,563121,Animal Production,2,14,2,10-14
50017,venkateshppa,563121,Animal Production,2,14,2,10-14
50018,balakrishna,563121,Animal Production,2,14,2,30-99
50019,venkata,563114,Animal Production,2,14,1,10-14
50020,mariyamma,563114,Activities Of Other Membership Organizations,23,949,1,10-14
50021,srinivas,563114,Activities Of Other Membership Organizations,23,949,9,10-14
50022,srinivasa,563114,Animal Production,2,14,1,10-14
50023,swetha vidyasamsthe,bennavara    563114,Primary Education,20,851,2,15-19
50024,subra manireddy,563121,Animal Production,2,14,2,10-14
50025,chalapathy,563121,Animal Production,2,14,2,10-14
50026,bangalupappa,563121,Animal Production,2,14,2,10-14
50027,krishnareddy,krishanrajapura 563114,Manufacture Of Non  Metallic Mineral Products N E C ,6,239,2,10-14
50028,narayana reddy,563121,Animal Production,2,14,1,10-14
50029,govt high school,563116,Primary Education,20,851,1,10-14
50030,raghunath,563121,Retail Sale Of Other Goods In Specialized Stores,12,477,2,10-14
50031,state bank of musore,560001,Monetary Intermediation,16,641,1,20-24
50032,kenara bank,kolar main road 563114,Monetary Intermediation,16,641,1,15-19
50033,state bank of india,kolar main road 563114,Monetary Intermediation,16,641,1,15-19
50034,icici bank,kolara main road 563114,Monetary Intermediation,16,641,2,15-19
50035,i b m school,563114,Secondary Education,20,852,1,20-24
50036,i b m school,563114,Secondary Education,20,852,1,20-24
50037,sathasrunga school,563116,Other Education,20,854,2,15-19
50038,navachethana high school,220    usharani    563114,Primary Education,20,851,2,30-99
50039,navachethana puc college,bangarpete 563114,Primary Education,20,851,3,10-14
50040,ibm pu coolege,563116,Secondary Education,20,852,2,10-14
50041,chanrappa,563114,Retail Sale Of Other Goods In Specialized Stores,12,477,2,10-14
50042,r rajesh,563114,Sale Of Motor Vehicles,10,451,2,30-99
50043,akkayamma,banagapre    563114,Animal Production,2,14,2,20-24
50044,fair station,sulikunte road 563114,Security Systems Service Activities,19,802,1,10-14
50045,governament puc college,k g f  main road 563114,Secondary Education,20,852,1,20-24
50046,arunadayamani,563114,Secondary Education,20,852,1,15-19
50047,dr ashok vardhan,194        563114,Hospital Activities,21,861,2,10-14
50048,paramkush,129        563114,Retail Sale Of Automotive Fuel In Specialized Stores,12,473,2,10-14
50049,shankar,8        563114,Manufacture Of Plastics Products,6,222,2,30-99
50050,narayana guptha,563114,Manufacture Of Grain Mill Products  Starches And Starch Products,6,106,2,15-19
50051,sarswathamma,65        563114,Primary Education,20,851,2,10-14
50052,saraswathi vidynikethan,563114,Primary Education,20,851,1,15-19
50053,sujatha,219        563114,Primary Education,20,851,1,25-29
50054,govt hostel,563114,Primary Education,20,851,1,10-14
50055,memen school,boringpet road 563114,Secondary Education,20,852,2,10-14
50056,post office,563114,Postal activities,13,531,1,10-14
50057,beo,563114,Secondary Education,20,852,1,25-29
50058,k e b office,563114,Electric power generation  transmission   distribution,7,351,1,30-99
50059,chandrappa,563114,Primary Education,20,851,2,15-19
50060,velu hotel,k g f main road 563114,Restaurent,14,561,2,10-14
50061,bsnl office,563114,Wired Telecommunications Activities,15,611,1,10-14
50062,govt hospital,563114,Hospital Activities,21,861,1,30-99
50063,ananth kumar,563114,Restaurent,14,561,2,10-14
50064,shyam sundar,190        563114,Motion Picture  Video And Television Programme Activities,15,591,2,10-14
50065,n j k,129        563114,Manufacture Of Wearing Apparel  Except Fur Apparel,6,141,2,>=500
50066,b g ramakrishnappa,k g f main road 563114,Secondary Education,20,852,2,25-29
50067,rice mill,103        563114,Manufacture Of Grain Mill Products  Starches And Starch Products,6,106,2,25-29
50068,annapurneswary flore mill,k f g  main road 563114,Manufacture Of Grain Mill Products  Starches And Starch Products,6,106,2,15-19
50069,little flower school,4th main road 563114,Secondary Education,20,852,2,10-14
50070,head post office,563101,Postal activities,13,531,1,10-14
50071,central school,beml nagar 563155,Other Education,20,854,1,20-24
50072,lwf office,563115,Activities Auxiliary To Insurance And Pension Funding,16,662,1,10-14
50073,beo,563114,Secondary Education,20,852,1,20-24
50074,medical center,beml    563115,Hospital Activities,21,861,1,100-199
50075,keb office,15    beml nagr    563114,Electric power generation  transmission   distribution,7,351,1,10-14
50076,govt post office,beml    563114,Postal activities,13,531,1,10-14
50077,school of mines school,563122,Primary Education,20,851,6,30-99
50078,sarvana para medical center college,beml nagar 563118,Higher Education,20,853,2,10-14
50079,tanga tayi pri school,13    oorgam    563120,Secondary Education,20,852,2,25-29
50080,sarvana gass agency,15    station road 563120,manufacture of gas  distribution of gaseous fuels through mains,7,352,2,10-14
50081,wiltham richard school,20    k e b road    563117,Primary Education,20,851,2,30-99
50082,vijaykummar j,563114,Secondary Education,20,852,2,10-14
50083,vijay kumar a,563114,Higher Education,20,853,2,10-14
50084,dr ambedkar ded college,31    oorgam road 563120,Higher Education,20,853,2,15-19
50085,industrial traning institute,31    oogam    563120,Secondary Education,20,852,2,10-14
50086,golden valley law college,130    oorgam    563120,Higher Education,20,853,2,15-19
50087,sayamma,563120,Manufacture Of Wearing Apparel  Except Fur Apparel,6,141,2,10-14
50088,kumara,563122,Manufacture Of Wearing Apparel  Except Fur Apparel,6,141,2,10-14
50089,lavanya,563122,Other Personal Service Activities,23,960,2,10-14
50090,mysore mine school,86    old b block 563119,Secondary Education,20,852,2,15-19
50091,alm iti,56    k r road    563117,Secondary Education,20,852,1,10-14
50092,st,joseph convent school 22  563117,Primary Education,20,851,2,15-19
50093,st,joseph convent school 92  563117,Primary Education,20,851,2,10-14
50094,st,joseph convent girls high school        563117,Secondary Education,20,852,2,10-14
50095,st,merry college   10 563117   champion road,Secondary Education,20,852,2,10-14
50096,st,mery s pri school   20 563117   champion rips,Primary Education,20,851,2,30-99
50097,murali,563122,Manufacture Of Wearing Apparel  Except Fur Apparel,6,141,1,20-24
50098,samual,563122,Activities Of Other Membership Organizations,23,949,3,10-14
50099,honiif,563114,Retail Sale Of Food  Beverages And Tobacco In Specialized Stores,12,472,1,10-14
50100,neharu english high school,27    oorampete 563121,Primary Education,20,851,2,20-24
50101,b e o,563114,Secondary Education,20,852,1,10-14
50102,beo,563114,Secondary Education,20,852,1,15-19
50103,government primary school,yarnaganahalli road 563722,Primary Education,20,851,1,10-14
50104,vani english primary school,56    vivkananda 563122,Secondary Education,20,852,2,25-29
50105,post office,563121,Monetary Intermediation,16,641,2,20-24
50106,vishveshwaraiah school,95        563122,Primary Education,20,851,2,10-14
50107,sbm,560009,Monetary Intermediation,16,641,1,25-29
50108,govt hospital,563114,Hospital Activities,21,861,1,30-99
50109,water house board,563122,Water Collection  Treatment And Supply,8,360,1,30-99
50110,beo,563114,Secondary Education,20,852,1,10-14
50111,nagappa,9        563122,Hospital Activities,21,861,2,20-24
50112,st,teresa eng hps school 563122  3,Primary Education,20,851,1,10-14
50113,st,teresa pu college 563113   3rd cross,Secondary Education,20,852,2,15-19
50114,st,teresa girls high school 563122   3rd cross,Secondary Education,20,852,1,25-29
50115,kumran,182    3rd cross 563122,manufacture of gas  distribution of gaseous fuels through mains,7,352,2,15-19
50116,beo,563114,Secondary Education,20,852,1,10-14
50117,beo,563114,Secondary Education,20,852,1,20-24
50118,vivekanadha seheel,geetha road 563122,Secondary Education,20,852,2,10-14
50119,vivekananda hr pr   high school,563122,Secondary Education,20,852,2,10-14
50120,vishveshwaraiah memorial higher pry school,viveknagar    563122,Primary Education,20,851,2,10-14
50121,b v n school,167    rajiv gandi layout 563122,Primary Education,20,851,2,25-29
50122,sudhakar,040 1    pipe line 563122,Construction Of Buildings,9,410,2,15-19
50123,maithri primary school,bethamangala road 563114,Primary Education,20,851,2,10-14
50124,scotts garments ltd,481    peenya    560058,Wholesale Of Household Goods,11,464,2,200-499
50125,sumathi jain school,58        563122,Primary Education,20,851,2,10-14
50126,p b anand,563122,Retail Sale In Non  Specialized Stores,12,471,1,10-14
50127,bagh raj,46    a pet road    563113,Manufacture Of Other Chemical Products,6,202,2,10-14
50128,steepan,563113,Manufacture Of Other Chemical Products,6,202,1,10-14
50129,nagaraj,underson pete 563113,Manufacture Of Structural Metal Products  Tanks  Reservoirs And Steam Generators,6,251,1,10-14
50130,nazeer,88    undersonpete 563113,Manufacture Of Structural Metal Products  Tanks  Reservoirs And Steam Generators,6,251,2,10-14
50131,babu,underson pete 563113,Monetary Intermediation,16,641,2,10-14
50132,beo,563114,Secondary Education,20,852,1,10-14
50133,beo,563114,Secondary Education,20,852,1,10-14
50134,noorunnisa nursing college,14        563113,Higher Education,20,853,1,30-99
50135,scots garmnts,001 2    underson pete 563113,Manufacture Of Wearing Apparel  Except Fur Apparel,6,141,2,30-99
50136,eden primary   high school,kuppam road 563113,Primary Education,20,851,2,10-14
50137,nagin pri school,563113,Higher Education,20,853,2,10-14
50138,u c w i trust,563162,Manufacture Of Other Chemical Products,6,202,2,30-99
50139,decan trust,124 1        563162,Manufacture Of Furniture,6,310,2,30-99
50140,decan factory,124 2    dasara hosahalli    563162,Manufacture Of Furniture,6,310,2,30-99
50141,decan factory,124 3        563113,Manufacture Of Furniture,6,310,2,30-99
50142,munivenkatamma,124 3        563113,Manufacture Of Furniture,6,310,2,30-99
50143,decan factory,124 5        563113,Manufacture Of Furniture,6,310,2,30-99
50144,ramakrishnappa b,125 6        563113,Manufacture Of Furniture,6,310,2,25-29
50145,rasi trust,131        563162,Casting Of Metals,6,243,2,30-99
50146,glass factory,563162,Manufacture Of Non  Metallic Mineral Products N E C ,6,239,2,30-99
50147,glass factory,132 1        563113,Manufacture Of Non  Metallic Mineral Products N E C ,6,239,2,15-19
50148,raice mill,130        563113,Manufacture Of Grain Mill Products  Starches And Starch Products,6,106,2,30-99
50149,paadhar,563114,Primary Education,20,851,1,10-14
50150,geetha,563122,Manufacture Of Wearing Apparel  Except Fur Apparel,6,141,2,10-14
50151,sundra,563122,Manufacture Of Wearing Apparel  Except Fur Apparel,6,141,2,10-14
50152,sridhar babu,026 2    k g f road 563116,Manufacture Of Non  Metallic Mineral Products N E C ,6,239,2,10-14
50153,canara bank,112    j c road    560002,Monetary Intermediation,16,641,1,10-14
50154,b e o,563116,Secondary Education,20,852,1,10-14
50155,akheel pasha,3    k g f road    563116,Manufacture Of Basic Chemicals  Fertilizer And Nitrogen Compounds ,6,201,2,10-14
50156,b e o,563116,Primary Education,20,851,1,10-14
50157,subash talkies,11    new town road 563116,Motion Picture  Video And Television Programme Activities,15,591,2,10-14
50158,b e o,563116,Primary Education,20,851,1,10-14
50159,ramachandrappa b m,89    s c colony    563116,Support Activities For Transportation,13,522,2,10-14
50160,arun,141 1        563116,Primary Education,20,851,2,10-14
50161,venkat setti,086 1    new town 563116,Animal Production,2,14,2,10-14
50162,b e o,563116,Primary Education,20,851,1,10-14
50163,sri datta sai school,25        563116,Primary Education,20,851,2,10-14
50164,senteance pry school,20        563131,Primary Education,20,851,2,10-14
50165,chicken faram,40        563131,Animal Production,2,14,2,20-24
50166,district health office,563101,Hospital Activities,21,861,1,20-24
50167,sri prasanna chowdeshwari high school,147        563131,Secondary Education,20,852,2,10-14
50168,silk worms,198        563131,Animal Production,2,14,2,10-14
50169,appaji gowda,15        563127,Real Estate Activities With Own Or Leased Property,17,681,2,10-14
50170,chikkavenkatramapp,5        563127,Animal Production,2,14,2,15-19
50171,silk worms,140        563127,Animal Production,2,14,2,20-24
50172,silk worms,12        563127,Animal Production,2,14,2,15-19
50173,venkateshappa,27        563127,Animal Production,2,14,2,15-19
50174,b e o,1140        563131,Primary Education,20,851,1,15-19
50175,d h o,563101,Hospital Activities,21,861,1,15-19
50176,govt iti,283        563127,Secondary Education,20,852,1,15-19
50177,beo,1140    near to govt high school    563131,Secondary Education,20,852,1,15-19
50178,srinivas,78        563127,Animal Production,2,14,2,20-24
50179,chicken faram,1        563127,Animal Production,2,14,2,30-99
50180,kptcl,212        563131,Electric power generation  transmission   distribution,7,351,1,10-14
50181,ramalingeshwari high school,104        563127,Secondary Education,20,852,1,15-19
50182,beo,1140    near to govt school    563131,Secondary Education,20,852,1,10-14
50183,d h o,563101,Hospital Activities,21,861,1,10-14
50184,venkatramappa,122        563101,Animal Production,2,14,2,10-14
50185,balaji singh,59        563127,Manufacture Of Non  Metallic Mineral Products N E C ,6,239,2,30-99
50186,jan sar,58        563127,Animal Production,2,14,2,30-99
50187,gopala gowda,184        563127,Animal Production,2,14,2,10-14
50188,beo,1140    near to govt school    563131,Primary Education,20,851,1,10-14
50189,m s jayram,1        563131,Animal Production,2,14,1,30-99
50190,iliyaz,64        563132,Manufacture Of Other Chemical Products,6,202,2,15-19
50191,decan ramakrishna,231    nh4 road    563132,Retail Sale Of Other Household Equipment In Specialized Stores,12,475,2,15-19
50192,decan school,181        563132,Primary Education,20,851,1,10-14
50193,beo,1140    near to govt high school    563131,Secondary Education,20,852,1,10-14
50194,abdul razak,12    nh4 main road 563131,Retail Sale Of Automotive Fuel In Specialized Stores,12,473,2,15-19
50195,kjtet polytechnic,10    main road    563131,Secondary Education,20,852,2,25-29
50196,sri lakshmi narashima temple,2    nh4 road    563131,Activities Of Other Membership Organizations,23,949,7,30-99
50197,beo,1140    near to govt school    563131,Primary Education,20,851,2,15-19
50198,slv bricks,101    nh4 road    563131,Manufacture Of Non  Metallic Mineral Products N E C ,6,239,2,10-14
50199,abdul khadar,13        563131,Manufacture Of Non  Metallic Mineral Products N E C ,6,239,2,15-19
50200,abdul khadar,13        563132,Manufacture Of Non  Metallic Mineral Products N E C ,6,239,2,15-19
50201,brmhanandh,15        563131,Manufacture Of Non  Metallic Mineral Products N E C ,6,239,2,15-19
50202,hosappa,51        563131,Animal Production,2,14,2,10-14
50203,radakrishna high school,234        563131,Secondary Education,20,852,1,10-14
50204,beo,1140        563131,Primary Education,20,851,1,10-14
50205,bricks factory,149    main road 563132,Manufacture Of Non  Metallic Mineral Products N E C ,6,239,2,10-14
50206,hanumappa,563131,Animal Production,2,14,2,10-14
50207,muniswamy,76        563131,Animal Production,2,14,2,10-14
50208,syedsana ulla,107        563132,Manufacture Of Tobacco Products,6,120,2,20-24
50209,venkateshwara faram,166        563132,Animal Production,2,14,2,30-99
50210,manjunath,100        563132,Saw Milling And Planing Of Wood,6,161,2,15-19
50211,d h o,563101,Hospital Activities,21,861,1,10-14
50212,police station,563132,Other Personal Service Activities,23,960,1,25-29
50213,sbm,560000,Monetary Intermediation,16,641,1,10-14
50214,beo,1140    near to govt school    563131,Secondary Education,20,852,1,20-24
50215,aswathnarayan,88        563132,Manufacture Of Other Chemical Products,6,202,2,15-19
50216,amar,14        563132,Animal Production,2,14,2,10-14
50217,kooli form,143        563131,Animal Production,2,14,2,15-19
50218,t m babu,143        563132,Animal Production,2,14,2,15-19
50219,anandh reddy,56        563132,Animal Production,2,14,2,10-14
50220,anandh reddy,57        563132,Animal Production,2,14,2,15-19
50221,chicken faram,102        563132,Animal Production,2,14,2,10-14
50222,mogilappa,40        563131,Animal Production,2,14,1,10-14
50223,ramakrishnegowda,14        563136,Animal Production,2,14,2,10-14
50224,nagarajappa,563136,Animal Production,2,14,2,10-14
50225,narayanappa,563136,Animal Production,2,14,2,10-14
50226,venkatachalapathi,563136,Logging,3,22,2,10-14
50227,chicken faram,43        563126,Animal Production,2,14,2,10-14
50228,silk factory,1        563126,Animal Production,2,14,2,10-14
50229,k r prasad,173    m c road    563131,Retail Sale Of Food  Beverages And Tobacco In Specialized Stores,12,472,2,15-19
50230,k r prasad,173    m c road mulbagal 563131,Retail Sale Of Food  Beverages And Tobacco In Specialized Stores,12,472,2,15-19
50231,k r prasad,173    m c road mulbagal 563131,Retail Sale Of Food  Beverages And Tobacco In Specialized Stores,12,472,2,10-14
50232,state bank of mysore,m g road    560000,Monetary Intermediation,16,641,1,20-24
50233,chethan vidhy mandir,79    bagath singh road 563131,Primary Education,20,851,2,25-29
50234,sharada vidya samsthe,55    s c road    563131,Secondary Education,20,852,3,30-99
50235,sanjay kumar mudra,82    m n halli    563131,Manufacture Of Other Chemical Products,6,202,2,20-24
50236,prabhakar r,76    m n halli road 563131,Manufacture Of Other Chemical Products,6,202,2,10-14
50237,st,annes convent 560036   k r puram,Secondary Education,20,852,2,15-19
50238,pavani controls   fanals ltd,6 3 790 7    ameerpet 560016,Retail Sale Of Other Household Equipment In Specialized Stores,12,475,2,10-14
50239,pavani controls and panel limited,63790 7    class avenue ameerpet hyderabad    500016,Retail Sale Of Other Household Equipment In Specialized Stores,12,475,2,10-14
50240,muralidharn a,814    new ad colony 563131,Construction Of Buildings,9,410,2,10-14
50241,jayalakshmi talkies,105    m n halli road 563131,Motion Picture  Video And Television Programme Activities,15,591,3,10-14
50242,anjaneya temple,6    a temple road 563131,Activities Of Other Membership Organizations,23,949,1,20-24
50243,head post office,563101,Postal activities,13,531,1,10-14
50244,kptcl,nh4 road    563131,Electric power generation  transmission   distribution,7,351,1,30-99
50245,kptcl,42    nh4 road    563131,Electric power generation  transmission   distribution,7,351,1,20-24
50246,poornima hospital,72    near to bustand 563131,Hospital Activities,21,861,2,15-19
50247,vignehwar store,60    veternary hospital road    563131,Retail Sale Of Other Household Equipment In Specialized Stores,12,475,2,10-14
50248,sbc hall,106    taluk office road 563131,Retail Sale Of Other Goods In Specialized Stores,12,477,2,15-19
50249,govt iti,59    m c road    563131,Secondary Education,20,852,2,10-14
50250,gururaj,177    nh 4 road 563131,Beverage Serving Activities,14,563,2,10-14
50251,state bank of india,400007,Monetary Intermediation,16,641,1,10-14
50252,jain education trust,v v puram    560004,Primary Education,20,851,7,25-29
50253,st anne s higher primary school,128    taluk office road mulbagal    563131,Primary Education,20,851,7,20-24
50254,jain educational socity,v v puram    560004,Primary Education,20,851,1,30-99
50255,st,annes trust        560052 millar road,Primary Education,20,851,7,20-24
50256,state bank of india,400007,Monetary Intermediation,16,641,1,10-14
50257,morarjidesai minarity residential school,91    m c road mulbagal 563131,Primary Education,20,851,1,10-14
50258,morarji desai minarity residential school,91    m c road    563131,Primary Education,20,851,1,10-14
50259,amar jyothi school,15    near to m c road 563131,Primary Education,20,851,2,30-99
50260,amrajyothi school mulbaga,15    sathyanarayana temple road mulbagal 563131,Primary Education,20,851,2,30-99
50261,temple,142  563131   bajaru street,Retail Sale Of Other Goods In Specialized Stores,12,477,2,20-24
50262,b e o office mulbagal,563131,Secondary Education,20,852,6,30-99
50263,vysay bank,m g road    560001,Monetary Intermediation,16,641,1,10-14
50264,beo,1140    near to govt school    563131,Secondary Education,20,852,1,20-24
50265,beo,1140    near to govt school    563131,Secondary Education,20,852,1,15-19
50266,beo,1140    near to govt school    563131,Secondary Education,20,852,1,10-14
50267,sharada pu college,84 1    k bypalli road 563131,Secondary Education,20,852,3,15-19
50268,b e o,1140        563131,Primary Education,20,851,1,30-99
50269,b e o office,563131,Secondary Education,20,852,1,20-24
50270,b e o office mulbagal,563131,Secondary Education,20,852,1,10-14
50271,s m v kumargowda nursing home,162    k byplli road mulbagal    563131,Hospital Activities,21,861,2,10-14
50272,dr,manohar gowda   1 563131   m c road,Hospital Activities,21,861,2,10-14
50273,dr,s m v nursing home 162  563131   k bypalli road,Hospital Activities,21,861,2,10-14
50274,krishna murthy,41710    m c road 563131,Canteen,14,562,2,15-19
50275,nursing agmari,84    k bypalli road 563131,Primary Education,20,851,2,20-24
50277,p v bhaskaran,132    bus stand 563131,Manufacture Of Other Food Products,6,107,2,20-24
50278,c m s treadres,95    m n halli road 563131,Wholesale Of Food  Beverages And Tobacco,11,463,2,30-99
50279,murthy hospital,30        563131,Hospital Activities,21,861,2,10-14
50280,c d p o office,82    k b p road    563131,Primary Education,20,851,1,20-24
50281,srinivas,63        563131,Manufacture Of Products Of Wood  Cork  Straw And Plaiting Materials,6,162,2,10-14
50282,v prakashbabu,134    k bypalli road 563131,Water Collection  Treatment And Supply,8,360,1,10-14
50283,narayanaswamy m v,209        563131,Manufacture Of Grain Mill Products  Starches And Starch Products,6,106,2,10-14
50284,manjunatha r s,210    k byapalli road 563131,Manufacture Of Vegetable And Animal Oils And Fats,6,104,2,15-19
50285,sriramappa,k bypalliroad 563131,Manufacture Of Vegetable And Animal Oils And Fats,6,104,2,20-24
50286,prakash hosptal,115    bazar street mulbagal    563131,Hospital Activities,21,861,2,25-29
50287,beo,1140    near to govt school    563131,Secondary Education,20,852,1,15-19
50288,babajan bricks work,212    ramasandra road 563131,Manufacture Of Non  Metallic Mineral Products N E C ,6,239,2,10-14
50289,m m  vidya samste,92    ramasandra road 563131,Primary Education,20,851,2,10-14
50290,supiya school,95    honi road    563131,Primary Education,20,851,2,10-14
50291,mahmmed akram,174    ameerjan road 563131,Manufacture Of Non  Metallic Mineral Products N E C ,6,239,2,10-14
50292,abdulrehman,69    bekery road 563131,Retail Sale Of Food  Beverages And Tobacco In Specialized Stores,12,472,2,15-19
50293,shabeer ahmmed,1    behaind towar 563131,Electric power generation  transmission   distribution,7,351,2,10-14
50294,sri ram finance,21    m c road    563131,Other Financial Service Activities  Except Insurance And Pension Funding Activities,16,649,2,10-14
50295,general hospital,16    m c road    563131,Hospital Activities,21,861,1,30-99
50296,govt hospital,563101,Hospital Activities,21,861,1,20-24
50297,canara bank,560000,Monetary Intermediation,16,641,1,10-14
50298,nithishree gas,226    k g f road 563131,Retail Sale Of Other Goods In Specialized Stores,12,477,2,15-19
50299,syed ilayaz,113        563131,Manufacture Of Other Chemical Products,6,202,2,10-14
50300,syed ilayaz,113        563131,Manufacture Of Other Chemical Products,6,202,2,10-14
50301,shafiulla,196        563131,Plant Propagation,1,13,2,15-19
50302,shafiulla,196        563131,Plant Propagation,1,13,2,15-19
50303,mohammed ayaz,58 3     darga road 563131,Saw Milling And Planing Of Wood,6,161,2,10-14
50304,syed wajeed,140    nethaji nagar 563131,Manufacture Of Other Chemical Products,6,202,2,10-14
50305,fayaz ahamed,192    k g f road 563131,Manufacture Of Other Food Products,6,107,2,10-14
50306,hyderesardar,165    dargaha road 563131,Activities Of Other Membership Organizations,23,949,2,20-24
50307,intiyaz mechanic garrege,86    old hospital road 563131,Sale  Maintenance And Repair Of Motorcycles And Related Parts And Accessories,10,454,2,10-14
50308,beo,1140    near to govt school    563131,Secondary Education,20,852,1,15-19
50309,c e a english primary school,88    bazer street 563131,Primary Education,20,851,2,10-14
50310,maruthi school,92    vitala kunte road 563131,Primary Education,20,851,2,10-14
50311,mitc industrial training,36    agra hara road 563131,Secondary Education,20,852,1,10-14
50312,nobel primary school,109    ranaberamma gudi street    563131,Primary Education,20,851,3,10-14
50313,apsad pasha,109    m c road    563131,Manufacture Of Vegetable And Animal Oils And Fats,6,104,2,10-14
50314,beo,1140    near to govt school    563131,Secondary Education,20,852,1,10-14
50315,beo,1140    near to govt school    563131,Primary Education,20,851,1,10-14
50316,indain oil,189    m c road    563131,Wholesale On A Fee Or Contract Basis,11,461,2,15-19
