S.No.,Name of the Establishment,Address,Major Activity Description,Broad Activit y Code,NIC,Owner ship Code,"Emplo yment Class Interva
l"
74,ASSAM CO OPERATIVE APEX BANK,11    PIRADHARA 783384,MONETARY INTERMEDIATION,16,641,6,10-14
196,S B I LIFE INSURANCE CO LTD,132 11   CHAPAGURI ROAD  BONGAIGAON 783380,LIFE INSURANCE ACTIVITIES,16,651,1,10-14
197,UNION BANK OF INDIA BONGAIGAON BRANCH,48   MAIN ROAD BONGAIGOAN 783380,MONETARY INTERMEDIATION,16,641,1,10-14
336,ASSAM GRAMIN VIKASH BANK,71   COLLEGE ROAD  BONGAIGAON 783380,MONETARY INTERMEDIATION,16,641,1,10-14
337,CENTRAL BANK OF INDIA,78 2   MAIN ROAD  BONGAIGAON 783380,MONETARY INTERMEDIATION,16,641,1,10-14
338,ASSAM STATE TRANSPORT CORPORATION,MAIN ROAD  BONGAIGAON 783380,HEAD OFFICE ACTIVITIES,19,821,1,10-14
448,BAJAJ ALLIANZ INSURANCE COMPANY,30   NORTH SALAMARI ROAD  BONGAIGAON 783380,GENERAL INSURANCE ACTIVITIES,16,651,4,10-14
449,STATE BANK OF INDIA,61 1   MAIN ROAD  BONGAIGAON 783380,MONETARY INTERMEDIATION,16,641,1,10-14
581,NATIONAL INSURANCE CO  LTD,89 2   A OC  ROAD  BONGAIGAON 783380,GENERAL INSURANCE ACTIVITIES,16,651,1,10-14
678,PUNJAB NATIONAL BANK,1 2   A OC  ROAD  BONGAIGAON 783380,MONETARY INTERMEDIATION,16,641,1,10-14
679,INDIAN BANK,44 1   A O C ROAD  BONGAIGAON 783380,MONETARY INTERMEDIATION,16,641,1,10-14
680,UNITED BANK OF INDIA,49 1   A O C ROAD  BONGAIGAON 783380,MONETARY INTERMEDIATION,16,641,1,10-14
681,STATE BANK OF INDIA,TUNIAPARA BAZAR 783381,MONETARY INTERMEDIATION,16,641,1,10-14
750,RELIANCE LIFE INSURANCE CO LTD ,28 2   CHAPAGURI ROAD  BONGAIGAON 783380,LIFE INSURANCE ACTIVITIES,16,651,4,10-14
901,BIRLA SUN LIFE INSURANCE,13 2   CHAPAGURI ROAD  BONGAIGAON 783380,LIFE INSURANCE ACTIVITIES,16,651,4,15-19
902,SANKAR DEV SHISU BIDYA NIKETAN BOIT,241   BAITAMARI 783389,SECONDARY EDUCATION,20,852,1,15-19
964,UCO CO BANK,STATION ROAD  BONGAIGAON 783380,MONETARY INTERMEDIATION,16,641,1,15-19
1066,L I C BARNCH OFFICE,MAIN ROAD  BONGAIGAON 783380,LIFE INSURANCE ACTIVITIES,16,651,1,15-19
1120,H D F C BANK,21 3   CHAPAGURI ROAD  BONGAIGAON 783380,MONETARY INTERMEDIATION,16,641,4,20-24
1121,SBI ABHAYAPURI BRANCH,53   ABHAYAPURI  783384,MONETARY INTERMEDIATION,16,641,1,20-24
1261,LEAD BANK  SBI BONGAIGAON,CHAPAGURI ROAD  BONGAIGAON 783380,MONETARY INTERMEDIATION,16,641,1,20-24
1262,ORIENTEL INSURANCE,24   CHAPAGURI ROAD  BONGAIGAON 783380,GENERAL INSURANCE ACTIVITIES,16,651,1,20-24
1263,ICICI PRUDENTIAL L I C,49   MAIN ROAD BNGN 783380,LIFE INSURANCE ACTIVITIES,16,651,4,20-24
1264,NEW INDIA INSURANCE CO  LTD,50   MAIN ROAD BONGAIGAON 783380,GENERAL INSURANCE ACTIVITIES,16,651,1,20-24
1335,TICKET COUNTER N F RAILWAY,M G ROAD  BONGAIGAON 783380,SUPPORT ACTIVITIES FOR TRANSPORTATION,13,491,1,25-29
1350,ASOMIYA PRATIDIN,90   MADAN MOHAN GOSWAMI PATH  BONGAIGAON 783380,PUBLISHING OF NEWSPAPERS,15,581,2,25-29
1464,AXIS BANK,28 1   SAMARTHESWAR 783380,MONETARY INTERMEDIATION,16,641,2,30-99
1465,BRAHMAPUTRA RIVER VALLEY TRADING PRIVATE LTD,6 6   JOGIPARA PATH  JOGIPARA 783380,MANUFACTURE OF NON METALLIC PRODUCTS,6,239,4,30-99
1472,BOANGAIGAON POST OFFICE,26   STATION ROAD  BONGAIGAON 783380,POSTAL ACTIVITIES,13,531,1,30-99
1473,BONGAIGAON MAIN POST OFFICE,26   STATION ROAD  BONGAIGAON 783380,POSTAL ACTIVITIES,13,531,1,30-99
1474,SANKARDEV SISHU NIKETAN BISHNUPUR,54   BISHNUPUR 783390,PRIMARY EDUCATION,20,851,1,30-99
1488,RAILWAY POWER HOUSE,004   NEW BONGAIGAON 783381,ELECTRIC POWER GENERATION,7,351,1,30-99
1503,STATE BANK OF INDIA,12 1   NEW BONGAIGAON 783381,MONETARY INTERMEDIATION,16,641,1,30-99
1564,B S N L ,31   B T ROAD 783380,WIRED TELECOMMUNICATION ACTIVITIES,15,611,1,30-99
1605,KENDRIYA VIDYALAYA NEW BONGAIGAON,59   STATION ROAD  NEW BONGAIGAON 783380,SECONDARY EDUCATION,20,852,1,30-99
1625,LIFE INSURANCE CORPORATION OF INDIA,MAIN ROAD  BONGAIGAON 783380,LIFE INSURANCE ACTIVITIES,16,651,1,30-99
1696,PRIME COKE INDUSTRY,40   JOGIGHOPA 783382,MANUFACTURE OF COKE OVEN PRODUCTS,6,191,3,30-99
1733,ASSAM CO OPERATIVE APEX BANK,124   STATION ROAD  ABHAYAPURI 783384,MONETARY INTERMEDIATION,16,641,6,100-199
1823,BIRJHORA TEA FACTORY,67   BAGAN ROAD  HIRAPARA 783380,MANUFACTURE  AND PROCESSING OF TEA,6,107,4,>=500
2099,KHAKARPUR BAKPAR HIGH SCHOOL,37   KHAKARPUR  783383,SECONDARY EDUCATION,20,852,1,10-14
2100,CHOURIGURI HIGH SCHOOL,28   CHOURIGURI 783390,SECONDARY EDUCATION,20,852,1,10-14
2101,MAA BAGESHWARI FUEL CENTRE,24   MAIN ROAD BONGAIGOAN 783380,RETAIL SALE OF AUTOMOTIVE FUEL IN SPECIALIZED STORES,12,473,4,10-14
2102,ASSISTANT CONTROLLER SCIENTIFIC MANAGEMENT,ABHAYAPURI 783384,RESEARCH AND EXPERIMENTAL DEVELOPMENT,18,721,1,10-14
2103,GANJYOTI  JATIYA BIDYALAYA,012   NASATRA 783384,PRIMARY EDUCATION,20,851,2,10-14
2104,GOKUL MEDHIR TENT HOUSE,164   DEOHATI 783384,RENTING OF  OF HOUSE HOLD GOODS,19,772,2,10-14
2105,TAPATTARY CDPO OFFICE,025    PIRADHARA 783384,HEAD OFFICE ACTIVITIES,18,701,1,10-14
2739,JATIYA VIDYALAYA,57   GOLAPARA 783384,SECONDARY EDUCATION,20,852,2,10-14
2740,RATNAPITH HIGH SCHOOL,042   RATNAPITH 783383,SECONDARY EDUCATION,20,852,1,10-14
2741,AMBIKAGIRI HIGH SCHOOL,0001   DHOLAGAON 783380,SECONDARY EDUCATION,20,852,1,10-14
2742,NEW BONGAIGAON HIGH SCHOOL,45   NEW BONGAIGAON 783381,SECONDARY EDUCATION,20,852,1,10-14
2743,BIMALA DEVI DESWAL,24   MAIN ROAD BONGAIGOAN 783380,RETAIL SALE OF OTHER GOODS,12,477,2,10-14
2744,BONGAIGAON SOAP FACTORY,132   MAIN ROAD BONGAIGOAN 783380,MANUFACTURE OF SOAP DETERGENTS,6,202,2,10-14
2745,LEELA GAS AGENCY,2 1   CHAPAGURI ROAD 783360,RETAIL SALE OF BOTTLED LPG,12,477,2,10-14
2746,8 A P B  N  HIGH SCHOOL,66   DEOHATI 783384,SECONDARY EDUCATION,20,852,1,10-14
2747,DUBASURI HIGH SCHOOL,128   DUBASURI 783384,SECONDARY EDUCATION,20,852,1,10-14
2748,RAJIB GANDHI GRAMIN VIKASH JATIYA BIDYALAYA,55   CHAKLA 783392,PRIMARY EDUCATION,20,851,2,10-14
2749,SANJAY NATH FURNITURE HOUSE,222   RAGHUNANDANPUR 783389,MANUFACTURE OF FURNITURE,6,310,2,10-14
2750,SOUTH BAITAMARY ANCHALIK HIGH SCHOOL,SOUTH BAITAMARI 783388,SECONDARY EDUCATION,20,852,1,10-14
2751,CHED MARI HIGH SCHOOL,183   JAGIGHOPA CHAPAR PATH 783388,SECONDARY EDUCATION,20,852,1,10-14
2752,ABHAYAPURI HIGH SCHOOL,23   ABHAYAPURI 783384,SECONDARY EDUCATION,20,852,1,10-14
6238,DOLAIGAON BHANGALGURI PRIMARY SCHOOL,RAMKRISHNA MISSION ROAD 783380,PRIMARY EDUCATION,20,851,1,10-14
6239,BALAJI HINDI L P SCHOOL,032   COLLEGE ROAD  BONGAIGAON 783380,PRIMARY EDUCATION,20,851,1,10-14
6240,2 NO  HALDHIBARI M E,8   2 NO  HALDHIBARI 783384,PRIMARY EDUCATION,20,851,1,10-14
6241,GOBINNA M E MADRASSA,88   BANGLAPARA  GONOBINYA 783384,PRIMARY EDUCATION,20,851,1,10-14
6242,ANCHALIK GIRLS HIGH SCHOOL,169   TULUNGIA 783384,SECONDARY EDUCATION,20,852,1,10-14
6243,RATNAPITH GIRLS MADHYA ENGLISH MEDIUM SCHOOL,041   TULUNGIA 783383,PRIMARY EDUCATION,20,851,1,10-14
6244,DIET CENTRE,40   BONGAIGAON 783383,HIGHER EDUCATION,20,853,1,10-14
6245,CHUKAPARA HIGHER SECONDARY SCHOOL,024   BONGAIGAON TO SUKANPARA 783380,SECONDARY EDUCATION,20,852,1,10-14
6246,CHOKAPARA MADHYA ENGLISH MEDIUM SCHOOL,025   CHOKAPARA 783380,PRIMARY EDUCATION,20,851,1,10-14
6247,MULAGAON MADHYA ENGLISH MEDIUM SCHOOL,054   BAITAMARI PATH  MULAGAON 783380,PRIMARY EDUCATION,20,851,1,10-14
6248,DHALAGAON M E  SCHOOL,002   DHOLAGAON 783380,PRIMARY EDUCATION,20,851,1,10-14
6249,JATIYA BIDYALAYA,145 7   BASHBARI 783380,SECONDARY EDUCATION,20,852,2,10-14
6250,NETAJI HINDI BIDYAPITH L P SCHOOL,NEW BONGAIGAON 783381,PRIMARY EDUCATION,20,851,1,10-14
6251,KALIBARI BIDYANIKETAN L P SCHOOL,130   KALIBARI  NEW BONGAIGAON 783381,PRIMARY EDUCATION,20,851,1,10-14
6252,TENGAIGAON HIGH SCHOOL,102   TENGAIGAON 783381,SECONDARY EDUCATION,20,852,1,10-14
6253,ENGLISH MEDIUM M E SCHOOL,51   ATUGAON 783380,PRIMARY EDUCATION,20,851,1,10-14
6254,BISWA NABI HIGH MADRASSA,63 1   NANKAR GAON 783372,SECONDARY EDUCATION,20,852,1,10-14
6255,BISWA NABI  M E MADRASSA,63 2   NANKAR GAON 783372,PRIMARY EDUCATION,20,851,1,10-14
6256,BILASPUR HIGH SCHOOL,051   BILASPUR 783372,SECONDARY EDUCATION,20,852,1,10-14
6257,DANKINAMARI ADARSHA M E MADRASSA,004   DAKINAMARI 783390,PRIMARY EDUCATION,20,851,1,10-14
6258,PATILADEHA GIRLS HIGH SCHOOL,115   PATILADAHA 783391,SECONDARY EDUCATION,20,852,1,10-14
6259,PRIMARY SCHOOL,093   SHILAGURI 783390,PRIMARY EDUCATION,20,851,1,10-14
6260,P W D ENGN DEPT,11   ABHAYAPURI 783384,CONSTRUCTION OF ROAD,9,421,1,10-14
6261,ABUBAKKAR SIDDIKI FISHERY FARM,007   GORAIMARI 783390,FISH PRODUCTION,4,32,2,10-14
6262,PRIMARY HEALTH CENTRE,014   PATILADAHA 783391,HOSPITAL ACTIVITIES,21,861,1,10-14
6263,FAGUNGAON BARBAKHAR CHILARAI HIGH SCHOOL,153   FAGUNGAON 783390,SECONDARY EDUCATION,20,852,1,10-14
6264,PIGGARY FARM,42   KUMARKATA 783388,ANIMAL PRODUCTION,2,14,5,10-14
6265,KHORAGAON M V SCHOOL,C173   KHORAGAON 783384,PRIMARY EDUCATION,20,851,1,10-14
6266,HAJIRATAN ALI M E SCHOOL,01   DAKHIN LATIBARI 783384,PRIMARY EDUCATION,20,851,1,10-14
6267,DAKHIN LATIBARI M E SCHOOL,025   DAKHIN LATIBARI 783384,PRIMARY EDUCATION,20,851,1,10-14
6268,BARJAN HIGH SCHOOL,203   BARJANA 783382,SECONDARY EDUCATION,20,852,1,10-14
6269,SINGIMARI H S SCHOOL,67   SINGIMARI 783384,SECONDARY EDUCATION,20,852,1,10-14
6270,NEW PIRADHARA PRE SENIOR MADRASSA,129   NEW PIRADHARA 783384,PRIMARY EDUCATION,20,851,1,10-14
6271,NEW PIRADHARA L P SCHOOL,046    PIRADHARA 783384,PRIMARY EDUCATION,20,851,1,10-14
6272,DUMURIA M E MADRASSA,156   DUMURIA 1 NO  783384,PRIMARY EDUCATION,20,851,1,10-14
6273,NO2 DUMERGURI M E SCHOOL,104 1   DUMERGURI 3 NO  783384,PRIMARY EDUCATION,20,851,1,10-14
6274,3NO BALARCHOR NABAJYOTI ME MADRASSA,40   3NO BALARCHOR 783384,PRIMARY EDUCATION,20,851,1,10-14
6275,NAMBER PARA HIGH SCHOOL,75   2 NO  NAMBERPARA 783392,SECONDARY EDUCATION,20,852,1,10-14
6276,CHAMPA MAHILA ATMA SAHAYAK GOTE,114 1   KOKILA MAJPARA 783392,WEAVING AND SPINNING,6,131,5,10-14
6277,HAJI AZIMUDDIN MEMORIAL M E MADRASSA,65   CHAKLA WEST 783392,PRIMARY EDUCATION,20,851,1,10-14
6278,SOUTH BOITAMARI M V SCHOOL,002   BOITAMARI 783389,PRIMARY EDUCATION,20,851,1,10-14
6279,SOUTH BAITAMARI M E MADRASSA,007 2   BOITAMARI 783389,PRIMARY EDUCATION,20,851,1,10-14
6280,KENDRIYA BAITAMARI M V SCHOOL,50   KASHAR PARA 783389,PRIMARY EDUCATION,20,851,1,10-14
6281,BAITAMARY JATIYA BIDYALAY,094   UTTAR BAITAMARI 783389,PRIMARY EDUCATION,20,851,2,10-14
6282,DINABANDU HIGH SCHOOL,007   2 NO  MOSKAMURA 783384,HIGHER EDUCATION,20,852,1,10-14
6283,KABAITARI HIGH SCHOOL,035   MADRASSA PATH  KABAITARI 783388,SECONDERY EDUCATION,20,852,1,10-14
6284,JATIYA BIDYALAYA,176   TAKABARI 783392,PRIMARY EDUCATION,20,851,9,10-14
6285,ADLAGURI M V SCHOOL,68 1   ADLAGURI 783392,PRIMARY EDUCATION,20,851,1,10-14
6286,KALYANI SELF HELP GROUP,111   BASHBARI 783392,OTHER FINANCIAL SERVICE ACTIVITIES,16,649,5,10-14
8139,BONGAIGAON TOWN HIGH SCHOOL,91   KANAKLATA PATH  BONGAIGAON 783380,SECONDARY EDUCATION,20,852,1,10-14
8140,1049 NETAJI VIDYA NIKETAN PRIMARY SCHOOL,36 1   GOPINATH BARDOLOI PATH BONGAIGAON 783380,PRIMARY EDUCATION,20,851,1,10-14
8141,MILAN CLOTH STORE,42 1   A O C ROAD  BONGAIGAON 783380,WHOLESALE OF CLOTHING ITEMS,11,464,2,10-14
8142,KACHARIPETY HIGH SCHOOL,45   KACHATIPATTY 783384,SECONDARY EDUCATION,20,852,1,10-14
8143,BALARCHAR HIGH SCHOOL,BALARCHAR 783384,PRIMARY EDUCATION,20,851,1,10-14
8144,CHIPONSHILA HIGH SCHOOL,65   CHIPONSHILA 783380,SECONDARY EDUCATION,20,852,1,10-14
8145,JELKAJHAR BATTSANGAON HIGH SCHOOL,250   JELKAJHAR  783380,SECONDARY EDUCATION,20,852,1,10-14
8146,CHILARAI JATIYA VIDYALAYA,111   BAITAMARI PATH  MULAGAON 783380,SECONDARY EDUCATION,20,852,9,10-14
8147,LALBAHADUR SASTRI BIDYAPITH,055   BAITAMARI PATH  MULAGAON 783380,PRIMARY EDUCATION,20,851,1,10-14
8148,NORTH BATAIMARI HIGH SCHOOL,145   BASHBARI 783380,SECONDARY EDUCATION,20,852,1,10-14
8149,CHAPRAKATA POPRAGAON HIGH SCHOOL,126   CHAPARAKATA ROAD  NOYAPARA 783380,SECONDARY EDUCATION,20,852,1,10-14
8150,VIVEKANANDA VIDYAPITH M E SCHOOL,NEW BONGAIGAON 783381,PRIMARY EDUCATION,20,851,1,10-14
8151,NANKAR GAON HIGH SCHOOL,NANKAR GAON 783372,SECONDARY EDUCATION,20,852,1,10-14
8152,HAPACHARA HIGH SCHOOL,59   HAPACHARA 783390,SECONDARY EDUCATION,20,852,1,10-14
8153,GERUKABARI HIGH SCHOOL,MOUTORA 783390,SECONDARY EDUCATION,20,852,1,10-14
8154,BORBAKHARA MINI PRIMARY HOSPITAL,01   BORBAKHARA 783390,HOSPITAL ACTIVITIES,21,861,1,10-14
8155,BISHAL AUTO AGENCY,2   NORTH SALMARA ROAD  BONGAIGAON 783380,SALE OF MOTORCYCLES,10,454,2,10-14
8156,SANKAR MADHAB ACADEMY JUNIOR COLLEGE,52   NORTH SALMARA ROAD  BONGAIGAON 783380,SECONDARY EDUCATION,20,852,1,10-14
8157,GYAN DWIP JATIYA BIDYALAY,006   MALEGARH 783382,PRIMARY EDUCATION,20,851,2,10-14
8158,BIDYA JYOTI JATIYA BIDYALAY,007 1   MALEGARH 783382,PRIMARY EDUCATION,20,851,2,10-14
8159,KHORAGAON PRE SINIOR MADARASSA,C054   UTTAR KHORAGAON 783384,PRIMARY EDUCATION,20,851,1,10-14
8160,MERECHOR GIRLS HIGH SCHOOL,36   BAGHEKHAITY 783344,SECONDARY EDUCATION,20,852,1,10-14
8161,MERECHOR ANCHOLIC JATIYA BIDYALAYA,51   BAGHEKHAITY 783344,PRIMARY EDUCATION,20,851,2,10-14
8162,BALARGUDAM PRE SINIOR MADARASSA,042   BALARGUDAM 783384,PRIMARY EDUCATION,20,851,1,10-14
8163,TAPATTARY HIGH SCHOOL,88   PIKNAPARA 783384,SECONDARY EDUCATION,20,852,1,10-14
8164,PIRADHARA HIGH SCHOOL MADRASSA,099 1    PIRADHARA 783384,SECONDARY EDUCATION,20,852,9,10-14
8165,LETNGSINGA MINI HOSPITAL,297   COLLEGE ROAD  JHARPARA 783384,HOSPITAL ACTIVITIES,21,861,1,10-14
8166,GHARAMA NARARVITA PRE SENIOR MADRASSA,10   4 NO  NARARVITA 783384,PRIMARY EDUCATION,20,851,1,10-14
8167,METRAGHOLA ASHROFUL SINIOR MADRASSA,104   METRAGHOLA  783384,PRIMARY EDUCATION,20,851,1,10-14
8168,PRE SENIOR MADRASSA,117   2 NO  NAMBERPARA 783392,PRIMARY EDUCATION,20,851,1,10-14
8169,M E MADRASSA,117   KOKILA MAJPARA 783392,PRIMARY EDUCATION,20,851,1,10-14
8170,HAJI JASIMUDDIN MEMORIAL PRE SENIOR MADRASSA,93   CHAKLA 783392,PRIMARY EDUCATION,20,851,2,10-14
8171,BIDYAJYOTI HIGH SCHOOL,95   NAMBER PARA 783392,SECONDARY EDUCATION,20,852,1,10-14
8172,RUPJYOTI HIGH SCHOOL  BANGLA PARA,48   BANGLAPARA 783384,SECONDARY EDUCATION,20,852,1,10-14
8173,PANCHAGAON HIGH SCHOOL,016   PANCHAGAON 1 NO  783372,SECONDARY EDUCATION,20,852,1,10-14
8174,KOREYA HIGH SCHOOL,13   KOREYA 1 NO  783382,SECONDARY EDUCATION,20,852,9,10-14
8175,KABAITARI M E SCHOOL,034   MADRASSA PATH  KABAITARI 783388,PRIMARY EDUCATION,20,851,1,10-14
8176,ARUNODAY GIRLS HIGH SCHOOL,140   NOWAGAON 783392,SECONDARY EDUCATION,20,852,1,10-14
8177,SRIMANTA SANKARDEV HIGH SCHOOL,036   BESIMARI 783392,SECONDARY EDUCATION,20,852,1,10-14
8178,SRIMANTA SANKAR DEB M ESCHOOL,036 1   BESIMARI 783392,PRIMARY EDUCATION,20,851,1,10-14
8179,DOMPARA MINI HOSPITAL,113   DOMPARA 783392,HOSPITAL ACTIVITIES,21,861,1,10-14
8180,BONGAI GAON VIDYAPITH HIGH SCHOOL,30   KANAKLATA PATH 783385,SECONDARY EDUCATION,20,852,1,10-14
9742,BIRJHORA JATIYA VIDYALAYA,35   BIRJHORA 783380,SECONDARY EDUCATION,20,852,2,10-14
9743,LOWER ASSAM HOSPITAL,154   BONGAIGAON 783380,PRIMARY EDUCATION,20,851,1,10-14
9744,NETAJI VIDYA NIKETAN MADHYA ENGLISHMEDIUM SCHOOL,36 2   GOPINATH BARDOLOI PATH BONGAIGAON 783380,PRIMARY EDUCATION,20,851,1,10-14
9745,HOTEL DAIMOND,10 1   CHAPAGURI ROAD  BONGAIGAON 783380,SHORT TERM ACCOMODATION ACTIVITIES,14,551,2,10-14
9746,NEW JANATA BAKARY,STADIUM ROAD BONGAIGAON 783380,MANUFACTURE OF BAKERY PRODUCTS,6,107,2,10-14
9747,PRAKASH MEGA MART,24 2   A O C ROAD  BONGAIGAON 783380,RETAIL SALE OF OTHER GOODS,12,477,2,10-14
9748,MOINAPARA SARBAJANIA HIGH SCHOOL,72   JOPEYA MOINAPARA 783384,SECONDARY EDUCATION,20,852,1,10-14
9749,ANCHALIK GIRLS M E  SCHOOL,170   TULUNGIA 783383,PRIMARY EDUCATION,20,851,1,10-14
9750,NOWAPARA M V SCHOOL,136   NOWAPARA 783383,PRIMARY EDUCATION,20,851,1,10-14
9751,SRIJAN GRAM GIRLS HIGH SCHOOL,87   BORGHULA 783386,SECONDARY EDUCATION,20,852,1,10-14
9752,CLINIC LIFE INSURANCE,8 2   CHAPAGURI ROAD  BONGAIGAON 783380,MEDICAL ACTIVITIES,21,861,2,10-14
9753,PHC  CHIPONSHILA,57   CHIPONSHILA 783380,HOSPITAL ACTIVITIES WITHOUT ACCOMMODATION FACILITIES,21,861,1,10-14
9754,SOUTH BONGAIGAON M E  SCHOOL,111   1 NO  JHAKUAPARA 783380,PRIMARY EDUCATION,20,851,1,10-14
9755,DHALAGAON L P SCHOOL,43 1   DHOLAGAON 783380,PRIMARY EDUCATION,20,851,1,10-14
9756,KALIBARI BIDYA NIKETAN M E SCHOOL,131   KALIBARI  NEW BONGAIGAON 783381,PRIMARY EDUCATION,20,851,1,10-14
9757,36 NO  DHALIGAON L P SCHOOL,71   DHALIGAON 783385,PRIMARY EDUCATION,20,851,1,10-14
9758,HAPACHARA M E SCHOOL,58 1   HAPACHARA 783390,PRIMARY EDUCATION,20,851,1,10-14
9759,BHANDARA HIGH SCHOOL,1 NO BHANDARA 783380,SECONDARY EDUCATION,20,852,1,10-14
9760,M S AIVELLY SERVICE STATION MANIKPUR,07   BORBILA MANIKPUR 783392,RETAIL SALE OF AUTOMOTIVE FUEL IN SPECIALIZED STORES,12,473,2,10-14
9761,HOTEL C K AND RESTURANT,78   SHALMARA ROAD  BONGAIGAON 783380,SHORT TERM ACCOMODATION ACTIVITIES,14,551,2,10-14
9762,CHILD DEVELOPMENT PROJECT OFFICE,118   BORBILA MANIKPUR 788392,OFFICE ADMINISTRATIVE AND SUPPORT ACTIVITIES,19,821,1,10-14
9763,VISHAL AUTO AGENCY,3   NORTH SALMARA ROAD  BONGAIGAON 783380,SALE OF MOTORCYCLES,10,454,2,10-14
9764,KHORAGAON HIGH SCHOOL,C045   UTTAR KHORAGAON 783384,SECONDARY EDUCATION,20,852,1,10-14
9765,BARJANA SENIOR MADRASSA,21   BARJANA 783382,HIGH EDUCATION,20,852,1,10-14
9766,GANESH PUR HIGH SCHOOL,189   GONESH MANDIR PATH 783384,SECONDARY EDUCATION,20,852,1,10-14
9767,DEOHATI HIGH  SCHOOL,71   DEOHATI 783384,SECONDARY EDUCATION,20,852,1,10-14
9768,DEOHATI M E SCHOOL,70   DEOHATI 783384,PRIMARY EDUCATION,20,851,1,10-14
9769,PARADHARA HIGH SCHOOL,097   PARADHARA 783384,SECONDARY EDUCATION,20,852,1,10-14
9770,DUMURIA M E SCHOOL,112   LANGTISINGA 783384,PRIMARY EDUCATION,20,851,1,10-14
9771,SONTOSHPUR M V SCHOOL,5   SONTOSHPUR 783384,PRIMARY EDUCATION,20,851,1,10-14
9772,RANGAPANI RAJYIC HOSPITAL,075   GHORAMARA 783384,HOSPITAL ACTIVITIES,21,861,1,10-14
9773,RAJYIC HOSPITAL KOKILA,086   KOKILA UTTAR PARA 783392,HOSPITAL ACTIVITIES,21,861,2,10-14
9774,KASTURIBAI GIRLS M E SCHOOL,134 2   TALGURI BASUGAON 783372,PRIMARY EDUCATION,20,851,1,10-14
9775,SOUTH BAITAMARI HIGH MADRASSA,007 1   BOITAMARI 783389,SECONDARY EDUCATION,20,852,1,10-14
9776,MAJER ALAGA HIGH SCHOOL,16   SOUTH BAITAMARI 783388,SECONDARY EDUCATION,20,852,1,10-14
9777,ADARHA VIDYALAYA,030 1   MADRASSA PATH  KABAITARI 783388,PRIMARY EDUCATION,20,851,2,10-14
9778,2NO PRIMARY SCHOOL,ABHAYAPURI 783384,PRIMARY EDUCATION,20,851,1,10-14
9779,GYANSAKI HIGH SCHOOL,132   MANIIKPUR 783392,SECONDARY EDUCATION,20,852,1,10-14
9780,CHILARAY JUNIOR COLLEGE,11   MOUKHOWA 783392,SECONDARY EDUCATION,20,852,2,10-14
10186,RESTURANT ANJEL,Bongaigaon BARPARA Boitamari CHAPAGURI PATH 783380,RESTAURANT,14,561,2,10-14
10928,BONGAIGAON VIDYAPITH M E SCHOOL,31   KANAKLATA PATH  BONGAIGAON 783380,SECONDARY EDUCATION,20,852,1,10-14
10929,LAW COLLEGE,15   NORTH SALMARA ROAD   BONGAIGAON 783380,HIGHER EDUCATION,20,853,1,10-14
10930,F C I GODOWN,12 4   BONGAIGAON 783380,WAREHOUSING AND STORAGE,13,521,1,10-14
10931,M S PACIFIC HONDA,40 4   CHAPAGURI ROAD  BONGAIGAON 783380,SALE OF MOTORCYCLES,10,454,3,10-14
10932,SRIMANTA SANKARDEV M E SCHOOL,009   NEW BONGAIGAON 783381,PRIMARY EDUCATION,20,851,1,10-14
10933,AIVALLEY ACADEMY SCHOOL,26   HAPACHARA 783390,SECONDARY EDUCATION,20,852,2,10-14
10934,CHOURIGURI M E SCHOOL,30   CHOURIGURI 783390,PRIMARY EDUCATION,20,851,1,10-14
10935,MANAH JATIYA VIDYALAYA,148   2 NO  NOAPARA 787392,SECONDARY EDUCATION,20,852,2,10-14
10936,BHATIPARA HIGH SCHOOL,107   1 NO  NOAPARA 783392,SECONDARY EDUCATION,20,852,1,10-14
10937,GEOUR CHAND BADYA SAMPAD AUTOMOBILES,46   MAIN ROAD  BONGAIGAON 783380,SALE OF MOTOR VEHICLE PARTS,10,453,3,10-14
10938,M S  MAYAPURI,67   MAIN ROAD  BONGAIGAON 783380,MOTION PICTURE,15,581,3,10-14
10939,OFFICE OF THE SARBA SHIKSHA MISSION,191   BORBILA MANIKPUR 783392,OFFICE ADMINISTRATIVE AND SUPPORT ACTIVITIES,19,821,1,10-14
10940,PACHANIA HIGH SCHOOL,35   PACHANIA JOGIGHAPA 783382,SECONDARY EDUCATION,20,852,1,10-14
10941,MALEGRAH HIGH SCHOOL,98   MALEGARH 783382,SECONDARY EDUCATION,20,852,1,10-14
10942,BARJANA M V SCHOOL,88   BARJANA 783382,PRIMARY EDUCATION,20,851,1,10-14
10943,NOWAGAON HIGH SCHOOL,125   NOWAGAON 783392,SECONDARY EDUCATION,20,852,1,10-14
11775,BIRJHORA M E SCHOOL,80   BIRJHORA 783380,PRIMARY EDUCATION,20,851,1,10-14
11776,HINDI VIDYALAYA M E  SCHOOL,4   PAGALA STHAN 783380,PRIMARY EDUCATION,20,851,1,10-14
11777,SUNFLOWER ENG  MEDIUM SCHOOL,23 1   JYOTINAGAR  BONGAIGAON 783380,SECONDARY EDUCATION,20,852,2,10-14
11778,KIRTANPARA HIGH SCHOOL,213   KIRTANPARA 783384,SECONDARY EDUCATION,20,852,1,10-14
11779,JOINT DISTRICT HEALTH SOCIETY BONGAIGAON,NORTH SALMARA 783383,HOSPITAL ACTIVITIES,21,861,1,10-14
11780,CHPON CHILA M E SCHOOL,66   CHIPONSHILA 783380,PRIMARY EDUCATION,20,851,1,10-14
11781,ADARSHA JATIYA BIDYALAYA,068   BAITAMARI PATH  MULAGAON 783380,SECONDARY EDUCATION,20,852,9,10-14
11782,NEW BONGAIGAON M E SCHOOL,44   NEW BONGAIGAON 783381,PRIMARY EDUCATION,20,851,1,10-14
11783,GOOD SHEPARD ENGLISH MEDIUM SCHOOL,77   NEW BONGAIGAON 783381,PRIMARY EDUCATION,20,851,1,10-14
11784,NETAJI HINDI BIDYAPITH MIDDLE HIGHSCHOOL,46   NEW BONGAIGAON 783381,SECONDARY EDUCATION,20,852,1,10-14
11785,SONAIKOLA HIGH SCHOOL,KAWADI NO 2 783391,SECONDARY EDUCATION,20,852,1,10-14
11786,MANIKPUR SENIOR BASIC SCHOOL,193   BORBILA MANIKPUR 783392,PRIMARY EDUCATION,20,851,1,10-14
11787,ARYAN IMAGING   BUSINESS CONSULATANTS PVT LTD,60   BARPARA 783380,OFFICE ADMINISTRATIVE AND SUPPORT ACTIVITIES,19,821,4,10-14
11788,PULSE MEDICAL POLY CENTRE,32   MAIN ROAD BONGAIGAON 783380,OUTPATIENT  CLINIC,21,861,1,10-14
11789,AMGURI LATIBARI HIGH SCHOOL,120   AMGURI LATIBARI 783384,HIGHER EDUCATION,20,852,1,10-14
11790,PIRADHARA M E SCHOOL,098   PIRADHARA 783384,PRIMARY EDUCATION,20,851,1,10-14
11791,BHADAIPARA GIRLS MADRASSA,120   BHADAIPARA 783384,SECONDARY EDUCATION,20,852,1,10-14
11792,BATIJITPARA GIRLS M V SCHOOL,134 1   TALGURI BASUGAON 783372,PRIMARY EDUCATION,20,851,1,10-14
11793,RAJBARI ENGLISH SCHOOL,82   ABHAYAPURI 783384,PRIMARY EDUCATION,20,851,2,10-14
11794,NOWAGAON M E SCHOOL,126   NOWAGAON 783392,PRIMARY EDUCATION,20,851,1,10-14
11795,GYANSAKI M E SCHOOL,132 1   DOMPARA 783392,PRIMARY EDUCATION,20,851,1,10-14
12575,ABUTANI MERCANTILE PVT  LTD,CHAPAGURI ROAD  BONGAIGAON 783380,SALE OF MOTOR VEHICLES,10,451,2,15-19
12576,JIBAN JYOTI JATIYA BIDDALAYA,216   KIRTANPARA 783384,PRIMARY EDUCATION,20,851,3,15-19
12577,M R M HIGH SCHOOL,29   DUMIRGURI 783384,SECONDARY EDUCATION,20,852,1,15-19
12578,ADARSHA  VIDYA MANDIR,65   NEW BONGAIGAON 783381,SECONDARY EDUCATION,20,852,1,15-19
12579,RAM BHAROSE RESTAURANT,82 2   MAIN ROAD  BONGAIGAON 783380,RESTAURANT,14,561,2,15-19
12580,RANI INDANE GAS,128   ABHAYAPURI TOWN 783384,RETAIL SALE OF LPG,12,477,2,15-19
12581,MANIKPUR GIRLS HIGH SCHOOL,192   BORBILA MANIKPUR 783392,SECONDARY EDUCATION,20,852,1,15-19
12582,KUSHALBARI JATIYA BIDYALAYA,191 1   KUSHALBARI 783384,SECONDARY EDUCATION,20,852,2,15-19
12583,LALMATI M E SCHOOL,191   LALMATI PATH  LALMATI 783384,PRIMARY EDUCATION,20,851,1,15-19
12584,SINGIMARY M E SCHOOL,69   SINGIMARI 783384,PRIMARY EDUCATION,20,851,1,15-19
12585,G S M E SCHOOL,01   GHORAMARA 1 NO  783384,PRIMARY EDUCATION,20,851,1,15-19
12586,KONISTHA MAHABIDYALAY,118   2 NO  NAMBERPARA 783392,HIGHER EDUCATION,20,853,1,15-19
12587,ASSAMIYA HIGH MADRASSA,118   KOKILA MAJPARA 783392,SECONDARY EDUCATION,20,852,1,15-19
12588,BAPUJI HIGH SCHOOL,130 1   ABHAYAPURI 783384,SECONDARY EDUCATION,20,852,1,15-19
12589,MANIKPUR JATIYA VIDYALAY,29   MANIIKPUR 783392,SECONDARY EDUCATION,20,852,2,15-19
13282,TRINITY ENGLISH SCHOOL,MISSION ROAD BONGAIGAON 783380,SECONDARY EDUCATION,20,852,9,15-19
13283,BONGAIGAON M E  SCHOOL,SASTRI ROAD BONGAIGAON 783380,PRIMARY EDUCATION,20,851,1,15-19
13284,SANJIB ENTERPRISE,10   CHAPAGURI ROAD  BONGAIGAON 783380,OFFICE ADMINISTRATIVE AND SUPPORT ACTIVITIES,19,821,3,15-19
13285,ATUGAON M V  SCHOOL,78   ATUGAON 783380,PRIMARY EDUCATION,20,851,1,15-19
13286,RAY MEDICAL STORES,27   NETAJI SUBASH ROAD  BONGAIGAON 783381,WHOLESALE OF PHARMACEUTICAL   MEDICAL GOODS,11,464,2,15-19
13287,NAMBER PARA HIGH SCHOOL,41   NAMBER PARA 783392,SECONDARY EDUCATION,20,852,1,15-19
13288,BAPUJI M E SCHOOL,131   ABHAYAPURI 783384,PRIMARY EDUCATION,20,851,1,15-19
13855,S R ACADEMY,35 6   B B ROAD  BONGAIGAON 783380,SECONDARY EDUCATION,20,852,2,15-19
13856,RAJ   DIBYANI AUTOMOBILES,141 1   CHAPAGURI ROAD  BONGAIGAON 783380,SALE OF MOTOR VEHICLES,10,451,2,15-19
13857,DUMIRGURI M P H C,5   DUMIRGURI 783384,HOSPITAL ACTIVITIES WITHOUT ACCOMMODATION FACILITIES,21,861,1,15-19
13858,MKM ENTERPRISE VODAPHONE OFFICE,37 2   CHAPAGURI ROAD  BONGAIGAON 783380,HEAD OFFICE ACTIVITIES,18,701,3,15-19
13859,ST FRANCIS D  ASSMIS SCHOOL,09   CHAPARAKATA ROAD  NOYAPARA 783380,PRIMARY EDUCATION,20,851,2,15-19
13860,GERUKABARI M V  SCHOOL,MOUTORA 783390,PRIMARY EDUCATION,20,851,1,15-19
13861,MAHESH KRI MAHESRY HARDWARE,42   MAIN ROAD BONGAIGAON 783380,OTHER SPECIALIZED WHOLESALE,11,466,2,15-19
13862,PACHANIYA HIGHER SECONDARY SCHOOL,39   PACHANIYA JOGIGHOPA 783382,SECONDARY EDUCATION,20,852,1,15-19
13863,BINAPANI UNITED HIGH SCHOOL,99   KOKILA NOYAPARA 783392,SECONDARY EDUCATION,20,852,1,15-19
13864,ADARSHA JATIYA VIDYALAYA,12   ABHAYAPURI 783384,PRIMARY EDUCATION,20,851,2,15-19
14304,50 NO  UTTAR BONGAIGAON L P SCHOOL,SASTRI ROAD BONGAIGAON 783380,PRIMARY EDUCATION,20,851,1,15-19
14305,MEDICOMPLEX MATERNITY NURSING HOME,73 3   JYOTINAGAR  BONGAIGAON 783380,HOSPITAL ACTIVITIES,21,861,2,15-19
14306,HOTEL KANISHKA,4 1   B T ROAD  BONGAIGAON 783380,SHORT TERM ACCOMODATION ACTIVITIES,14,551,2,15-19
14307,HOTEL NIR,24 3   A O C ROAD  BONGAIGAON 783380,SHORT TERM ACCOMODATION ACTIVITIES,14,551,2,15-19
14308,SIDAN MATI M E SCHOOL,80   N H 31  BALAJANI SESAPANI 783383,PRIMARY EDUCATION,20,851,1,15-19
14309,SRIMANTA SANKARDEV L P SCHOOL,003   NEW BONGAIGAON 783381,PRIMARY EDUCATION,20,851,1,15-19
14310,SRIMANTA SANKARDEV HIGH SCHOOL,010   NEW BONGAIGAON 783381,SECONDARY EDUCATION,20,852,1,15-19
14311,CHAMPAK AUTONMOBILE,72   M G ROAD  BONGAIGAON 783380,SALE OF MOTORCYCLES,10,454,2,15-19
14312,HOTEL SIBALI   RESTAURANTS,STATION ROAD 783380,RESTAURANT,14,561,2,15-19
14313,NATAKACHAL SANGEET MAHAVIDYALAYA,045   BRPL TOWNSHIP  DHALIGAON 783385,HIGHER EDUCATION,20,853,1,15-19
14314,CHILARAY HOSPITAL   RESEARCH CENTRE,90   NORTH SALMARA ROAD  BONGAIGAON 783380,HOSPITAL ACTIVITIES,21,861,2,15-19
14315,LALMATI JATIYA BIDYALAYA,068   GANESH MANDIR PATH  LALMATI 783384,PRIMARY EDUCATION,20,851,2,15-19
14316,NAMBER PARA M V SCHOOL,100   NAMBER PARA 783392,PRIMARY EDUCATION,20,851,1,15-19
14317,UTTAR BAITAMARI GIRLS HIGH SCHOOL,33   AMGURI 783389,SECONDARY EDUCATION,20,852,1,15-19
14318,NABADAYA JATIYA BIDYALAYA ABHAYAPURI,25   ABHAYAPURI 783384,PRIMARY EDUCATION,20,851,1,15-19
14700,BIRJHORA GIRLS HIGH SCHOOL,79   KAMANESWAR MAZUMDAR PATH 783380,SECONDARY EDUCATION,20,852,1,15-19
14701,THE RAJ PALACE,041   CHAPAGURI ROAD  BONGAIGAON 783380,SHORT TERM ACCOMODATION ACTIVITIES,14,551,2,15-19
14702,RAMDHENU JATIYA BIDYALAY,146   KIRTANPARA 783384,PRIMARY EDUCATION,20,851,3,15-19
14703,SIDALMATI HIGHER SECONDARY SCHOOL,79   N H 31  BALAJANI SESAPANI 783383,SECONDARY EDUCATION,20,852,1,15-19
14704,SANKARDEV KRISHNANANDA SHISHU BIDYANIKETAN,131   BORBILA MANIKPUR 783392,PRIMARY EDUCATION,20,851,1,15-19
15153,D P M HIGH SCHOOL,57   NORTH SALMARA 783383,SECONDARY EDUCATION,20,852,1,20-24
15154,KIRTAN PARA M V SCHOOL,KACHARIPATTY 783383,PRIMARY EDUCATION,20,851,1,20-24
15155,S P M L COMPANY,130   HAPACHARA 783390,MANUFACTURE OF NON METALIC PRODUCTS,6,239,4,20-24
15156,PATILADAHA HIGH SCHOOL,002   PATILADAHA 783391,HIGHER EDUCATION,20,852,1,20-24
15157,ABHAYAPURI JATIYA VIDYALAYA,76   ABHAYAPURI 783384,PRIMARY EDUCATION,20,851,1,20-24
15158,NAMBER PRE SENIOR MADRASSA,62   NAMBER PARA 783392,SECONDARY EDUCATION,20,852,1,20-24
15159,KABAITARI ANCHALIK SENIOR MADRASSA,036   MADRASSA PATH  KABAITARI 783388,SECONDARY EDUCATION,20,852,1,20-24
15160,JNANPITH ADRSHA JATIYA VIDYALAYA,001   TAKABARI 783392,PRIMARY EDUCATION,20,851,9,20-24
15522,J N M GIRLS HIGH SCHOOL,196   RAGHUNANDANPUR 783389,SECONDARY EDUCATION,20,852,1,20-24
15861,JYANDEEP JATIYA VIDYALAYA,01   KOIMARI LOHRAPARA 783384,PRIMARY EDUCATION,20,851,2,20-24
15862,NORTH BONGAIGAON HIGH SCHOOL,102   NORTH BONGAIGAON 783380,SECONDARY EDUCATION,20,852,1,20-24
15863,J L SINGHI COMPANY,109   N H 31  GOSSAIGAON 783390,MANUFACTURE OF NON METALLIC PRODUCTS,6,239,2,20-24
15864,AL AMIN SENIOR MADRASSA,04   DURAMARI 783384,SECONDARY EDUCATION,20,852,1,20-24
15865,JHAWBARI HS SCHOOL,200   JHAWBARI 783392,SECONDARY EDUCATION,20,852,1,20-24
16118,NASATRA SINIOR MADRASSA,031   NASATRA 783384,HIGHER EDUCATION,20,852,1,20-24
16332,LITTLE FLOWER SCHOOL,057   BORBILA MANIKPUR 783392,PRIMARY EDUCATION,20,851,1,20-24
16589,BOANGAIGAON RULING FLOUR MILL,39   CHAPAGURI ROAD  BONGAIGAON 783380,FLOUR MILL,6,106,2,25-29
16590,GOLAPARA HIGH SCHOOL,31   GOLAPARA 783384,SECONDARY EDUCATION,20,852,1,25-29
16591,BONGAIGAON ELECTRICAL,BONGAIGAON PATH 783380,HEAD OFFICE ACTIVITIES,18,701,1,25-29
16813,VIVEKANANDA VIDYAPITH HIGH SCHOOL,NEW BONGAIGAON 783381,SECONDARY EDUCATION,20,852,1,25-29
16814,MANASH JATIYA VIDYALAYA,38   BHADAIPARA 783384,SECONDARY EDUCATION,20,852,2,25-29
16972,P W D ENGN DEPT,10   ABHAYAPURI 783384,CONSTRUCTION OF ROAD,9,421,1,25-29
16973,PRIMARY HEALTH CENTRE,155   BORBILA MANIKPUR 783392,HOSPITAL ACTIVITIES WITHOUT ACCOMMODATION FACILITIES,21,861,1,25-29
16974,P M HS  SCHOOL,145   RANGAPANI 783384,SECONDARY EDUCATION,20,852,1,25-29
16975,J N M   GIRLS HIGH SCHOOL,ABHAIYAPURI COLLEGE ROAD  ABHAIYAPURI 783384,SECONDARY EDUCATION,20,852,1,25-29
16976,KRISHNA KANTA ACADEMY,101   MOUKHOWA 783392,PRIMARY EDUCATION,20,852,2,25-29
17118,SRIJAN GRAM H S SCHOOL,088   BORGHULA 783386,SECONDARY EDUCATION,20,852,1,25-29
17252,PHEKANTI M P HIGH SCHOOL,ABHAYAPURI 783384,SECONDARY EDUCATION,20,852,3,25-29
17432,POO HERO,CHAPAGURI ROAD  BONGAIGAON 783380,SALE OF MOTOR VEHICLES,10,451,2,30-99
17433,ABHAYAPURI TOWN COMMITEE,75   ABHAYAPURI TOWN 783384,OFFICE ADMINISTRATIVE AND SUPPORT ACTIVITIES,19,821,1,30-99
17434,CHAKLA HIGHER SECONDARY SCHOOL,68 1   CHAKLA 783392,SECONDARY EDUCATION,20,852,1,30-99
17435,LITTLE FLOWER HIGH SCHOOL,72   SIBAPUR ROAD  ABHAYAPURI 783384,SECONDARY EDUCATION,20,852,1,30-99
17597,BIDYAPUR PHC,11   NOLDUBA 783372,HOSPITAL ACTIVITIES WITHOUT ACCOMODATION,21,861,1,30-99
17717,LETNGISINGA H S SCHOOL,98   JHARPARA 783384,SECONDARY EDUCATION,20,852,1,30-99
17718,BAITAMARY HIGHER SECONDARY SCHOOL,157   UTTAR BAITAMARI 783389,SECONDARY EDUCATION,20,852,2,30-99
17719,GYANPITH JATIYA BIDYALAY,29   ISLAMPARA 783382,SECONDARY EDUCATION,20,852,3,30-99
17720,L B ACADEMY ABHAYAPURI,22   ABHAYAPURI 783384,HIGHER EDUCATION,20,851,2,30-99
17814,ROSE VALLEY OFFICE,18 3   CHAPAGURI ROAD 783380,OTHER FINANCIAL SERVICE ACTIVITIES,16,649,4,30-99
17890,JAWAHAR NAVODAYA SCHOOL,71   KALIDOBA 783380,PRIMARY EDUCATION,20,851,1,30-99
17891,BIDYAPUR HIGHER SECONDARY SCHOOL,1   P W D ROAD  BIDYAPUR 783372,SECONDARY EDUCATION,20,852,1,30-99
17892,PUNAS LUYED COMPANY,131   HAPACHARA 783390,MANUFACTURE OF NON METALLIC PRODUCTS,6,239,4,30-99
17893,MONFORT SCHOOL,89 1   BATABARI 783384,PRIMARY EDUCATION,20,851,1,30-99
18015,BIRJHORA KANYA MAHAVIDYALAYA,173   B T ROAD BONGAIGAON 783380,HIGHER EDUCATION,20,853,1,30-99
18016,SRIJONGRAM P H C ,21   NARIKOLA UJANPARA 783386,HOSPITAL ACTIVITIES,21,861,1,30-99
18017,BONGAIGAON ELECTRICAL SUB DIVISION,90   NORTH SALMARA ROAD 783380,HEAD OFFICE ACTIVITIES,18,701,1,30-99
18018,DEOSRI HOUSE,08   BRPL TOWNSHIP  DHALIGAON 783385,SHORT TERM ACCOMODATION ACTIVITIES,14,551,2,30-99
18019,INDIRA GANDHI MAHABIDYALAY,158   UTTAR BAITAMARI 783389,HIGHER EDUCATION,20,853,3,30-99
18127,B B MAHABIDYALAYA,34   SIMLABARI 2 KHANDA 783384,HIGHER EDUCATION,20,853,3,30-99
18207,HOLY CHILD ENGLISH MEDIUM SCHOOL,142   BONGAIGAON 783380,SECONDARY EDUCATION,20,852,9,30-99
18208,SANKARDEV SISHU NIKETAN,079   BONGAIGAON 783380,SECONDARY EDUCATION,20,852,9,30-99
18275,S M  HOSPITAL,35 1   CHAPAGURI ROAD  BONGAIGAON 783380,HOSPITAL ACTIVITIES,21,861,2,30-99
18276,CHALANTA PARA H S SCHOOL,31 6   CHALANTA PARA 783388,SECONDARY EDUCATION,20,852,1,30-99
18335,GYANODAY JATIYA VIDYALAYA,21   BONGAIGAON 783380,PRIMARY EDUCATION,20,851,3,30-99
18336,SWAGAT HOSPITAL   RESERCH CENTER,1 3   C M  DAS PATH  BONGAIGAON 783380,HOSPITAL ACTIVITIES,21,861,2,30-99
18421,BIRJHORA MAHAVIDYALAYA,84 1   UTTAR SHALMARA PATH  BONGAIGAON DEORIPARA 783380,HIGHER EDUCATION,20,853,1,30-99
18422,ST AIBERT HIGH SCHOOL,8   BHAWRAGURI 783381,SECONDARY EDUCATION,20,852,9,30-99
18423,C K COLLEGE,83   CHAKLA 783392,HIGHER EDUCATION,20,853,2,30-99
18424,AMBIKAGIRI GIRLS VIDYALAYA,27   ABHAYAPURI 783384,PRIMARY EDUCATION,20,852,2,30-99
18501,BRPL GUEST HOUSE,3   BRPL TOWNSHIP  DHALIGAON 783385,GUEST HOUSE,14,551,2,30-99
18568,RAJIB GANDI COLLEGE LETINGISINGA,296   COLLEGE ROAD  JHARPARA 783384,HIGHER EDUCATION,20,853,1,30-99
18638,LOOIS BERGER GROUP INC,86 5   NEW BONGAIGAON 783381,CONSTRUCTION OF ROAD,9,421,4,30-99
18683,ASSAM ELECTRICITY BOARD,68   ABHAYAPURI TOWN 783384,HEAD OFFICE ACTIVITIES,18,701,1,30-99
18745,BIRJHORA HIGHER SECONDARY SCHOOL,175   B T ROAD BONGAIGAON 783380,SECONDARY EDUCATION,20,852,1,30-99
18746,CHILARAY JATIYA BIDYALAYA,53   NORTH SALMARA 783383,SECONDARY EDUCATION,20,852,3,30-99
18806,ABHAYESWARI H S AND MP SCHOOL,097   ABHAYAPURI 783384,PRIMARY EDUCATION,20,851,1,30-99
18889,MANIKPUR ANCHALIK COLLEGE,01   BORBILA MANIKPUR 783392,HIGHER EDUCATION,20,853,1,30-99
18972,MANIKPUR HIGHER SECONDARY SCHOOL,194   BORBILA MANIKPUR 783392,SECONDARY EDCUATION,20,852,1,30-99
19118,BONGAIGAON RHY H S  SCHOOL,001   BONGAIGAON 783380,SECONDARY EDUCATION,20,852,1,30-99
19119,ABHAYAPURI CIVIL HOSPITAL,6   ABHAYAPURI 783384,HOSPITAL ACTIVITIES,21,861,1,30-99
19210,BONGAIGAON COLLEGE,DOLAIGAON  BONGAIGAON 783380,HIGHER EDUCATION,20,853,1,30-99
19211,BONGAI SCIENCE COLLEGE,4 1   BONGAIGAON   783380,HIGHER EDUCATION,20,853,1,30-99
19281,MEGHNA HYUNDAI,CHAPAGURI ROAD  BONGAIGAON 783380,SALE OF MOTOR VEHICLES,10,451,2,30-99
19319,ABHAYAPURI COLLEGE,096   ABHAYAPURI 783384,HIGHER EDUCATION,20,853,1,30-99
19345,I T I,DOLAIGAON  BONGAIGAON 783380,HIGHER EDUCATION,20,853,1,30-99
19346,B G R SCHOOL,2   B J R TOWN 783385,PRIMARY EDUCATION,20,851,1,30-99
19347,H M C  BRICK INDUSTRY,166   BORBILA MANIKPUR 783392,MANUFACTURE OF BRICKS,6,239,3,30-99
19348,I T I,05   BONGAIGAON PATH 783380,HIGHER EDUCATION,20,853,1,30-99
19363,BONGAIGAON ENGLISH MEDIUM SCHOOL,2   STADIUM ROAD BONGAIGAON 783380,SECONDARY EDUCATION,20,852,9,30-99
19457,D P S SCHOOL,1   DHALIGAON PATH 783385,PRIMARY EDUCATION,20,851,1,30-99
19458,D P S SCHOOL,1   DHALIGAON PATH 783385,PRIMARY EDUCATION,20,851,1,30-99
19605,BAGARIA INDUSTRICAL CORPORATION,99   ACHARJYA TULSI MARG BONGAIGAON 783380,CASTING OF METALS,6,243,2,30-99
19739,BONGAIGAON POLYTECHNIC,85   MULAGAON 783380,HIGHER EDUCATION,20,853,1,30-99
19758,RAILWAY HOSPITAL,17   NEW BONGAIGAON 783381,HOSPITAL ACTIVITIES,21,861,1,30-99
19959,F C I DEPT,35   COLLEGE ROAD  BONGAIGAON 783380,WAREHOUSING AND STORAGE,19,821,1,100-199
19985,B0NGAIGAON CIVIL HOSPITAL,1   KACHARIPATTY 783383,HOSPITAL ACTIVITIES,21,861,1,100-199
20158,ABHIJANTRIK FABRICATION,23   PAGALASTHAN GATE  BONGAIGAON 783380,MANUFACTURE OF OTHER FABRICATED METAL PRODUCTS,6,259,2,200-499
