S.No.,Name of the Establishment,Address,Major Activity Description,Broad Activit y Code,NIC,Owner ship Code,"Emplo yment Class Interva
l"
108,SANKARDEV SISU NIKETAN BALIPUTA,22   BALIPATU 784525,PRIMARY EDUCATION,20,851,9,10-14
229,STATE BANK OF INDIA  DALGAON BRANCH,25 2   N H  52 DALGAON 784116,MONETARY INTERMEDIATION,16,641,1,10-14
372,UNION BANK,190   M G ROAD MANGALDOI 784125,MONETARY INTERMEDIATION,16,641,1,10-14
490,ASSAM GRAMIN BIKASH BANK MANGALDAIBRANCH,30   L L B  ROAD MANGALDOI 784125,MONETARY INTERMEDIATION,16,641,1,10-14
491,ASSAM CO  OPERATIVE APEX BANK   MANGALDAI,279   L L B  ROAD MANGALDOI 784125,MONETARY INTERMEDIATION,16,641,6,10-14
492,UCO BANK MANGALDAI BRANCH,176 8   L L B  ROAD MANGALDOI 784125,MONETARY INTERMEDIATION,16,641,1,10-14
620,AXIS BANK  MANGALDAI,MANGALDAI 784125,MONETARY INTERMEDIATION,16,641,2,10-14
707,ASSAM JATIYA BIDYALAYA,02   BECIMARI OUTALA 784525,SECONDARY EDUCATION,20,852,1,10-14
708,NATIONAL INSURANCE COMPANY  MANGALDAI,58   L N  B ROAD  MANGALDAI 784125,GENERAL INSURANCE ACTIVITIES,16,651,1,10-14
787,BAJAJ ALLIANCE GENERAL INSURANCE CO LTD,7   M G ROAD  MANGALDAI 784125,GENERAL INSURANCE ACTIVITIES,16,651,4,10-14
788,BIRLA SUN LIFE INSURANCE,120   L N B ROAD  MANGALDAI 784125,LIFE INSURANCE ACTIVITIES,16,651,4,10-14
789,RELIANCE LIFE INSURANCE CO LTD ,54 5   LNB ROAD  MANGALDAI 784125,LIFE INSURANCE ACTIVITIES,16,651,4,10-14
922,SANKAR DEB SISHU NIKETAN,68   SIPAJHAR  MANGALDAI 784145,SECONDARY EDUCATION,20,852,9,15-19
984,STATE BANK OF INDIA,16 17   NH52 KHARUPETIA 784115,MONETARY INTERMEDIATION,16,641,1,15-19
1172,KENDRIYA VIDYALAYA,201   KAMARAPARA PATH 784125,SECONDARY EDUCATION,20,852,1,20-24
1218,BECHIMARI ADARSHA JATIYA SCHOOL,3   BESIMARI 784514,PRIMARY EDUCATION,20,851,1,20-24
1247,SANKARDEV SISU NIKETAN,MANGALDOI 784125,PRIMARY EDUCATION,20,851,9,20-24
1248,SANKAR DEB SISHU NIKETAN,159   BONMARA 784148,PRIMARY EDUCATION,20,851,9,20-24
1406,132 33 K V  SIPAJHAR PUNIA GRILD SUB STATION,9   52 N H  SIPAJHAR PUNIA 784145,ELECTRIC POWER GENERATION,7,351,4,30-99
1451,ASSAM CO OPERATIVE INSURANCE,550   MANGALDOI 784125,INSURANCE ACTIVITIES,16,651,6,30-99
1539,DON BOSCO   SCHOOL,205 2   MANGALDOI 784125,SECONDARY EDUCATION,20,852,9,30-99
1554,POST OFFICE,N H  52 MANGALDAI 784125,POSTAL ACTIVITIES,13,531,1,30-99
1565,ASSAM STATE ELECTRICITY BOARD  SIPAJHAR,065   CHIPAJHAR PATHARIGHAT PATH  SIPAJHAR 784145,ELECTRIC POWER GENERATION,7,351,1,30-99
1570,STATE BANK OF INDIA  MANGALDAI BRANCH,L N B ROAD MANGALDAI 784125,MONETARY INTERMEDIATION,16,641,1,30-99
1575,L I C I   MANGALDAI BRANCH,110   L N B ROAD MANGALDAI 784125,LIFE INSURANCE ACTIVITIES,16,651,1,30-99
1814,CHIKANMATI TEA GARNDEN,33   BESIMARI 784514,MANUFACTURE  AND PROCESSING OF TEA,6,107,4,>=500
2252,HALOICHOUKA BALIKA HIGH SCHOOL,114 2   HALOICHOUKA 784529,SECONDARY EDUCATION,20,852,1,10-14
2253,MANGALDAI TOWN GIRLS HIGHER SECONDARY EDUCATION,NATYA MANDIR PATH 784125,SECONDARY EDUCATION,20,852,1,20-24
2254,BINDU HOTEL,080   M K  GANDHI ROAD 784125,TEA SHOP,14,563,2,10-14
2255,JATIYA VIDYALAYA,30   DAIPAM DARRANG 784514,PRIMARY EDUCATION,20,851,2,10-14
2256,DHALPUR KIRAKARA HIGH SCHOOL,80   3 NO DHALPUR 784145,SECONDARY EDUCATION,20,852,1,10-14
2257,STATE DESPENSARY,29   BHEHENI CHAPARI SIPAJHAR 784145,HOSPITAL ACTIVITIES,21,861,1,10-14
2258,BURHINAGAR HIGH SCHOOL,BURHINAGAR 784147,SECONDARY EDUCATION,20,852,1,15-19
2259,SPPS BIJULEE AGENT,KHARUPETIA 784115,ELECTRICAL INSTALLATION ACTIVITIES,9,432,5,10-14
2897,KAMALA KUWORI GIRLS HIGH SCHOOL,68   DIGHARPAR 784144,SECONDARY EDUCATION,20,852,1,15-19
2898,LOKOPRIYA GOPINATH BARDALOI M E SCHOOLOOL,73   KALAIGAON 784525,PRIMARY EDUCATION,20,851,1,10-14
2899,BALIPOTA HIGH SCHOOL,36   MESKA PATH 784525,SECONDARY EDUCATION,20,852,1,10-14
2900,RADHIKA X RAY,07 2   SHANTIPUR PATH 784125,OTHER HUMAN HEALTH ACTIVITIES,21,869,2,10-14
2901,ASSAM MEDICAL HALL,029   M G ROAD 784125,WHOLESALE OF PHARMACEUTICAL AND MEDICAL GOODS,11,464,2,15-19
2902,SANDILA TEA HOTEL,112 2   MANGALDAI BHUTICHANG 784125,TEA SHOP,14,563,2,10-14
2903,A V FURNITURE,52 N H  784125,MANUFACTURING OF FURNITURE,6,310,2,10-14
2904,PUB PADOGHAT HIGH SCHOOL,35   PUB PADUGHAT DARRANG 784190,SECONDARY EDUCATION,20,852,1,10-14
2905,KRISHNAKANTA HANDIQUE OPEN UNIVERSTY,77 10 HIRAPARA DARRANG 784146,HIGHER EDUCATION,20,853,1,15-19
2906,GYANUDAY JATIYA VIDYALAYA,13   1 2 BARUAJHAR DARRANG 784514,SECONDARY EDUCATION,20,852,1,10-14
2907,SHIYALMARI HIGH SCHOOL,KAPATI SHIYALMARI 784113,SECONDARY EDUCATION,20,852,1,10-14
2908,TRIMURTI  FIRM HOUSE,102   52 N H   MANGALDOI 784125,MANUFACTURE OF PRODUCTS OF WOOD,6,162,2,15-19
2909,SWAGATAM FURNITURE HOUSE,52 N H   MANGALDOI 784125,MANUFACTURING OF FURNITURE,6,310,2,10-14
2910,SIPAJHAR GAS AGENCY,132 10   SIPAJHAR  DARRANG 784145,RETAIL SALE OF LPG,12,477,2,10-14
2911,CHENGELIAJHAR JATIA BIDYALAYA,097   DIPIMA KURUWA PATH  CHENGELIAJHAR 784145,PRIMARY EDUCATION,20,851,1,10-14
2912,CHENGELIYA JHAR MINI HOSPITAL,08   DIPIMA KURUYA 784145,HOSPITAL ACTIVITIES,21,861,1,15-19
6838,DALIBARI MADHYA ENGLISH  SCHOOL,6 1   52 N H  DALIBARI 784529,PRIMARY EDUCATION,20,851,1,10-14
6839,OUTALA GIRLS HIGH SCHOOL,146   BENGABARA 784525,SECONDARY EDUCATION,20,852,1,10-14
6840,RAJGHAT M E  SCHOOL,73   MANGALDAI MAJIKHUSI 784529,PRIMARY EDUCATION,20,851,1,10-14
6841,GYANDEEP JATIYA VIDYALAYA DIGHARPAR,70   DIGHARPAR 784144,PRIMARY EDUCATION,20,851,3,10-14
6842,PUB MANGALDAI MADHYA ENGLISH MEDIUM SCHOOL,128   MENAPARA BHAKATPARA 784146,PRIMARY EDUCATION,20,851,1,10-14
6843,LAKHIMPUR M E  SCHOOL,112   GARUBANDHAR GOMOTHA PATH 784525,PRIMARY EDUCATION,20,851,1,10-14
6844,BHAVA SANKAR PRIMARY SCHOOL,118   M E  IBRAHIM ALI PATH  KHARUPETIA 784125,PRIMARY EDUCATION,20,851,1,10-14
6845,TATA MOTOR FINANCE CO  LTD,337   L N B ROAD AMBARI 784125,OTHER FINANCIAL SERVICES,16,649,4,10-14
6846,ASHTHA SANCHAI AND RINDAN SAMABAI SAMITY LTD ,21 2   KALAIGAON PATH 784125,OTHER FINANCIAL SERVICES,16,649,6,10-14
6847,BARBAGAN HIGH SCHOOL,35   KALAIGAON BARBAGAN PATH DARRANG 784525,SECONDARY EDUCATION,20,852,1,10-14
6848,JOGIPARA HIGH SCHOOL,JOGIPARA DARRANG 784146,SECONDARY EDUCATOIN,20,852,1,10-14
6849,THEKERBARI HIGH MADRASSA,95   THEKERBARI 784146,SECONDARY EDUCATION,20,852,1,10-14
6850,CHAKARA BASTI PRE SENIOR MADRASSA,42 1   CHAKARABASTI  DALGAON 784116,PRIMARY EDUCATION,20,851,1,10-14
6851,PRE SENIOR MADRASSA,126   DAIPAM DARRANG 784514,PRIMARY EDUCATION,20,851,1,10-14
6852,M E MADRASSA,3   DAIPAM DARRANG 784514,PRIMARY EDUCATION,20,851,1,10-14
6853,2 NO MAJGAON MAJGAON JATIYA BIDYALAY,61 1   BESIMARI  2 NO MAJGAON 784514,PRIMARY EDUCATION,20,851,2,10-14
6854,2 NO MAJGAON M E  SCHOOL,102   BESIMARI 784514,SECONDARY EDUCATION,20,852,1,10-14
6855,NIJ GADHARIJHAR M E  MADRASSA,80 1   NIZ GADAIJAR  DUARPARA 784116,SECONDARY EDUCATION,20,852,1,10-14
6856,KUWARI PUKHURI HIGH PRIMARY SCHOOL,19   2 NO KUWARI PUKHURI 784115,PRIMARY EDUCATION,20,851,1,10-14
6857,KUWARI PUKHURI CHIDDIKIYA M E  MADRASSA,138   2 NO KUWARI PUKHURI 784115,SECONDARY EDUCATION,20,852,1,10-14
6858,KUWARI PUKHURI SENIOR MADRASSA,139   2 NO KUWARI PUKHURI 784115,SECONDARY EDUCATION,20,852,1,10-14
6859,BALIKA M E MADRASSA,57   1 2 BARUAJHAR DARRANG 784514,SECONDARY EDUCATION,20,852,1,10-14
6860,BADALICHAR M E  MADRASSA,29   BADALICHAR 784116,PRIMARY EDUCATION,20,851,1,10-14
6861,3 NO  SHYAMPUR M E MADRASSA,165   SHYAMPUR DARRANG 784115,SECONDARY EDUCATION,20,852,1,10-14
6862,BURHIGAON PRIMARY SCHOOL,42   GADAIJHAR PATH DARRANG 784115,PRIMARY EDUCATION,20,851,1,10-14
6863,MAROI HIGH MADRASSA,22 2   N H  52 MAROI 784145,SECONDARY EDUCATION,20,852,1,10-14
6864,SANKAR AJAN ACADEMY,25   GARUKHUTI KALITA PARA    SANOWATARI 784145,SECONDARY EDUCATION,20,852,1,10-14
6865,LUIT VALLEY ACADEMY,2   GHORA BANDHA  GARUKHUTI RUPARIKAKH 784145,PRIMARY EDUCATION,20,851,2,10-14
6866,GAJEN MEDHI S RESTAURANT,099   NH 52  SIPAJHAR KABAECHUBA 784145,RESTAURANT,14,561,2,10-14
6867,BONMAJHA GIRLS M E SCHOOL,082 2   BARBARI AKETHERI 784148,PRIMARY EDUCATION,20,851,1,10-14
6868,HNGEGAL PARA M V SCHOOL,39 1   BARBARI 784148,PRIMARY EDUCATION,20,851,1,10-14
6869,KAROIBARI M E SCHOOL,27   KAROIBARI 784148,PRIMARY EDUCATION,20,851,1,10-14
6870,BARPATHAR HIGH SCHOOL,45   BARPATHAR  784148,SECONDARY EDUCATION,20,852,1,10-14
6871,PACHIM DARNG H S SCHOOL,28   DUNI BAMUNJHAR 784148,SECONDARY EDUCATION,20,852,9,10-14
6872,CHAKIA PARA HIGH SCHOOL,49 2   MANGALDAI MAJIKUCHI 784147,SECONDARY EDUCATION,20,851,1,10-14
6873,SHANTIPUR MAJOLIA BIDYALAYA,133   SANTIPUR 784144,PRIMARY EDUCATION,20,851,1,10-14
6874,PUB NAGAON HIGH SCHOOL,4   MANGALDAI DIPILA PATH 784144,SECONDARY EDUCATION,20,852,1,10-14
6875,GHILAKURI HIGH MADRASSA,124   BARHITOKA MAHALIYAPARA 784144,SECONDARY EDUCATION,20,852,1,10-14
6876,2NO CHENGAPARABOYA KATA KENDRA,27   DUNI 784148,SPINNING AND WEAVING OF COTTON,6,131,6,10-14
6877,ALI HUSSAINR ITA BHATA,18   MANGALDAI KHAIRABARI PATH 784147,MANUFACTURE OF BRICKS,6,239,2,10-14
6878,BIHUBHANGA M V SCHOOL,13   BARDOILAGURI BIHUBHANGA 784145,PRIMARY EDUCATION,20,851,1,10-14
6879,PASHIM LOCRAI M V SCHOOL,141   DUMINI CHOKI 784145,PRIMARY EDUCATION,20,851,1,10-14
6880,MALI GOSANI M E SCHOOL HARIGHAT,20   SIPAJHAR SALPAM 784145,PRIMARY EDUCATION,20,851,1,10-14
6881,PAKADOLI GIRLS HIGH SCHOOL,24   DHEKIPARA PAKADOLI  SIPAJHAR 784145,SECONDARY EDUCATION,20,852,1,10-14
6882,LUIT PARIYA HIGH SCHOOL,92   JAKUAPARA  SIPAJHAR 784145,SECONDARY EDUCATION,20,852,1,10-14
6883,LUIT PARIYA H S SCHOOL,JAKUAPARA  SIPAJHAR 784145,SECONDARY EDUCATION,20,852,1,10-14
6884,KALITAPARA HIGH SCHOOL,87   KALITAPARA  SIPAJHAR 784145,SECONDARY EDUCATION,20,852,1,10-14
6885,BARANGABARI M E SCHOOL,114 2   BARANGABARI PATH  DARRANG 784529,PRIMARY EDUCATION,20,851,1,10-14
6886,LAKHIMPUR MIN MAHAL SAMABAI SAMITEE,91   GARUBANDAR GOMATHA 784525,FISH FARMING,4,32,6,10-14
6887,SPPS AGENT ELECTRICITY,N H  52  AULACHOWKA  DARRANG 784529,ELECTRICAL INSTALLATION ACTIVITIES,9,432,5,10-14
6888,LAKHMICHAND CHANOTULAL OIL MILL,69 5   M B ROAD  KHARUPETIA 784115,MANUFACTURE OF VEGETABLES AND ANIMAL OILS AND FATS,6,104,3,10-14
6889,SRI BALIN BORO BRICK INDUSTRY,2   KUWARI GAON PATH  KUWARIGAON 784885,MANUFACTURE OF BRICKS,6,239,3,10-14
8541,DALIBARI HIGH SCHOOL,9 1   52 N H  DALIBARI 784529,SECONDARY EDUCATION,20,852,1,10-14
8542,KAMALA KUWORI GIRLS M E  SCHOOL,93   DIGHARPAR 784144,PRIMARY EDUCATION,20,851,1,10-14
8543,DEKARGAON M E  SCHOOL,64   M B  ROAD 784529,PRIMARY EDUCATION,20,851,1,10-14
8544,SARU UTOLA MADHYA ENGLISH MEDIUM SCHOOL,137   KALAIGAON PATH 784525,PRIMARY EDUCATION,20,851,1,10-14
8545,PRABHU AGARWAL STONE CRUSHER  INDUSTRY,110 1   BHUTIACHANG PATH 784125,CRUSHING AND BREAKING OF STONE,5,81,2,10-14
8546,ADHIKARI HIGH SCHOOL,5   BHUTIACHANG PATH 784125,SECONDARY EDUCATION,20,852,1,10-14
8547,DARANG JYOTI HIGH SCHOOL,8   52 N H  784529,SECONDARY EDUCATION,20,852,1,10-14
8548,ANDHERIGHAT MINI P H C ANDHERIGHATDARRANG,24 1   ANDHERIGHAT 784148,HOSPITAL ACTIVITIES,21,861,1,10-14
8549,BARKALA MADHYA ENGLISH MEDIUM SCHOOLL,1   BARKALA 784525,PRIMARY EDUCATION,20,851,1,10-14
8550,GARUBANDHA HIGH SCHOOL,77   M B  ROAD GARUBANDHA 784525,SECONDARY EDUCATION,20,852,1,10-14
8551,GARUBANDHA MADHYA ENGLISH MEDIUM SCHOOL,78   M B  ROAD GARUBANDHA 784525,PRIMARY EDUCATION,20,851,1,10-14
8552,PALIPOTA M E  SCHOOL,36   MASKAPATH 784525,PRIMARY EDUCATION,20,851,1,10-14
8553,GYANJYOTI HIGH SCHOOL,110   DEUMARANOI BALIPOTA PATH 784147,SECONDARY EDUCATION,20,852,1,10-14
8554,BHURAGARH HIGH SCHOOL,DEUMARANOI TO BALIPOTA 784147,SECONDARY EDUCATION,20,852,1,10-14
8555,LAKHIMPUR HIGH SCHOOL,111   GARUBANDHAR GOMOTHA PATH 784525,SECONDARY EDUCATION,20,852,1,10-14
8556,OPUWAN M E SCHOOL,46 2   NETAJINAGAR PATH  KHARUPETIA 784115,PRIMARY EDUCATION,20,851,1,10-14
8557,KHARUPETIA ADARSHA GIRLS HIGH SCHOOLL,97 1   KHARUPETIA 784115,SECONDARY EDUCATION,20,852,1,10-14
8558,BHEBARGHAT MADHYA ENGLISH MEDIUM SCHOOL,BHEBARGHAT TANGLA 784125,PRIMARY EDUCATION,20,851,1,10-14
8559,BANAHANGSHA HOTEL,135   L N  B ROAD 784125,SHORT TERM ACCOMODATION ACTIVITIES,14,551,2,10-14
8560,BARDEUL JATIYA VIDYALAYA,52 N H  784145,SECONDARY EDUCATION,20,852,2,10-14
8561,KAWABHANGA HIGH SCHOOL,27 KAWABHANGA DARRANG 784190,SECONDARY EDUCATION,20,852,1,10-14
8562,PANBARI HIGH SCHOOL,4   PANBARI BHAKATPARA 784190,SECONDARY EDUCATION,20,852,1,10-14
8563,VOCATIONAL  TRAINING CENTRE,77 4   HIRAPARA 784146,HIGHER EDUCATION,20,853,9,10-14
8564,UPOHAR FILLING STATION,140 3   N H 52  KHARUPETIA 784146,RETAIL SALE OF AUTOMOTIVE FUEL IN SPECIALIZED STORES,12,473,2,10-14
8565,PUB CHUKABAHI PRIMARY SCHOOL,47   BECHIMARI BHALUKMARI CHUKABAHI 784116,PRIMARY EDUCATION,20,851,1,10-14
8566,4 NO  BARUAJHAR NAVADAYA JATIYA SCHOOL,59   BESIMARI   4 NO BARUAJHAR 784514,SECONDARY EDUCATION,20,852,1,10-14
8567,CHARICHABAR PRE SENIOR MADRASSA,37 CHARICHABARI DARRANG 784116,SECONDARY EDUCATION,20,852,1,10-14
8568,JANGALPARA HIGH SCHOOL,JANGALPARA DARRANG 784116,SECONDARY EDUCATION,20,852,1,10-14
8569,DAKHIN BECHIMARI PRIMARY SCHOOL,18   DAKHIN BESIMARI DARRANG 784114,PRIMARY EDUCATION,20,851,1,10-14
8570,DAKHIN BECHIMARI M E  SCHOOL,33   DAKHIN BESIMARI DARRANG 784114,PRIMARY EDUCATION,20,851,1,10-14
8571,SHILBARI PRE SENIOR MADRASSA,14   SILBARI DARRANG 784114,SECONDARY EDUCATION,20,852,1,10-14
8572,GOVT M E  SCHOOL,30   KAMARPARA  KHARUPETIA UDALGURI ROAD 784115,SECONDARY EDUCATION,20,852,1,10-14
8573,RENU JAIN PETROL DEPOT,11 1   N H  52 MANDALPARA DARRAN G 784115,RETAIL SALE OF AUTOMOTIVE FUEL IN SPECIALIZED STORES,12,473,2,10-14
8574,SANKAR AJAN ACADEMY,100   SANOMA GARUKHUTI PATH 784145,SECONDARY EDUCATION,20,852,2,10-14
8575,GARUKHUTI MINI PRIMARY HEALTH CENTRE,186   GARUKHUTI GHORABANDHA PATH  DOMOTALI 784145,HOSPITAL ACTIVITIES WITHOUT ACCOMMODATION FACILITIES,21,861,1,10-14
8576,SATKHALI HIGH MADRASSA,37   BARDOULGURI  RUPARIKASH 784145,SECONDARY EDUCATION,20,852,1,10-14
8577,HOTEL MADHUBAN,127 1   HOSPITAL PATH  MANGALDOI 784125,SHORT TERM ACCOMODATION ACTIVITIES,14,551,2,10-14
8578,DUCK FISH FIRM,67 1   DAKSHIN CHUBURI RANGAMATI 784145,ANIMAL PRODUCTION,2,14,2,10-14
8579,GYANPITH JUNIOR COLLEGE,7   GHORABANDA GARUKHUTI PATH 784145,SECONDARY EDUCATION,20,852,2,10-14
8580,HOTEL SYAMALEE,41 1   N H  52  MANGALDOI 784125,SHORT TERM ACCOMODATION ACTIVITIES,14,551,3,10-14
8581,REPOSE RESTAURANTS,193 2   L N  B ROAD  MANGALDOI 784125,RESTAURANT,14,561,2,10-14
8582,BONMAJHA GIRLS HIGH SCHOOL,082 1   BARBARI AKERIGHAT 784148,SECONDARY EDUCATION,20,852,1,10-14
8583,RAIJGHAT HIGH SCHOOL,135   RAIJGHAT 784144,SECONDARY EDUCATION,20,852,1,10-14
8584,NAGAON HIGH SCHOOL,121   SANTIPUR 784144,SECONDARY EDUCATION,20,852,1,10-14
8585,JATIYA BIDYALAYA,134   MANGALDAI DIPILA PATH 784144,PRIMARY EDUCATION,20,851,3,10-14
8586,RAINAKUCHI M E MADRASSA,46   CHIPAJHAR PATHARIGHAT 784145,PRIMARY EDUCATION,20,851,1,10-14
8587,ATMA SAHAYAK GOTE OFFICE,35   PATHARIGHAT 784145,OTHER FINANCIAL SERVICE ACTIVITIES,16,649,5,10-14
8588,T R ITA BHATA,18 1   MANGALDAI KHAIRABARI PATH 784147,MANUFACTURE OF BRICKS,6,239,2,10-14
8589,MUSLIM GHOPA HIGH MADRASSA,7   BARDOILAGURI BIHUBHANGA 784145,SECONDARY EDUCATION,20,852,1,10-14
8590,JATIYA BIDYALAYA KHANDAJAN,10   N H  52  SIPAJHAR 784145,PRIMARY EDUCATION,20,851,3,10-14
8591,LUIT PARIYA M E SCHOOL,91   JAKUAPARA  SIPAJHAR 784145,PRIMARY EDUCATION,20,851,1,10-14
8592,GUDAM GHAR,MANGALDAI BHUTIYA 784529,WAREHOUSING AND STORAGE,13,521,3,10-14
10125,MANGALDAI GIRLS COLLEGE,210   JAYNAGAR PATH 784125,HIGHER EDUCATION,20,853,1,10-14
10126,A T R  HIGH MADRASSA SCHOOL,143   DIGHARPAR 784144,SECONDARY EDUCATION,20,852,1,10-14
10127,PUB MANGALDAI HIGH SCHOOL,129   MENAPARA BHAKATPARA 784146,SECONDARY EDUCATION,20,852,1,10-14
10128,GYAN MANDIR JATIYA VIDYALAYA,75   M B ROAD 784529,SECONDARY EDUCATION,20,852,2,10-14
10129,BOKRAJHAR BOYS HIGH SCHOOL,5   BOKRAJHAR 784525,SECONDARY EDUCATION,20,852,9,10-14
10130,TEACHER TRAINING COLLEGE,78 1   KHARUPETIA 784125,HIGHER EDUCATION,20,853,1,10-14
10131,BHEBARGHAT PRIMARY SCHOOL,BHEBARGHAT TANGLA 784125,PRIMARY EDUCATION,20,851,1,10-14
10132,GHOSH BROTHERS AUTO MOBILES,110 3   L N  B ROAD 784125,SALE OF MOTOR VEHICLES,10,451,2,10-14
10133,DARRANG ACADEMY,114   L N  B ROAD 784125,SECONDARY EDUCATION,20,852,2,10-14
10134,MANGALDAI HIGH MADRASSA,37   KALAIGAON PATH 784125,SECONDARY EDUCATION,20,852,1,10-14
10135,CENIBARI ANCHALIK HIGH SCHOOL,35   CENIBARI DARRANG 784190,SECONDARY EDUCATION,20,852,1,10-14
10136,MAUSITHA HIGH SCHOOL,98   MAUSITHA DARRANG 784190,SECONDARY EDUCATION,20,852,1,10-14
10137,HIRAPARA M V  SCHOOL,93   HIRAPARA 784146,PRIMARY EDUCATION,20,851,1,10-14
10138,KASTURABA GANDHI GIRLS SCHOOL,59   PANIYAKHAT ATAKATA 784146,SECONDARY EDUCATION,20,852,1,10-14
10139,SHILBARI KANISHTA MAHABIDYALAY,5   DHENUGURIPATH  KAPATIGAON 784114,HIGHER EDUCATION,20,853,1,10-14
10140,GOLAP NATH HOTEL,4 6   N H 52 ROHINIKAKH DARRANG 784116,SHORT TERM ACCOMODATION ACTIVITIES,14,551,2,10-14
10141,MARKAJI MADRASSATUL ULOOM BANAT SANOWA,79   GARUKHUTI KALITAPARA 784145,OTHER EDUCATION,20,852,1,10-14
10142,BAJANA PATHAR RURAL HOSPITAL,54   GANDHIA PATHAR PATH SIPAJHAR 784145,HOSPITAL ACTIVITIES,21,861,1,10-14
10143,HIMADRI PHARMACY,130 2   HOSPITAL PATH  MANGALDOI 784125,WHOLESALE OF MEDICINE,11,464,2,10-14
10144,SAHARIAH WOOD   FURNITURE,156   L N  B ROAD  MANGALDOI 784125,SAW MILLING,6,161,2,10-14
10145,S R D OFFICE,193 3   L N  B ROAD  MANGALDOI 784125,HEAD OFFICE ACTIVITIES,18,701,2,10-14
10146,NABAJYOTI M E SCHOOL,23   KALIKUCHI BARBARI 784148,PRIMARY EDUCATION,20,851,1,10-14
10147,BONMAJHA M E SCHOOL,72   BARBARI AKERI PATH 784148,PRIMARY EDUCATION,20,851,1,10-14
10148,GABHARA MAJOLIA BIDYALAYA,102 BARBARI 784148,PRIMARY EDUCATION,20,851,1,10-14
10149,CHENGELIAJHAR GIRLS HIGH SCHOOL,099   DIPIMA KURUWA PATH  CHENGELIAJHAR 784145,SECONDARY EDUCATION,20,852,1,10-14
10150,BHERUA M E SCHOOL,72   DUNI MARENG PATH 784148,PRIMARY EDUCATION,20,851,1,10-14
10151,BARAMPUR M E SCHOOL,1   PATHARIGHAT 784144,PRIMARY EDUCATION,20,851,1,10-14
10152,BAYAN KENDRA,59   MANGALDAI KHAIRABARI PATH 784147,WEAVING AND SPINNING,6,131,2,10-14
10153,SARABARI RAJYIC CHOKITCHALAYA,084   SARABARI 784144,HOSPITAL ACTIVITIES,21,861,1,10-14
10154,M E MADRASSA,HAZARIKAPARA 784145,PRIMARY EDUCATION,20,851,1,10-14
10155,CHIPAJHAR B ED COLLEGE,107   N H  52  SIPAJHAR 784145,HIGHER EDUCATION,20,853,1,10-14
10156,HALADHA HIGH SCHOOL,33   SALMARA ANDHERIGHAT 781121,SECONDARY EDUCATION,20,852,1,10-14
10157,JANASEYA M V SCHOOL,164   CHENGELIYA SIPAJHAR 784145,PRIMARY EDUCATION,20,851,1,10-14
10158,SAHIL STEEL INDUSTRY,2 1   NETAJI NAGAR PATH  KHARUPETIA 784115,MANUFACTURE OF OTHER IRON AND STEEL CASTING   PRODUCT THEREOF,6,243,2,10-14
10159,CHAMUWAPARA P H C,CHAMUWAPARA 784125,HOSPITAL ACTIVITIES WITHOUT ACCOMMODATION FACILITIES,21,861,1,10-14
10160,MESSERS MAA BRICKS INDUSTRY,4   MANGALDAI BHUTIYACHANG 784529,MANUFACTURE OF BRICKS,6,239,2,10-14
11152,JANJALI HIGH SCHOOL,11   RANGAMATI HOLOUCHOWKA  784529,SECONDARY EDUCATION,20,852,1,10-14
11153,PARIKHIT NARAYAN ENGLISH MEDIUM HIGH SCHOOL,81   M B  ROAD 784525,PRIMARY EDUCATION,20,851,1,10-14
11154,SANTIPUR GIRLS HIGH SCHOOL,17   KHARUPETIA 784125,SECONDARY EDUCATION,20,852,1,10-14
11155,HOLYCHILD PUBLIC SCHOOL,BHEBARGHAT TANGLA 784125,SECONDARY EDUCATION,20,852,2,10-14
11156,NAGAR SAMABAI BANK MANGALDAI,118   L N B ROAD 784125,OTHER FINANCIAL ACTIVITIES,16,649,6,10-14
11157,ADARSHA AUTO MOBILES,47 3   L N  B ROAD 784125,REPAIR OF MOTORCYCLES,10,454,2,10-14
11158,KAWABHANGA M E MADRASSA,28 KAWABHANGA DARRANG 784190,PRIMARY EDUCATION,20,851,1,10-14
11159,RAJAPUKHURI CHAMUALAT HIGH SCHOOL,94 CHAMUAKHAT DARRNG 784190,SECONDARY EDUCATION,20,852,1,10-14
11160,MAHAMMAD ALI HIGH SCHOOL,06   KHARUPETIA 784115,SECONDARY EDUCATION,20,852,1,10-14
11161,BASICI TRAINING CENTRE,35 1   DALGAON DARRANG 784116,PRIMARY EDUCATION,20,851,1,10-14
11162,MADINATUL ULOM DALGAON MADRASSA,63 2   DALGAON DARRANG 784116,SECONDARY EDUCATION,20,852,1,10-14
11163,KIRAN SERVICE STATION,73 2   N H 52  GENDAPUKHURI DARRANG 784514,RETAIL SALE OF AUTOMOTIVE FUEL IN SPECIALIZED STORES,12,473,4,10-14
11164,JANGALPARA M E  SCHOOL,89 JANGALPARA DARRANG 784116,PRIMARY EDUCATION,20,851,1,10-14
11165,MAHARSHI VIDYA MANDIR,8   SIPAJHAR BAMUNPARA PATH  BHUKTABARI 784145,PRIMARY EDUCATION,20,851,2,10-14
11166,MAH AKHTARJUL HAQUE,1   GANDHIA PATHAR PATH SIPAJHAR 784145,MANUFACTURE OF BRICKS,6,239,2,10-14
11167,TAHBILDAR CLINIC   LABATORY,54 1   SANTIPARA PATH MANGALDOI 784125,OTHER HUMAN HEALTH ACTIVITIES,21,869,2,10-14
11168,REPOSE  MESSERS SUNANDARAM DEKA,L N  B ROAD  MANGALDOI 784125,RETAIL SALE OF BAKERY PRODUCTS IN SPECIALISED STORES,12,472,2,10-14
11169,BANEKUCHI MAJOLIA BIDYALAYA,133   PATHARIGHAT MAHALIA PARA 784144,PRIMARY EDUCATION,20,851,1,10-14
11170,ANCHALIK JATIYA BIDYALAYA,100   DEOMORNOI 784147,SECONDARY EDUCATION,20,852,3,10-14
11171,HENGALAPARA MINI HOSPITAL,17 1   BARBARI SHALMAR RD 784148,HOSPITAL ACTIVITIES,21,861,1,10-14
11172,CHEMINIYAL ACEDEMY,06   N H  52  SIPAJHAR 784145,SECONDERY EDUCATION,20,852,2,10-14
11173,BARDOILAGURI H S SCHOOL,085   N H  52  SIPAJHAR 784145,SECONDARY EDUCATION,20,851,1,10-14
11174,HALADHA M V SCHOOL,32   SALMARA ANDHERIGHAT 781121,PRIMARY SCHOOL,20,851,1,10-14
11175,NIJ DAHI PUBLIC HEALTH CENTRE,MANGALDAI  KHOIRABARI 784144,HOSPITAL ACTIVITIES,21,861,1,10-14
11176,N  R L DHABA,41   N H  52  AULACHOWKA  DARRANG 784529,RESTAURANT,14,561,2,10-14
11980,COLLEGIAT HIGHER SECONDARY SCHOOL MANGALDAI,83   N H  52 784125,SECONDARY EDUCATION,20,852,1,10-14
11981,DEKARGAON HIGH SCHOOL,63   DEKARGAON 784529,SECONDARY EDUCATION,20,852,1,10-14
11982,BARANGABARI ENGLISH MEDIUM HIGH SCHOOL,114 1   BARANGABARI PATH 784529,SECONDARY EDUCATION,20,852,1,10-14
11983,SARU OUTOLA ENGLISH MEDIUM HIGH SCHOOL,138   MANGALDAI KALAIGAON PATH 784525,SECONDARY EDUCATION,20,852,1,10-14
11984,RAMHARI MADHYA ENGLISH MEDIUM SCHOOL,49   MANGALDAI TO BHUTICHANG 784529,PRIMARY EDUCATION,20,851,1,10-14
11985,KHANDA PRIMARY SCHOOL TEACHER ASSOCIATION,80   M B  ROAD 784529,PRIMARY EDUCATION,20,851,1,10-14
11986,DAHI M V SCHOOL,1   DAHI 784529,PRIMARY EDUCATION,20,851,1,10-14
11987,KALAIGAON INDANE AGENCY,4   KALAIGAON 784525,RETAIL SALE OF LPG,12,477,2,10-14
11988,KANAKLATA SMRITI GIRLS HIGH SCHOOL,3 2   TENGAMARI 784525,SECONDARY EDUCATION,20,852,1,10-14
11989,TAKESWARI BASTRALAYA,114   LNB ROAD 784125,RETAIL SALE OF READYMADE GARMENTS,12,477,2,10-14
11990,DHULA M E SCHOOL,34   N H  52  PANIAKHAT 784146,PRIMARY EDUCATION,20,851,1,10-14
11991,CHAKARA BASTI M E  MADRASSA,106   CHAKARABASTI  DALGAON 784116,PRIMARY EDUCATION,20,851,1,10-14
11992,KUWARI PUKHURI MINI HOSPITAL,137   NEPALI BAZAR PATH 784115,HOSPITAL ACTIVITIES,21,861,1,10-14
11993,BAHRUL ULOM SHILBARI MADRASSA,3 2   SILBARI DARRANG 784114,PRIMARY EDUCATION,20,851,9,10-14
11994,GAUTAM SHAH  OIL PROCEESING   PACKAGING FIRM,19   N H 52 ROHINIKAKH DARRANG 784116,MANUFACTURE OF VEGETABLES AND ANIMAL OILS AND FATS,6,104,2,10-14
11995,ISATUL ULUM SANOWA MADRASSA,77   G K ROAD GARUKHUTI KALITAPARA 784145,SECONDARY EDUCATION,20,852,1,10-14
11996,HAZARIKAPARA  MINI PRIMARY HEALTH CENTRE,8 GHANDHIPATH HAZARIKAP ARA 784145,HOSPITAL ACTIVITIES WITHOUT ACCOMMODATION FACILITIES,21,861,1,10-14
11997,DURGADEVI INDANE GUS AGENCY,33 5   L N  B ROAD  MANGALDOI 784125,RETAIL SALE OF LPG,12,477,2,10-14
11998,PACHIM MANGLADOI GIRLS HIGH SCHOOL,100   BARBARI 784148,SECONDARY EDUCATION,20,852,1,10-14
11999,CHENGELIAJHAR GIRLS M E SCHOOL,098   DIPIMA KURUWA PATH  CHENGELIAJHAR 784145,PRIMARY EDUCATION,20,851,1,10-14
12000,DEOMORNOI MODEL ENGLISH SCHOOL,65 17   DEOMORNOI 784147,SECONDARY EDUCATION,20,852,3,10-14
12001,MESSERS J N D BRICKS INDUSTRY,5   MANGALDAI BHUTIYACHANG 784529,MANUFACTURE OF BRICKS,6,239,2,10-14
12002,KAIDS WAYALAT PLAY SCHOOL,42   L N B ROAD  MONGALDOI 784125,PROMARY EDUCATION,20,851,2,10-14
12778,JOHN JYOTI JATIYA VIDYALAYA,41   MANGALDAI KALAGAON PATH 784125,SECONDARY EDUCATION,20,852,1,15-19
12779,NAGARBAHI HIGH SCHOOL,143   JANARAM CHOWKAPATH 784529,SECONDARY EDUCATION,20,852,1,15-19
12780,VIDYA NIKETAN ENGLISH SECTION,108   KHARUPETIA 784125,SECONDARY EDUCATION,20,852,2,15-19
12781,NORTH EAST ACADEMY,100   KALAIGAON TANGLA PATH MANGALDOI 784125,SECONDARY EDUCATION,20,852,2,15-19
12782,MAUSITHA M E  MADRASSA,97   MAUSITHA DARRANG 784190,PRIMARY EDUCATION,20,851,1,15-19
12783,BALABARI M E  MADRASSA,109   BALABARI DARRANG 784146,PRIMARY EDUCATION,20,851,1,15-19
12784,NABARATNA JATIYA SCHOOL,54   BALOGADA  KHARUPETIA 784115,PRIMARY EDUCATION,20,851,9,15-19
12785,NABA PRIMARY SCHOOL,32   N H  52 784146,PRIMARY EDUCATION,20,851,1,15-19
12786,KANTIRAM JATIYA SCHOOL,168 KHATANIAPARA DARRANG 784146,PRIMARY EDUCATION,20,851,1,15-19
12787,ASSAMI STONE CRUSHER INDUSTRY,64 1   2 NO CHIKANMATI DUARPARA 784116,CRUSHING AND BREAKING OF STONE,5,81,2,15-19
12788,SHIYALMARI M E MADRASSA,KAPATI SHIYAMMARI 784113,PRIMARY EDUCATION,20,851,1,15-19
12789,SANKARDEV JATIYA SCHOOL,2 NO KAPATI GRANT 784113,SECONDARY EDUCATION,20,852,2,15-19
12790,SHILBARI PRIMARY HEALTH CENTRE,13   SILBARI DARRANG 784114,HOSPITAL ACTIVITIES WITHOUT ACCOMMODATION FACILITIES,21,861,1,15-19
12791,BAHABARI M E MADRASSA SCHOOL,30   PANBARI PATH BAHABARI 784115,SECONDARY EDUCATION,20,852,1,15-19
12792,SANKARDEV JATIYA VIDYALAYA,02   DALGAON  KAOPATI 784113,SECONDARY EDUCATION,20,852,2,15-19
12793,HAZARIKAPARA  M E  SCHOOL,50 GHANDHIPATH HAZARIKAP ARA 784145,PRIMARY EDUCATION,20,851,1,15-19
12794,MUKUL CHANDRA DEKA SNACKS AND SWEETS,107   MANGALDOI 784125,MANUFACTURE OF OTHER FOOD PRODUCTS,6,107,2,15-19
12795,BHERUA HIGH SCHOOL,74   DUNI MARENG PATH 784148,SECONDARY EDUCATION,20,852,1,15-19
12796,PATHARIGHAT MAJOLIYA BIDYALAYA,DIPILA KHAIRABARI 784144,PRIMARY EDUCATION,20,851,1,15-19
12797,ARHI SAS PRODUCTION KENDRA,109   DEOMARNAI BALIPOTA 784147,ANIMAL PRODUCTION,2,14,2,15-19
12798,PRABITRA NATHAR SUPARI KARAKHANA,4   DEOMARNOI 784147,MANUFACTURE OF ARECANUT,6,107,2,15-19
12799,PARAMAUNT ENGLISH SCHOOL,HAZARIKAPARA 784145,SECONDARY EDUCATION,20,852,2,15-19
12800,DUMUNICHOKI  MINI HOSPITAL,167   GHY MANGALDAI PATH 784145,HOSPITAL ACTIVITIES,21,861,1,15-19
12801,DUMANI CHOKI JATIYA BIDYALAYA,145   DUMUNU CHOKI DIPILA PATH 784145,SECONDARY EDUCATION,20,852,2,15-19
12802,GANAJOYTI HIGH SCHOOL,35 PITHAKHOWA BARDALGUR I BARASUBA 784145,SECONDARY EDUCATION,20,852,1,15-19
12803,G T BRICKS,4   MANGALDAI BHUTIYA 784529,MANUFACTURE OF BRICKS,6,239,2,15-19
12804,INDIAN OIL,02   N H  52  AULACHOWKA  DARRANG 784529,RETAIL SALE OF AUTOMOTIVE FUEL IN SPECIALIZED STORES,12,473,2,15-19
13465,DIGHARPAR HIGH SCHOOL,90   DIGHARPAR 784144,SECONDARY EDUCATION,20,852,1,15-19
13466,ANDHERIGHAT JATIYA VIDYALAY ANDHERIGHAT DARRANG,26 1   ANDHERIGHAT 784148,SECONDARY EDUCATION,20,852,9,15-19
13467,MANGALDAI NAGAR PRIMARY GIRLS SCHOOLOL,137   NATYAMANDIR PATH  KHARUPETIA 784125,PRIMARY EDUCATION,20,851,1,15-19
13468,BALABARI HIGH MADRASSA,110   BALABARI DARRANG 784146,SECONDARY EDUCATION,20,852,1,15-19
13469,MAJGAON PADOPARI SENIOR MADRASSA,02   LALPULAK CHOKABAHI  2NO MAJGAON 784514,SECONDARY EDUCATION,20,852,1,15-19
13470,KUWARI PUKHURI ENGLISH MEDIUM HIGHSCHOOL,24   2 NO KUWARI PUKHURI 784115,SECONDARY EDUCATION,20,852,1,15-19
13471,SHYAMPUR HIGH SCHOOL,DALGAON SHIYALMARI 784116,SECONDARY EDUCATION,20,852,1,15-19
13472,E C I D I CONCREAT INDUSTRY,124   N H 52 ROHINIKAKH DARRANG 784116,MANUFACTURE OF CONCRETE  PRODUCTS,6,239,2,15-19
13473,KHALIHOI ANCHALIK ADARSHYA VIDYALAY,40   GANDHIA PATHAR PATH 784145,SECONDARY EDUCATION,20,852,3,15-19
13474,MILAN SWEETS,32 3   M B ROAD  MANGALDOI 784125,RETAIL SALE OF SUGAR CONFECTIONERY,12,472,2,15-19
13475,SALIKAJHAR NABAJYOTI HIGH SCHOOL,24   BALIKUCHI BARBARI 784148,SECONDARY EDUCATION,20,852,1,15-19
13476,BISHNU JYOTI HIGH SCHOOL,39 2   BARBARI 784148,SECONDARY EDUCATION,20,852,1,15-19
13477,SHANTIPUKHURI HIGH MADRASSA,52   SANTIPUKHURI 784144,SECONDARY EDUCATION,20,852,1,15-19
13478,PACHAKIYA HIGH SCHOOL,99   PATHRIGHAT 784144,SECONDARY EDUCATION,20,852,1,15-19
13479,JAPMARA BARHI HIGH SCHOOL,180   DEOMORNOI 784147,SECONDARY EDUCATION,20,852,1,15-19
13480,KRISHAK SWAHID JATIYA BIDYANIKETAN,76   CHIPJHAR BARITOKA PATH 784144,SECONDARY EDUCATION,20,852,3,15-19
13481,DUNI MAJOLIYA BIDYALAYA,168   DUNI 784148,PRIMARY EDUCATION,20,851,1,15-19
13482,GOPI KALITAR SUPARI KARAKHANA,3   DEOMARNOI 784147,MANUFACTURE OF ARECANUT,6,107,2,15-19
13483,BRAHMAPUTRA ENTERPRISSE,64 2   MANGALDAI MAJIKUCHI 784147,ELECTRICAL INSTALLATION ACTIVITIES,9,432,3,15-19
13484,DUMUNICHOKI GIRLS HIGH SCHOOL,3   N H  52  DUMUNICHUKI 784145,SECONDARY EDUCATION,20,852,1,15-19
13485,DUMUNI CHOKI M V SCHOOL,4   N H  52  DUMUNICHUKI 784145,PRIMARY EDUCATION,20,851,1,15-19
13486,KURUWA ANCHALIC JATIYA VIDYALAYA,90   KURUA  SIPAJHAR 784145,SECONDARY EDUCATION,20,852,2,15-19
13487,PACHIM MANGALDAI JATIYA VIDYALAYA,125   N H  52  AULACHOWKA  DARRANG 784529,SECONDARY EDUCATION,20,852,1,15-19
13991,SILARAI HIGH SCHOOL,87   JANARAMCHOUKA 784529,SECONDARY EDUCATION,20,852,1,15-19
13992,SHAILABALA HIGH SCHOOL,16   N H 52  KHARUPETIA 784115,SECONDARY EDUCATION,20,852,1,15-19
13993,DHULA HIGH SCHOOL,33   N H  52  PANIAKHAT 784146,SECONDARY EDUCATION,20,852,1,15-19
13994,DALGAON STATE HOSPITAL,122   DALGAON DARRANG 784116,HOSPITAL ACTIVITIES,21,861,1,15-19
13995,CHIRAJUL HAQUE HIGH SCHOOL,4   SILBARI DARRANG 784114,SECONDARY EDUCATION,20,852,1,15-19
13996,M K I D BRICK FIELD,126   N H 52 ROHINIKAKH DARRANG 784116,MANUFACTURE OF BRICKS,6,239,2,15-19
13997,BIJAY BARUAH S BRICK INDUSTRY,15   GANDHIA PATHAR PATH SIPAJHAR 784145,MANUFACTURE OF BRICKS,6,239,2,15-19
13998,BONMARA HIGH SCHOOL,071   BARBARI 784148,SECONDARY EDUCATION,20,852,1,15-19
13999,BANEKUCHI GIRLS M E AND HIGH SCHOOL,127   BARMPUR PATH 784144,SECONDARY EDUCATION,20,852,1,15-19
14000,DEOMORNOI B ED COLLEGE,66   DEOMORNOI 784147,HIGHER STUDY,20,853,1,15-19
14001,PATHARIGHAT GIRLS HIGH SCHOOL,DIPILA KHAIRABARI 784144,SECONDARY EDUCATION,20,852,1,15-19
14002,KENDUGURI MINI HOSPITAL,57   DUNI 784148,HOSPITAL ACTIVITIES,21,861,1,15-19
14003,DUNI MINI HOSPITAL,176   DUNI 784148,HOSPITAL ACTIVITIES,21,861,1,15-19
14004,BARDOILAGURI M V SCHOOL,84   N H  52  SIPAJHAR 784145,PRIMARY EDUCATION,20,851,1,15-19
14005,S  B  ENTERPRISE,1   M B ROAD  KHARUPETIA 784115,REAPAIR OF FABRICATED METAL PRODUCTS,6,331,2,15-19
14430,GYAN BIGYAN JATIYA VIDYALAYA,103   RANGAMATI PWD PATH 784529,SECONDARY EDUCATION,20,852,2,15-19
14431,NAMKHALA HIGH SCHOOL,15   NAMKHALA 784147,SECONDARY EDUCATION,20,852,1,15-19
14432,NAMKHALA ADARSHA JATIYA VIDYALAY,NAMKHALA 784147,PRIMARY EDUCATION,20,851,9,15-19
14433,MAA SARODA VIDYA MANDIR,1 1   NATUNPATTI ROAD  KHARUPETIA 784115,SECONDARY EDUCATION,20,852,9,15-19
14434,MANGALDAI TOWN M E SCHOOL,79 1   KHARUPETIA 784125,PRIMARY EDUCATION,20,851,1,15-19
14435,MANGALDAI TOWN HIGH SCHOOL,79 2   KHARUPETIA 784125,SECONDARY EDUCATION,20,852,1,15-19
14436,ISLAMIK SCIENCE   TECHNOLOGY,172 3   N H 52 3 NO CHIKANMATI DARRANG 784514,HIGHER EDUCATION,20,853,9,15-19
14437,GYANDEEP ACADEMY,43   N H 52  BESIMARI 784514,PRIMARY EDUCATION,20,851,2,15-19
14438,BRIGHT LIFE ENGLISH HIGH SCHOOL,173   N T  ROAD KAPATIGRANT 784113,SECONDARY EDUCATION,20,852,2,15-19
14439,R L J I D   BRICK INDUSTRY,123   N H 52 ROHINIKAKH DARRANG 784116,MANUFACTURE OF BRICKS,6,239,2,15-19
14440,CHATRA N G O,36 2 BHUKTABARI SIPAJAHAR 784145,OTHER SOCIAL WORK ACTIVITIES WITHOUT ACCOMMODATION,21,889,7,15-19
14441,PADUM PUKHURI GIRLS HIGH SCHOOL,74   MANGALDAI MAJIKUCHI 784147,SECONDARY EDUCATION,20,852,1,15-19
14442,BARAMPUR JATIYA BIDYALAYA,07   PATHARIGHAT 784144,PRIMARY EDUCATION,20,851,1,15-19
14443,MAROI M V SCHOOL,1 1   N H  52  MAROI 784145,PRIMARY EDUCATION,20,851,1,15-19
14444,MARUYACHAKI HIGH MADRASSA,137   KURUA PATH 784145,SECONDARY EDUCATION,20,852,1,15-19
14445,TINISUTI MUKH HIGH SCHOOL,3   SONAPUR GALPAM 784145,SECONDARY EDUCATION,20,852,1,15-19
14446,SEYAK HIGH SCHOOL,4   BALIPARA SIPAJHAR 784145,SECONDARY EDUCATION,20,852,1,15-19
14447,NRL PETROL PUMP,40   N H  52  AULACHOWKA  DARRANG 784529,RETAIL SALE OF AUTOMOTIVE FUEL IN SPECIALIZED STORES,12,473,2,15-19
14448,SRI DHRUB DEKA,4   SIPAJHAR 784145,MANUFACTURE OF BRICKS,6,239,2,15-19
14449,BIBEKANANDA ACADEMY,1 5   DUNI MUJAPUR 784148,SECONDARY EDUCATION,20,852,3,15-19
14794,SANKARDEV HIGH SCHOOL,74   DALIBARI 784529,SECONDARY EDUCATION,20,852,1,15-19
14795,SOBHARANI JATIYA VIDYALAYA,156   BARKALA BHAKATPARA 784525,PRIMARY EDUCATION,20,851,3,15-19
14796,BRILLIANT ACADEMY,30 1   M B  ROAD 784125,HIGHER EDUCATION,20,853,2,15-19
14797,MANGALDAI VIDYAPITH,20   KALAIGAON TANGLA PATH MANGALDOI 784125,SECONDARY EDUCATION,20,852,1,15-19
14798,KUWARI PUKHURI JATIYA SCHOOL,123   2 NO KUWARI PUKHURI 784115,PRIMARY EDUCATION,20,851,1,15-19
14799,MAIDUL HAQUE S BRICK INDUSTRY,3   GANDHIA PATHAR PATH SIPAJHAR 784145,MANUFACTURE OF BRICKS,6,239,2,15-19
14800,BOIRAGIJHAR HIGH SCHOOL,42   BOIRAGIJHAR  784148,SECONDARY EDUCATION,20,852,1,15-19
14801,SRIMANTA SANKAR DEB VIDYALAYA,114   MANGALDAI MAJIKUCHI 784147,SECONDARY EDUCATION,20,852,9,15-19
14802,DIPILA PAREDISI HIGH SCHOOL,27   DIPILA KHAIRABARI 784144,SECONDARY EDUCATION,20,852,3,15-19
14803,M B HIGHSCHOOL,1 2   N H  52  MAROI 784145,SECONDARY EDUCATION,20,852,1,15-19
14804,BARANOI MAHABIDYALAYA,7   N H  52  BARANOI 784145,HIGHER EDUCATION,20,853,1,15-19
14805,BANDIYA HIGH MADRASSA,53   PUB MANGALDAI 784125,SECONDARY EDUCATION,20,852,1,15-19
14806,PUB MANGALDAI MAHABIDYALAYA,73   PUB MANGALDAI 784125,HIGHER EDUCATION,20,853,1,15-19
15275,LUIT VALLEY SCHOOL,282   B C  SURANA  KHARUPETIA 784115,SECONDARY EDUCATION,20,852,9,20-24
15276,KRISTISHIKHA ELECTRICAL ENTERPRISE,15 4   M B  ROAD 784125,MANUFACTURE OF STRUCTURAL METAL PRODUCTS,6,251,2,20-24
15277,DALGAON HIGHER SECONDARY SCHOOL,09   N H  52  DALGAON 784116,SECONDARY EDUCATION,20,852,1,20-24
15278,HIGH SCHOOL DAIPAM,41   DAIPAM DARRANG 784514,SECONDARY EDUCATION,20,852,1,20-24
15279,DUARPARA SENIOR MADRASSA,19   DUARPARA BATABARI 784116,SECONDARY EDUCATION,20,852,1,20-24
15280,PUB DALGAON HIGH SCHOOL,2   N H 52  DHEKARIGAON 784116,SECONDARY EDUCATION,20,852,1,20-24
15281,SRI KHIROD DEKA,24   GANDHIA PATHAR PATH SIPAJHAR 784145,MANUFACTURE OF NON METALIC PRODUCTS,6,239,2,20-24
15282,KHALIHOI ANCHALIK HIGH SCHOOL,55   GANDHIA PATHAR PATH 784145,SECONDARY EDUCATION,20,852,1,20-24
15283,BHUPEN NARAYAN DEV JATIYA BIDYALAYA,91 11   L N  B ROAD  MANGALDOI 784125,PRIMARY EDUCATION,20,851,1,20-24
15284,GIRLS HIGH SCHOOL,3   BARDOILAGURI BIHUBHANGA 784145,SECONDARY EDUCATION,20,852,2,20-24
15285,KACHARIDAL GIRLS HIGH SCHOOL,100   SIPAJHAR SALPAM 784145,SECONDARY EDUCATION,20,852,1,20-24
15286,PAKADOLI HIGH SCHOOL,6   PAKADOLI  SIPAJHAR 784145,SECONDARY EDUCATION,20,852,1,20-24
15287,SRI KANAK DEKA,5   SIPAJHAR 784145,MANUFACTURE OF NON METALIC PRODUCTS,6,239,2,20-24
15604,RANGAMATI PRIMARY HOSPITAL,108   RANGMATI KARUA PATH 784529,HOSPITAL ACTIVITIES,21,861,2,20-24
15605,DAHI COLLEGE,87   DAHI 784529,HIGHER EDUCATION,20,853,1,20-24
15606,RAMHARI PRATHAMIC HOSPITAL,137   M B  ROAD 784529,HOSPITAL ACTIVITIES,21,861,1,20-24
15607,JANGALPARA JUNIOR COLLEGE,2   JANGALPARA DARRANG 784116,SECONDARY EDUCATION,20,852,1,20-24
15608,SHILBARI M E SCHOOL,5   SILBARI DARRANG 784114,PRIMARY EDUCATION,20,851,1,20-24
15609,NAGAR BALAK PRIMARY SCHOOL MANGALDAI,124   52 N H  MANGALDOI 784125,PRIMARY EDUCATION,20,851,1,20-24
15610,RAM SARSWATI HIGH SCHOOL,52   NANOI BOYATI PRAKLAPA PAT 784147,SECONDARY EDUCATION,20,852,1,20-24
15611,LENGERIYABANAR KRISHAK HIGH SCHOOL,102   DEOMORNOI 784147,SECONDARY EDUCATION,20,852,1,20-24
15612,DIPALI REGIONAL JUNIOR COLLEGE,4   DIPILA KHAIRABARI 784144,SECONDARY EDUCATION,20,852,1,20-24
15613,JATIYA BIDYALAYA ASOM HAZARIKAPARA,87   CHANDIPATH 784145,SECONDARY EDUCATION,20,852,9,20-24
15614,JATIYA BIDYALAYA  KHARUPETIA,5   NETAJI NAGAR PATH  KHARUPETIA 784115,SECONDARY EDUCATION,20,852,2,20-24
15955,RANGAMATI PUBLIC HIGH SCHOOL,107   RANGAMATI KARUAPATH 784529,SECONDARY EDUCATION,20,852,1,20-24
15956,OUTALA HIGHER SECONDARY SCHOOL,06   BECIMARI OUTALA 784525,SECONDARY EDUCATION,20,852,1,20-24
15957,RAJGHAT H S  SCHOOL,74   MANGALDAI MAJIKUCHI 784529,SECONDARY EDUCATION,20,852,1,20-24
15958,BISHNUJYOTI JUNIOR COLLEGE,ANDHERIGHAT 784148,SECONDARY EDUCATION,20,852,9,20-24
15959,TENGABARI JANATA VIDYAPITH,57   TENGAMARI 784525,PRIMARY EDUCATION,20,851,1,20-24
15960,MORNING STAR SCHOOL,20 6   G N  B ROAD  KHARUPETIA 784115,PRIMARY EDUCATION,20,851,3,20-24
15961,KENDRIYA JATIYA SCHOOL,MANGALDAI BHATIACHANG 784125,SECONDARY EDUCATION,20,852,3,20-24
15962,KAMAKHYA BHANDAR,72   KHARUPETIA 784115,MANUFACTURE OF OTHER FOOD PRODUCTS,6,107,2,20-24
15963,SATKHALI HATIMURIA HIGH SCHOOL,119 GARUKHUTI SIPAJHAR 784145,SECONDARY EDUCATION,20,852,1,20-24
15964,GARUKHUTI HIGHER SECONDARY SCHOOL,129   GARUKHUTI GHORABANDHA PATH  DOMOTALI 784145,SECONDARY EDUCATION,20,852,1,20-24
15965,ARFAN ALI BRICK INDUSTRY,4   GANDHIA PATHAR PATH KUWARIGAON 784145,MANUFACTURE OF BRICKS,6,239,2,20-24
15966,PACHIM DARRANG ACADEMY,166   SIPAJHAR  DARRANG 784145,PRIMARY EDUCATION,20,851,2,20-24
15967,BAPUJI GIRLS HIGH SCHOOL,BARBARI 784148,HIGHER EDUCATION,20,852,2,20-24
15968,CHENGELIAJHAR HIGH SCHOOL,099   DIPIMA KURUWA PATH  CHENGELIAJHAR 784145,SECONDARY EDUCATION,20,852,1,20-24
15969,DUNI GIRLS HIGH SCHOOL,45   DUNI 784144,SECONDARY EDUCATION,20,852,1,20-24
15970,DUMANICHOKI ENGLISH SCHOOL,88   DUMANICHOKI DIPILAPATH 784145,SECONDARY EDUCATION,20,852,3,20-24
15971,NAVODOY JATIYA VIDYALAYA,38   KURUA  SIPAJHAR 784145,SECONDARY EDUCATION,20,852,1,20-24
15972,KURUWA HIGHER SECONDARY SCHOOL,KURUA  SIPAJHAR 784145,SECONDARY EDUCATION,20,852,1,20-24
15973,MAIDUL HOQUE BRICK INDUSTRY,3   KUWARI GAON PATH  KUWARIGAON 784145,MANUFACTURE OF BRICKS,6,239,2,20-24
16187,MANGALDAI COMMERCE COLLEGE,68   KALAIGAON TANGLAPATH MANGALDOI 784125,HIGHER EDUCATION,20,853,1,20-24
16188,BONMARA HIGH MADRASSA,150   BISHNUPUR PATH BONMARA 784148,SECONDARY EDUCATION,20,852,1,20-24
16189,BARAMPUR H S SCHOOL,03   PATHARIGHAT 784144,SECONDERY EDUCATION,20,852,1,20-24
16190,NEHARUSMRITI GIRLS SCHOOL,86   RAINPIT BASARIJHAR 784145,SECONDARY EDUCATION,20,852,1,20-24
16191,CHIPAJHAR DAIMOND CLUB SAMUHIK KENDRA,15   N H  52  SIPAJHAR 784145,SPORTS ACTIVITIES,22,931,2,20-24
16192,PACHIM LOYNAI HIGH SCHOOL,60   HALADHA SIPAJHAR 784145,SECONDARY EDUCATION,20,852,1,20-24
16193,RUPKOWAR JATIYA BIDYALAYA,69   DUMUNICHOKI 784145,SECONDARY EDUCATION,20,852,1,20-24
16194,DINANATH SAHARIYA HIGH SCHOOL,75   BARANGABARI PATH  DARRANG 784529,SECONDARY EDUCATION,20,852,1,20-24
16195,RANGALL AGROTECH PVT LTD,40   M B ROAD  KHARUPETIA 784115,WHOLESALE OF AGRICULTURE RAW MATERIALS,11,462,3,20-24
16387,DALANGGHAT GIRLS HIGH SCHOOL,90   MAHALIAPARA TANG 784528,SECONDARY EDUCATION,20,852,1,20-24
16388,DISTRICT EDUCATION TRAINING CENTRE,35 2   DALGAON DARRANG 784116,HIGHER EDUCATION,20,853,1,20-24
16389,PADUM PUKHURI HIGH SCHOOL,70   MANGALDAI MAJIKUCHI 784147,SECONDARY EDUCATION,20,852,1,20-24
16655,DAHI HIGHER SECONDARY SCHOOLJANARAM CHOUKA,81   DAHI 784529,SECONDARY EDUCATION,20,852,1,25-29
16656,DAHI VALIKA VIDYAPITH HIGH SCHOOL,86   DAHI 784529,SECONDARY EDUCATION,20,852,1,25-29
16657,ANDHERIGHAT HIGH SCHOOL,27 1   ANDHERIGHAT 784148,SECONDARY EDUCATION,20,852,1,25-29
16658,DEVI CONCRETE PRODUCTS INDUSTRYWARD NO 7,74   S R V MILANPATH 784125,MANUFACTURE OF NON METALLIC PRODUCTS,6,239,2,25-29
16659,CHIPAJHAR JANATA COLLEGE,52 N H  784145,HIGHER EDUCATION,20,853,1,25-29
16660,GANESHKUWORI HIGH SCHOOL,DUMUNICHOWKI GANESHKUWORI 784145,SECONDARY EDUCATION,20,852,1,25-29
16661,MAHENDRA KALITA S BRICK INDUSTRY,4   GANDHIA PATHAR PATH SIPAJHAR 784145,MANUFACTURE OF BRICKS,6,239,2,25-29
16662,DEOMORNOI GIRLS HIGH SCHOOL,95   DEOMORNOI 784147,SECONDARY EDUCATION,20,852,1,25-29
16663,PACHIM MANGALDAI HIGH MADRASSA,126   PASCHIM MANGALDAI 784148,SECONDARY EDUCATION,20,852,1,25-29
16664,JANATA HIGH SCHOOL,121   SARABARI 784144,SECONDARY EDUCATION,20,852,1,25-29
16665,KHANDAJAN HIGH SCHOOL,29   N H  52  SIPAJHAR 784145,SECONDARY EDUCATION,20,852,1,25-29
16666,HOLYCHILD ENGLISH SCHOOL,66   COLLEGE ROAD  SIPAJHAR 784145,SECONDARY EDUCATION,20,852,2,25-29
16852,N E  ENGLISH SCHOOL MANGALDAI,20 2   KHARUPETIA 784125,SECONDARY EDUCATION,20,852,2,25-29
16853,RANJIT SARMA ACADEMY,11   BHEBARGHAT TANGLA 784125,SECONDARY EDUCATION,20,852,3,25-29
16854,N B I BRICK INDUSTRY,DUMUNICHOWKI 2 NO BAZAR 784145,MANUFACTURE OF BRICKS,6,239,2,25-29
16855,DEBSON NURSING HOME,M G  ROAD MONGALDOI 784125,HOSPITAL ACTIVITIES,21,861,2,25-29
16856,PACHIM DARNG KANISTHA MAHABIDYALAYA,80   BARBARI 784148,HIGHER EDUCATION,20,853,1,25-29
16857,PAKADALI H S AND BAHUMUKHI SCHOOL,58   SIPAJHAR LAOJAN 784145,SECONDARY EDUCATION,20,852,1,25-29
17014,KHARUPETIA NAGAR GIRLS ENGLISH MEDIUM SCHOOL,2 1   NATUNPATTI ROAD  KHARUPETIA 784115,SECONDARY EDUCATION,20,852,1,25-29
17015,SIPAJHAR ACADEMY,2 1   52 N H  BHUYANBARI SIPAJHA R 784145,SECONDARY EDUCATION,20,852,1,25-29
17016,DIPALI HIGH SCHOOL,3   DIPILA KHAIRABARI 784144,SECONDARY EDUCATION,20,852,1,25-29
17166,DUNI MAHABIDYALAYA KONISTHA,99   DUNI 784148,HIGHER EDUCATION,20,853,1,25-29
17167,PACHIM DARANG JATIYA BIDYALYA,58   PASCHIM DARRANG 784144,PRIMARY EDUCATION,20,851,1,25-29
17282,SARABARI H S SCHOOL,133   SARABARI 784147,SECONDARY EDUCATION,20,852,1,25-29
17283,OJA HYUNDAI SHOW ROOM,1   N H  52  MANGALDOI 784125,SALE OF MOTOR VEHICLES,10,451,2,25-29
17494,UTTAR MANGALDAI HIGH SCHOOL,81   M B  ROAD 784529,SECONDARY EDUCATION,20,852,1,30-99
17495,RUPKUWOR JYOTI PRASAD VIDYAPITH,109   KABEI CHUBA 784145,PRIMARY EDUCATION,20,851,1,30-99
17496,SPB BRICK INDUSTRY,DUMUNICHOWKIN 2 N0 MAJARC 784145,MANUFACTURE OF BRICKS,6,239,2,30-99
17633,NATIONAL COLLEGE OF EDUCATION,33 1   KHARUPETIA 784115,HIGHER EDUCATION,20,853,1,30-99
17634,BHAKATPARA HIGHER SECONDARY SCHOOL,145 BHAKATPARA KALAIGAON 784190,SECONDARY EDUCATION,20,852,1,30-99
17635,BINURAM BORO CONSTRUCTION FIRM,61   BATABARI BARGARHA PATH BATABARI 784116,CONSTRUCTION OF UTILITY PROJECTS,9,422,2,30-99
17636,B J GIRLS HIGH SCHOOL,14   N H  52  SIPAJHAR 784145,SECONDARY EDUCATION,20,852,1,30-99
17751,BURHINAGAR KANISTHA MAHABIDYALAYA,73   MONGLDAI MACHIHUDI 784147,SECONDARY EDUCATION,20,852,1,30-99
17752,SANOWA HIGH MADRASSA H S SCHOOL,8   SANOWA PATH  1 NO  MAJOR CHUBA SIPAJHAR 784145,SECONDARY EDUCATION,20,852,1,30-99
17753,AQUA FRESH,98   INDUSTRY ROAD  MANGALDOI 784125,WATTER COLLECTION,8,360,2,30-99
17910,MANGALDAI GOVT  H S SCHOOL,1   HOSPITAL ROAD  KHARUPETIA 784125,SECONDARY EDUCATION,20,852,1,30-99
18061,BARGARAH T E FACTORY,43   BATABARI BARGARHA PATH 784116,MANUFACTURE  AND PROCESSING OF TEA,6,107,4,30-99
18062,BECHIMARI HIGHER SECONDARY SCHOOL,75   BESIMARI DARRANG 784514,SECONDARY EDUCATION,20,852,1,30-99
18063,VALLABH BHAI PATEL H S  SCHOOL,10   N T  ROAD KAPATIGRANT 784113,SECONDARY EDUCATION,20,852,1,30-99
18152,BURHA LOKAPRIYA BARDALOI HIGH SCHOOL,BARBARI 784148,HIGHER EDUCATION,20,852,1,30-99
18153,DUNI H S SCHOOL,163   DUNI 784148,SECONDARY EDUCATION,20,852,1,30-99
18453,DEOMORNOI JUNIOR COLLEGE,48   DEOMORNOI 784147,HIGHER EDUCATION,20,852,1,30-99
18454,BRAHMAPUTRA PEKARSH PRIVATE LIMITED,100   INDUSTRY ROAD  MANGALDOI 784125,MANUFACTURE OF PAPER AND PAPER PRODUCTS,6,170,2,30-99
18518,DEOMORNOI H S SCHOOL,90   DEOMORNAI 784147,SECONDARY EDUCATION,20,852,1,30-99
18596,JAWAHAR NAVODAYA SCHOOL,1   UDAMARI TENGAMARI 784525,HIGHER EDUCATION,20,851,1,30-99
18597,RIPOZE HOTEL,520   M G ROAD MONGALDOI 784125,HOTEL,14,551,2,30-99
18696,NANAJYOTI GIRLS HIGH SCHOOL,96   RANGAMATI P W D ROAD 784529,SECONDARY EDUCATION,20,852,1,30-99
18697,DEOMORNOI RURAL HOSPITAL,67   DEOMORNAI 784147,HOSPITAL ACTIVITIES,21,861,1,30-99
18698,PACHIM RANGAMATI HIGHER SECONDARYSCHOOL,126   PACHIM RANGAMATI 784525,SECONDARY EDUCATION,20,852,1,30-99
18765,KHARUPETIA COLLEGE,89 1   N H  52  KHARUPETIA 784115,HIGHER EDUCATION,20,853,1,30-99
18859,MANGALDAI GIRLS HIGHER SECONDARY SCHOOL,31   BHEBARGHAT TANGLA 784125,SECONDARY EDUCATION,20,852,1,30-99
18860,JATIYA VIDYALAYA SIPAJHAR,23   PAKADOLI  PASCHIM CHUBA  SIPAJHAR 784145,PRIMARY EDUCATION,20,851,3,30-99
18918,SIPAJHAR COLLEGE,205 1   SIPAJHAR PAKADALI 784145,HIGHER EDUCATION,20,853,1,30-99
19004,DEOMORNOI DIGREE COLLEGE,49   DEOMORNOI 784147,HIGHER STUDY,20,853,1,30-99
19005,PATHARIGHAT MINI HOSPITAL,36   PATHARIGHAT 784144,HOSPITAL ACTIVITIES,21,861,1,30-99
19043,KHARUPETIYA H S SCHOOL,8   N H  52  KHARUPETIA 784115,SECONDARY EDUCATION,20,851,1,30-99
19217,CHIPAJHAR H S SCHOOL,66   BARDOILAGURI BIHUBHANGA 784145,SECONDARY EDUCATION,20,852,1,30-99
19368,MAHARSHI COLLEGE,213 1   CHERENG LABANI 784125,HIGHER EDUCATION,20,853,9,30-99
19493,POLY CLINIC HOSPITAL,122 1   POLY CLINIC PATH MONGALDOI 784125,HOSPITAL ACTIVITIES,21,861,3,30-99
19598,TRINITI FUKTA LIMITED,72   UDYUG PATH  MANGALDOI 784125,MANUFACTURE OF OTHER FOOD PRODUCTS,6,107,4,30-99
19646,SATYA NARAYAN SINGHA,LAKHMINATH PATH  MANGALDOI 784125,MANUFACTURE OF BRICKS,6,239,2,30-99
19677,THE PRAGBASIMEE SYNTHETIC LIMITED,38   SIPAJHAR  BIJULIBARI  DARRANG 784145,DYEING WORKS,6,151,3,30-99
19712,CHIPAJHAR MINI HOSPITAL,023   N H  52  SIPAJHAR 784145,HOSPITAL ACTIVITIES,21,861,1,30-99
19743,MANGALDOI COLLEGE,5   52 N H  784125,HIGHER EDUCATION,20,853,1,30-99
19787,S R D N PRIVATE LIMITED,75 1   UDYUG PATH  MANGALDOI 784125,BUSINESS SUPPORT SERVICE ACTIVITIES,19,829,4,30-99
19794,SERICULTURE FARM,239   N H  52  MANGALDOI KONWARPAR A 784125,REARING OF WORMS,2,14,1,30-99
19915,MANGALDAI CIVIL HOSPITAL,17 1   MANGALDOI 784125,HOSPITAL ACTIVITIES,21,861,1,100-199
19941,M S SALE INDUSTRY,5   PATHARIGHAT 784145,MANUFACTURE OF BRICKS,6,239,2,100-199
19972,SAHARA CREDIT CO OP SOLTD,17 3   M B ROAD  KHARUPETIA 784115,MONETARY INTERMEDIATION,16,649,4,100-199
20039,SANKAR RECIPES PRIVATE LIMITED,118   N H 52 ROHINIKAKH DARRANG 784116,PROCESSING OF FRUITS AND VEGETABLES,6,103,4,100-199
20061,SANGHARI FOODS PVT LTD,119   N H 52 ROHINIKAKH DARRANG 784116,PROCESSING AND PRESERVING OF FRUITS,6,103,2,100-199
20105,MAA ITA NIRMAN UDOYAG,51   DUNI 784148,MANUFACTURE OF BRICKS,6,239,2,200-499
20147,R S D ITA BHATA,48   BISHNUPUR DURDURIAPATH 784148,MANUFACTURE OF BRICKS,6,239,2,200-499
20161,H M B IT ABHATA,38   BISHNUPUR DURDURIAPATH 784148,MANUFACTURE OF BRICKS,6,239,2,200-499
