S.No.,Name of the Establishment,Address,Major Activity Description,Broad Activit y Code,NIC,Owner ship Code,"Emplo yment Class Interva
l"
191,U B I    PATHERKANDI BRANCH,08 2   KARIMGANJ  AGARTALA ROAD 788724,MONETARY INTERMEDIATION,16,641,1,10-14
331,BHANGA RAILWAY STATION,53   BHANGA 788701,SUPPORT SERVICE AT RAILWAY STATION,13,491,1,10-14
332,ALLAHABAD BANKKARIMGANJ BRANCH,34 2   OLD STATION ROAD  KARIMGANJ 788711,MONETARY INTERMEDIATION,16,641,1,10-14
445,TELEPHONE EXCHANGE,50 7   BADARPURGHAT 788806,WIRED TELECOMMUNICATION ACTIVITES,15,611,1,10-14
575,STATE BANK OF INDIA KARIMGANJ BAZARBRANCH,249   MASZID ROAD  KARIMGANJ 788710,MONETARY INTERMEDIATION,16,641,1,10-14
576,POSTAL STORES DEPOT,49 1   T R K ROAD 788025,POSTAL ACTIVITIES,13,531,1,10-14
577,AXIS BANK KARIMGANJ,73 2   SAHID SARANI  KARIMGANJ 788710,MONETARY INTERMEDIATION,16,641,2,10-14
578,PUNJAB NATIONAL BANK  KARIMGANJ BRANCH,42 9   OLD STATION ROAD  KARIMGANJ 788711,MONETARY INTERMEDIATION,16,641,1,10-14
579,U B I BADARPUR BRANCH,247 9   STATION ROAD  BADARPUR 788806,MONETARY INTERMEDIATION,16,641,1,10-14
676,A S E B OFFICE,52   44 NO  NATIONAL ROAD 788724,ELECTRICI POWER GENERATION TRANSPORT ATION TRANSMISSION   DISTRIBUTION,7,351,1,10-14
900,BADARPUR RLY  STATION,BADARPUR 788806,SUPPORT ACTIVITES FOR TRANSPORTATION,13,522,1,15-19
1117,L I C KARIMGANJ,74 2   SAHID SARANI 788710,LIFE INSURANCE ACTIVITIES,16,651,1,20-24
1118,UNITED BANK OF INDIA,SILCHAR ROAD 788713,MONETARY INTERMEDIATION,16,641,1,20-24
1119,STATEBANK OF INDIA  BHANGA,C 128 13   S T  ROAD   BHANGA 788701,MONETARY INTERMEDIATION,16,641,1,20-24
1159,B S N L OFFICE,124 1   THANA ROAD 788724,WIRED TELECOMMUNICATIONS ACTIVITIES,15,611,1,20-24
1199,RAMKRISHNA NAGAR ELECTRICAL SUB DIVISION,54   R E C  ROAD  RAMKRISHNA NAGAR  KARIMGANJ 788166,OFFICE ADMINISTRATIVE AND SUPPORT ACTIVITIES,19,821,1,20-24
1200,CENTRAL SCHOOL KARIMGANJ,23   NILMONI ROAD  KARIMGANJ 788710,SECONDARY EDUCATION,20,852,1,20-24
1201,B S N L KARIMGANJ,5   BANAMALI ROAD  KARIMGANJ 788710,WIRED TELECOMMUNICATIONS ACTIVITIES,15,611,1,20-24
1238,UNITED BANK OF INDIA,88 2   MAIN ROAD  KARIMGANJ 788710,MONETARY INTERMEDIATION,16,641,1,20-24
1294,KARIMGANJ RAIL JUNCTION OFFICE,RAIL STATION ROAD  KARIMGANJ 788710,SUPPORT ACTIVITIES FOR TRANSPORTATION,13,522,1,25-29
1315,STATEBANK OF INDIA  BADARPUR BRANCH  BADARPUR KARIMGANJ ASSAM,31   NH 44  BADARPUR KARIMGANJ  788806,MONETARY INTERMEDIATION,16,641,1,25-29
1316,ASSISTANT GENERAL MANAGER T   T DIVISION  SILCHAR,MEHERPUR ROAD 788015,ELECTRIC POWER GENERATION TRANSPORT ATION TRANSMISSION AND DISTRIBUTION,7,351,1,25-29
1398,LONGAI T E ASSAM TEA CORPORATION LTD,54   LONGAI  788725,MANUFACTURE  AND PROCESSING OF TEA,6,107,2,30-99
1450,NILAMBAZAR ELECTRICAL SUB DIVISION,90   N H  44  NILAMBAZAR 788722,ELECTRIC POWER GENERATION TRANSMISSI ON TRANSPORTATION   DISTRIBUTION,7,351,1,30-99
1486,NILMONI HIGHER SECONDARY SCHOOL,231 Karimganj   MB  NILMONI ROAD 788710,SECONDARY EDUCATION,20,852,1,30-99
1502,RLY TELEPHONE OFFICE,20 1   BADARPUR 788806,HEAD OFFICE ACTIVITIES,18,701,1,30-99
1535,HAILAKANDI ELECTRICAL DIVISION  A P D C L ,MANDIR ROAD 788151,ELECTRIC POWER GENERATION TRANSPORT AION TRANSMISSION AND DISTRIBUTION,7,351,1,30-99
1546,MAHARISHI VIDYA MANDIR,LAXMI BAZAR ROAD  KARIMGANJ 788710,SECONDARY EDUCATION,20,852,9,30-99
1595,STATE BANK OF INDIA,26   MAIN ROAD KARIMGANJ 788710,MONETARY INTERMEDIATION,16,641,1,30-99
1713,KARIMGANJ RAIL JUNCTION,KARIMGANJ 788710,SUPPORT ACTIVITIES FOR TRANSPORTATION,13,491,1,30-99
1750,BIRLA SUN LIFE INSURANCE,104   MAIN ROAD KARIMGANJ 788710,LIFE INSURANCE ACTIVITIES,16,651,4,100-199
1781,HATIKHIRA TEA ESTATE,36   HATIKHIRA 788726,PROCESSING OF TEA,6,107,4,200-499
1795,P W I OFFICE BADARPUR RLY,3 1   BADARPUR 788806,SUPPORT ACTIVITIES FOR TRANSPORTATION,13,522,1,200-499
1796,RLY ENGINEERING OFFICE,3 2   BADARPUR 788806,OTHER ADMINISTRATIVE AND SUPPORT ACTIVITIES,19,821,1,200-499
1804,PRAMOD NAGAR T E,PRAMOD NAGAR 788722,MANUFACTURE  AND PROCESSING OF TEA,6,107,2,200-499
1818,BADARPUR RLY STATION,001   BADARPUR 788806,RAILWAY STATION,13,491,1,>=500
1822,ISHABUL TEA ESTATE,45   ISHABUL  788728,TEA ESTATE,6,107,4,>=500
2091,SUN RISE ENGLISH SCHOOL,9 5   SILCHAR ROAD  SORISA 788713,SECONDARY EDUCATION,20,852,2,10-14
2092,ASSAM PETROL PUMP,104   NH 44  NIZ MALUA 788806,RETAIL SALE OF AUTOMOTIVE FUEL IN SPECIALIZED STORES,12,473,2,10-14
2093,MAHAMAYA SAW MILL SRIGOURI,6 4   NH 44  SRIGOURI 788806,SAW MILLING AND PLANNING OF WOOD,6,161,2,15-19
2729,POLLYUNNAYAN HIGH SCHOOL GOBINDAGANJ PURBA JARAILBARI,64   BAZARGHAT 788733,SECONDARY EDUCATION,20,852,1,15-19
2730,PATWA BROTHERS,2   MODAN MOHAN ROAD  KARIMGANJ 788711,RETAIL SALE OF OTHER GOODS IN SPECIALIZED STORES,12,477,2,10-14
2731,PARAMANANDA VIDYA MANDIR SCHOOL,2   TENNIS GROUND  BADARPUR RLY STN 788806,SECONDARY EDUCATION,20,852,2,10-14
2732,ADARSHA VIDYAPITH KALIGANJ DIST  KARIMGANJ,238   RATANPUR PATH  KAMARGAON 788720,SECONDARY EDUCATION,20,852,2,10-14
2733,THE STUDENTS LIBARY,59   MAIN ROAD  KARIMGANJ 788710,RETAIL SALE OF BOOKS,12,476,2,10-14
2734,GOPAL STORES,13   MAIN ROAD  KARIMGANJ 788710,RETAIL SALE  OF READYMADE GARMENTS,12,477,2,10-14
2735,TEA GARDEN OFFICE,71   LALKHIRA SONAKHIRA 788725,HEAD OFFICE ACTIVITIES,18,701,2,10-14
6191,R K  NAGAR DEVELOPMENT BLOCK,68 1   COLLEGE ROAD  R K  NAGAR II 788166,OFFICE ADMINISTRATIVE AND SUPPORT ACTIVITIES,19,821,1,10-14
6192,RAMKRISHNA NAGAR SUB  TREASURY,75 1   COLLEGE ROAD R K NAGAR 788166,OFFICE ADMINISTRATIVE AND SUPPORT ACTIVITIES,19,821,1,10-14
6193,JARAILBARI SALNABAI BAYAN SILPA SAMITEE LTD ,78   JARAILBARI 788733,WEAVING AND SPINNING,6,131,9,10-14
6194,JOYRAM DUTTA SOAP FACTORY,65   SHIV BARI ROAD  KARIMGANJ 788710,MANUFACTURE OF SOAP DETERGENTS,6,202,2,10-14
6195,SHREE RAM KRISHNA TRADERS,31   STATION ROAD KARIMGANJ 788710,RETAIL SALE OF OTHER GOODS IN SPECIALIZED STORES,12,477,2,10-14
6196,TAJMAHAL S H G,45   SILCHAR ROAD  BARASHAL  II 788713,MANUFACTURE OF BAMBOO PRODUCTS,6,162,3,10-14
6197,SEWALI BIDYAPITH HIGH SCHOOL,DAKHIN SERAGIR BOND 788737,SECONDARY EDUCATION,20,852,1,10-14
6198,BIDHYASAGAR HIGH SCHOOL ,9   CHARAGI 788737,SECONDARY EDUCATION,20,852,1,10-14
6199,RAMLOCHAN HIGH SCHOOL,9   MOHAKOL PT I 788706,SECONDARY EDUCATION,20,852,1,10-14
6200,VIVEKANANDA HIGH SCHOOL,36   ANANDAPUR 788723,SECONDARY EDUCATION,20,852,2,10-14
6201,TINY HEARTS SCHOOL,4 2   D C BUNGLOW ROAD  KARIMGANJ 788710,PRIMARY EDUCATION,20,851,9,10-14
6202,RABINDRA SADAN HIGH SCHOOL,53   PACHIM JARAILBARI PATH  PACHIM JARAILBARI 788733,SECONDARY EDUCATION,20,852,1,10-14
6203,NEHRU VIDYA PITH HIGH SCHOOL,3 2   N E C ROAD  AKAIDHUN 788725,SECONDARY EDUCATION,20,852,1,10-14
6204,NEHRU BIDYAPITH HIGHER SECONDARY SCHOOL,4   N E C ROAD  AKAIDHUN 788725,SECONDARY EDUCATION,20,852,1,10-14
6205,SRI PRASAD RAY HIGH SCHOOL,41   SONAKHIRA 788725,SECONDARY EDUCATION,20,852,1,10-14
6206,S P RAY HIGH SCHOOL,81   SONAKHIRA 788725,SECONDARY EDUCATION,20,852,1,10-14
6207,RAIPUR MADDRASSA,RAIPUR  788701,PRIMARY EDUCATION,20,851,9,10-14
6208,DASGRAM S H C,62   DASGRAM 788781,HOSPITAL ACTIVITIES WITHOUT ACCOMMODATION FACILITIES,21,861,1,10-14
6209,M R C HIGH SCHOOL,49   NAYABAZAR ROAD 788712,SECONDARY EDUCATION,20,852,1,10-14
6210,HAZI ARZID ALI GIRLS PRE SENIOR MADRASSA,132   N H 44  BARAIGRAM 788723,PRIMARY EDUCATION,20,851,2,10-14
6211,EIDGAHA HIGH SCHOOL,25   BATYA 788719,SECONDARY EDUCATION,20,852,2,10-14
6212,BORSHILA PRE SENIOR MADRASSA,148   FAKIRA ROAD 788712,SECONDARY EDUCATION,20,852,1,10-14
6213,SARASWATI VIDYA NIKETAN,94 4   N H NO 44 788806,SECONDARY EDUCATION,20,852,2,10-14
6214,ASSAM TIMBER SAWMILL,99   N H NO 44 788806,SAW MILLING AND PLANNING OF  WOOD,6,161,2,10-14
6215,MONOJ KUMAR BAID PLASTIC PRODUCTS,76 34   NEAR NH 44  KARIMGANJ AGARTALA ROAD 788806,MANUFACTURE OF PLASTICS PRODUCTS,6,222,2,10-14
8110,ASHOK TEXTILES,8   MODAN MOHAN ROAD  KARIMGANJ 788711,RETAIL SALE OF READYMADE GARMENTS,12,477,2,10-14
8111,MARKAJEE RAHMATIA ALIA HAFIZIA MADRASSA,65   KESHARPAM II 788713,SECONDARY EDUCATION,20,852,9,10-14
8112,KAIBALYANATH SOAP WORKS,03   UMORPUR  II 788722,MANUFACTURE OF SOAP DETERGENTS,6,202,2,10-14
8113,T S  IDEAL POINT SCHOOL,121   KRISHNA NAGAR 788736,SECONDARY EDUCATION,20,852,2,10-14
8114,LITTLE FLOWER ENGLISH MEDIUM SCHOOL,190   SHIBERGOL 788727,PRIMARY EDUCATION,20,851,9,10-14
8115,RANJAWAN ALI VILLAGE M E SCHOOL,0001   HEDALBED  MODELBIL 788803,PRIMARY EDUCATION,20,851,1,10-14
8116,MAA KALI SELF HELP GROUP,1 1   RAMPASA PT 2 788711,MANUFACTURE OF PRODUCTS OF WOOD CORK STRAW   PLAITING MATERIALS,6,162,2,10-14
8117,NATIONAL ACADEMY SCHOOL,57   NATIONAL HIGHWAY ROAD  KANDIGRAM 788722,HIGHER EDUCATION,20,852,2,10-14
8118,B N MAZUMDAR JEWELLARS,2   MAIN ROAD  KARIMGANJ 788170,MANUFACTURE OF JEWELLERY,6,321,2,10-14
8119,JOIN BROTHERS,18 1   MAIN ROAD  KARIMGANJ 788710,RETAIL SALE OF READYMADE GARMENTS,12,477,2,10-14
8120,SRI MAA TEA STALL,S T ROAD  BADARPUR TOWN 788806,TEA STALL,14,563,2,10-14
8121,PATHARKANDY GAS AGENCY,65   HOSPITAL ROAD  PATHERKANDI 788724,RETAIL SALE OF LPG,12,477,3,10-14
8122,GHORAMARA HIGH SCHOOL,GHORAMARA 788720,SECONDARY EDUCATION,20,852,1,10-14
8123,SARASWATI VIDYA NIKETAN,23   LAXMIBAZAR 788709,SECONDARY EDUCATION,20,852,1,10-14
9693,DREAMLAND ENGLISH MEDIUM HIGH SCHOOL,62   R E C ROAD  R K  NAGAR II 788166,SECONDARY EDUCATION,20,852,2,10-14
9694,SUBHAJIT BANIK STORE,320   SHIV BARI ROAD  KARIMGANJ 788710,WHOLESALE OF HOUSEHOLD GOODS,11,464,2,10-14
9695,D T O KARIMGANJ,102   STEMARGHAT RD KARIMGANJ 788710,HEAD OFFICE ACTIVITIES,18,701,2,10-14
9696,PURAHURIA SENIOR MADRASSA,LATU ROAD 788712,SECONDARY EDUCATION,20,852,2,10-14
9697,JAFOR GARH SENIOR MADRASSA,8   KALAKHAURI 788724,SECONDARY EDUCATION,20,852,2,10-14
9698,MODEL BANGLA ACADEMY MOINA KANAI BAZAR,MOINA 788724,SECONDARY EDUCATION,20,852,2,10-14
9699,GOPINATH TIMBER PRODUCT,11 2   NH 44  SRIGOURI 788806,SAW MILLING AND PLANNING OF WOOD,6,161,2,10-14
9700,CACHAR TIMBER SRIGOURI,2   NH 44  SRIGOURI 788806,SAW MILLING AND PLANNING OF WOOD,6,161,2,10-14
9701,LIFE LINE RESEARCH CENTRE,29 2   PATHERKANDI 788711,OTHER HUMAN HEALTH ACTIVITIES,21,869,3,10-14
9702,MODERN HIGH SCHOOL PRIVATE L P  SCHOOL,37 1   DUTTAPUR 788806,PRIMARY EDUCATION,20,851,3,10-14
9703,JANAKALYAN HIGH SCHOOL ,31   P O  PATIALA 788734,SECONDARY EDUCATION,20,852,1,10-14
9704,M S ROY   ROY CHOUDHURY,148 1   NH 44  PATHERKANDI 788724,RETAIL SALE OF AUTOMOTIVE FUEL IN SPECIALIZED STORES,12,473,2,10-14
9705,SANNIGHAT HIGH SCHOOL,39   BIDYANAGAR  M L A ROAD 788734,SECONDARY EDUCATION,20,852,1,10-14
9706,HARAGOBINDA M V SCHOOL,1   44 JATIYA ROAD  ISWARSHRI 788722,PRIMARY EDUCATION,20,851,1,10-14
9707,KEOTKUNA HIGH SCHOOL  SHAHAJALAL HIGH SCHOOL ,35 1   KEOTKUNA II 788718,SECONDARY EDUCATION,20,852,2,10-14
9708,KEOTKUNA HIGH SCHOOL,KEOTKUNA II 788718,SECONDARY EDUCATION,20,852,1,10-14
9709,GANDHAI H S SCHOOL,125   DASGRAM I 788718,SECONDARY EDUCATION,20,852,2,10-14
9710,ALFALAH ACADEMY,38 1   DASGRAM I 788722,SECONDARY EDUCATION,20,852,9,10-14
9711,KHAGAIL HIGH SCHOOL,89   KALIGANJ ROAD  KHAGAIL PT I 788720,SECONDARY EDUCATION,20,852,1,10-14
9712,MODEL ENGLISH SCHOOL,C 1   BAZAR ROAD BHANGA 788701,SECONDARY EDUCATION,20,852,3,10-14
9713,GURUCHAR ENGLISH ACADEMY,C 152 1   MAIN ROAD  BHANGA 788701,SECONDARY EDUCATION,20,852,3,10-14
9714,JAMINI MOHAN GIRLS HIGH SCHOOL,113   KALIBARI ROAD  PATHERKANDI 788724,SECONDARY EDUCATION,20,852,1,10-14
9715,BADANPUR PUBLIC HIGH SCHOOL,91   PUBLIC SCHOOL ROAD karimganj 788806,SECONDARY EDUCATION,20,852,1,10-14
9716,SRIBHUMI HIGH SCHOOL,117   KALIGANJ 788711,SECONDARY EDUCATION,20,852,1,10-14
10900,B ED COLLEGE,27   MAIN ROAD  KARIMGANJ 788710,HIGHER EDUCATION,20,853,2,10-14
10901,POLLYMANGAL HIGH SCHOOL,1   BHOMORPUR IV 788712,SECONDARY EDUCATION,20,852,1,10-14
10902,ROY SPICE INDUSTRY,1   ANIPUR PATH  KALASUP 788734,MANUFACTURE OF GRAIN MILL PRODUCTS STARCHES AND STARCH PRODUCTS,6,106,2,10-14
10903,RAMKRISHNA BIDYAPITH HIGH SCHOOL,130 1   RAMKRISHNA NAGAR 788166,SECONDARY EDUCATION,20,852,1,10-14
10904,KAZIRBAZAR SENIOR MADRASSA,97   MASJID ROAD  SARKARIBARI 788735,SECONDARY EDUCATION,20,852,1,10-14
10905,ANGLER BAZAR PUBLIC HIGH SCHOOL,68   HARINADIK 788806,SECONDARY EDUCATION,20,852,1,10-14
10906,BARGOOL ASSAMESE HIGH SCHOOL,77   ANGLARBAZAR TO BADARPUR 788706,SECONDARY EDUCATION,20,852,1,10-14
10907,JOYRAM SABANER OFFICE GRIHA,4 1   MAIDAMBAR PT 2 788709,MANUFACTURE OF OTHER CHEMICAL PRODUCTS,6,202,2,10-14
10908,MAHAMAYA SELF HELP GROUP,21   PATHARIYA BLOCK 788722,WEAVING AND SPINNING,6,131,3,10-14
10909,ENGLA BAZAR PUBLIC HIGH SCHOOL,NH  44  NILAMBAZAR 788718,SECONDARY EDUCATION,20,852,1,10-14
10910,ROSE VALLEY OFFICE,S T ROAD  BADARPUR TOWN 788806,OTHER FINANCIAL SERVICE ACTIVITES,16,649,4,10-14
10911,BADARPUR BAULWAY HOSPITAL,27   BADARPUR 788806,HOSPITAL ACTIVITES,21,861,1,10-14
10912,TUKERBAZAR SISHU VIKASH ACADEMY,134   N H 44  TUKERBAZAR BARAIGRAM 788723,SECONDARY EDUCATION,20,852,2,10-14
10913,TUKERBAZER HIGH SCHOOL,128   N H 44  TUKERBAZAR BARAIGRAM 788723,SECONDARY EDUCATION,20,852,2,10-14
11752,BARUALA HIGH SCHOOL,68   BAZARGHAT 788733,SECONDARY EDUCATION,20,852,1,10-14
11753,M K  GANDHI JUNIOR COLLEGE,LATU ROAD  BORPURAHURIYA I 788712,SECONDARY EDUCATION,20,852,2,10-14
11754,JANAKALYAN MODEL HIGH SCHOOL,74   TALTALA 788720,SECONDARY EDUCATION,20,852,1,10-14
11755,KALIGANJ M E SCHOOL  BAGBARI ROAD,71   BAGBARI ROAD 788720,PRIMARY EDUCATION,20,851,2,10-14
11756,MOHADEV H S SCHOOL,114   SUBHASH NAGAR ROAD  CHANDRAPUR 788720,SECONDARY EDUCATION,20,852,1,10-14
11757,FAKUAGRAM HIGHER SECONDARY SCHOOL,36   SCHOOL ROAD  ERALNABAM 788723,SECONDARY EDUCATION,20,852,1,10-14
11758,KALPATARU HOTEL,24 2   STATION ROAD 788710,SHORT TERM ACCOMODATION ACTIVITIES,14,551,2,10-14
11759,VIVEKANANDA ENGLISH MEDIUM SCHOOL,107   BUDDHA COLONY 788806,SECONDARY EDUCATION,20,852,1,10-14
11760,LATU MINI PRIMARY HEALTH CENTER,57   LATU BAZAR ROAD 788781,HOSPITAL ACTIVITES,21,861,1,10-14
11761,PATHU MAHISHASAN HIGH SCHOOL,48   LATU BAZAR ROAD 788781,SECONDARY EDUCATION,20,852,1,10-14
11762,ADHUNIK STAR CEMENT LTD,105 2   N H 44 788806,MANUFACTURE OF CEMENT,6,239,2,10-14
11763,AGRICULTURE RESARCH CENTER,81   SUTARCHANDI ROAD 788712,HEAD OFFICE ACTIVITIES,18,701,1,10-14
11764,SARBESH NAMASUDRA,55   KALIGANJ 788711,MANUFACTURE OF WOOD AND BAMBOO PRODUCTS,6,162,2,10-14
11765,JYOTIMAY NAMASUDRA,62   KALIGANJ 788711,MANUFACTURE OF WOOD AND BAMBOO PRODUCTS,6,162,2,10-14
12550,SHYAM SUNDARVIDYA MANDIR,80   CENTRAL MAIN ROAD  KARIMGANJ 788712,SECONDARY EDUCATION,20,852,1,15-19
12551,KUSUM BIKASH BIDYA NIKETAN,92   TIKOR 788701,SECONDARY EDUCATION,20,852,2,15-19
12552,SARASWATI BIDYA NIKETAN,5   KORNOMODHU GRANT 788713,HIGHER EDUCATION,20,853,9,15-19
12553,ST  ANTONY S SCHOOL,99   NH 44  SAPORA MIRI 788806,SECONDARY EDUCATION,20,852,2,15-19
12554,DHUPANPUR TRIBAL HIGH SCHOOL P O  VETARVAND  VILL  DHUPANPUR,P O  VETARVAND  VILL  DHUPANPUR 788736,SECONDARY EDUCATION,20,852,1,15-19
12555,BLUE BIRD ACADEMY,66   ANIPUR ROAD  SARKARIBARI 788735,SECONDARY EDUCATION,20,852,2,15-19
12556,BILBARI SRIKRISHNA RAM HIGH SCHOOL,8   KALKALI MARK 788725,SECONDARY EDUCATION,20,852,1,15-19
12557,UTTAM CHOUDHURY SAHA STONE CRASHER ,61   LONGAI  788726,QUARRYING OF STONES SAND AND CLAY,5,81,2,15-19
12558,GOGRAKHANA PUBLIC HIGH SCHOOL,10   DARARPAR 788719,SECONDARY EDUCATION,20,852,1,15-19
12559,COLD STORAGE,105 1   N H 44 788806,WAREHOUSING AND STORAGE,13,521,2,15-19
13264,DEVDOOT FOODS,23 2   MAIN ROAD  KARIMGANJ 788710,MANUFACTURE OF OTHER FOOD PRODUCTS,6,107,2,15-19
13265,KALINAGAR CHABAGAN PT  I TEA FACTORY,40 2   KALINAGAR CHABAGAN PT I 788166,OFFICE ADMINISTRATIVE AND SUPPORT ACTIVITIES,19,821,3,15-19
13266,NETAJI PRIVATE HIGH SCHOOL  PRIVATE SCHOOL ,47   HOSPITAL ROAD  SRIGOURI 788806,SECONDARY EDUCATION,20,852,2,15-19
13267,P H E OFFICE,162 2   KARIMGANJ   AGARTALA ROAD 788724,WATER COLLECTION TREATMENT AND SUPPLY,8,360,1,15-19
13268,SETJHI FLOUR MILL,53 2   N H 44  KANDIGRAM MOLUA 788806,MANUFACTURE OF GRAIN MILL PRODUCTS STARCHES AND STARCH PRODUCTS,6,106,3,15-19
13269,JOYRAM SOAP FACTORY,76   MAIDAMBAR PT 2 788709,MANUFACTURE OF SOAP DETERGENTS,6,202,2,15-19
13270,KALIGANJ HIGHER SECONDARY SCHOOL,70   BAGBARI ROAD 788720,SECONDARY EDUCATION,20,852,2,15-19
13271,FOOD AND CIVIL SUPPLY,5   MAIN ROAD  KARIMGANJ 788710,OFFICE ADMINISTRATIVE AND SUPPORT ACTIVITIES,19,821,1,15-19
13272,MADRASA E BAITULLOOM ZARER BAZER,107   ZARER BAZER 788781,PRIMARY EDUCATION,20,851,9,15-19
13842,MORJAT PUBLIC HIGHER SECONDARY SCHOOL,68   TIKOR 788701,SECONDARY EDUCATION,20,852,1,15-19
13843,BAKARSHAL HIGH SCHOOL,26   NH 44  BAKARSHAL II 788713,SECONDARY EDUCATION,20,852,2,15-19
13844,ANGLAR BAZAR ADARSHA BIDYAPITH,228   HARINADIK 788806,SECONDARY EDUCATION,20,852,3,15-19
13845,RABINDRA BIDYAPITH,28   ANGWRA 788718,HIGHER EDUCATION,20,853,1,15-19
13846,PRIVATE SCHOOL,11   KUSHIAKUL ROAD 788709,SECONDARY EDUCATION,20,852,2,15-19
14289,POLLYSHREE HIGH SCHOOL,1   NALARPAR 788734,SECONDARY EDUCATION,20,852,1,15-19
14290,ADARSHA BIDYALAYA,72   NH 44  SAPORA MIRI 788806,SECONDARY EDUCATION,20,852,2,15-19
14291,MUJAFFAR ALI MEMORIAL HIGH SCHOOL VILL  DEFOLALA,35   DEFOLALA 788726,SECONDARY EDUCATION,20,852,1,15-19
14292,SALGOI HIGH SCHOOL,25   SALGOI 788725,SECONDARY EDUCATION,20,852,1,15-19
14293,NETAJI NAGAR HIGH SCHOOL,KARIMGANJ   AGARTALA ROAD  PATHERKANDI 788806,SECONDARY EDUCATION,20,852,1,15-19
14688,SISHU NIKETAN,NILAMONI ROAD  KARIMGANJ 788710,PRIMARY EDUCATION,20,851,9,15-19
14689,MODERN ENGLISH SCHOOL,24   NH 44  PATHERKANDI 788724,SECONDARY EDUCATION,20,852,2,15-19
14690,LAKSHMIBAZAR HIGH SCHOOL  P O  LAKSHIMIBAZAR  DIST  KARIMGANJ,LAKSHMIBAZAR 788709,SECONDARY EDUCATION,20,852,1,15-19
14691,SOUTH POINT ENGLISH SCHOOL,100   HOSPITAL ROAD  PATHERKANDI 788724,SECONDARY EDUCATION,20,852,2,15-19
14692,BOLOHARI DEY MEMORIAL ADARSHA VIDYANIKETAN,61   KALI GANJ ROAD 788713,SECONDARY EDUCATION,20,852,9,15-19
15143,MORKAZ ACADEMY,30   MAIN ROAD  BHANGA 788701,SECONDARY EDUCATION,20,852,3,20-24
15144,K L D SPICE INDUSTRY,04   UMORPUR  II 788722,MANUFACTURE OF GRAIN MILL PRODUCTS,6,106,2,20-24
15145,MODERN HIGH SCHOOL PRIVATE HIGH SECTION,37 2   DUTTAPUR 788806,SECONDARY EDUCATION,20,852,3,20-24
15146,PATHINI TEA FACTORY,7   TEA GARDEN ROAD 788725,MANUFACTURE  AND PROCESSING OF TEA,6,107,4,20-24
15147,OFFSET INDIA,66 2   NALOABARTA PRASANGA MAIN 788737,OFFSET PRINTING PRESS,6,181,2,20-24
15507,BHANGA GIRLS HIGH SCHOOL CUM JUNIORCOLLEGE,3   MASOLI PT I 788701,SECONDARY EDUCATION,20,852,3,20-24
15508,AHMODIA SENIOR MADRASSA,6   KRISHNADAR 788712,HIGHER EDUCATION,20,853,1,20-24
15509,BHANGA SARIF MARKAZUL ULUM MADRASSA,20 2   S T ROAD  KANKALASH PT I 788701,EDUCATIONAL SUPPORT ACTIVITIES,20,855,2,20-24
15510,ISHABHEEL H S SCHOOL,45   ISHABHEEL 788728,SECONDARY EDUCATION,20,852,1,20-24
15511,MAHABIR PUBLIC H S SCHOOL,121 1   SHIBERGOL 788727,SECONDARY EDUCATION,20,852,1,20-24
15512,QUOMOUL HOQUE JUNIOR COLLEGE,93 2   COLLEGE ROAD  RAJBARI 788724,SECONDARY EDUCATION,20,852,1,20-24
15513,MADINAKUL ULAM BAGBARI ALIYA MADRASSA  PO  BAGBARI  DIST  KARIMGANJ,10 3   BAGBARI ROAD 788720,HIGHER EDUCATION,20,853,9,20-24
15514,KHAGAIL SENIOR MADRASSA,54   KALIGANJ ROAD  KHAGAIL PT I 788720,SENIOR EDUCATION,20,852,1,20-24
15515,MODEL HIGH SCHOOL,C 154   S T ROAD  BHANGA 788701,SECONDARY EDUCATION,20,852,3,20-24
15516,BRICKS INDUSTRY OF MAHENDRA SHINGH,8 2   N H 44  KUCHBARI T S  788725,MANUFACTURE OF BRICKS,6,239,2,20-24
15517,A K MEMORIAL SENIOR MADDRASSA,110   SONAKHIRA ROAD  KUCHBARI T S  788725,SECONDARY EDUCATION,20,852,1,20-24
15518,MODERN HIGH MADRASSA,21   RAIPUR  788701,SECONDARY EDUCATION,20,852,1,20-24
15519,ANWARUL ULUM SENIOR MADRASSA,127   N H 44  BARAIGRAM 788723,SECONDARY EDUCATION,20,852,2,20-24
15843,RABINDRA SADAN COLLEGE KARIMGANJ,37 1   MAIN ROAD  KARIMGANJ 788710,HIGHER EDUCATION,20,853,2,20-24
15844,J D  BRICK INDUSTRY,135   TIKOR 788701,MANUFACTURE OF BRICKS,6,239,2,20-24
15845,SRIGOURI HOSPITAL,45 1   HOSPITAL ROAD  SRIGOURI 788806,HOSPITAL ACTIVITIES,21,861,1,20-24
15846,MAMAN BRICKS INDUSTRIES,156   MEDAL III 788713,MANUFACTURE OF BRICKS,6,239,2,20-24
15847,BHANGA JUNIOR COLLEGE,105 3   MAIN ROAD  BHANGA 788701,SECONDARY EDUCATION,20,852,1,20-24
15848,TAGORE SCHOOL OF STUDIES,15   BADARPUR TOWN 788803,SECONDARY EDUCATION,20,852,3,20-24
15849,JAMIUL ULUM NEZAMIA MADRASSA,37   THANA ROAD  SARKARIBARI 788735,PRIMARY EDUCATION,20,851,2,20-24
15850,MALUA PUBLIC HIGH SCHOOL,16 1   N H 44  KANDIGRAM MOLUA 788806,SECONDARY EDUCATION,20,852,1,20-24
15851,NILAMBAZAR P H C,109   NH  44  NILAMBAZAR 788718,HOSPITAL ACTIVITIES WITHOUT ACCOMMODATION FACILITIES,21,861,1,20-24
15852,BRAHMANBARIAR MISTANNA BHANDAR,61   MAIN ROAD  KARIMGANJ 788170,RETAIL SALE OF SUGAR CONFECTIONERY,12,472,2,20-24
15853,KUSHIAKUL H S SCHOOL,20   KUSHIAKUL ROAD 788709,SECONDARY EDUCATION,20,852,1,20-24
15854,LATU HIGH SCHOOL,97   LATU BAZAR ROAD 788781,SECONDARY EDUCATION,20,852,1,20-24
15855,AGRICULTURE RESARCH CENTER,62   KARIMGANJ SUTARKANDHI ROA 788712,RESARCH AND EXPERIMENTAL DEVOLEPMENT ON NATURAL SCIENCE AND EGENEERING,18,721,1,20-24
16110,N N H S SCHOOL,4 1   BERATUK 788734,SECONDARY EDUCATION,20,852,1,20-24
16111,GUNOMOYEE GIRLS HIGH SCHOOL,48   KANAKPUR  FARAMPASA 788710,SECONDARY  EDUCATION,20,852,1,20-24
16112,PUBLIC H S SCHOOL,65   HOSPITAL ROAD  KARIMGANJ 788170,SECONDARY EDUCATION,20,852,1,20-24
16113,JAFARGARH H S SCHOOL,162 163   N H 44  BARAIGRAM 788723,SECONDARY EDUCATION,20,852,1,20-24
16328,KARIMGANJ JUNIOR COLLEGE OF SCIENCE,243 A   NILOMONI ROAD 788710,SECONDARY EDUCATION,20,852,2,20-24
16329,LITTLE ANGELS SCHOOL KID ZEE,106 1   KARIMGANJ 788713,SECONDARY EDUCATION,20,852,2,20-24
16330,MAHARSHI SANDIPAN VIDYAPITH,73 2   BUDDHA COLONY 788806,SECONDARY EDUCATION,20,852,1,20-24
16581,NOBO JAGORON BIDYANIKETAN  H S SCHOOL ,6   MOHAKOL PT I 788706,SECONDARY EDUCATION,20,852,3,25-29
16582,CHANCHAL MODAK,20   HAILAKANDI TO KALIBARI   PANCHGRAM 788156,MANUFACTURE OF RUBBER PRODUCTS,6,221,2,25-29
16583,TREASURY OFFICE,22 1   MAIN ROAD  KARIMGANJ 788710,BUSINESS SUPPORT SERVICE ACTIVITES,19,821,1,25-29
16804,SALE TAX OFFICE,LAXMI BAZAR ROAD  KARIMGANJ 788710,OFFICE ADMINISTRATIVE AND SUPPORT ACTIVITIES,19,821,1,25-29
16805,SRIGOURI HIGH SCHOOL,14 1   NH 44  SRIGOURI 788806,SECONDARY EDUCATION,20,852,1,25-29
16806,PATHERKANDI DEGREE COLLEGE,93 1   COLLEGE ROAD  RAJBARI 788724,HIGHER EDUCATION,20,853,1,25-29
16807,PATHARKANDI B ED COLLEGE,94   COLLEGE ROAD  RAJBARI 788724,HIGHER EDUCATION,20,853,1,25-29
16808,JAHIRUL ISLAM PETROL PUMP,52 1   FIRUHI 788720,RETAIL SALE OF AUTOMOTIVE FUEL IN SPECIALIZED STORES,12,473,2,25-29
16809,BIRAJA SUNDORI GIRLS HIGH SCHOOL,14 1   LONGAI ROAD  KARIMGANJ 788710,SECONDARY EDUCATION,20,852,1,25-29
16965,SRIGOURI HOSPITAL,85 1   HOSPITAL ROAD  SRIGOURI 788806,HOSPITAL ACTIVITIES,21,861,1,25-29
16966,ABDUL BASIT OFFICE,05   KARIMGANJ AGARTALA ROAD 788724,CONSTRUCTIONS OF ROADS AND RAILWAYS,9,421,2,25-29
16967,KHAN BRICKS INDUSTRY,85   KXJ TO PKD ROAD  FARAMPASA 788719,MANUFACTURE OF BRICKS,6,239,2,25-29
16968,APPOLO SHOW ROOM,44   MAIN ROAD  KARIMGANJ 788710,RETAIL SALE OF OTHER GOODS IN SPECIALIZED STORES,12,477,2,25-29
17114,RAMKRISHNA NAGAR COLLEGE,82 1   HOSPITAL ROAD  R K NAGAR 788166,HIGHER EDUCATION,20,853,1,25-29
17115,ABANTI KUMAR MAHANTA EDUCATIONAL INSTITUTION  AKMEI ,49   LAXMI BAZAR ROAD  KARIMGANJ 788710,SECONDARY EDUCATION,20,852,1,25-29
17116,OFFICE GRIHA SINGH BRICK INDUSTRY,79   SAIDAMBAR PT 2 788733,MANUFACTURE OF BRICKS,6,239,3,25-29
17248,CENTRAL PUBLIC SCHOOL,02   NH 44  PATHERKANDI 788724,SECONDARY EDUCATION,20,852,2,25-29
17249,GOOMBIRA TEA COMPANY,28 1   NIVIA SAYRAGI 788737,OFFICE ADMINISTRATIVE AND SUPPORT ACTIVITES,19,821,2,25-29
17428,HIGHBROW,L B ROAD  KARIMGANJ 788710,EDUCATION SUPPORT ACTIVITIES,20,855,1,30-99
17429,BIPIN PAUL VIDYA NIKETAN,18   BIPIN PAUL ROAD  SORAKURI 788710,SECONDARY EDUCATION,20,852,1,30-99
17430,EXCISE OFFICE,4   MAIN ROAD  KARIMGANJ 788710,SUPPORT ACTIVITIES FOR TRANSPORTATION,19,821,1,30-99
17591,CHARGOLA PUBLIC H S  SCHOOL BAZARGHAT BAZARGHAT,79   BAZARGHAT 788733,SECONDARY EDUCATION,20,852,1,30-99
17592,BABY LAND ENGLISH HIGH SCHOOL,RAMANI ROAD  KARIMGANJ 788710,SECONDARY EDUCATION,20,852,9,30-99
17593,BHANGA H S  SCHOOL,C 16   STATION ROAD  KANKALASH PT I 788701,SECONDARY EDUCATION,20,852,1,30-99
17594,HAPPY BRICKS INDUSTRY,1 2   BHOGICHAGI 788712,MANUFACTURE OF BRICKS,6,239,2,30-99
17714,LUCKY BRICKS INDUSTRY,4   KALIGANJ ROAD  MOIDAMGARH 788711,MANUFACTURE OF BRICKS,6,239,2,30-99
17810,KARIMGANJ HIGH MADRASSA,158   MAIN ROAD  KARIMGANJ 788170,SECONDARY EDUCATION,20,852,1,30-99
17888,SARASWATI VIDYA NIKETAN,7 2   BANKA DUTTA ROAD  KARIMGANJ 788710,HIGHER EDUCATION,20,853,2,30-99
17889,CHARGOLA VALEEY PUBLIC HIGHER SECONDARY SCHOOL,107 1   KRISHNA NAGAR 788736,SECONDARY EDUCATION,20,852,1,30-99
18008,RAJA BRICKS INDUSTRY,13 1   KALIGANJ ROAD  MOIDAMGARH 788711,MANUFACTURE OF BRICKS,6,239,2,30-99
18009,NEW DELUX BRICKS INDUSTRY,2   KARIMGANJ KALIGANJ ROAD 788711,MANUFACTURE OF BRICKS,6,239,2,30-99
18010,DELUX BRICKS INDUSTRY,3   KARIMGANJ KALIGANJ ROAD 788711,MANUFACTURE OF BRICKS,6,239,2,30-99
18011,S V COLLEGE,11   P W D  ROAD  LALKHIRA  SONAKHIRA 788725,HIGHER EDUCATION,20,853,1,30-99
18125,RAMKRISHNA NAGAR BLOCK PUBLIC HEALTH CENTRE,COLLEGE ROAD 788166,HOSPITAL ACTIVITIES WITHOUT ACCOMMODATION FACILITIES,21,861,1,30-99
18205,NEW NATIONAL BRICKS,5   MAIDAMBAR PT 2 788709,MANUFACTURE OF BRICKS,6,239,2,30-99
18273,ASIAN BRICKS INDUSTRY,4 1   BHOGICHAGI 788712,MANUFACTURE OF BRICKS,6,239,2,30-99
18274,RAILWAY H S SCHOOL,9   WARELESS COLONY 788806,SECONDARY EDUCATION,20,852,1,30-99
18419,PAUL BRICKS INDUSTRY,7   KALIGANJ ROAD  MOIDAMGARH 788711,MANUFACTURE OF BRICKS,6,239,2,30-99
18420,JAKARIA AHMED CONTRACTOR,52 1   FIRUHI 788710,CONSTRUCTIONS OF ROADS AND RAILWAYS,9,421,2,30-99
18499,RAHIT BRICKS INDUSTRY,27   ANIPUR PATH  HARINAGAR 788734,MANUFACTURE OF BRICKS,6,239,2,30-99
18566,ROY BRICKS,2   MAIDAMBAR PT 2 788709,MANUFACTURE OF BRICKS,6,239,3,30-99
18637,BHIKAM CHAND BALIKA VIDYALAYA,36   RAY NAGAR  KARIMGANJ 788711,SECONDARY EDUCATION,20,852,1,30-99
18744,A UNIT OF H A M M P T HOSPITAL,86   NIJ MALUA 788806,HOSPITAL ACTIVITIES,21,861,2,30-99
18801,MMMC GIRLS H S  SCHOOL,17 1   R K  MISSION ROAD  KARIMGANJ 788710,SECONDARY EDUCATION,20,852,1,30-99
18802,ASIAN BRICKS INDUSTRY,1 1   BHOGICHAGI 788712,MANUFACTURE OF BRICKS,6,239,2,30-99
18803,HOLY CHILDREN SCHOOL,80   VITOR BAZAR ROAD  PATHERKANDI 788724,SECONDARY EDUCATION,20,852,2,30-99
18850,HOLY CHILDREN SCHOOL,21   THANA ROAD  PATHERKANDI II 788724,SECONDARY EDUCATION,20,852,9,30-99
18851,RINA DEVI,03   BERAJAL 788722,MANUFACTURE OF NON METALLIC PRODUCTS,6,239,2,30-99
18885,ROWLAND MEMORIAL SCHOOL,21 1   CHURCH ROAD  KARIMGANJ 788710,SECONDARY EDUCATION,20,852,2,30-99
18886,RAILWAY HOSPITAL,77 1   BADARPUR 788806,HOSPITAL ACTIVITES,21,861,1,30-99
18968,SUNEY BRICKS INDUSTRY,12 1   KALIGANJ ROAD  MOIDAMGARH 788711,MANUFACTURE OF BRICKS,6,239,2,30-99
18969,LOVELY BRICKS MILL,136   BERAJAL 788722,MANUFACTURE OF BRICKS,6,239,2,30-99
18970,GOVT HIGHER SECONDARY SCHOOL,5 2   MAIN ROAD  KARIMGANJ 788710,SECONDARY EDUCATION,20,852,1,30-99
18971,AYALABARI TEA,69   FAKIR BAZAR 788712,MANUFACTURE  AND PROCESSING OF TEA,6,107,2,30-99
19026,AL AMIN ACADEMY,86   DAWAT NAGAR  CHAPNA  788806,SECONDARY EDUCATION,20,852,3,30-99
19063,NATIONAL BRICKS OFFICE GRIHA,1   MAIDAMBAR PT 2 788709,MANUFACTURE OF BRICKS,6,239,2,30-99
19064,SAHABAD BRICKS INDUSTRY,2   N H 44 788806,MANUFACTURE OF BRICKS,6,239,2,30-99
19116,GURU CHARAN HIGH SCHOOL JUNIOR COLLEGE,37   MASOLI PT I 788701,SECONDARY EDUCATION,20,852,3,30-99
19152,PATHERKANDI PRIMARY HEALTH CENTRE,146   KARIMGANJ   AGARTALA ROAD  PATHERKANDI 788806,HOSPITAL ACTIVITIES,21,861,1,30-99
19188,INDIAN REDCROSS SOCIETY,38   REDCROSS ROAD  KARIMGANJ 788710,SOCIAL WORK ACTIVITIES WITHOUT ACCOMODATION,21,889,7,30-99
19189,KHUSHI BRICKS INDUSTRY,3   BIDYANAGAR  M L A ROAD 788734,MANUFACTURE OF BRICKS,6,239,2,30-99
19190,RAM NARAYAN SINGH,04   BERAJAL 788722,MANUFACTURE OF NON METALLIC PRODUCTS,6,239,2,30-99
19247,NABIN CH COLLEGE,85   S T  ROAD  BADARPUR 788806,HIGHER EDUCATION,20,853,1,30-99
19344,S V VIDYANIKETAN H S SCHOOL  NILAMBAZAR,105   STAR ROAD  ISWARSHREE II 788718,SECONDARY EDUCATION,20,852,2,30-99
19391,ACTION BRICKS INDUSTRY,298   FAKIR BAZAR 788712,MANUFACTURE OF BRICKS,6,239,4,30-99
19443,SINGH BRICKS COMPANY,10 1   MAIDAMBAR PT 2 788709,MANUFACTURE OF BRICKS,6,239,3,30-99
19594,RAJNARAYAN SING,02   BERAJAL 788722,MANUFACTURE OF BRICKS,6,239,2,30-99
19614,P W D OFFICE,MAIN ROAD  KARIMGANJ 788710,CONSTRUCTIONS OF BUILDINGS,9,410,1,30-99
19635,BADARPUR ELECTRICAL SUB DIVISION OFFICE,89 1   S T  ROAD  BADARPUR 788806,OFFICE ADMINISTRATIVE AND SUPPORT ACTIVITIES,19,821,1,30-99
19636,CHIEF HEALTH OFFICE,75   BADARPUR 788806,HEAD OFFICE ACTIVITIES,18,701,1,30-99
19774,BASANTIPUR TEA COMPANY PRIVATE LTD,141   BASANTIPUR 788725,MANUFACTURE  AND PROCESSING OF TEA,6,107,4,30-99
19785,KARIMGANJ COLLEGE,41 1   STATION ROAD KARIMGANJ 788710,HIGHER EDUCATION,20,853,1,30-99
19822,GANESH PLANTATION PVT  LTD,88   GHALITIKAR PT II 788733,MANUFACTURE  AND PROCESSING OF TEA,6,107,4,100-199
19823,BASANTI DAS CHOWDHURY LION BRICKS CO LTD,19   LAXMI BAZAR 788709,MANUFACTURE OF BRICKS,6,239,2,100-199
19839,MANIK NAGAR TEA GARDEN,80   MANIK NAGAR 788166,MANUFACTURE AND PROCESSING OF TEA,6,107,2,100-199
19847,LATU BRICKS INDUSTRY,49   N H 44 788806,MANUFACTURE OF BRICKS,6,239,4,100-199
19937,GIRISHGANJ P H C,35 1   FAKIR BAZAR ROAD 788709,HOSPITAL ACTIVITIES WITHOUT ACCOMMODATION FACILITIES,21,861,1,100-199
20014,BISHNU TEA INDUSTRY PRIVATE LIMITED DULLABHASARA  DIST  KARIMGANJ,121   BARABAZARA ROAD  DULLABCHERRA 788736,MANUFACTURE OF TEA,6,107,4,100-199
20097,MAKANDA CHRISTIAN LEPROSY   GENERAL HOSPITAL,101 1   MAKANDARBOND 788727,HOSPITAL ACTIVITIES,21,861,9,100-199
20133,BARAK VALLEY CEMENTS LTD  DEVENDRANAGAR ,102    JUMBOSTI  P O  BADARPURGHAT DIST  KARIMGANJ 788803,MANUFACTURE OF NON  METTALLIC PRODUCTS,6,239,4,200-499
20184,KALINAGAR CHAA BAGAN  PT 1,40 1   RAMKRISHNA NAGAR 788166,MANUFACTURE AND PROCESSING OF TEA,6,107,3,200-499
20220,HATIKHIRA TEA GARDEN,183   HATIKHIRA  788726,MANUFACTURE  AND PROCESSING OF TEA,6,107,4,200-499
20237,BUBRIGHT TEA FACTORY,139   PATHERKANDI 788724,MANUFACTURE  AND PROCESSING OF TEA,6,107,4,>=500
