S.No.,Name of the Establishment,Address,Major Activity Description,Broad Activity Code,NIC,Owner ship Code,Emplo yment Class Interval
3441,GOVT BOYS HIGH SCHOOL,Ganderbal  Chunt Valiwar   Ganderbal 191201,EDUCATION,20,852,1,25-29
3442,J K BANK NUNNER,Ganderbal  Chunt Valiwar   Ganderbal,BANK,16,641,1,10-14
3443,EVERGREEN HIGH SCHOOL NUNNER,Ganderbal  Chunt Valiwar   Ganderbal 191201,EDUCATION,20,852,1,20-24
3444,GOVT GIRLS MIDDLE SCHOOL NUNNER,Ganderbal  Chunt Valiwar   Ganderbal 191201,EDUCATION,20,852,1,10-14
3445,GOVT GIRLS HIGHER SECONDARY SCHOOL,Ganderbal  Chunt Valiwar   Ganderbal 191201,EDUCATION,20,852,1,20-24
3446,GOVT MIDDLE SCHOOL,130    Ganderbal Bagh Mahanand Ganderbal  191201,EDUCATION,20,852,1,10-14
3447,RATHER CRUSHER,Ganderbal  Bagh Mahanand Ganderbal,STONE CRUSHER,6,239,2,10-14
3448,GOVT BOYS HIGH SCHOOL ARCH,2    Ganderbal  Bena Hama   Ganderbal 191201,EDUCATION,20,852,1,15-19
3449,GOVT GIRLS HIGH SCHOOL,Ganderbal  Mani Gam   Ganderbal 191131,EDUCATION,20,852,1,15-19
3450,HYDERIA MODEL SCHOOL,Ganderbal  Mani Gam   Ganderbal 191131,EDUCATION,20,852,2,10-14
3451,TEMPLE KHIR BAWANI,Ganderbal  Mani Gam   Ganderbal,RELIGIOUS ACTIVITIES,23,949,7,20-24
3452,JAMMU AND KASHMIR BANK,Ganderbal  Mani Gam   Ganderbal,FINANCIAL ACTIVITIES,16,641,1,10-14
3453,GOVT BOYS HIGH SCHOOL,123 1 2 3  Ganderbal  Mani Gam   Ganderbal 191131,EDUCATION,20,852,1,20-24
3454,ZONAL EDUCATION OFFICE,97 1     Ganderbal Mani Gam Ganderbal  191131,EDUCATION,20,852,1,10-14
3455,JAMMU AND KASHMIR BANK,Ganderbal  Mani Gam   Ganderbal,BANKING SERVICES,16,641,1,10-14
3456,RAIHAN COLLEGE OF EDUCATION,Ganderbal  Mani Gam   Ganderbal,EDUCATION,20,854,2,10-14
3457,GOVT HIGH SCHOOL SHAIRPATHREE,109    Ganderbal Rapore   Ganderbal 191131,EDUCATION,20,852,1,10-14
3458,HANFIA MODEL HIGH SCHOOL SEHPORA,110    Ganderbal Rapore   Ganderbal 191131,EDUCATION,20,852,1,10-14
3459,JAWAHAR NOVODIYA WIDYA SCHOOL,65    Ganderbal Badam Pora Ganderbal  191131,EDUCATION,20,852,1,30-99
3460,GOVT HIGH SCHOOL SHALBUGH,66    Ganderbal Badam Pora Ganderbal  191131,EDUCATION,20,852,1,15-19
3461,MANZOOR WICKER WORKER,Ganderbal  Zazna Ganderbal,WICKER WORK,6,143,2,20-24
3462,BHAT WILLOW WORKER,Ganderbal  Ahan Ganderbal,WICKER WORK,6,143,3,20-24
3463,J K BANK BRANCH CHUNDINA,Ganderbal  Was Kora   Ganderbal,BANKING SERVICES,16,641,1,10-14
3464,PRIMARY HEALTH CENTRE,71    Ganderbal  Was Kora   Ganderbal 191131,HEALTH CARE,21,861,1,10-14
3465,DASTIGREE PUBLIC SCHOOL,72 1     Ganderbal Was Kora Ganderbal  191131,EDUCATION,20,852,9,10-14
3466,GOVT GIRLS HIGH SCHOOL,93    Ganderbal  Was Kora   Ganderbal 191131,EDUCATION,20,852,1,15-19
3467,GOVT BOYS MIDDLE SCHOOL HARRAN,17  NEAR PANCHAYAT HOUSE  Ganderbal Goza Hama Ganderbal  191131,EDUCATION,20,852,1,10-14
3468,HANFIA MODEL HIGHER SECONDARY SCHOO,43  COMMITTE HALL HARRAN Ganderbal  Goza Hama   Ganderbal 191131,EDUCATION,20,853,6,25-29
3469,PRIVATE HIGH SCHOOL GUND REHMAN,24    Ganderbal Batvena   Ganderbal 191131,EDUCATION,20,852,9,15-19
3470,GOVT HIGH SCHOOL KUJAR,92    Ganderbal Nawab Bag Ganderbal  191131,EDUCATION,20,852,1,10-14
3471,FOREST PROTECTION OFFICE,71    Ganderbal Nawab Bag Ganderbal  191131,FOREST PROTECTION,3,24,1,30-99
3472,GOVT MIDDLE SCHOOL GADOORA,Ganderbal  Khan Pora   Ganderbal,EDUCATION,20,852,1,10-14
3473,SHAH TIMBER TRADERS,Wakura Ganderbal,SALE OF TIMBER,12,471,2,10-14
3474,PRIMARY HEALTH CENTRE KACHAN,Wakura Ganderbal  191131,HEALTH SERVICES,21,861,7,20-24
3475,GOVT BOYS HIGH SCHOOL GOGJI GUND,Ganderbal Latiwaza   Ganderbal 191121,EDUCATION,20,852,1,10-14
3476,PUNJABI DABHA,Ganderbal  Wail  CT    Ganderbal,TEA AND FOOD SHOP,14,562,2,15-19
3477,SULTANUL ARIFEEN MEMORIAL,71    Ganderbal  Wail  CT    Ganderbal 191201,EDUCATION,20,852,2,10-14
3478,CARPET CENTRE,Ganderbal  Wail  CT    Ganderbal,MAKING OF CARPETS,6,329,1,20-24
3479,HIGH SCHOOL GUTLIBAGH,58    Ganderbal  Wail  CT    Ganderbal 191201,EDUCATION,20,852,1,20-24
3480,GOVT BOYS MIDDLE SCHOOL BABAWAYIL,Ganderbal  Wail  CT    Ganderbal 191201,EDUCATION,20,851,3,10-14
3481,GOVT MIDDLE SCHOOL WAYILWUDDER,Ganderbal  Wail  CT    Ganderbal 191201,EDUCATION,20,851,1,10-14
3482,GOVT GIRLS HIGH SCHOOL,147 1     Lar  Qasba Lar   Ganderbal,EDUCATION,20,852,1,10-14
3483,HANFIA MODEL HIGH SCHOOL,149 1     Lar  Qasba Lar   Ganderbal 191131,EDUCATION,20,852,2,10-14
3484,GOVT MIDDLE SCHOOL,163 1     Lar  Qasba Lar   Ganderbal 191131,EDUCATION,20,852,1,10-14
3485,GOVT PRIMARY HEALTH CENTRE,189 1     Lar  Qasba Lar   Ganderbal 191131,HOSPITAL ACTIVITIES,21,861,1,30-99
3486,GOVT BOYS HIGHER SECONDARY SCHOOL,188    Lar  Qasba Lar Ganderbal  191131,EDUCATION,20,852,1,20-24
3487,SOCIAL WELFARE OFFICE LAR,4 3     Lar  Qasba Lar   Ganderbal 191131,SOCIAL ACTIVITY,19,821,9,10-14
3488,PUBLIC MIDDLE SCHOOL LAR,18    Lar  Qasba Lar Ganderbal  191131,EDUCATION,20,852,2,10-14
3489,PUBLIC HIGH SCHOOL WATLAR,90    Lar  Bagh Mahanand Ganderbal  191131,EDUCATION,20,852,2,20-24
3490,HAROON CEMENT FACTORY,Lar  Chanthan Gulab Pora Ganderbal,OTHER MANUFACTURING,6,239,4,200-499
3491,SHAHEEN PUBLIC HIGH SCHOOL,Lar  Mani Gam Ganderbal  191202,EDUCATION,20,852,9,20-24
3492,GOVT HIGHER SECONDARY SCHOOL MANIGA,Lar  Mani Gam Ganderbal  191202,EDUCATION,20,853,1,30-99
3493,GOVT GIRLS HIGH SCHOOL MANIGAM,Lar  Mani Gam Ganderbal  191202,EDUCATION,20,852,1,25-29
3494,GOVT MIDDLE SHOOL DURPORA,Lar  Mani Gam Ganderbal  191202,EDUCATION,20,852,1,10-14
3495,GOVT PRIMARY HEALTH CETRE MANIGAM,Lar  Mani Gam Ganderbal  191202,HEALTH SERVICE,21,861,1,20-24
3496,EMBRIODARY CENTRE YAMGOORA,12 1     Lar  Yan Goora   Ganderbal 191131,EMBRIODARY ACTIVITY,6,131,1,20-24
3497,GOVT HIGH SCHOOL KONDBAL,102    Lar  Yan Goora   Ganderbal 191131,EDUCATION,20,852,1,20-24
3498,GOVT MIDDLE SCHOOL KACHBAGH KONDBAL,103    Lar  Yan Goora   Ganderbal 191131,EDUCATION,20,851,1,10-14
3499,SANIK SCHOOL MANASBAL,Lar  Yan Goora Ganderbal,EDUCATION,20,852,1,30-99
3500,MUSLIM SALFIA MODEL SCHOOL,Lar  Badam Pora Ganderbal  193501,EDUCATION,20,852,9,20-24
3501,STARLAND HIGHER SECONDARY SCHOOL,Lar  Badam Pora Ganderbal  193501,EDUCATION,20,853,2,20-24
3502,BED COLLEGE QAMARIYA BADAMPORA,Lar  Badam Pora Ganderbal,EDUCATION,20,854,2,15-19
3503,ROYAL PUBLIC HIGHER SECONDARY,Lar  Badam Pora Ganderbal  193501,EDUCATION,20,852,2,25-29
3504,GOVT MIDDLE SCHOOL GUZHAMA,34    Lar  Goza Hama   Ganderbal 191131,EDUCATION,20,851,1,10-14
3505,GOVT HIGH SCHOOL BATWEENA,21    Lar  Batvena Ganderbal  191131,EDUCATION,20,852,1,15-19
3506,GOUSIA PUBLIC MODEL EDUCATION,60    Lar  Batvena Ganderbal  193501,EDUCATION,20,852,7,10-14
3507,GOVERMENT PRIMARY HEALTH CARE,61    Lar  Batvena Ganderbal  193501,HEALTH CARE,21,861,1,15-19
3508,ZIA EDUCATION INSTITUTE,74    Lar  Batvena Ganderbal  193501,EDUCATION,20,852,2,15-19
3509,KIRMANIA MODEL HIGH SCHOOL,93    Lar  Batvena Ganderbal  193501,EDUCATION,20,852,1,15-19
3510,GOVT GIRLS HIGH SCHOOL WAKURA,40    Lar  Wakura Ganderbal  191131,EDUCATION,20,852,1,20-24
3511,GOVT BOYS HIGHER SECONDARY SCHOOL,34    Lar  Wakura Ganderbal  191131,EDUCATION,20,852,1,20-24
3512,GOVT COMMUNITY HEALTH CENTRE,76    Lar  Wakura Ganderbal  191131,HOSPITAL ACTIVITY,21,861,1,20-24
3513,J K BANK WAKURA,Lar  Wakura Ganderbal,BUSINESS SUPPORT SERVICES,16,641,1,10-14
3514,TAILOR SHOP OF MAQBOOL,Lar  Wahid Pora Ganderbal,TAILORING SERVICES,6,151,5,10-14
3515,STONE CRUSHER,Lar  Wahid Pora Ganderbal,STONE CRUSHER,6,239,5,30-99
3516,BHAT STONE CRUSHER,Lar  Wahid Pora Ganderbal,STONE CRUSHER,6,239,3,30-99
3517,BHAT STONE CRUSHER,Lar  Wahid Pora Ganderbal,GRINDING OF STONES,5,81,2,200-499
3518,DAR AND MALLA STONE CRUSHER,Lar  Wahid Pora Ganderbal,GRINDING OF STONES,6,239,3,200-499
3519,GOVT BOYS MIDDLE SCHOOL DAB,27    Lar  Dab Ganderbal  191131,EDUCATION,20,852,1,20-24
3520,NATIONAL FISH SEED FARM MANASBAL,Lar  Safa Pora  CT    Ganderbal,FISH SEED PRIVATE SECTOR,4,31,1,20-24
3521,GOVT HIGHER SECONDARY SCHOOL,53 1     Lar  Safa Pora  CT  Ganderbal  193504,EDUCATION,20,852,1,25-29
3522,GOVT HIGH SCHOOL SAFAPORA,Lar  Safa Pora  CT    Ganderbal 193504,EDUCATION,20,852,1,20-24
3523,GOVT PRIMARY HEALTH CENTRE SAFAPORA,Lar  Safa Pora  CT    Ganderbal 193504,HEALTH SERVICE,21,861,1,15-19
3524,P4 BASIC SILK WORM SEED CENTRAL,Lar  Safa Pora  CT    Ganderbal 193504,MINISTRY OF TEXTILES,19,821,1,30-99
3525,POST OFFICE SAFAPORA,5 1     Lar  Safa Pora  CT    Ganderbal 193504,POST OFFICE,13,531,1,10-14
3526,HANFIA ISLAMIA HIGH SCHOOL SAFAPORA,46    Lar  Safa Pora  CT    Ganderbal 193504,EDUCATION,20,852,2,10-14
3527,JAMMU AND KASHMIR BANK SAFAPORA,Lar  Safa Pora  CT    Ganderbal,SOCIAL SERVICE  BANK ,16,641,1,15-19
3528,ISLAMIA MODEL HIGH SCHOOL SAFAPORA,63    Lar  Safa Pora  CT    Ganderbal 193504,EDUCATION,20,852,2,15-19
3529,STATE BANK OF INDIA,Ganderbal Ganderbal  MC  Ganderbal,BANKING SERVICES,16,641,1,15-19
3530,NEW DREAM LAND HIGHER SECONDARY,27  JAMIA MASJID LANE  Ganderbal Ganderbal  MC  Ganderbal  191201,EDUCATION,20,853,9,30-99
3531,DISTRICT COURT COMPLEX,Ganderbal Ganderbal  MC  Ganderbal,GOVT OFFICE,19,821,1,25-29
3532,WAHEED MEMORIAL EDUCATIONAL,59  NEAR MASJID BEEHAMA Ganderbal Ganderbal  MC  Ganderbal  191201,EDUCATION,20,852,9,20-24
3533,TEHSIL OFFICE GANDERBAL,71  SUMO STAND LANE GANDERBAL Ganderbal Ganderbal  MC  Ganderbal  191201,TEHSIL OFFICE,19,821,1,15-19
3534,ASCENT HIGH SCHOOL,Ganderbal Ganderbal  MC  Ganderbal  191201,EDUCATION,20,852,2,10-14
3535,GOVT MIDDLE SCHOOL,WATER CANAL LANE  Ganderbal Ganderbal  MC  Ganderbal  191201,EDUCATION,20,851,1,10-14
3536,CHIEF EDUCATION OFFICE GANDERBAL,Ganderbal Ganderbal  MC  Ganderbal  191201,EDUCATION,20,852,1,10-14
3537,COMPUTER ORIENTED EDUCATION,Ganderbal Ganderbal  MC  Ganderbal  191201,EDUCATION,20,852,2,15-19
3538,GOVT POLYTECHNIC COLLEGEGANDERB AL,Ganderbal Ganderbal  MC  Ganderbal,EDUCATION,20,854,1,15-19
3539,ELECTRIC MAINTENANCE AND ENGINERING,Ganderbal Ganderbal  MC  Ganderbal  191201,ELECTRICITY MAINTENANCE,7,351,1,20-24
3540,INDUSTRIAL TRAINING INSTITUTE,Ganderbal Ganderbal  MC  Ganderbal,TECHNICAL EDUCATION,20,854,1,25-29
3541,UNITED WIRE INDUSTRIES,Ganderbal Ganderbal  MC  Ganderbal,ELECTRIC WIRE MAKING,6,273,1,25-29
3542,DEAR FOOD PRODUCTS INDUSTRIAL,Ganderbal Ganderbal  MC  Ganderbal,FOOD PRODUCTS,6,107,1,30-99
3543,CHINAR KASHMIR TEXTILES,Ganderbal Ganderbal  MC  Ganderbal,MAKING OF PASHMINA SHAWLS,6,131,1,30-99
3544,MATOO SONS GROUP OF INDUSTRIES,Ganderbal Ganderbal  MC  Ganderbal,MAKING OF SPICES,6,107,1,30-99
3545,JEHANGIR TEXTILES,Ganderbal Ganderbal  MC  Ganderbal,YARN MAKING,6,131,1,10-14
3546,AADIL COTTAGE INDUSTRIAL GANDERBAL,Ganderbal Ganderbal  MC  Ganderbal,ARI EMBRIODIRY,6,139,1,20-24
3547,M S QADRI COTTAGE INDUSTRIES,Ganderbal Ganderbal  MC  Ganderbal,Embroidery WORKS,6,139,1,20-24
3548,NEW SHANDAR TEXTILE INDUSTRIES,Ganderbal Ganderbal  MC  Ganderbal,MAKING OF WOOLEN THREAD,6,131,1,15-19
3549,GOVT SUB DISTRICT HOSPITAL,1    Ganderbal Ganderbal  MC  Ganderbal  191201,HEALTH CARE,21,861,1,100-199
3550,CHILD DEVELOPMENT PROJECT OFFICER,28 2     Ganderbal Ganderbal  MC  Ganderbal  191201,GOVT OFFICE,19,821,1,10-14
3551,LEARN HALL COACHING CENTRE,Ganderbal Ganderbal  MC  Ganderbal,EDUCATION,20,854,2,10-14
3552,OXFORD PUBLIC SCHOOL,28 9     Ganderbal Ganderbal  MC  Ganderbal  191201,EDUCATION,20,852,2,20-24
3553,ANGANWARI SUPPLY STORE,28 4     Ganderbal Ganderbal  MC  Ganderbal  191201,FOOD STORE,13,521,1,15-19
3554,RANGE OFFICE FOREST DEPARTMENT,6    Ganderbal Ganderbal  MC  Ganderbal  191201,GOVT OFFICE,19,821,1,15-19
3555,ALAMDAR PUBLIC SCHOOL,10 1     Ganderbal Ganderbal  MC  Ganderbal  191201,EDUCATION,20,852,2,15-19
3556,NEW TINY HEARTS PUBLIC SCHOOL,22 8     Ganderbal Ganderbal  MC  Ganderbal  191201,EDUCATION,20,852,2,20-24
3557,GOVT FOREST DEPARTMENT,23    Ganderbal Ganderbal  MC  Ganderbal  191201,GOVT ORFFICE,19,821,1,25-29
3558,BLOCK DEVELOPMENT OFFICE,46    Ganderbal Ganderbal  MC  Ganderbal  191201,GOVT OFFICE,19,821,1,25-29
3559,GOVT BOYS HIGHER SECONDARY SCHOOL,48    Ganderbal Ganderbal  MC  Ganderbal  191201,EDUCATION,20,853,1,30-99
3560,CHIEF ANIMAL HUSBANDARY OFFICE,Ganderbal Ganderbal  MC  Ganderbal,VETENARY SERVICES,18,750,1,30-99
3561,GOVT BOYS MIDDLE SCHOOL,63 1     Ganderbal Ganderbal  MC  Ganderbal  191201,EDUCATION,20,852,1,15-19
3562,HORTICULTURE OFFICE,64    Ganderbal Ganderbal  MC  Ganderbal  191201,AGRICULTURE ACTIVITIES,1,13,1,30-99
3563,PUBLIC HEALTH ENGINEERING OFFICE,Ganderbal Ganderbal  MC  Ganderbal,WATER SUPPLY,19,821,1,30-99
3564,HORTICULTURE MARKETING OFFICE,69    Ganderbal Ganderbal  MC  Ganderbal  191201,AGRICULTURE ACTIVITIES,1,13,1,10-14
3565,MIR TIMBER DEPOT,Ganderbal Ganderbal  MC  Ganderbal,SAWING AND SALE OF TIMBER,6,162,2,10-14
3566,PUNJAB NATIONAL BANK,Ganderbal Ganderbal  MC  Ganderbal,BANKING SERVICES,16,641,2,10-14
3567,G G COACHING CENTRE,Ganderbal Ganderbal  MC  Ganderbal,EDUCATION,20,854,2,10-14
3568,GOVT MIDDLE SCHOOL,14 PANCHAYATGHAR Ganderbal Ganderbal  MC  Ganderbal  191201,EDUCATION,20,852,2,15-19
3569,SIDIQ MEMORIAL EDUCATIONAL INSTITUT,Ganderbal Ganderbal  MC  Ganderbal  191201,EDUCATION,20,852,2,15-19
3570,GOVT MIDDLE SCHOOL GANGERHAMMA,47    Ganderbal Ganderbal  MC  Ganderbal  191201,EDUCATION,20,852,1,10-14
3571,GOVT PHYSICAL COLLEGE GANDERBAL,Ganderbal Ganderbal  MC  Ganderbal  191201,PHYSICAL EDUCATION,20,855,1,30-99
3572,MUNICIPLITY OFFICE GANDERBAL,Ganderbal Ganderbal  MC  Ganderbal,GOVT OFFICE,19,821,1,30-99
3573,GOVT DEGREE COLLEGE GANDERBAL,Ganderbal Ganderbal  MC  Ganderbal,HIGHER EDUCATION,20,854,1,30-99
3574,QAMARIYA MODEL HIGHER SECONDARY SHO,4    Ganderbal Ganderbal  MC  Ganderbal  191201,EDUCATION,20,853,9,30-99
3575,SULTANIA HIGH SCHOOL SALOORA,Ganderbal Ganderbal  MC  Ganderbal  191201,EDUCATION,20,852,9,15-19
3576,GOVT HIGH SCHOOL MALSHAHI BAGH,Ganderbal Ganderbal  MC  Ganderbal  191201,EDUCATION,20,852,1,15-19
3577,GOVT BOYS HIGH SCHOOL,Ganderbal Ganderbal  MC  Ganderbal  191201,EDUCATION,20,852,1,15-19
