S.No.,Name of the Establishment,Address,Major Activity Description,Broad Activity Code,NIC,Owner ship Code,Emplo yment Class Interval
12,OFFICE COAL MINES SECL BILASPUR,Bijuri OFFICE COAL MINES SECL BILASPUR Korja Coliery Bijuri 484440,COAL MINES,5,51,1,>=500
16,Jhiriya U G Koyla khadan,Dumarkachar  Jhiriya U G Koyla khadan Dumarkachar  484446,CAOL SUPPLY WORK,6,239,4,>=500
24,Bahera bandh undermins project,Kothi road bijuri Bahera bandh undermins project Kothi road bijuri 484440,CAOL KA KHANAN AND UTKHANAN,5,51,1,>=500
30,Malga coliery koyla khadan,Malga coliery  Malga coliery koyla khadan Malga coliery  484446,COAL SUPPLY WORK,6,239,4,>=500
35,9 10 khadan,Kotma marg pasan 9 10 khadan  kotma marg pasan 484336,COAL WORK,5,51,1,>=500
36,bijuri bhomigat khadan,Bank Road Bijuri bijuri bhomigat khadan Bijuri 484440,MINING WORK,5,51,1,>=500
43,Meera Inkline koyla khadan,lahsui camp Meera Inkline koyla khadan lahsui camp 484334,COAL MINES,5,51,1,>=500
51,Sub Area office jamuna kotma area,Jamuna coliery pasan Sub Area office jamuna kotma area Jamuna coliery pasan 484444,MINES,5,51,4,>=500
115,1 2mins M T K  office jamuna kotma area,Jamuna coliery pasan 1 2mins M T K  office jamuna kotma area Jamuna coliery pasan 484444,COAL MINES,5,51,4,200-499
165,office regioanl work shop,Bijuri office regioanl work shop Bijuri 484440,REGIOANAL WORK SHOP,6,259,1,200-499
202,Orient paper mil costic soda unit,amlai  Orient paper mil costic soda unit  amlai 484117,KASTIK SODA MADE WORK,6,170,2,200-499
221,OFFICE coliery MANAGER GOVINDA COL,Kotma coliery road OFFICE coliery MANAGER GOVINDA COL Kotma coliery road 484336,COAL MINES,5,51,1,200-499
375,Nagar palika pasan,Jamuna marg pasan Nagar palika pasan Jamuna marg pasan 484336,SOCAIL WORK,21,881,1,100-199
535,Gm office Jamuna  kotma area,Jamuna coliery pasan Gm office Jamuna  kotma area Jamuna coliery pasan 484444,COAL MINES WORK,5,51,4,100-199
551,Private Ltd katni,Chachandih Private Ltd katni Chachandih 484881,MINERAL,6,107,2,100-199
689,Regional Hospital pasan,Kotma marg pasan Regional Hospital pasan  Kotma marg pasan  484336,MEDICINE,21,861,1,30-99
827,Regional workshop,Jamuna coliery pasan Regional workshop Jamuna coliery pasan 484444,VHICLE MAINTENANCE,10,454,4,30-99
1038,Sant josef H S  School,Bijuri Sant josef H S  School  Bijuri 484440,EDUCATION,20,851,9,30-99
1444,Green land public School,manendragarh road changeri  Green land public School manendragarh road changeri  484334,GREEN LAND PUBLIC SCHOOL PRIVATE,20,851,1,30-99
1711,M P P G C L Hospital,Chachai M P P G C L Hospital Chachai 484220,TREATMENT WORKS OF HUMAN,21,861,1,30-99
1884,Govt Exce H S S Kotma,RAILWAT STATION ROAD Govt Exce H S S Kotma RAILWAT STATION ROAD 484334,EDUCATION,20,852,1,30-99
1949,R C  English medium H S S ,Chachai R C  English medium H S S  Chachai 484220,EDUCATION WORK,20,852,9,30-99
2164,shiksha parisad saraswati school,Bijuri shiksha parisad saraswati school Bijuri 484440,EDUCAION,20,852,9,30-99
2165,Sub AGM Mins Rajnagar R O  Subarea,Banganwa Sub AGM Mins Rajnagar R O  Subarea Banganwa 484446,COAL WORK OFFICE,5,99,4,30-99
2166,Gayaprasad Ston crasher,Bartola Gayaprasad Ston crasher Bartola 484881,STONE WORKS,6,239,2,30-99
2287,community health center,Kiragi community health center Kiragi 484881,HEALTH TRATMENT,21,861,1,30-99
2346,LIC OFFICE KOTMA,LIC OFFICE KOTMA LIC OFFICE KOTMA LIC OFFICE KOTMA 484334,LIC WORK,16,651,1,30-99
2347,Central School,Jamuna coliery pasan Central School Jamuna coliery pasan 484444,EDUCATION,20,852,1,30-99
2580,sarswati girls High sec  school kotma,Kotma sarswati girls High sec  school kotma Kotma 484334,,20,851,3,30-99
2581,SANT JOSHEF SCHOOL MANENDRA GARH RO,Kotma SANT JOSHEF SCHOOL MANENDRA GARH RO Kotma 484334,EDUCATION,20,851,9,30-99
2582,Civil office Jamuna  kotma area,Jamuna kotma area Civil office Jamuna  kotma area Jamuna  kotma area 484444,BHWAN MAINTENANCE RELATED WORK,9,410,4,30-99
2735,J E M H S School,Jamuna coliery J E M H S School Jamuna coliery  484444,EDUCATION,20,852,9,30-99
2736,S E C L  Hospital,Jamuna coliery pasan S E C L  Hospital Jamuna coliery pasan 484444,MEDICINE IN HUMAN,21,861,4,30-99
3217,nagar palika office bijuri,Bijuri nagar palika office bijuri Bijuri 484440,NIRMAN WORK AND SOCIAL MATTER WORK,21,881,1,30-99
3218,Bal Shiksha Niketan H S School ,Kotma coliery pasan Bal Shiksha Niketan H S School  Kotma coliery pasan 484444,EDUCATION,20,852,9,30-99
3465,SARASWATI UCHHTAR MADHYMIK CHACHAI,25 N C PAHADI KE PASS SARASWATI UCHHTAR MADHYMIK CHACHAI 25 N C PAHADI KE PASS kelahari 484220,TEACHING SCHOOL,20,852,9,25-29
3466,SARSWATI High sec School,Chachai SARSWATI High sec School Chachai 484220,EDUCATION WORK,20,853,9,25-29
3610,Navjyoti English medium School,Kiragi Navjyoti English medium School  Kiragi 484881,EDUCATION WORK,20,852,2,25-29
3808,Sub Area office Bijuri coliery,Bijuri Sub Area office Bijuri  coliery Bijuri 484440,OFFICE WORK,5,51,1,25-29
3809,City automobiles,Manendra Road Kotma City automobiles Kotma 484334,TWO WHILER VHICLE KA SELL,10,454,2,25-29
4090,regional store,w no 9 bijuri regional store Bijuri 484440,SAMAGRI KA AADAN AND PRADAN COLLIER,5,51,1,25-29
4091,Girls H S School,Lakhaura Girls H S School  Lakhaura 484881,EDUCATION,20,852,1,25-29
4300,GOVT GIRLS SCHOOL KOTMA,kotma  GOVT GIRLS SCHOOL KOTMA kotma  484334,EDUCATION,20,851,1,20-24
4534,OFFICE AKIKRIT JAL PRADAY YOJNA,Govinda coliery road kotma OFFICE AKIKRIT JAL PRADAY YOJNA Govinda coliery road kotma 484336,JAL AAPOORTI AND MANAGEMENT SAMBAND,8,360,1,20-24
4535,S B I br Anuppur,Anuppur S B I br Anuppur Anuppur 484220,BANKING WORK,16,641,1,20-24
4830,govt H S chunnilal kediya school bijuri,I MAIN ROAD BIJURI govt H S chunnilal kediya school bijuri Bijuri 484440,EDUCATION,20,851,1,20-24
4831,ELECTRICITY MANUFACTURE CENTER CHAChai,Kelahari ELECTRICITY MANUFACTURE CENTER CHAChai Kelahari 484220,ELECTRICITY WORK,7,351,3,20-24
4832,SARSWATI HIGH Sec  SCHOOL PATORA TOLA,Anuppur SARSWATI HIGH Sec  SCHOOL PATORA TOLA Anuppur 484220,EDUCTION WORK,20,851,9,20-24
4833,ELECTRICITY Emprovement CENTER,Chachai ELECTRICITY Emprovement CENTER  Chachai 484220,ELECTICITY WORK,7,351,3,20-24
4834,MPKVCL Consumer Service center,Chachai MPKVCL Consumer Service center Chachai 484220,ELECTRICITY BILL RELATED WORK,7,351,1,20-24
4835,Govt Higher Sec school,Damehdhi Govt Higher Sec school  Damehdhi 484881,EDUCATION,20,852,1,20-24
5151,Mahendra and compny,Kotma Mahendra and compny  Kotma 484334,STONE KRESER CEMENT SARIYA SELL,12,472,2,20-24
5152,RAMAAVTAR PETROL PUMP,kotma  RAMAAVTAR PETROL PUMP kotma 484334,PETROL AND DEISEL SELL,12,473,2,20-24
5617,Kevai swasahayata samooh,Baihatola Kevai swasahayata samooh Baihatola 484334,SWASAHAYATA SAMOOH,21,881,5,20-24
5618,community health center,Bhalumada rodad kotma  community health center Bhalumada rodad kotma  484334,HEALTH FACILITY,21,861,1,20-24
5619,CMOH Health depat,Anuppur CMOH Hospital Anuppur 484220,HEALTH RELATED WORK,21,869,1,20-24
5620,Mathur Ston crasher,Bartola Mathur Ston crasher Bartola 484881,STONE CRACKS WORK,6,239,2,20-24
5621,Sheetal Swasahyata samooh,Basaniha Sheetal Swasahyata samooh Basaniha 484881,SWA SAHAYATA SAMOOH MID DAY MIL,14,562,5,20-24
5959,ADARSH SARVODYA HIGHER SECONDARY SC,Jamuna coliery pasan ADARSH SARVODYA HIGHER SECONDARY SC Jamuna coliery pasan 484444,EDUCATION,20,852,2,15-19
5960,Raghuvansh Ston crasher,Adhawar Raghuvansh Ston crasher Adhawar 484881,STONE KRESAR,6,239,2,15-19
6409,Khediya Petrol pump,Anuppur Khediya Petrol pump  Anuppur 484220,PETROL SUPPLY SHOP,12,473,2,15-19
6410,Govt boys H S S Rajnagar,Banganwa Govt boys H S S Rajnagar Banganwa 484446,EDUCATION WORK,20,852,1,15-19
6411,Higher Sec vidya mandir,Pasan  Higher Sec vidya mandir pasan  484336,EDUCATION,20,851,2,15-19
6412,kamla stone kresar harratola,Harratola kamla stone kresar harratola Harratola 484886,STONE WORKS,6,239,2,15-19
6413,Elctric pole manufacture agencyq,Bijouri Elctric pole manufacture agencyq Bijouri 484881,ELECTRIC WORK,6,261,2,15-19
6861,M P E B ELECTRICITY CENTER BIJURI,I MAIN ROAD BIJURI M P E B ELECTRICITY CENTER BIJURI Bijuri 484440,ELECTRICITY SELL AND MAINTENANCE,7,351,1,15-19
6862,GULAB SISHU SCHOOL,rest house road kotma GULAB SISHU SCHOOL rest house road kotma 484334,EDUCATION WORK,20,851,2,15-19
6863,DUGESWARI HIGHER SECONDARY SCHOOL,Anuppur DUGESWARI HIGHER SECONDARY SCHOOL Anuppur 484220,EDUCATION WORK,20,851,2,15-19
6864,Heera Furniture,Anuppur Heera Furniture Anuppur 484220,WOODS MANUFACTURE THINGS,6,310,2,15-19
6865,Govt H S School,amlai  Govt H S School amlai  484117,EDUCATION WORK,20,852,1,15-19
6866,Gest House,Kotma coliery pasan Gest House  Kotma coliery pasan 484336,REST HOUSE,14,551,1,15-19
6867,sharmik adarsh bal mandir H S S kotma coliery,Kotma coliery pasan sharmik adarsh bal mandir H S S kotma coliery Kotma coliery pasan 484336,EDUCATION,20,852,1,15-19
7433,shala prabandhan samiti samooh,Jamunihatola  shala prabandhan samiti samooh Jamunihatola 484440,SALA PRABANDHAN SAMITI GROUP,14,562,5,15-19
7434,Govt H S School kothi,Kothi  Govt H S School kothi  Kothi  484440,EDUCATION,20,852,1,15-19
7435,G S Hitkarini shiksha Niketan,Govinda kotma G S Hitkarini shiksha Niketan  Govinda kotma 484336,EDUCATION,20,851,9,15-19
7436,B T C  center,Jamuna kotma area B T C  center  Jamuna  kotma area 484444,MINING SECURITY,5,51,4,15-19
7437,Regional Store Jamuna kotma area,Jamuna coliery pasan Regional Store Jamuna kotma area Jamuna coliery pasan 484444,COAL WORK,5,51,4,15-19
7438,Govt H S S Jamuna coliery,Jamuna coliery pasan Govt H S S Jamuna coliery Jamuna coliery pasan 484444,EDUCATION,20,852,2,15-19
8072,STATE BANK OF INDIA KOTMA,kotma  STATE BANK OF INDIA KOTMA kotma  484334,TRANSACTION,16,641,1,15-19
8073,Vivekanad convent School,Banganwa Vivekanad convent School Banganwa 484446,EDUCATION WORK,20,852,7,15-19
8074,Sarswati shishu mandir chachai,Chachai Sarswati shishu mandir chachai Chachai 484220,EDUCATION WORK,20,851,9,15-19
8075,Nav jyoti high school,kiragi  Nav jyoti high school  kiragi  484886,EDUCATION,20,852,2,15-19
8076,Satya sai ston craser,pauni Satya sai ston craser pauni 484881,MDM,14,562,2,15-19
8709,Mahila Swasahyata samooh,Reusa Mahila Swasahyata samooh Reusa 484334,SWA SAHAYATA SAMOOH MDM,21,881,2,10-14
8710,OFFICE SUB AREA MANAGER GOVINDA COL,Kotma coliery road OFFICE SUB AREA MANAGER GOVINDA COL Kotma coliery road 484336,COAL MINES,5,51,1,10-14
8711,SARSWATI MIDDILE SCHOOL SANJAYA NAG,Devhara SARSWATI MIDDILE SCHOOL SANJAYA NAG Devhara 484120,EDUCATION WORK,20,852,1,10-14
8712,SARASWATI SIKSHA NIKETAN HIGH SCHOO,Pasan  SARASWATI SIKSHA NIKETAN HIGH SCHOO Mines colony  484444,,20,852,2,10-14
8713,UTKAL H S  SCHOOL JAMUNA COLLIERY,Jamuna coliery pasan UTKAL H S  SCHOOL JAMUNA COLLIERY Jamuna coliery pasan 484444,EDUCATION,20,852,2,10-14
8714,Govt H S School,Girarikala Govt H S School Girarikala 484886,MDM,20,852,1,10-14
8715,Radha Swasahyata samooh,Farahda Radha Swasahyata samooh Farahda 484881,SWA SAHAYATA SAMOOH MID DAY MIL,14,562,5,10-14
9378,TENT HOUSE,kotma  TENT HOUSE TRACTOR kotma 484440,TENT HOUSE,14,562,2,10-14
9379,Rajnagar coliery,Banganwa Rajnagar coliery Banganwa 484446,EDUCATION WORK,20,852,1,10-14
9380,SARSWATI H S SCHOOL SANJAYA NAGAR,Devhara SARSWATI H S SCHOOL SANJAYA NAGAR Devhara 484120,EDUCATION WORK,20,852,1,10-14
9381,Mahanand Construction work,B Type colony marg Dumarkachar Mahanand Construction work B Type colony marg Dumarkachar 484446,INFRASTRUCTURE WORK,9,410,2,10-14
9382,Regional Store Jamuna kotma area,Jamuna coliery pasan Jamuna kotma area Jamuna kotma area 484444,Regional Store Jamuna kotma area,13,521,2,10-14
9383,Vidya Niketan H S School,Jamuna coliery pasan Vidya Niketan H S School  Jamuna coliery pasan 484444,EDUCATION,20,852,3,10-14
9384,S E C L  H S Kotma Coliery,Kotma marg pasan S E C L  H S Kotma Coliery kotma marg pasan 484336,EDUCATION,20,851,1,10-14
9385,Shakabhari ston carasher,Sendurkhar Shakabhari ston carasher  Sendurkhar 484886,KRESAR,6,239,2,10-14
9386,Sharda Swasahyata samooh,Bendi Sharda Swasahyata samooh Bendi 484881,MDM,14,562,1,10-14
9387,Shivam ston craser,pauni  Rani Swasahyata samooh pauni 484881,MDM,14,562,2,10-14
10320,Kevai swasahayata samooh,Chulha  Kevai swasahayata samooh Chulha  484440,KEWAI SWASAHAYATA SAMOOH CHULHA,21,889,5,10-14
10321,Pooja Swsahyata samooh,Dongariyachot Pooja Swsahyata samooh Dongariyachot 484440,TRANSACTION OF MONEY,14,562,3,10-14
10322,Jyoti ajivika Swsahahyta samooh,Pipariya Jyoti ajivika Swsahahyta samooh Pipariya 484334,JYOTI AJEEVIKA SWA SAHAYATA SAMOOH,21,889,2,10-14
10323,Laxmi ajivika Swsahahyta samooh,Majhtoliya Laxmi ajivika Swsahahyta samooh  Majhtoliya 484440,LAXMI AJEEVIKA SWA SAHAYATA SAMOOH,21,889,3,10-14
10324,Durga swasahayata samooh,Bhalmudi Durga swasahayata samooh Bhalmudi 484440,,21,889,3,10-14
10325,Johila Swsahyata samooh,Tarsili  Johila Swsahyata samooh Tarsili  484440,JUHILA SWA SAHAYATA SAMOOH TARSILI,21,889,2,10-14
10326,SWA SAHAYATA SAMOOH MDM,Kothi  SWA SAHAYATA SAMOOH MDM Kothi  484440,SWA SAHAYATA SAMOOH MDM,14,562,2,10-14
10327,Maikal swasahayata samooh,Dulhibandh Maikal swasahayata samooh Dulhibandh 484440,SWA SAHAYATA SAMOOH MDM,14,562,3,10-14
10328,Gest house Bijuri,Bijuri Gest house Bijuri Bijuri 484440,REST HOUSE,14,551,1,10-14
10329,OFFICE OF GEOLOGY AND MINING CAMP,behind kotma Filter plant  OFFICE OF GEOLOGY AND MINING CAMP behind kotma Filter plant 484336,COAL SURVEY WORK,5,51,1,10-14
10330,b r c office kotma,kuritola kotma  b r c office kotma kuritola kotma  484334,EDUCATION WORK,20,851,1,10-14
10331,GOVT HIGH SCHOOL KOTMA,kotma  GOVT HIGH SCHOOL KOTMA kotma  484334,EDUCATION,20,851,1,10-14
10332,SBI Br Jamuna coliery,Jamuna coliery  SBI Br Jamuna coliery Jamuna coliery  484444,BANK,16,641,2,10-14
10333,Ravi Ston crasher,Nonghati Ravi Ston crasher  Nonghati 484886,STONE KRESAR,6,239,2,10-14
10334,Bus dirctor Ashok kumar pandey,Bhejari Bus dirctor Ashok kumar pandey Bhejari 484886,BUS DIRECTOR,13,491,2,10-14
10335,Sushma Swasahyata samooh,Podi Sushma Swasahyata samooh Podi 484886,SWA SAHAYATA SAMOOH MID DAY MIL,14,562,1,10-14
10336,Pragati Swasahyata samooh,Bairagi  Pragati Swasahyata samooh Bairagi  484881,MDM,14,562,5,10-14
10337,SWA SAHAYATA SAMOOH MEDAKHAR,MEDAKHAR SWA SAHAYATA SAMOOH MEDAKHAR MEDAKHAR 484881,MDM,14,562,2,10-14
10338,Smrati SWA SAHAYTA SAMOOH,Adhawar Smrati SWA SAHAYTA SAMOOH Adhawar 484881,MDM,14,562,5,10-14
10339,Pragati Swasahyata samooh,Alahwar Pragati Swasahyata samooh Alahwar 484881,MDM,14,562,5,10-14
10340,Pragati Swasahyata samooh,Ghata Pragati Swasahyata samooh Ghata 484881,MDM,14,562,5,10-14
10341,Maharshi yanglo jarman public School,Karpa Maharshi yanglo jarman public School Karpa 484881,EDUCATION WORK,20,852,2,10-14
10342,Suraj SWA SAHAYTA SAMOOH,Chilhamar Suraj SWA SAHAYTA SAMOOH Gonda 484881,MDM,14,562,5,10-14
10343,Laxmi Swasahyata samooh,Chilhamar Laxmi Swasahyata samooh Gonda 484881,MDM ,14,562,5,10-14
10344,Amar Swasahyata samooh,Girarikala Amar Swasahyata samooh Girarikala 484881,EDUCATION WORK,21,889,5,10-14
10345,Amar Swasahyata samooh,Girarikhurd Amar Swasahyata samooh Girarikhurd 484881,MDM,14,562,5,10-14
10346,Durga Swasahyata samooh,Thamardar Durga Swasahyata samooh Thamardar 484886,MDM,14,562,5,10-14
10347,Gaya Swasahyata samooh,Thamardar Sharda Swasahyata samooh Thamardar 484881,MDM,14,562,5,10-14
10348,mahila SWA SAHAYTA SAMOOH,Ranaikap mahila SWA SAHAYTA SAMOOH Ranaikap 484881,MDM,14,562,5,10-14
10349,mahila SWA SAHAYTA SAMOOH,Atariya mahila SWA SAHAYTA SAMOOH Atariya 484881,MDM,14,562,5,10-14
10350,Narmada Swasahyata samooh,Kiragi Narmada Swasahyata samooh Kiragi 484881,SWA SAHAYATA SAMOOH MID DAY MIL,14,562,5,10-14
10351,Mekal ajivika Swasahyata samooh,seetalpani Mekal ajivika  Swasahyata samooh  seetalpani 484881,SWA SAHAYATA SAMOOH MID DAY MIL,14,562,5,10-14
10352,Narmada Mahila Swasahyata samooh,Beejapuri Narmada Mahila Swasahyata samooh  Beejapuri 484881,SWA SAHAYATA SAMOOH MID DAY MIL,14,562,5,10-14
10353,Nurani Swasahyata samooh,Mediyaras Laxmi Swasahyata samooh Mediyaras 484881,SWA SAHAYATA SAMOOH MID DAY MIL,14,562,5,10-14
10354,Nirman Swasahyata samooh,Tulra Nirman Swasahyata samooh Tulra 484881,SWA SAHAYATA SAMOOH MID DAY MIL,14,562,5,10-14
10355,Maa birasini Swasahyata samooh,paraswara Maa birasini Swasahyata samooh paraswara 484881,SWA SAHAYATA SAMOOH MID DAY MIL,14,562,5,10-14
11617,Laxmi ajivika Swsahahyta samooh,Korya  Laxmi ajivika Swsahahyta samooh Korya  484440,LAXMI AJEEVIKA SWASAHAYTA SAMOOH,14,562,5,10-14
11618,Laxmi Swsahyata samooh,Bhantadand Laxmi Swsahyata samooh Bhantadand 484440,TRANSCTION,21,889,3,10-14
11619,SWA SAHAYATA SAMOOH MDM,Kothi  SWA SAHAYATA SAMOOH MDM Kothi  484440,SWA SAHAYATA SAMOOH MDM,14,562,2,10-14
11620,Sangam Swsahyata samooh,Buskhali Sangam Swsahyata samooh Buskhali 484334,Sangam Swsahyata samooh,14,562,2,10-14
11621,Bijuri,Bijuri govt girls school bijuri Bijuri 484440,EDUCATION,20,851,1,10-14
11622,primery health kendra bijuri,Bijuri primery health kendra bijuri Bijuri 484440,MEDIACL FACILITY,21,861,1,10-14
11623,govt girls high sec  school bijuri,Samu Bhavan Road Bijuri govt girls high sec  school bijuri Bijuri 484440,EDUCATION,20,851,1,10-14
11624,vivek high school kotma,Kotma vivek high school kotma Kotma 484334,,20,851,6,10-14
11625,vivek Primery school kotma,Kotma vivek Primery school kotma Kotma 484334,SCHOOL TEACHING,20,851,6,10-14
11626,SHISU BHARTI HIGH SCHOOL,w no 6 kotma SHISU BHARTI HIGH SCHOOL w no 6 kotma 484334,EDUCATION,20,851,9,10-14
11627,PRIVATE GUFRAN MIDDLE SCHOOL LAHSUI,Lahsui PRIVATE GUFRAN MIDDLE SCHOOL LAHSUI Lahsui 484334,EDUCATION,20,851,2,10-14
11628,paras vidya mandir,Lahsui camp kotma paras vidya mandir Lahsui camp kotma 484334,EDUCATION,20,851,2,10-14
11629,SISU BHARTI MIDDLE SCHOOL KOTMA,Ganesh Nagar kotma SISU BHARTI MIDDLE SCHOOL KOTMA Ganesh Nagar kotma 484334,EDUCATION WORK,20,851,2,10-14
11630,EKTA HIGH SCHOOL KOTMA,kotma  EKTA HIGH SCHOOL KOTMA kotma 484334,EDUCATION WORK,20,851,2,10-14
11631,Sarswati Gyan mandir middle school,B Type road pasan Sarswati Gyan mandir middle school  B Type road pasan 484336,EDUCATION,20,851,2,10-14
11632,Govt H S School,Bhejari Govt H S School Bhejari 484886,EDUCATION,20,852,1,10-14
11633,Durga Swasahyata samooh,Umargohan Durga Swasahyata samooh Umargohan 484886,MDM,14,562,5,10-14
11634,AMBEY SWA SAHAYTA SAMOOH,Lamsari AMBEY SWA SAHAYTA SAMOOH Lamsari 484881,MDM,14,562,5,10-14
11635,Gulab SWA SAHAYTA SAMOOH,Lamsari Gulab SWA SAHAYTA SAMOOH Lamsari 484881,MDM,14,562,5,10-14
11636,Kiran SWA SAHAYTA SAMOOH,Lamsari Kiran SWA SAHAYTA SAMOOH Lamsari 484881,MDM,14,562,5,10-14
11637,Durga Swasahyata samooh,Lamsari Durga Swasahyata samooh Lamsari 484886,MDM,14,562,5,10-14
11638,Mahila Swasahyata samooh,Karaundi Mahila Swasahyata samooh Karaundi 484881,MDM,14,562,5,10-14
11639,SWA SAHAYTA SAMOOH,Ufarikala SWA SAHAYTA SAMOOH Ufarikala 484881,MDM,14,562,5,10-14
11640,SWA SAHAYTA SAMOOH,Bartola SWA SAHAYTA SAMOOH Bartola 484881,MDM,14,562,5,10-14
11641,Kalpadika Swasahyata samooh,Bhamaraha Kalpadika Swasahyata samooh Bhamaraha 484881,MDM,14,562,5,10-14
11642,Arati Swasahyata samooh,Bhamaraha Arati Swasahyata samooh Bhamaraha 484881,MDM,14,562,5,10-14
11643,kalyanika Swasahyata samooh,Bhamaraha kalyanika Swasahyata samooh Bhamaraha 484881,MDM,14,562,5,10-14
11644,Indira ajivika Swasahyata samooh,Nardaha Indira ajivika Swasahyata samooh Nardaha 484881,MDM,14,562,5,10-14
11645,Narmada Swasahyata samooh,Lalpur  Narmada Swasahyata samooh Lalpur  484881,MDM,14,562,5,10-14
11646,ajivika Swasahyata samooh,Lalpur  ajivika Swasahyata samooh Lalpur  484881,MDM,14,562,5,10-14
11647,Swasahyata samooh,Dubsara  Swasahyata samooh  Dubsara 484881,MDM,14,562,5,10-14
11648,Bajrang mahila Swasahyata samooh,Khetganw Bajrang mahila Swasahyata samooh  Khetganw 484881,MDM,14,562,5,10-14
11649,maa Bhawani Swasahyata samooh,Khetganw Jai maa Bhawani Swasahyata samooh  Khetganw 484881,MDM,14,562,5,10-14
11650,Rani Swasahyata samooh,deori  Rani Swasahyata samooh deori 484881,MDM,14,562,5,10-14
11651,Revanchal Swasahyata samooh,Thandpathar Devi Swasahyata samooh Sunpuri 484881,MDM,14,562,5,10-14
11652,Narmada Swasahyata samooh,Thandpathar Narmada Swasahyata samooh Thandpathar 484881,MDM,14,562,1,10-14
11653,Sita Swasahyata samooh,Kasturi Sita mahila Swasahyata samooh Kasturi 484881,SWA SAHAYATA SAMOOH MID DAY MIL,14,562,5,10-14
11654,Shyamvati Swasahyata samooh,Kasturi Kamla Swasahyata samooh Kasturi 484881,SWA SAHAYATA SAMOOH MID DAY MIL,14,562,5,10-14
11655,Gaytri Swasahyata samooh,Lakhaura Gaytri Swasahyata samooh Lakhaura 484881,SWA SAHAYATA SAMOOH MID DAY MIL,14,562,5,10-14
11656,Govt High school Rajendragram,Kiragi Govt High school Rajendragram Kiragi 484881,EDUCATION,20,852,1,10-14
11657,NavchetnaGovt High school Kiragi,Kiragi Govt High school Kiragi Kiragi 484881,EDUCATION WORK,20,852,2,10-14
11658,Govt  degree college Pushprajgarh,Kiragi Govt  degree college Pushprajgarh Kiragi 484881,EDUCATION WORK,20,853,1,10-14
11659,Navoday vidyalay,Kiragi Navoday vidyalay  Kiragi 484881,EDUCATION WORK,20,852,2,10-14
11660,juhila Swasahyata samooh,Sarkariramna no 1 juhila Swasahyata samooh  Sarkariramna no 1 484881,SWA SAHAYATA SAMOOH MID DAY MIL,14,562,5,10-14
11661,Mekal ajivika Swasahyata samooh,Daldali  Mekal ajivika Swasahyata samooh Daldali  484881,SWA SAHAYATA SAMOOH MID DAY MIL,14,562,5,10-14
11662,Akasmik kosh Swasahyata samooh,Payari Akasmik kosh Swasahyata samooh Payari 484881,SWA SAHAYATA SAMOOH MID DAY MIL,14,562,5,10-14
11663,shaskiya shal,Amdari shaskiya shal Amdari 484881,EDUCATION WORK,20,851,2,10-14
15234,Kevai swasahayata samooh Jalsar,Jalsar  Kevai swasahayata samooh Jalsar Jalsar  484440,KEWAI MDM MAKE OF FOOD WORK,14,562,5,10-14
15235,Sarfa Swsahyata samooh,Bhantadand Sarfa Swsahyata samooh Bhantadand 484440,TRANSACTION,21,889,3,10-14
15236,Johila Swsahyata samooh,Maintola  Johila Swsahyata samooh Maintola  484334,SWA SAHAYATA SAMOOH MDM,21,881,5,10-14
15237,Kevai swasahayata samooh,Gulidand Kevai swasahayata samooh Gulidand 484440,SWA SAHAYATA SAMOOH MDM,21,881,5,10-14
15238,Adarsh Swasahyata samooh,Sajatola  Adarsh Swasahyata samooh Sajatola  484440,SWA SAHAYATA SAMOOH MDM,21,881,5,10-14
15239,mahaveer Swasahyata samooh,Sajatola  Adarsh Swasahyata samooh Sajatola  484440,SWA SAHAYATA SAMOOH MDM,21,881,5,10-14
15240,Sarswati  Swasahyata samooh,Sajatola  Adarsh Swasahyata samooh Sajatola  484440,SWA SAHAYATA SAMOOH MDM,21,881,5,10-14
15241,Laxmi Swsahyata samooh,Nimhitola Laxmi Swsahyata samooh Nimhitola 484440,SWA SAHAYATA SAMOOH MDM,21,881,5,10-14
15242,Durga swasahayata samooh,Buskhala Durga swasahayata samooh Buskhala 484440,SWA SAHAYATA SAMOOH MDM,14,562,1,10-14
15243,Narmada Swasahyata samooh,kamrantola  Narmada Swasahyata samooh kamrantola  484334,SWA SAHAYATA SAMOOH MDM,14,562,5,10-14
15244,Johila Swsahyata samooh,Pathraudhi Johila Swsahyata samooh Pathraudhi 484334,Johila Swsahyata samooh,14,562,2,10-14
15245,Sharda Swsahyata samooh,Pairichua Sharda Swsahyata samooh Pairichua 484334,SWA SAHAYATA SAMOOH MID DAY MIL,14,562,5,10-14
15246,Bijuri,Bijuri SBI Branch Bijuri Bijuri 484440,TRANSCTION CUSTOMER,16,641,1,10-14
15247,narmda construction bijuri,Bijuri narmda construction bijuri Bijuri 484440,CONSTRUCTION,9,410,2,10-14
15248,GOVINDA HOSPITAL,Durga road govinda kotma GOVINDA HOSPITAL Durga road govinda kotma 484336,HEALTH SERVICE,21,861,1,10-14
15249,govt martand college kotma,Goinda road kotma govt martand college kotma Goinda road 484334,EDUCATION WORK,20,853,1,10-14
15250,gyan prakash industrial training ce,Bhalumada rodad kotma  gyan prakash industrial training ce Bhalumada rodad kotma  484334,TRAINING CENTER,20,854,2,10-14
15251,SUBH MOTORS LIMITED,kotma  SUBH MOTORS LIMITED kotma  484334,SUZIKI MAROOTI SELL,10,451,2,10-14
15252,FATMI INDUSTRIES,kotma  FATMI INDUSTRIES kotma 484334,PETI AND LOHE KI ALMARI KA NIRMAN,6,259,2,10-14
15253,SU POST OFFICE,kotma  SU POST OFFICE kotma  484334,POST OFFICE WORK,13,531,1,10-14
15254,STONE KRESER,Manendra Road Kotma STONE KRESER Manendra Road Kotma 484334,KRESER WORK,6,239,2,10-14
15255,Surya Hotel Anuppur,Anuppur Surya Hotel Anuppur Anuppur 484220,HOTEL CUM RESTORENT,14,563,2,10-14
15256,Pine Model High School,Devhara Pine Model High School  Devhara 484120,EDUCATION WORK,20,852,1,10-14
15257,M K Gandhi H S Sanjay nagar,Devhara M K Gandhi H S Sanjay nagar Devhara 484120,EDUCATION WORK,20,852,2,10-14
15258,SATYA SAI PRAIVATE COLLEGE,Devhara SATYA SAI PRAIVATE COLLEGE Devhara 484120,EDUCATION WORK,20,853,1,10-14
15259,BANK OF BARODA CHACHI BAJAR,Chachai BANK OF BARODA CHACHI BAJAR Chachai 484220,BANKING WORK,16,649,1,10-14
15260,Gulab H S School,Jamuna coliery pasan Gulab H S School Jamuna coliery pasan 484444,EDUCATION CENTER,20,851,2,10-14
15261,SBI Br Kotma Coliery,Kotma coliery pasan SBI Br Kotma Coliery Kotma coliery pasan 484444,BANK WORK,16,641,1,10-14
15262,Preti Swasahyata samooh,Dodiya Preti Swasahyata samooh Dodiya 484881,SWA SAHAYATA SAMOOH MID DAY MIL,14,562,1,10-14
15263,Mahila Swasahyata samooh,dhanpuri Mahila Swasahyata samooh dhanpuri 484881,SWA SAHAYATA SAMOOH MID DAY MIL,14,562,5,10-14
15264,Mahila Swasahyata samooh,Naugai Mahila Swasahyata samooh Naugai 484881,SWA SAHAYATA SAMOOH MID DAY MIL,14,562,5,10-14
15265,Reshmi Swasahyata samooh,patna Reshmi Swasahyata samooh patna 484881,SWA SAHAYATA SAMOOH MID DAY MIL,14,562,5,10-14
15266,Kesharwani Ston crasher,patna Kesharwani Ston crasher  patna 484881,STONE KRESAR,6,239,2,10-14
15267,Raj Swasahyata samooh,patna Raj Swasahyata samooh  patna 484881,SWA SAHAYATA SAMOOH MID DAY MIL,14,562,5,10-14
15268,Reshmi Swasahyata samooh,patna Reshmi Swasahyata samooh patna 484881,SWA SAHAYATA SAMOOH MID DAY MIL,14,562,5,10-14
15269,Raj Swasahyata samooh,Baghar Raj Swasahyata samooh Baghar 484881,SWA SAHAYATA SAMOOH MID DAY MIL,14,562,1,10-14
15270,Raj Swasahyata samooh,Harrawah Raj Swasahyata samooh Harrawah 484881,SWA SAHAYATA SAMOOH MID DAY MIL,14,561,1,10-14
15271,Narmada Swasahyata samooh,Girarikhurd Narmada Swasahyata samooh Girarikhurd 484881,SWA SAHAYATA SAMOOH MID DAY MIL,14,561,5,10-14
15272,Narmada Swasahyata samooh,Harrai Narmada Swasahyata samooh Harrai 484881,SWA SAHAYATA SAMOOH MID DAY MIL,14,562,5,10-14
15273,Mahila Swasahyata samooh,Haveli Mahila Swasahyata samooh Haveli 484881,SWA SAHAYATA SAMOOH MID DAY MIL,14,562,1,10-14
15274,Narmada Swasahyata samooh,Bandhamar Narmada Swasahyata samooh Bandhamar 484881,SWA SAHAYATA SAMOOH MID DAY MIL,14,562,5,10-14
15275,Radha Swasahyata samooh,Bagharra Radha Swasahyata samooh Bagharra 484881,SWA SAHAYTA SAMOOH,14,562,5,10-14
15276,Narmada Swasahyata samooh,Loharintola Narmada Swasahyata samooh Loharintola 484881,,14,562,5,10-14
15277,Radha Swasahyata samooh,Dharamdas Radha Swasahyata samooh Dharamdas 484881,RADHA SWA SAHAYTA SAMOOH,14,562,5,10-14
15278,Gaytri SWA SAHAYTA SAMOOH,Majhganwa Gaytri SWA SAHAYTA SAMOOH  Majhganwa 484881,SWA SAHAYATA SAMOOH MID DAY MIL,14,561,2,10-14
15279,Mahila Swasahyata samooh,Achalpur Mahila Swasahyata samooh Achalpur 484881,SWA SAHAYATA SAMOOH MID DAY MIL,14,562,5,10-14
15280,Kirshna Swasahyata samooh,Achalpur Kirshna Swasahyata samooh Achalpur 484881,SWA SAHAYATA SAMOOH MID DAY MIL,14,562,5,10-14
15281,Mahila Swasahyata samooh,Achalpur Mahila Swasahyata samooh Achalpur 484881,SWA SAHAYATA SAMOOH MID DAY MIL,14,562,5,10-14
15282,Chatrasal Swasahyata samooh,Juhali Mahila Swasahyata samooh Juhali 484881,SWA SAHAYATA SAMOOH MID DAY MIL,14,562,5,10-14
15283,Satynam Swasahyata samooh,Majhganwa karaundi  Satynam Swasahyata samooh Majhganwa karaundi  484881,SWA SAHAYATA SAMOOH MID DAY MIL,14,562,5,10-14
15284,Govt H S School,Majhganwa karaundi  Govt H S School Majhganwa karaundi  484881,EDUCATION,20,853,1,10-14
15285,Durga Swasahyata samooh,Dharharkhurd Durga Swasahyata samooh Dharharkhurd 484881,SWA SAHAYATA SAMOOH MID DAY MIL,14,562,5,10-14
15286,Durga Swasahyata samooh,Dharharkala Durga Swasahyata samooh Dharharkala 484881,SWA SAHAYATA SAMOOH MID DAY MIL,14,562,1,10-14
15287,SON MAHILA SWA SAHAYATA SAMOOH,Pardi SON MAHILA SWA SAHAYATA SAMOOH Pardi 484881,SWA SAHAYATA SAMOOH MID DAY MIL,14,562,5,10-14
15288,Swasahyata samooh,Piparha  Swasahyata samooh  Piparha 484881,SWA SAHAYATA SAMOOH MID DAY MIL,14,562,5,10-14
15289,Bairagi Swasahyata samooh,Salhro Bairagi Swasahyata samooh Salhro 484881,SWA SAHAYATA SAMOOH MID DAY MIL,14,562,5,10-14
15290,Narmada Swasahyata samooh,Umaniya Narmada Swasahyata samooh Umaniya 484886,SWA SAHAYATA SAMOOH MID DAY MIL,14,562,2,10-14
15291,Reva Swasahyata samooh,Umaniya Reva Swasahyata samooh Umaniya 484886,SWA SAHAYATA SAMOOH MID DAY MIL,14,562,5,10-14
15292,Narmada Swasahyata samooh,Nonghati Narmada Swasahyata samooh Nonghati 484886,SWA SAHAYATA SAMOOH MID DAY MIL,14,562,2,10-14
15293,Santosh Anmol dhaba,Nonghati Santosh Anmol dhaba Nonghati 484886,MAKE OF FOOD,14,563,2,10-14
15294,Swasahyata samooh,Belganwa  Swasahyata samooh  Belganwa 484881,SWA SAHAYATA SAMOOH MID DAY MIL,14,562,1,10-14
15295,poorvi Swasahyata samooh,Sonhara  poorvi Swasahyata samooh Sonhara 484881,SWA SAHAYATA SAMOOH MID DAY MIL,14,562,5,10-14
15296,Narmada mahila Swasahyata samooh,Barbaspur Narmada mahila Swasahyata samooh  Barbaspur 484881,SWA SAHAYATA SAMOOH MID DAY MIL,14,562,5,10-14
15297,Sonvati Swasahyata samooh,Dhove  Sonvati Swasahyata samooh Dhove 484881,SWA SAHAYATA SAMOOH MID DAY MIL,14,562,5,10-14
15298,MAHAMAYA  SWA SAHYTA SAMOOH,Bashi MAHAMAYA SWA SAHYTA SAMOOH Bashi 484881,SWA SAHAYATA SAMOOH MID DAY MIL,14,562,1,10-14
15299,MIDILLE SCHOOL AMGAWAN,AMGAWAN MIDILLE SCHOOL AMGAWAN AMGAWAN 484881,EDUCATION,20,853,1,10-14
15300,Narmada Swasahyata samooh,Ledhra Narmada Swasahyata samooh Ledhra 484881,SWA SAHAYATA SAMOOH MID DAY MIL,14,562,5,10-14
15301,Swasahyata samooh,Lapti  Swasahyata samooh  Lapti 484881,SWA SAHAYATA SAMOOH MID DAY MIL,14,562,5,10-14
15302,Sweta MAHILA SWA SAHAYATA SAMOOH,MEDAKHAR SON MAHILA SWA SAHAYATA SAMOOH MEDAKHAR 484881,SWA SAHAYATA SAMOOH MID DAY MIL,14,562,5,10-14
15303,Mahant Swasahyata samooh,Jaamkachar  Mahant Swasahyata samooh Jaamkachar 484881,SWA SAHAYATA SAMOOH MID DAY MIL,14,562,5,10-14
15304,Mahant Swasahyata samooh,Batki  Mahant Swasahyata samooh Batki 484881,SWA SAHAYATA SAMOOH MID DAY MIL,14,562,5,10-14
15305,Narmada mekal Swasahyata samooh,Doniya Narmada mekal Swasahyata samooh Doniya 484881,SWA SAHAYATA SAMOOH MID DAY MIL,14,562,5,10-14
15306,Laxmi Swasahyata samooh,Tali  Laxmi Swasahyata samooh Tali  484886,SWA SAHAYATA SAMOOH MID DAY MIL,14,562,5,10-14
15307,Durga Swasahyata samooh,Bahpuri Durga Swasahyata samooh Bahpuri 484886,SWA SAHAYATA SAMOOH MID DAY MIL,14,562,5,10-14
15308,Swasahyata samooh,Bahpur  Swasahyata samooh  Bahpur 484886,SWA SAHAYATA SAMOOH MID DAY MIL,14,562,5,10-14
15309,Indra Swasahyata samooh,Bhejari Indra Swasahyata samooh Bhejari 484886,SWA SAHAYATA SAMOOH MID DAY MIL,14,562,1,10-14
15310,Bus dirctor jaypal singh,Bhejari Bus dirctor jaypal singh  Bhejari 484886,BUS DIRECTOR,13,491,2,10-14
15311,Bus dirctor Ganga pandey,Bhejari Bus dirctor Ganga pandey Bhejari 484886,BUS DIRECTOR,13,491,2,10-14
15312,Makleshwar Swasahyata samooh,Miriya Makleshwar Swasahyata samooh Miriya 484886,SWA SAHAYATA SAMOOH MID DAY MIL,14,562,5,10-14
15313,Swasahyata samooh,Guguakapa Swasahyata samooh Guguakapa 484881,SWA SAHAYATA SAMOOH MID DAY MIL,14,562,5,10-14
15314,Makleshwar mahila Swasahyata samooh,Harrai Makleshwar mahila Swasahyata samooh  Harrai 484886,MDM,14,562,5,10-14
15315,Makleshwar mahila Swasahyata samooh,Harrai Makleshwar mahila Swasahyata samooh  Harrai 484886,MDM,14,562,5,10-14
15316,Akansha mahila Swasahyata samooh,Gohadi Akansha mahila Swasahyata samooh  Gohadi 484886,MDM,14,562,5,10-14
15317,Bablu stone kresar harratola,Lalpur  Bablu stone kresar harratola Lalpur 484886,STONE KRESAR,6,239,2,10-14
15318,Vinay Singh stone kresar harratola,Lalpur  Vinay Singh stone kresar harratola Lalpur  484886,STONE WORK,6,239,2,10-14
15319,Deendyal Swasahyata samooh,Lalpur  Deendyal Swasahyata samooh Lalpur  484886,STONE KRESAR,6,239,5,10-14
15320,Pragya Swasahyata samooh,Pamra  Swasahyata samooh  Pamra 484881,MDM,14,562,5,10-14
15321,Tulsi Swasahyata samooh,Farrisemar  Tulsi Swasahyata samooh Farrisemar  484881,MDM,14,562,5,10-14
15322,Janani mahila Swasahyata samooh,Ledhra Janani mahila Swasahyata samooh Ledhra 484886,MDM,14,562,5,10-14
15323,RahulSwasahyata samooh,Navganva RahulSwasahyata samooh  Navganva 484886,MDM,14,562,1,10-14
15324,Swasahyata samooh,Ufarikhurd Swasahyata samooh Ufarikhurd 484881,MDM,14,562,5,10-14
15325,jay ambey SWA SAHAYATA SAMOOH MEDAKHAR,Saraipatera jay ambey SWA SAHAYATA SAMOOH MEDAKHAR Saraipatera 484881,MDM,14,562,5,10-14
15326,SWA SAHAYTA SAMOOH,SALARGODI SWA SAHAYTA SAMOOH SALARGODI 484881,MDM,14,562,5,10-14
15327,SWA SAHAYTA SAMOOH,SALARGODI SWA SAHAYTA SAMOOH SALARGODI 484881,MDM,14,562,5,10-14
15328,Genda phool Swasahyata samooh,Alahwar Genda phool Swasahyata samooh Alahwar 484881,MDM,14,562,5,10-14
15329,SWA SAHAYTA SAMOOH,Karpa SWA SAHAYTA SAMOOH  Karpa 484881,MDM,14,562,5,10-14
15330,SWA SAHAYTA SAMOOH,Lohari SWA SAHAYTA SAMOOH  Lohari 484881,MDM,14,562,5,10-14
15331,SWA SAHAYTA SAMOOH,Karpa SWA SAHAYTA SAMOOH  Karpa 484881,MDM,14,562,5,10-14
15332,SANTUSTI SWA SAHAYTA SAMOOH KARPA,Karpa SANTUSTI SWA SAHAYTA SAMOOH KARPA Karpa 484881,MDM,14,562,5,10-14
15333,Mahila Swasahyata samooh,Karpa Mahila Swasahyata samooh Karpa 484881,MDM,14,562,5,10-14
15334,SWA SAHAYTA SAMOOH,Nagulidadar SWA SAHAYTA SAMOOH Nagulidadar 484881,MDM,21,889,5,10-14
15335,SWA SAHAYTA SAMOOH,Bicharpur SWA SAHAYTA SAMOOH Bicharpur 484881,MDM,14,562,5,10-14
15336,SWA SAHAYTA SAMOOH,Rakhital SWA SAHAYTA SAMOOH Rakhital 484881,MDM,14,562,5,10-14
15337,SWA SAHAYTA SAMOOH,nagula SWA SAHAYTA SAMOOH nagula 484881,MDM,14,562,5,10-14
15338,SWA SAHAYTA SAMOOH,karaundapani SWA SAHAYTA SAMOOH karaundapani 484881,MDM,14,562,5,10-14
15339,Gaytri SWA SAHAYTA SAMOOH,Gondi Gaytri SWA SAHAYTA SAMOOH Gondi 484881,MDM,14,562,5,10-14
15340,SWA SAHAYTA SAMOOH,Gondi SWA SAHAYTA SAMOOH  Gondi 484881,MDM,14,562,5,10-14
15341,SWA SAHAYTA SAMOOH,Gondi SWA SAHAYTA SAMOOH  Gondi 484881,MDM,14,562,5,10-14
15342,SWA SAHAYTA SAMOOH,Gondi SWA SAHAYTA SAMOOH  Gondi 484881,MDM,14,562,5,10-14
15343,SWA SAHAYTA SAMOOH,Gonda SWA SAHAYTA SAMOOH Gonda 484881,MDM,14,562,5,10-14
15344,SWA SAHAYTA SAMOOH,Gonda SWA SAHAYTA SAMOOH Gonda 484881,MDM,14,562,5,10-14
15345,SWA SAHAYTA SAMOOH,Gonda SWA SAHAYTA SAMOOH Gonda 484881,MDM,14,562,5,10-14
15346,Narmada Swasahyata samooh,Piparaha Narmada Swasahyata samooh Piparaha 484881,MDM,14,562,5,10-14
15347,devki Swasahyata samooh,devridadar  devki Swasahyata samooh devridadar  484881,MDM,14,562,1,10-14
15348,devki Swasahyata samooh,devridadar  devki Swasahyata samooh devridadar  484881,MDM,14,562,1,10-14
15349,Narmada Swasahyata samooh,Chouradadar Narmada Swasahyata samooh Chouradadar 484881,MDM,14,562,1,10-14
15350,Ganga mahila Swasahyata samooh,padari Ganga mahila Swasahyata samooh padari 484881,MDM,14,562,5,10-14
15351,Ganga Swasahyata samooh,Bakan  Ganga Swasahyata samooh padari 484881,MDM,14,562,5,10-14
15352,Arati Swasahyata samooh,jarwahi Arati Swasahyata samooh jarwahi 484881,MDM,14,562,5,10-14
15353,Sarswati mahila Swasahyata samooh,Dudhmaniya Sarswati mahila Swasahyata samooh  Dudhmaniya 484881,MDM,14,562,5,10-14
15354,Asha Swasahyata samooh,Dudhmaniya Arati Swasahyata samooh Dudhmaniya 484881,MDM,14,562,5,10-14
15355,annapura mahila Swasahyata samooh,Ledhra annapura mahila Swasahyata samooh  Ledhra 484881,MDM,14,562,5,10-14
15356,Kasturba Swasahyata samooh,Picharwahi Kasturba Swasahyata samooh Picharwahi 484881,MDM,14,562,5,10-14
15357,Narmada Swasahyata samooh,Chandaniya Narmada Swasahyata samooh Chandaniya 484881,MDM,14,562,5,10-14
15358,Arati Swasahyata samooh,Bhamaraha Arati Swasahyata samooh Bhamaraha 484881,MDM,14,562,5,10-14
15359,Sharda Swasahyata samooh,Bhamaraha Sharda Swasahyata samooh Bhamaraha 484881,MDM,14,562,5,10-14
15360,Ganga Swasahyata samooh,parselkhurd Ganga Swasahyata samooh parselkhurd 484881,MDM,14,562,5,10-14
15361,Narmada Swasahyata samooh,Bhaluchua Narmada Swasahyata samooh Bhaluchua 484881,MDM,14,562,5,10-14
15362,Narmada Swasahyata samooh,Bhaluchua Narmada Swasahyata samooh Bhaluchua 484881,MDM,14,562,5,10-14
15363,Shyama Swasahyata samooh,PERSELKALA Shyama Swasahyata samooh PERSELKALA 484881,MDM,14,562,3,10-14
15364,SEVA KRIT MAHILA SWA SAHAYTA SAMOOH,MAJHOLI SEVA KRIT MAHILA SWA SAHAYTA SAMOOH MAJHOLI 484881,MDM,14,562,5,10-14
15365,Narmada Swasahyata samooh,jarhi Narmada Swasahyata samooh jarhi 484881,MDM,14,562,5,10-14
15366,KAMLA SWA SAHYATA SAMOOH JARHI,jarhi KAMLA SWA SAHYATA SAMOOH JARHI jarhi 484881,MDM,14,562,5,10-14
15367,Geeta SWA SAHYATA SAMOOH JARHI,SONIYAMAR Geeta SWA SAHYATA SAMOOH JARHI SONIYAMAR 484881,MDM,14,562,5,10-14
15368,KRISHNA SWA SAHAYTA SAMOOH,SARAITOLA KRISHNA SWA SAHAYTA SAMOOH SARAITOLA 484881,MDM,14,562,5,10-14
15369,Laxmi Swasahyata samooh,Goga Laxmi Swasahyata samooh Goga 484881,MDM,14,562,5,10-14
15370,pragati Swasahyata samooh,Majhganwa pragati Swasahyata samooh Majhganwa 484886,MDM,14,562,5,10-14
15371,SWA SAHAYTA SAMOOH,Baidara SWA SAHAYTA SAMOOH Baidara 484881,MDM,14,562,5,10-14
15372,mahila SWA SAHAYTA SAMOOH,bamhni mahila SWA SAHAYTA SAMOOH bamhni 484881,MDM,14,562,5,10-14
15373,Laxmi Swasahyata samooh,Mauhari Laxmi Swasahyata samooh Mauhari 484881,MDM,14,562,3,10-14
15374,Durga Swasahyata samooh,deora Durga Swasahyata samooh deora 484886,MDM,14,562,2,10-14
15375,jaiswal Sotn crasher,Ghotaikhurd Durga Swasahyata samooh Ghotaikhurd 484886,MDM,14,562,3,10-14
15376,Gouri Swasahyata samooh,Ghotaikala Devi Swasahyata samooh Ghotaikala 484881,MDM,14,562,5,10-14
15377,Gouri Swasahyata samooh,Kohka Devi Swasahyata samooh Kohka 484881,MDM,14,562,5,10-14
15378,Narmada Swasahyata samooh,Bicharpur Narmada Swasahyata samooh Bicharpur 484881,MDM,14,562,5,10-14
15379,mahila SWA SAHAYTA SAMOOH,Ranaikap mahila SWA SAHAYTA SAMOOH Ranaikap 484881,MDM,14,562,5,10-14
15380,SWA SAHAYTA SAMOOH,Manpur SWA SAHAYTA SAMOOH Manpur 484881,MDM,14,562,5,10-14
15381,Shivshakti ston crasher,KOLIHA TOLA Shivshakti ston crasher KOLIHA TOLA 484881,MDM,14,562,2,10-14
15382,maa sharda SWA SAHAYTA SAMOOH,Leela tola maa sharda SWA SAHAYTA SAMOOH  Leela tola 484881,MDM,14,562,5,10-14
15383,mahila SWA SAHAYTA SAMOOH,baghadi mahila SWA SAHAYTA SAMOOH baghadi 484881,MDM,14,562,5,10-14
15384,MAHAMAYA MAHILA SWA SAHYTA SAMOOH,SARAITOLA MAHAMAYA MAHILA SWA SAHYTA SAMOOH SARAITOLA 484881,MDM,14,562,5,10-14
15385,Narmada mahila Swasahyata samooh,Paladigwar Narmada Swasahyata samooh Paladigwar 484881,MDM,14,562,5,10-14
15386,Narmada mahila Swasahyata samooh,Dhummakapa Narmada Swasahyata samooh  Dhummakapa 484881,MDM,14,562,5,10-14
15387,Shankar Swasahyata samooh,Andhiyarkhoh Shankar Swasahyata samooh Andhiyarkhoh 484881,MDM,14,562,5,10-14
15388,mahila SWA SAHAYTA SAMOOH,Pipariya mahila SWA SAHAYTA SAMOOH Pipariya 484881,MDM,14,562,5,10-14
15389,mahila SWA SAHAYTA SAMOOH,Piparkhuta mahila SWA SAHAYTA SAMOOH  Piparkhuta 484881,MDM,14,562,5,10-14
15390,maa Narmada Swasahyata samooh,benibari Narmada Swasahyata samooh benibari 484881,MDM,14,562,5,10-14
15391,Narmada Swasahyata samooh,Basantpur Narmada Swasahyata samooh Basantpur 484881,MDM,14,562,5,10-14
15392,Rani Swasahyata samooh,Dhurvatola  Rani Swasahyata samooh Dhurvatola 484881,MDM,14,562,5,10-14
15393,Jyoti Swasahyata samooh,Zindatola Jyoti Swasahyata samooh Zindatola 484881,MDM,14,562,5,10-14
15394,Laxmi Swasahyata samooh,Khetganw Laxmi Swasahyata samooh Khetganw 484881,MDM,14,562,5,10-14
15395,Durgavati Swasahyata samooh,pauni Durgavati Swasahyata samooh pauni 484881,MDM,14,562,5,10-14
15396,Jamuna Swasahyata samooh,pauni Jamuna Swasahyata samooh pauni 484881,MDM,14,562,5,10-14
15397,Ganga Swasahyata samooh,Gannaguda Ganga Swasahyata samooh Gannaguda 484881,MDM,14,562,5,10-14
15398,Devi Swasahyata samooh,Sunpuri Devi Swasahyata samooh Sunpuri 484881,MDM,14,562,5,10-14
15399,Gouri Swasahyata samooh,Garjanbija Devi Swasahyata samooh Sunpuri 484881,MDM,14,562,5,10-14
15400,Swasahyata samooh Satpuda,Rausarwar Swasahyata samooh Satpuda Rausarwar 484881,MDM,14,562,5,10-14
15401,Sita Swasahyata samooh,deori Sita mahila Swasahyata samooh deori 484881,MDM,14,562,5,10-14
15402,Gaytri Swasahyata samooh,Guttipara Gaytri Swasahyata samooh Guttipara 484881,MDM,14,562,5,10-14
15403,Laxmi mahila Swasahyata samooh,Lamsarai Laxmi Swasahyata samooh Khetganw 484881,MDM,14,562,5,10-14
15404,yogendra Swasahyata samooh,bijaura Laxmi Swasahyata samooh bijaura 484881,MDM,14,562,5,10-14
15405,Ranidurgavati Swasahyata samooh,Sarwahi Ranidurgavati Swasahyata samooh Sarwahi 484881,MDM,14,562,5,10-14
15406,Laxmi Swasahyata samooh,Keshwani Laxmi Swasahyata samooh Keshwani 484881,MDM,14,562,5,10-14
15407,Narmada Swasahyata samooh,Damehdhi Narmada Swasahyata samooh Damehdhi 484881,MDM,14,562,5,10-14
15408,Narmada Swasahyata samooh,koyalari Narmada Swasahyata samooh koyalari 484881,MDM,14,562,5,10-14
15409,Ranidurgavati Swasahyata samooh,Ghuidadar Ranidurgavati Swasahyata samooh Ghuidadar 484881,MDM,14,562,5,10-14
15410,Narmada Swasahyata samooh,Sivnisangam Narmada Swasahyata samooh Sivnisangam 484881,MDM,14,562,1,10-14
15411,Durga Swasahyata samooh,paraswar Durga Swasahyata samooh paraswar 484881,MDM,14,562,1,10-14
15412,Rukmani Swasahyata samooh,Purga Rukmani Swasahyata samooh Purga 484881,MDM,14,562,5,10-14
15413,Adarsh Swasahyata samooh,Purga  Adarsh Swasahyata samooh Purga  484440,SWA SAHAYATA SAMOOH MID DAY MIL,14,562,5,10-14
15414,Narmada Swasahyata samooh,Purga  Narmada Swasahyata samooh Purga  484881,SWA SAHAYATA SAMOOH MID DAY MIL,14,562,5,10-14
15415,Kamla Swasahyata samooh,Neusa Kamla Swasahyata samooh Neusa 484881,SWA SAHAYATA SAMOOH MID DAY MIL,14,562,1,10-14
15416,Narmada Swasahyata samooh,Bilaspur Narmada Swasahyata samooh Bilaspur 484881,SWA SAHAYATA SAMOOH MID DAY MIL,14,562,5,10-14
15417,Sapt shri Swasahyata samooh,Bilaspur Sapt shri Swasahyata samooh Bilaspur 484881,SWA SAHAYATA SAMOOH MID DAY MIL,14,562,5,10-14
15418,Shyamvati Swasahyata samooh,Paladongari Kamla Swasahyata samooh Paladongari 484881,SWA SAHAYATA SAMOOH MID DAY MIL,14,562,5,10-14
15419,Shyamvati Swasahyata samooh,mahora Kamla Swasahyata samooh mahora 484881,SWA SAHAYATA SAMOOH MID DAY MIL,14,562,5,10-14
15420,Gulshan Swasahyata samooh,Khajurwar Kamla Swasahyata samooh Khajurwar 484881,SWA SAHAYATA SAMOOH MID DAY MIL,14,562,5,10-14
15421,Sandhya Swasahyata samooh,Khajurwar Sandhya Swasahyata samooh Khajurwar 484881,SWA SAHAYATA SAMOOH MID DAY MIL,14,562,5,10-14
15422,Anchal Swasahyata samooh,Baghanibhanvar Sandhya Swasahyata samooh Baghanibhanvar 484881,SWA SAHAYATA SAMOOH MID DAY MIL,14,562,5,10-14
15423,Sarswati  Swasahyata samooh,Bheemkundi Adarsh Swasahyata samooh Bheemkundi 484440,SWA SAHAYATA SAMOOH MID DAY MIL,14,562,5,10-14
15424,Narmada Swasahyata samooh,Bheemkundi Narmada Swasahyata samooh Bheemkundi 484881,SWA SAHAYATA SAMOOH MID DAY MIL,14,562,5,10-14
15425,Sarswati  Swasahyata samooh,Karaundatola Adarsh Swasahyata samooh Karaundatola 484440,SWA SAHAYATA SAMOOH MID DAY MIL,14,562,5,10-14
15426,Sarswati  Swasahyata samooh,Kumahrwah Adarsh Swasahyata samooh Kumahrwah 484440,SWA SAHAYATA SAMOOH MID DAY MIL,14,562,5,10-14
15427,Kanchan  Swasahyata samooh,Kumahrwah Kanchan Swasahyata samooh Kumahrwah 484440,SWA SAHAYATA SAMOOH MID DAY MIL,14,562,5,10-14
15428,Vikas  Swasahyata samooh,Kumahrwah Vikas Swasahyata samooh Kumahrwah 484440,SWA SAHAYATA SAMOOH MID DAY MIL,14,562,5,10-14
15429,Swasahyata samooh,duari  Swasahyata samooh  duari 484881,SWA SAHAYATA SAMOOH MID DAY MIL,14,562,5,10-14
15430,Pragya Swasahyata samooh,Khanti  Swasahyata samooh  Khanti 484881,SWA SAHAYATA SAMOOH MID DAY MIL,14,562,5,10-14
15431,Pooja Swasahyata samooh,Khanti Pooja Swasahyata samooh Khanti 484881,SWA SAHAYATA SAMOOH MID DAY MIL,14,562,5,10-14
15432,Varsh Swasahyata samooh,Khanti Varsh Swasahyata samooh Khanti 484881,SWA SAHAYATA SAMOOH MID DAY MIL,14,562,5,10-14
15433,Pooja Swasahyata samooh,Padariya Pooja Swasahyata samooh Padariya 484881,SWA SAHAYATA SAMOOH MID DAY MIL,14,562,5,10-14
15434,Sarswati  Swasahyata samooh,Padariya Adarsh Swasahyata samooh Padariya 484440,SWA SAHAYATA SAMOOH MID DAY MIL,14,562,5,10-14
15435,Sita Swasahyata samooh,khursi Sita mahila Swasahyata samooh khursi 484881,SWA SAHAYATA SAMOOH MID DAY MIL,14,562,5,10-14
15436,Om namah Swasahyata samooh,kekariya Om namah Swasahyata samooh kekariya 484881,SWA SAHAYATA SAMOOH MID DAY MIL,14,562,5,10-14
15437,Narmada Swasahyata samooh,Gadhidadar Narmada Swasahyata samooh Gadhidadar 484881,SWA SAHAYATA SAMOOH MID DAY MIL,14,562,5,10-14
15438,Mahila Swasahyata samooh,Chachandih Mahila Swasahyata samooh Chachandih 484881,SWA SAHAYATA SAMOOH MID DAY MIL,14,562,5,10-14
15439,Sheetal Swasahyata samooh,Basaniha Sheetal Swasahyata samooh Basaniha 484881,SWA SAHAYATA SAMOOH MID DAY MIL,14,562,5,10-14
15440,Laxmi Swasahyata samooh,Basaniha Laxmi Swasahyata samooh Basaniha 484881,SWA SAHAYATA SAMOOH MID DAY MIL,14,562,5,10-14
15441,Radha Swasahyata samooh,Jilang Radha Swasahyata samooh Jilang 484881,SWA SAHAYATA SAMOOH MID DAY MIL,14,562,5,10-14
15442,Vidya Swasahyata samooh,Chapani Vidya Swasahyata samooh Chapani 484881,SWA SAHAYATA SAMOOH MID DAY MIL,14,562,5,10-14
15443,Narmada Swasahyata samooh,dhirutola Narmada Swasahyata samooh dhirutola 484881,SWA SAHAYATA SAMOOH MID DAY MIL,14,562,5,10-14
15444,Laxmi Swasahyata samooh,Belha Laxmi Swasahyata samooh Belha 484881,SWA SAHAYATA SAMOOH MID DAY MIL,14,562,5,10-14
15445,Shai Swasahyata samooh,Harratola Laxmi Swasahyata samooh Belha 484881,SWA SAHAYATA SAMOOH MID DAY MIL,14,562,5,10-14
15446,Laxmi Swasahyata samooh,Harratola Laxmi Swasahyata samooh Belha 484881,SWA SAHAYATA SAMOOH MID DAY MIL,14,562,5,10-14
15447,Pooja Swasahyata samooh,Kohka Pooja Swasahyata samooh Kohka 484881,SWA SAHAYATA SAMOOH MID DAY MIL,14,562,5,10-14
15448,Central public School,Kiragi Pooja Swasahyata samooh Kiragi 484881,EDUCATION,20,852,2,10-14
15449,distt  Coprative central bank,Kiragi distt  Coprative central bank  Kiragi 484881,FINENCIAL WORK,16,662,1,10-14
15450,Durga Swasahyata samooh,Kiragi Durga Swasahyata samooh Kiragi 484881,SWA SAHAYATA SAMOOH MID DAY MIL,14,562,5,10-14
15451,Narmada Swasahyata samooh,Kiragi Narmada Swasahyata samooh dhirutola 484881,SWA SAHAYATA SAMOOH MID DAY MIL,14,562,5,10-14
15452,Vings convent school,Kiragi Vings convent school Kiragi 484881,EDUCATION WORK,20,852,2,10-14
15453,Sudha Swasahyata samooh,Badi tummi  Sudha Swasahyata samooh Badi tummi  484881,SWA SAHAYATA SAMOOH MID DAY MIL,14,562,1,10-14
15454,Mahila Swasahyata samooh,Dabaniya Mahila Swasahyata samooh Dabaniya 484881,SWA SAHAYATA SAMOOH MID DAY MIL,14,562,5,10-14
15455,Mahila Swasahyata samooh,Chirpani Mahila Swasahyata samooh Cheerpani 484881,SWA SAHAYATA SAMOOH MID DAY MIL,14,562,5,10-14
15456,Mahila Swasahyata samooh,Gijari Mahila Swasahyata samooh Gijari 484881,SWA SAHAYATA SAMOOH MID DAY MIL,14,562,5,10-14
15457,Sarfa Mahila Swasahyata samooh,Sarfa Sarfa Mahila Swasahyata samooh Sarfa 484881,SWA SAHAYATA SAMOOH MID DAY MIL,14,562,5,10-14
15458,Sarfa Mahila Swasahyata samooh,Khirani Sarfa Mahila Swasahyata samooh Khirani 484881,SWA SAHAYATA SAMOOH MID DAY MIL,14,562,5,10-14
15459,Sarfa Mahila Swasahyata samooh,Tilwari Sarfa Mahila Swasahyata samooh Tilwari 484881,SWA SAHAYATA SAMOOH MID DAY MIL,14,562,5,10-14
15460,Sarfa Mahila Swasahyata samooh,Udal Sarfa Mahila Swasahyata samooh udal 484881,SWA SAHAYATA SAMOOH MID DAY MIL,14,562,5,10-14
15461,Sarfa Mahila Swasahyata samooh,Kodar Sarfa Mahila Swasahyata samooh kodar 484881,SWA SAHAYATA SAMOOH MID DAY MIL,14,562,5,10-14
15462,Narmada Swasahyata samooh,Kalhoopani Narmada Swasahyata samooh Kalhoopani 484881,SWA SAHAYATA SAMOOH MID DAY MIL,14,562,5,10-14
15463,sita Swasahyata samooh,padmaniya sita Swasahyata samooh padmaniya 484881,SWA SAHAYATA SAMOOH MID DAY MIL,14,562,5,10-14
15464,Mahila Swasahyata samooh,Dhuradhar Mahila Swasahyata samooh Dhuradhar 484881,SWA SAHAYATA SAMOOH MID DAY MIL,14,562,5,10-14
15465,Durga Swasahyata samooh,Dona Durga Swasahyata samooh Dona 484881,SWA SAHAYATA SAMOOH MID DAY MIL,14,562,5,10-14
15466,baiga Swasahyata samooh,Dona baiga Swasahyata samooh Dona 484881,SWA SAHAYATA SAMOOH MID DAY MIL,14,562,5,10-14
15467,Sita mahila Swasahyata samooh,Mithumahua Sita mahila Swasahyata samooh  Mithumahua 484881,SWA SAHAYATA SAMOOH MID DAY MIL,14,562,5,10-14
15468,baiga Swasahyata samooh,Jaithari baiga Swasahyata samooh Jaithari 484881,SWA SAHAYATA SAMOOH MID DAY MIL,14,562,5,10-14
15469,baiga Swasahyata samooh,Tithai  baiga Swasahyata samooh Tithai  484881,SWA SAHAYATA SAMOOH MID DAY MIL,14,562,5,10-14
15470,Narmada Mahila Swasahyata samooh,Kumhni Narmada Mahila Swasahyata samooh  Kumhni 484881,SWA SAHAYATA SAMOOH MID DAY MIL,14,562,5,10-14
15471,Narmada Mahila Swasahyata samooh,Dongariya Narmada Mahila Swasahyata samooh  Dongariya 484881,SWA SAHAYATA SAMOOH MID DAY MIL,14,562,5,10-14
15472,Beej kosh Swasahyata samooh,Tarera Beej kosh Swasahyata samooh Tarera 484881,SWA SAHAYATA SAMOOH MID DAY MIL,14,562,5,10-14
15473,Durga Swasahyata samooh,Ahirganwa Durga Swasahyata samooh Ahirganwa 484881,SWA SAHAYATA SAMOOH MID DAY MIL,14,562,5,10-14
15474,Hariyali Swasahyata samooh,Chatua Hariyali Swasahyata samooh Chatua 484881,SWA SAHAYATA SAMOOH MID DAY MIL,14,562,5,10-14
15475,Sharda Swasahyata samooh,Tankitola Sharda Swasahyata samooh Tankitola 484881,SWA SAHAYATA SAMOOH MID DAY MIL,14,562,5,10-14
15476,Sharda ajivika Swasahyata samooh,khamraundh Sharda ajivika Swasahyata samooh  khamraundh 484881,SWA SAHAYATA SAMOOH MID DAY MIL,14,562,6,10-14
15477,parvati ajivika Swasahyata samooh,khamraundh parvati ajivika Swasahyata samooh  khamraundh 484881,SWA SAHAYATA SAMOOH MID DAY MIL,14,562,5,10-14
15478,Laxmi Swasahyata samooh,Goratola Laxmi Swasahyata samooh Goratola 484881,SWA SAHAYATA SAMOOH MID DAY MIL,14,562,5,10-14
15479,kirti mahila Swasahyata samooh,Sarai kirti mahila Swasahyata samooh Sarai 484881,SWA SAHAYATA SAMOOH MID DAY MIL,14,562,5,10-14
15480,Laxmi Swasahyata samooh,Sarai Laxmi Swasahyata samooh Sarai 484881,SWA SAHAYATA SAMOOH MID DAY MIL,14,562,5,10-14
15481,Jyoti Swasahyata samooh,tarang Jyoti Swasahyata samooh tarang 484881,SWA SAHAYATA SAMOOH MID DAY MIL,14,562,5,10-14
15482,Ganga Swasahyata samooh,tarang Ganga Swasahyata samooh tarang 484881,SWA SAHAYATA SAMOOH MID DAY MIL,14,562,5,10-14
15483,Sharda Swasahyata samooh,Katurdona Sharda Swasahyata samooh Katurdona 484881,SWA SAHAYATA SAMOOH MID DAY MIL,14,562,5,10-14
15484,Maa birasini Swasahyata samooh,dhawai Maa birasini Swasahyata samooh dhawai 484881,SWA SAHAYATA SAMOOH MID DAY MIL,14,562,5,10-14
15485,Swasahyata samooh,Amdari  Swasahyata samooh  Amdari 484881,SWA SAHAYATA SAMOOH MID DAY MIL,14,562,5,10-14
15486,Swasahyata samooh,Amdari  Swasahyata samooh  Amdari 484881,SWA SAHAYATA SAMOOH MID DAY MIL,14,562,5,10-14
15487,Swasahyata samooh,Amdari  Swasahyata samooh  Amdari 484881,SWA SAHAYATA SAMOOH MID DAY MIL,14,562,5,10-14
15488,Maa birasini Swasahyata samooh,Suadand Maa birasini Swasahyata samooh Suadand 484881,SWA SAHAYATA SAMOOH MID DAY MIL,14,562,5,10-14
15489,Maa birasini Swasahyata samooh,Jarha Maa birasini Swasahyata samooh jarha 484881,SWA SAHAYATA SAMOOH MID DAY MIL,14,562,5,10-14
15490,Laxmi Swasahyata samooh,sursadhara Laxmi Swasahyata samooh sursadhara 484881,SWA SAHAYATA SAMOOH MID DAY MIL,14,562,5,10-14
15491,Narmada Swasahyata samooh,Majhouli Narmada Swasahyata samooh majhouli 484881,SWA SAHAYATA SAMOOH MID DAY MIL,14,562,5,10-14
15492,Mahila Swasahyata samooh,Gendiama Mahila Swasahyata samooh Gendiama 484881,SWA SAHAYATA SAMOOH MID DAY MIL,14,562,2,10-14
15493,Gaytri Swasahyata samooh,Tikaradhudhi Gaytri Swasahyata samooh Tikaradhudhi 484881,SWA SAHAYATA SAMOOH MID DAY MIL,14,562,5,10-14
15494,Sarswati mahila Swasahyata samooh,Harra Sarswati mahila Swasahyata samooh Harra 484881,SWA SAHAYATA SAMOOH MID DAY MIL,14,562,2,10-14
15495,maa Narmada Swasahyata samooh,khaledhudhi Narmada Swasahyata samooh khaledhudhi 484881,SWA SAHAYATA SAMOOH MID DAY MIL,14,562,2,10-14
15496,Shanti Swasahyata samooh,Itaour  Narmada Swasahyata samooh Itaour  484881,SWA SAHAYATA SAMOOH MID DAY MIL,14,562,5,10-14
15497,Laxmi Swasahyata samooh,Itaour  Laxmi Swasahyata samooh Itaour  484881,SWA SAHAYATA SAMOOH MID DAY MIL,14,562,5,10-14
15498,Pragati Swasahyata samooh,Kandikapa Pragati Swasahyata samooh Kandikapa 484881,SWA SAHAYATA SAMOOH MID DAY MIL,14,562,5,10-14
15499,parvati Swasahyata samooh,kacharatola parvati ajivika Swasahyata samooh  kacharatola 484881,SWA SAHAYATA SAMOOH MID DAY MIL,14,562,5,10-14
15500,Mohvati Swasahyata samooh,kacharatola parvati ajivika Swasahyata samooh  kacharatola 484881,SWA SAHAYATA SAMOOH MID DAY MIL,14,562,5,10-14
15501,Jamuna Swasahyata samooh,kacharatola Jamuna Swasahyata samooh kacharatola 484881,SWA SAHAYATA SAMOOH MID DAY MIL,14,562,5,10-14
15502,arvind Mahila Swasahyata samooh,Beejapuri Narmada Mahila Swasahyata samooh  Beejapuri 484881,SWA SAHAYATA SAMOOH MID DAY MIL,14,562,5,10-14
15503,arvind Mahila Swasahyata samooh,Jhilmila Narmada Mahila Swasahyata samooh  Jhilmila 484881,SWA SAHAYATA SAMOOH MID DAY MIL,14,562,5,10-14
15504,Jai maa Bhawani Swasahyata samooh,Ghoghari Jai maa Bhawani Swasahyata samooh  Ghoghari 484881,SWA SAHAYATA SAMOOH MID DAY MIL,14,562,2,10-14
15505,Swasahyata samooh,Baranjh  Swasahyata samooh  Baranjh 484881,SWA SAHAYATA SAMOOH MID DAY MIL,14,562,5,10-14
15506,Swasahyata samooh,Baranjh  Swasahyata samooh  Baranjh 484881,SWA SAHAYATA SAMOOH MID DAY MIL,14,562,5,10-14
15507,Laxmi Swasahyata samooh,Charkumar Laxmi Swasahyata samooh Itaour  484881,SWA SAHAYATA SAMOOH MID DAY MIL,14,562,5,10-14
15508,Ganga Swasahyata samooh,Jhalwar Ganga Swasahyata samooh Jhalwar 484881,SWA SAHAYATA SAMOOH MID DAY MIL,14,562,5,10-14
15509,Narmada Swasahyata samooh,Shyamduari Narmada Swasahyata samooh Shyamduari 484881,SWA SAHAYATA SAMOOH MID DAY MIL,14,562,5,10-14
15510,Moti Swasahyata samooh,Karanpathar Moti Swasahyata samooh Karanpathar 484881,SWA SAHAYATA SAMOOH MID DAY MIL,14,562,5,10-14
15511,Reva Swasahyata samooh,Karanpathar Reva Swasahyata samooh Karanpathar 484881,SWA SAHAYATA SAMOOH MID DAY MIL,14,562,5,10-14
15512,Reva Swasahyata samooh,Nagmala Reva Swasahyata samooh Karanpathar 484881,SWA SAHAYATA SAMOOH MID DAY MIL,14,562,5,10-14
15513,Jamuna Swasahyata samooh,Hathbandha Jamuna Swasahyata samooh Hathbandha 484881,SWA SAHAYATA SAMOOH MID DAY MIL,14,562,5,10-14
15514,Bajrang mahila Swasahyata samooh,Beejapuri Bajrang mahila Swasahyata samooh  Beejapuri 484881,SWA SAHAYATA SAMOOH MID DAY MIL,14,562,5,10-14
15515,Jamuna Swasahyata samooh,jarhi Jamuna Swasahyata samooh jarhi 484881,SWA SAHAYATA SAMOOH MID DAY MIL,14,562,5,10-14
