S.No.,Name of the Establishment,Address,Major Activity Description,Broad Activity Code,NIC,Owner ship Code,Emplo yment Class Interval
32,SHREE DINKAR R KUSHWAHA,KEC INTERNATIONAL PVT LTD  JABALPUR RAIPURA 483220,retail sale,12,477,2,>=500
85,JABALPUR HOSPITAL RAJESH,BIDHARAWANI NAPIE R TOWN  JABALPUR JABALPUR HOSPITAL 482001,TREATMENT OF PATIENTS,21,861,2,200-499
86,JABALPUR ENGINEERING COLLEGE,JABALPUR   482011,EDUCATION,20,853,1,200-499
128,GYAN GANGA COLLEGE OF TECHNOLOGY,P O TILWARA GHAT JABALPUR TRIPURI WARD BARGI HILLS 482003,EDUCATION,20,853,3,200-499
130,L I C ,MADAN MAHAL JABALPUR NAGPUR ROAD 482001,INSURANCE RELATED WORK,16,641,1,200-499
134,GYAN GANGA INSTITUTE OF TECHNOLOGY ,P O TIWARA GHAT NEAR SHAH NALA  JABALPUR TRIPURI WARD BARGI HILLS 482003,EDUCATION,20,853,2,200-499
140,CITY HOSPITAL   RESEARCH CENTRE,JABALPUR  CIVIL LINES 482001,TREATMENT OF PATIENTS,21,861,2,200-499
189,MARVEL CITY HOSPITAL   RESEARCH,CENTRE  JABALPUR SECOND BRIDGE 482001,TREATMENT OF PATIENTS,21,861,2,200-499
213,SETH MANNULAL HOSPITAL,DIXITPURA JABALPUR  482002,TREATMENT OF PATIENTS,21,861,2,200-499
240,HOTEL VIJAN PALACE,SHRI SANDEEP VIJAN OWNER  JABALPUR MARKET KARAMCHA ND CHOWK 482002,LODGING AND BOARDING,14,561,2,200-499
257,SIMPLEX AUTO INDUSTRIES,MADAN MAHAL  JABALPUR NAGPUR ROAD 482001,FABRICATION OF STEEL,6,275,3,100-199
310,SANDARIA HOTEL,JABALPUR  CIVIC CENTRE MADHATAL 482002,HOTEL,14,561,3,100-199
312,T F R I  OFFICE,JABALPUR  SAMADHI ROAD 482021,OFFICE RELATED ACTIVITIES,19,821,1,100-199
313,MAHAKAUSHAL HOSPITAL,JABALPUR  WRIGHT TOWN 482002,TREATMENT OF PATIENTS,21,861,2,100-199
323,SAMDARIA HOTEL,JABALPUR  BARAT ROAD 482002,RESTAURENT  LODGING AND BOARDING,14,561,2,100-199
335,LITTLE WORLD SCHOOL TRIPURI WARD ,P O TILWARA GHAT  JABALPUR NAGPUR ROAD 482003,EDUCATION,20,852,2,100-199
336,GYAN GANGA INTERNATIONAL SCHOOL,NITIN JAIN JABALPUR BHEDAGHAT ROAD 482003,EDUCATION,20,852,1,100-199
342,AADITYA HOSPITAL,JABALPUR  GOVT HOME SC COLLEGE ROAD 482002,TREATMENT OF PATIENTS,21,861,2,100-199
367,ANANT HOSPITAL,JABALPUR  NEAR GATE NO 4 482002,HOSPITAL,21,861,2,100-199
391,ST ALOYSYS COLLEGE AUTONOMOUS ,PENTI NAKA SADAR JABALP UR   482001,EDUCATION,20,852,9,100-199
399,GOVT  HOME SCIENCE GIRLS COLLEGE,JABALPUR   482002,EDUCATION,20,853,1,100-199
407,MARUTI SHOWROOM  DEEPAK ARORA,NAPIER TOWN  JABALPUR JABALPUR HOSPITAL ROAD 482001,SELLING CARS,10,451,2,100-199
422,CHRIEST CHURCH SCHOOL,JABALPUR   482001,EDUCATION,20,852,9,100-199
435,RAHUL AGRAWAL,JABALPUR  NAGPUR ROAD 482003,SELLING BUILDING MATERIALS,6,239,2,100-199
482,MATA GUJRI WOMEN COLLEGE,JABALPUR  CIVIC CENTRE MADHATAL 482002,EDUCATION,20,853,3,100-199
488,ANUSHREE COLLEGE OF NURSING  ,HOMEOPATHIC MEDICAL COLLEGE JABALPUR KASODHAN NAGAR 482002,EDUCATION,20,853,2,100-199
494,CARBORANDOM UNIVERSAL,JABALPUR INDUSTRIAL ESTATE 482004,CHEMICAL CEMENT C ONSTAVIL,6,331,2,100-199
504,ICC SCHOOL,JABALPUR   482001,EDUCATION,20,852,9,100-199
510,JOY SENIOR SECONDERY SCHOOL,JABALPUR  VIJAY NAGAR 482002,EDUCATION,20,852,9,100-199
513,FRONTIER COMMERTIAL VEHICLE LTD ,JABALPUR  NAGPUR ROAD TRIPURI 482003,REPAIRING AND SELLING OF JCB,10,452,4,100-199
563,ST GABRIAL H S SCHOOL,RANJHI JABALPUR CHANDRASHEKHER WARD 482005,EDUCATION,20,852,1,100-199
564,MAHAKAUSHAL TRANSPORT,JABALPUR   482002,BUS TRAVEL SERVICE,13,522,3,100-199
568,TRIBHUVANDAS MALPANI SCHOOL, MADHUSUDAN DAS MALPANI  LAL BUILDING JABALPUR OLD SUBHAS TALKIES ROAD 482002,EDUCATION,20,852,4,100-199
606,CITY HOSPITAL   RESEARCH CENTRE ,BALDEOBAG  AAGA CHOWK  JABALPUR MAIN ROAD 482002,TREATMENT OF HUMAN BEINGS AND OTHER,21,861,2,100-199
607,PRATIBHA STHALI GYANODAYA,VIDHYAPEETH TILWARA GHAT DAYODAY JABALPUR NAGPUR ROAD JABALPUR 482003,EDUCATION,20,852,5,100-199
608,COMMERTIAL AUTOMOBILES PVT LTD ,JABALPUR 1811 MADAN MAHAL PREM NAGAR 482001,SERVISING OF FOUR WHEELERS AND,10,453,2,100-199
609,DAINIK BHASKAR PRAKASHAN PVT LTD,JABALPUR  CIVIC CENTRE MADHATAL 482002,OFFICIAL WORK,15,581,4,100-199
630,SGBM POLYTECHNIC COLLEGE,PATAN JABALPUR 482002,EDUCATION,20,853,3,30-99
645,SHUBH MOTORS ,IN FRONT OF MAHANADDA  MADAN MAHAL JABALPUR NAGPUR ROAD 482002,SELLING AND SERVICING OF CARS,10,454,4,30-99
686,ST ALOYSYS SENIOR SECONDERY SCHOOL,PANTINAKA SADAR JABALPUR MAIN ROAD 482001,EDUCATION,20,852,9,30-99
687,ST JOSEPH CONVENT GIRLS SENIOR,SECONDARY SCHOOL SADAR JABALPUR  482001,EDUCATION,20,852,9,30-99
688,SAHIL HONDA AGENCY PRABHAT NAYAKWAR,FOURTH BRIDGE NAPIER TOWN  JABALPUR ANAND CINEMA ROAD 482001,SELLING TWO WHEELERS,10,454,2,30-99
698,ST JOSEPH H S SCHOOL,RANJHI  JABALPUR CHANDRAAHEKHER WARD 482005,EDUCATION,20,852,1,30-99
707,GOVERNMENT AURVEDIC COLLEGE,GWARIGHAT JABALPUR  482008,EDUCATION,20,853,1,30-99
708,SAMDARIA PUBLIC SCHOOL,JABALPUR MADHOTAL GREEN CITY 482002,EDUCATION,20,852,2,30-99
727,NACHIKETA HIGHER SECONDERY SCHOOL,JABALPUR  HOME SCIENCE COLLEGE ROAD 482002,EDUCATION,20,852,3,30-99
744,ASHOK LEYLAND,TEVAR JABALPUR BHEDAGHAT ROAD 482003,SHOWROOM SALES   SERVICE,10,451,2,30-99
817,ST JOSEPH SENIOR SECONDARY SCHOOL,RANJHI  JABALPUR CHANDRASHEKHER WARD 482005,EDUCATION,20,852,1,30-99
840,HOTEL MARUTI MANDAPAM,JABALPUR  NAGPUR ROAD TRIPURI CHOWK 482003,BOARDING AND LODGING,14,561,2,30-99
841,ST  MARRY SCHOOL,JABALPUR BAJRANG NAGAR RANJHI 482009,EDUCATION,20,852,1,30-99
883,RAWATPURA SARKAR ENGINEERING,COLLEGE  JABALPUR,EDUCATION,20,853,2,30-99
884,POST OFFICE,BALDEOBAG JABALPUR  482002,SAVINGS AND ALL POST OFFICE RELATED,13,531,1,30-99
896,ASHISH HOSPITAL,JABALPUR   482002,TREATMENT OF PATIENTS,21,861,2,30-99
927,SPLENDID MOTORS,GRAM OURIYA PANAGAR  JABALPUR KATANGI ROAD 482002,SELLING AND REPAIRING OF MOTOR CARS,10,454,2,30-99
969,RAJA SONKAR,JABALPUR  GOUR PUL,CREASER,6,239,2,30-99
970,DATT BUILDERS SPORTS CLUB   HOTEL,TILHARI JABALPUR MANDALA ROAD 482020,SPORTS CLUB AND HOTEL,23,949,2,30-99
971,ARIHANT PALACE HOTEL REST AURENT ,RAJESH JAIN  JABALPUR RUSSEL CHOWK 482001,RESTAURENT,14,561,2,30-99
972,MEDAZ HOSPITAL,IN FRONT OF KAMLA BHANDAR JABALPUR MAIN ROAD ADHARTAL 482004,TREATMENT OF PATIENTS,21,861,2,30-99
973,B P FOOD PRODUCTS PVT LTD ,JABALPUR INDUSTRIAL ESTATE 482002,MAKING ATTA MAIDA SUJI,6,106,2,30-99
985,LIC,CITY BRANCH NO 1 JABALPUR CIVIC CENTRE MADHATAL 482002,SELLING LIFE INSURANCE,16,641,4,30-99
1003,VIKAS GUPTA,JABALPUR GWARIGHAT ROAD 482008,SELLING AND SUPPLYING OF BUILDING ITEMS,12,477,3,30-99
1004,B K HOTEL,JABALPUR MADHATAL 482001,HOTEL,14,561,2,30-99
1005,SARASWATI HIGHER SECONDERY SCHOOL,ADHARTAL  JABALPUR RAM NAGAR 482004,EDUCATION,20,852,5,30-99
1006,SARASWATI H S SCHOOL,JABALPUR JAGMOHAN WARD 483220,EDUCATION,20,852,9,30-99
1016,PHEONIX POLATRY,GORUKHPUR JABALPUR RATAN COLONY 482001,SELLING SMALL HENS,12,474,4,30-99
1017,MAJOR CONSTRUCTION PVT LTD ,JABALPUR INDUSTRIAL ESTATE 482004,MANUFACTURING MIXER MACHINE,6,275,2,30-99
1034,REVA KRIPA SUGARS PVT LTD ,SHAHPURA BHITONI  JABALPUR PATAN ROAD 483119,MANUFACTURING OF SUGAR,6,107,2,30-99
1035,SARASWATI HIGHER SECONDERY SCHOOL,RAMNAGAR ADHART AL JABALPUR MAHAKAUSHAL NAGAR 482004,EDUCATION,20,852,2,30-99
1060,ST  THOMAS HIGHER SECONDARY SCHOOL,CIVIL LINES JABALPUR  482001,EDUCATION,20,852,5,30-99
1061,ST  XAVIER INSTITUTE OF MANAGEMENT,TILHARI JABALPUR MANDALA ROAD 482021,EDUCATION,20,853,5,30-99
1062,DR  ATUL SULE,RAMPUR JABALPUR 482002,TREATMENT OF PATIENTS,21,861,2,30-99
1063,MANKUWAR BAI COLLEGE,JABALPUR  HOME SCIENCE COLLEGE ROAD 482002,EDUCATION,20,853,1,30-99
1064,ST NORBART SCHOOL ,NAPIER TOWN  JABALPUR  482001,EDUCATION,20,852,9,30-99
1079,AGENCY MARKETING AND BUSINESS,JABALPUR   482002,DISTRIBUTION OF WHOLESALE KIRANA  ,11,463,2,30-99
1080,PRESS,JABALPUR  SIHORA ROAD 483220,PRINTING PRESS,6,181,2,30-99
1156,DIGICABLE NETWORK  I  PVT LTD ,MUMBAI EAST  MAROL INDUSTRIES MIDC 400093,TELECAST OF ALL MAIN CHANNELS,15,581,2,30-99
1157,N M PUBLICATION PVT LTD ,JABALPUR  MR 4 ROAD 482002,PRINTING ANG PUBLISHING OF,6,181,3,30-99
1197,HDFC BANK,JABALPUR   482002,BANKING,16,641,9,30-99
1198,ICICI BANK,NAPIER TOWN  JABALPUR MODEL ROAD 482001,BANKING,16,641,9,30-99
1199,SHRI GURUNANAK GIRLS HIGHER,SECONDERY  JABALPUR CIVIC CENTRE MADHATAL 482002,EDUCATION,20,852,2,30-99
1223,COLLEGE OF COMPUTER  ,COMMUNICATION JABALPUR SHASTRI BRIDGE 482002,EDUCATION,20,853,2,30-99
1240,CMM KENDRIYA VIDHYALAYA,LEKHA NAGAR JABALPUR  482001,EDUCATION,20,852,5,30-99
1241,BHANDARI HOSPITAL,NAPIER TOWN  JABALPUR RAILWAY REST HOUSE 482001,TREATMENT OF PATIENTS,21,861,2,30-99
1242,RADHA HOTEL,JABALPUR  CIVIC CENTRE MADHATAL 482002,HOTEL,14,561,3,30-99
1243,VIKRANT TRADE COM PVT LTD ,VILLAGE OURIYA PANAGAR  JABALPUR KATANGI ROAD 482002,MAKING ICECREAM AND KETCHUP,6,105,4,30-99
1268,GURU GOVIND SINGH HIGHER SECONDERY,SCHOOL  JABALPUR CIVIC CENTRE MADHATAL 482002,EDUCATION,20,852,3,30-99
1338,MAHARSHI VIDHYA MANDIR,JABALPUR  AANAND CINEMA 482002,EDUCATION,20,852,2,30-99
1357,GURU GOVIND SINGH KHALSA H S SCHOOL,4TH BRIDGE ROAD JABALPUR 482001,EDUCATION,20,852,7,30-99
1358,CENTRAL ACEDOMY SCHOOL,DHARMENDRA KUMAR SHUKLA JABALPUR,EDUCATION,20,852,2,30-99
1386,DELHI PUBLIC SCHOOL,JABALPUR NEEMKHEDA 482021,EDUCATION,20,852,2,30-99
1387,SMALL WONDER H S  SCHOOL,BEHIND AGRAWAL PETROL PUMP BALDEOBAG  JABALPUR MAIN ROAD 482002,EDUCATION,20,852,2,30-99
1388,MEGMA FINANCE,NAPIER TOWN  JABALPUR FOURTH BRIDGE 482001,FACILITY OF INSURANCE OF VEHICLES,16,641,9,30-99
1435,A P N SCHOOL,MODI BAADA 482001,EDUCATION,20,852,1,30-99
1436,SARASWATI H S SCHOOL,GADHA JABALPUR GANGANAGAR 482003,EDUCATION,20,852,2,30-99
1437,SUKH SAGAR MOTORS PVT  LTD ,POLIPATHER JABALPUR NARMADA ROAD 482008,SALES AND SERVICE OF MOTOR VEHICLES,10,451,3,30-99
1438,SARASWATI H S  SCHOOL,RANJHI JABALPUR 482005,EDUCATION,20,852,2,30-99
1439,COMMERTIAL AUTOMOBILE,NAPIER TOWN  JABALPUR MODEL ROAD 482001,SELLING MOTOR VEHICLES,10,451,4,30-99
1491,CENTRAL INDIA TOBECO PVT LTD ,MAJHOLI JABALPUR WARD NO 15 483336,MANUFACTURING BIDI AND SALES,6,120,4,30-99
1492,MOHANLAL HARGOVIND DAS BIDI COMPANY,KATANGI  MAIN ROAD 483105,DISTRIBUTING AND SELLING BIDI,6,120,2,30-99
1493,RAJENDRA VERMA,JABALPUR  CIVIL LINES 482001,SALES OF IRON DOORS AND FLUSH DOORS,12,477,2,30-99
1494,FRONTIER CARS INDIA PVT  LTD , ANAND WADHWA  JABALPUR BYEPASS 482003,SELLING CARS,10,454,1,30-99
1495,ROYAL SENIOR SECONDARY SCHOOL,JABALPUR SANJEEVNI NAGAR 482002,EDUCATION,20,852,2,30-99
1496,ARHANT PALACE HOTEL JHILMIL HOTEL ,POORAN CHANDRA JAIN JABALPUR RUSSEL CHOWK 482001,LODGING AND BOARDING,14,561,2,30-99
1584,SUNIL KUMAR RAI  CREASER WORK,JABALPUR  PADWAR ROAD BARELA 482021,CREASER SELLING OF STONE CONCRETE,6,239,2,30-99
1585,BHARAT DISTRIBUTERS,JABALPUR  NAGPUR ROAD PREM NAGAR 482001,STORE AND SUPPLY OF COSMETICS,13,522,2,30-99
1586,BHARAT SEVEK SAMAJ HIGHER SEC ,SCHOOL JBP DWARKA NAGAR 482001,EDUCATION,20,852,1,30-99
1628,GURU GOVIND SINGH KHALSA SCHOOL,P P COLONY GWARIGHAT JABALPUR  482002,EDUCATION,20,852,6,30-99
1664,HOTEL KRISHNA  ARUN AGRAWAL,IN FRONT OF RANI DURGAVATI MUSEUM  JABALPUR NAPIER TOWN 482001,LODGING AND BOARDING,14,561,2,30-99
1704,DAYODAY PASHU SAMVARDHAN AVAM,PARYAVARAN TRUST GAU SHALA  TILWARA GHAT JABALPUR NAGPUR ROAD 482003,IN GAU SHALA CARE AND PROVIDING,2,14,5,30-99
1705,LEONARD HIGHER SECONDARY SCHOOL,SOUTH CIVIL LINES JABALPUR DENNING ROAD 482001,EDUCATION,20,852,2,30-99
1706,LITTLE KINGDOM SCHOOL,JABALPUR   482002,EDUCATION,20,852,3,30-99
1745,MISPA MISSION HIGHER SECONDARY,SCHOOL SIHORA JABALPUR AHUPURA 483225,EDUCATION,20,852,2,30-99
1746,TANYA CONVENT HIGHER SECONDARY,SCHOOL PATAN JABALPUR MAHUAKHEDA ROAD 483113,EDUCATION,20,852,3,30-99
1841,MARTHOMA SENIOR SECONDARY SCHOOL,KHITOLA SIHORA JABALPUR  483225,EDUCATION,20,852,9,30-99
1842,SAMUDAYIK SWASTHYA KENDRA HOSPITAL ,MAJHOLI JABALPUR CIVIL LINES 483336,TREATMENT OF PATIENTS,21,861,1,30-99
1843,MOVIE MAGIC,SOUTH AVENUE MALL JABALPUR NARMADA ROAD 482008,MULTIPLEX,22,931,4,30-99
1844,JALSHODHAK MUNICIPAL CORPORATION,RANJHI JABALPUR 482011,DISTRIBUTION OF WATER,8,360,1,30-99
1935,AYODHYA PRASAD TRIPATHI,JABALPUR  NAGPUR ROAD 482003,FOOD RELATED BUSINESS,14,561,2,30-99
1936,ARJUN JASUJA,JABALPUR JABALPUR MEDICAL ROAD 482003,LODGING AND BOARDING ARRANGI NG MARRIAGES PARTIES,14,551,2,30-99
1937,HITKARINI H S SCHOOL,DEVTAL GADHA  JABALPUR NAGPUR ROAD DEVTAL 482003,EDUCATION,20,852,9,30-99
1938,GOVERNMENT HOSPITAL,RANJHI JABALPUR 482011,TREATMENT OF PATIENTS,21,861,1,30-99
1939,AHAM ENTERPRIZES,JABALPUR   482002,FACTORY CLOTH SEWING,6,141,2,30-99
1940,VASAN EYE CARE HOSPITAL ,SHREEDHAR THAKUR NAPIER TOWN  JABALPUR JABALPUR HOSPITAL ROAD 482001,THEATMENT OF PATIENTS,21,861,2,30-99
1941,TATA TELE SERVICES SANJAY SHAH,NAPIER TOWN  JABALPUR AAHUJA TOWER 482001,TATA TELE SERVICES SANJAY SHAH,15,582,2,30-99
2008,JABALI GIRLS H S SCHOOL,SADAR  SUPPLY ROAD 482001,TEACHING,20,852,1,30-99
2009,AAYUSHMAN HOSPITAL CHILD HOSPITAL ,MUKESH HOSPITAL  JABALPUR RUSSEL CHOWK 482001,TREATMENT OF PATIENTS,21,861,2,30-99
2140,LPG PLANT,BHITONI JABALPUR 483119,FILLING AND DISTRIBUTION OF GAS,12,477,4,30-99
2141,VITS COLLEGE,JABALPUR   482021,EDUCATION,20,853,2,30-99
2142,JANTA DAIRY VIJAY SETHI ,JABALPUR   482021,SALES OF BAKERY ITEMS,2,14,2,30-99
2143,DAINIK JABALPUR EXPRESS,BEHIND PATRAKAR BHAVAN BALDEOBAG  JABALPUR MAIN ROAD  JABALPUR 482002,PUBLISHING NEWSPAPER,15,581,1,30-99
2144,STAR AUTOMOBILE MP LTD,60 GADHA JABALPUR NAGPUR ROAD TRIPURI CHOWK 482003,SELLING AND REPAIRING OF MAHINDRA,10,454,4,30-99
2145,ICICI UGICIAL INSURANCE,JABALPUR   482002,INSURANCE RELATED WORK,16,641,2,30-99
2146,SWATANTRA MAT OFFICE,JABALPUR  CIVIC CENTRE MADHATAL 482002,NEWSPAPER PRESS OFFICE,19,821,4,30-99
2147,SAMDARIA EARER CINEMA,JABALPUR  CIVIC CENTRE MADHATAL 482002,CINEMA THEATRE,22,900,4,30-99
2214,GOVERNMENT HOSPITAL,PATAN JABALPUR THAPAK WARD PATAN 483113,TREATMENT OF PATIENTS,21,861,1,30-99
2215,GOVERNMENT GIRLS H S SCHOOL,JABALPUR   482002,EDUCATION,20,852,1,30-99
2216,ANJUMAN ISLAMIA HIGH SCHOOL,JABALPUR  MAIN ROAD GOHALPUR 482002,EDUCATION,20,852,5,30-99
2217,WISDOM PUBLIC SCHOOL,JABALPUR  WRIGHT TOWN 482002,EDUCATION,20,852,2,30-99
2269,AGRAWAL PETROL PUMP,BALDEOBAG JABALPUR MAIN ROAD 482002,SELLING PETROL AND DIESEL,12,473,2,30-99
2270,CANTONMENT KHALSA SCHOOL HINDI ,482001,EDUCATION,20,852,1,30-99
2271,MRS  C  LOBO LEONARD SCHOOL,BILHARI JABALPUR 482020,EDUCATION,20,852,2,30-99
2272,MAHARSHI VIDHYA MANDIR,MAHESH YOGI JABALPUR  482002,EDUCATION,20,852,9,30-99
2273,RYAN INTERNATIONAL SCHOOL,DAMOH NAKA  JABALPUR STREET NO 16 482002,EDUCATION,20,852,2,30-99
2274,PUNJAB NATIONAL BANK,JABALPUR   482002,BANKING,16,641,1,30-99
2324,ANMOL PASRICHA,JABALPUR KATANGA 482001,MILK DAIRY,2,14,2,30-99
2325,EYE HOSPITAL NIDAN CARE,VIJAY NAGAR JABALPUR  482005,EYE HOSPITAL,21,861,2,30-99
2326,NAVYUG COLLEGE,CIVIL LINES JABALPUR  482001,COLLEGE,20,853,9,30-99
2327,NARAYAN NANDURI,FIFTH VIHAR COLONY JABALPUR 482008,SELLING AND SUPPLYING OF BUILDING ITEMS,9,410,7,30-99
2328,SARVODAYA HOSPITAL RAJESH AGRAWAL ,IN FRONT OF JABALPUR HOSPITAL  JABALPUR NAPIER TOWN 482001,TREATMENT OF PATIENTS,21,861,2,30-99
2421,ARUN GUPTA,JABALPUR  NAGPUR ROAD 482003,SELLING BUILDING MATERIALS,9,432,2,30-99
2422,MKS ENGINEERING PVT LTD ,JABALPUR  TIKHARI ROAD 482002,MKS ENGINEERING PVT LTD,6,239,2,30-99
2423,HITKARINI MAHILA MAHAVIDHYALAYA,SHRI A P  DUBEY SABHAPATI  JABALPUR JONESGANJ  JABALPUR 482001,EDUCATION,20,853,9,30-99
2424,M P PURVA,RANJHI JABALPUR 482011,PRODUCTION AND DISTRIBUTION OF,7,351,1,30-99
2425,IDEA COMPANY,JABALPUR KATANGA CROSSING 482001,PROVIDING MOBILE RELATED ACTIVITIES,12,472,4,30-99
2426,SUDARSHAN MOTORS ,NAPIER TOWN  JABALPUR BHAVARTAL GARDEN ROAD 482001,SELLING TWO WHEELERS,10,454,2,30-99
2555,SARASWATI HIGHER SECONDARY SCHOOL,SHAHPURA BHITONI  JABALPUR  483119,EDUCATION,20,852,5,30-99
2556,SARASWATI SHISHU H S  SCHOOL,GARA PHATAK  JAGDISH MANDIR JABALPUR  482002,EDUCATION,20,852,5,30-99
2557,GOVERNMENT GIRLS H S  SCHOOL,KARONDI RANJHI JABALPUR VFJ ROAD 482009,EDUCATION,20,852,1,30-99
2558,SHUBHAM HOSPITAL,MADAN MAHAL CHOWK JABALPUR NAGPUR ROAD 482001,HOSPITAL,21,862,3,30-99
2559,GANESH BRASS BAND PARTY ,GANESH PRASAD BEN JABALPUR MAIN ROAD HANUMANTAL 482001,BAND PARTY,22,900,1,30-99
2560,EWS H S SCHOOL,GOHALPUR  JABALPUR GOHALPUR 482002,RELIGIOUS EDUCATION,20,852,9,30-99
2561,M P STATE MINING CORPORATION LTD,NAPIER TOWN  JABALPUR FOURTH BRIDGE 482001,SAND UTKHANAN,5,51,1,30-99
2562,INDIAN COFFEE HOUSE,JABALPUR KARAMCHAND CHOWK 482001,INDIAN COFFEE HOUSE,14,561,9,30-99
2563,MOTOR MITRA PETROL PUMP ,SHREE SUDHIR GOGALIYA  JABALPUR BUS STAND 482001,SELLING PETROL,12,473,2,30-99
2564,IFFCO KISAN CALL CENTRE,ADHARTAL JABALPUR MAIN ROAD NH 7 482004,CALL CENTRE ACTIVITIES,19,822,1,30-99
2565,BIDI FACTORY,JABALPUR  RAILWAY STATION ROAD 483220,MANUFACTURING OF BIDI,6,120,2,30-99
2650,HITKARINI LAW COLLEGE,MR RAMESH KUMAR SHRIVASTAV JABALPUR JONESGANJ 482001,EDUCATION,20,853,9,30-99
2651,SAMDARIA CONVENT SCHOOL MANOJ,TAMRAKAR  IN FRONT OF DHANUSHDHARI TEMPLE OLD SUBHASH TALKIES 482002,EDUCATION,20,852,3,30-99
2652,STATE BANK OF INDIA,RANJHI JABALPUR KARONDI 482005,BANKING,16,641,1,30-99
2653,STEMFIELD INTERNATIONAL SCHOOL,ANAND COLONY BALDEOBA G  JABALPUR  482002,EDUCATION,20,852,2,30-99
2719,OM AGRO MATAR PLANT,JABALPUR,,6,275,2,30-99
2720,S S CONSTRUCTION,JABALPUR  TIKHARI ROAD 482002,CONSTRUCTION,9,410,3,30-99
2721,PRAKASH ENGINEERING COLLEGE,JABALPUR KOSAMGHAT 483001,EDUCATION,20,853,2,30-99
2722,SHAKUNTALA MEMORIAL TRUST,ORIENTAL ENGINEERING COLLEGE JABALPUR 482003,EDUCATION,20,853,9,30-99
2723,BHARTIYA KHAN BUREAU REGIONAL,OFFICE JABALPUR JAY NAGAR 482002,SCIENTIFIC DEVELOPMENT OF MINERALS,18,711,1,30-99
2724,SIMPLEX METALICA,MADAN MAHAL  JABALPUR NAGPUR ROAD 482001,ENGINEERING WORK,6,259,3,30-99
2840,INDIAN COFFEE HOUSE,SADAR JABALPUR ASHOKA ROAD 482001,COFFEE AND SNACKS,14,561,2,30-99
2841,HDFC LIFE,JABALPUR KATANGA CROSSING 482001,INSURANCE WORK,16,652,4,30-99
2964,LAXMI NARAYAN ENGINEERING COLLEGE,JABALPUR,EDUCATION,20,853,2,30-99
2965,RAMMU PAHADIA  SHIVAM ,JABALPUR  NAGPUR ROAD 482003,FOOD RELATED BUSINESS,14,561,2,30-99
2966,NAV BHARAT NEWSPAPER PRESS ,SHREE PRAFULL MAHESHWARI  JABALPUR NAPIER TOWN BUS STAND 482001,PRESS,6,181,2,30-99
2967,SHIVAI FABRICATORS PVT LTD ,JABALPUR INDUSTRIAL AREA 482004,MANUFACTURING TANKI OF VEHICLE,6,241,2,30-99
3167,POLICE THANA KATANGI,MAIN ROAD 483105,MANAGING VARIOUS ACTIVITIES OF,18,741,1,30-99
3168,NAGAR PARISHAD KATANGI,MAIN ROAD 483105,MANAGING VARIOUS ACTIVITIES OF,18,741,1,30-99
3169,MANUFACTURING OF BRICKS,JABALPUR   482003,MANUFACTURING AND SELLING OF BRICKS,6,239,2,30-99
3170,DHEERAJ DARYANI,JABALPUR CARAGWA ROAD 482003,PROPERTY SELLING,6,239,2,30-99
3171,CONCRETE UDHYOG LTD,JABALPUR   482051,MANUFACTURING OF ELECTRIC POLES,6,310,4,30-99
3172,JABALPUR ENGINEERS P C C  POLES,FACTORY JABALPUR 482051,MANUFACTURING OG ELECTRIC POLES AND,6,310,4,30-99
3173,GOVERNMENT H S  SCHOOL,SALIWADA  GAUR  JABALPUR  482021,EDUCATION,20,852,1,30-99
3174,HITKARINI CHILDREN ACADOMY,MR N P DUBEY ADYA KCHH  JABALPUR JONESGANJ JABALPUR 482001,EDUCATION,20,852,9,30-99
3175,JABALPUR ENTERTAINMENT COMPLEXES,PVT  LTD  SOUTH AVENUE MALL JABALPUR NARMADA ROAD 482008,MALL OFFICE,19,821,2,30-99
3176,JABALPUR SALES SERVICING PVT LTD ,VLCC JABALPUR GURUDWARA ROAD 482001,BEAUTY FITNEESS PARLOUR,23,960,4,30-99
3177,AIRTEL OFFICE AMIT VISHWAKARMA,MAHARAJA AGRASEN WARD  JABALPUR NEAR DEEN DAYAL CHOWK 482002,MOBILE RELATED ACTIVITIES,23,951,2,30-99
3178,FRONTIER STORES ,NAPIER TOWN  JABALPUR MODEL ROAD 482001,SALES OF MEDICINES IN WHOLESALE,11,463,3,30-99
3179,SUNDAR MOTORS,NAPIER TOWN  JABALPUR JABALPUR HOSPITAL ROAD 482001,SELLING OF TWO WHEELERS,10,454,3,30-99
3180,SINGH ENGINEERING COMPANY,JABALPUR  NAUDRA BRIDGE 482002,REPAIRING MOTOR PARTS,10,452,2,30-99
3181,POPULAR BREAD   FOOD FACTORY,JABALPUR INDUSTRIAL AREA 482004,MAKING BREAD AND FOOD,6,106,2,30-99
3182,MISPA MISSION SCHOOL,JABALPUR AADARSH CHOWK 482004,EDUCATION,20,852,2,30-99
3303,MAA NARMADA STONE CRASER,JABALPUR  TIKHARI ROAD 482002,STONE CRASER,6,239,2,25-29
3304,NARMADA NURSURY   K G JUNIOR SCHOOL,HANUMANTAL JABALPUR RAJA GOKULDAS ROAD 482002,EDUCATION,20,851,3,25-29
3305,KHALSA H S  SCHOOL,GURUDWARA SADAR JABALPUR 482001,EDUCATION,20,852,9,25-29
3432,ABHISHEK DAL MILL ,SAHAJPUR  JABALPUR JAIN DHARMSHALA 483119,MAKING OF MASUR AND CHANA DAL,6,275,2,25-29
3433,BATTRA BROTHERS, JASWEER SINGH BATTRA  JABALPUR BADA FUHARA 482002,SELLING CLOTHES,12,475,2,25-29
3434,PRIVATE COLLEGE,AJAY SATYA PRAKASH GROVER JABALPUR  482002,EDUCATION,20,853,2,25-29
3435,COLIN MEMORIAL SCHOOL,JABALPUR SANJEEVNI NAGAR 482002,EDUCATION,20,852,2,25-29
3436,DESHBANDHU PRESS PUBLICATION OF,NEWSPAPER   DEEPAK SURGEN  JABALPUR DESHBANDHU COMPLEX 482001,DESHBANDHU PRESS PUBLICATION OF,15,581,2,25-29
3437,M K INDUSTRIES,JABALPUR   482004,MANUFACTURING AUTOMOBILE PARTS,6,291,2,25-29
3580,SHANTANU POLTRY FARM,JABALPUR   482021,MURGIPALAN,2,14,2,25-29
3581,JABALPUR INSTITUTE OF NURSING,  RESEARCH  MR  RAJESH AGARWAL  JABALPUR JONESGANJ JABALPUR 482001,EDUCATION,20,853,9,25-29
3582,KSHITIJ MODEL SCHOOL,GADHA JABALPUR 482003,EDUCATION,20,852,2,25-29
3583,MADHYA PRADESH RAJYA SAHKARI VIPDAN,SANGH JABALPUR MR 4 ROAD 482002,SELLING AND PURCHASING OF,12,477,1,25-29
3584,ANJUMAN ISLAMIA COLLEGE ,GOHALPUR  JABALPUR MAIN ROAD NH 7 482002,EDUCATION,20,853,5,25-29
3585,AXIS BANK,JABALPUR  MODEL ROAD 482002,BANKING,16,641,2,25-29
3586,SHIKHAR PAALCE   PANGAT RESTAURENT ,CHAKRESH JAIN  JABALPUR RUSSEL CHOWK 482001,LODGING AND BOARDING,14,561,2,25-29
3587,ST PALS HIGHER SECONDERY SCHOOL,NAPIER TOWN  JABALPUR FOURTH BRIDGE 482001,EDUCATION,20,852,2,25-29
3588,PREMIER STEEL INDUSTRIES,JABALPUR INDUSTRIAL AREA 482004,MAKING CASTING AND CHAKKI,6,266,2,25-29
3589,SHANTI NIKETAN SCHOOL,JAI MAA ENTERPRIZES PANAGAR JABALPUR NH 7 483220,EDUCATION,20,852,3,25-29
3775,MANUFACTURING OF BRICKS,JABALPUR   482003,MANUFACTURING AND SELLING OF BRICKS,6,239,2,25-29
3776,SAI TVS TELECOM FACTORY ,GATE NO 2 JUHI PLAZA  JABALPUR 482002,SELLING ANG REPAIRING OF MOTOR,10,452,2,25-29
3777,SANTOSH SINGH   SONS ,MAHANADDA GUPTE SHWER WARD  JABALPUR TARASINGH MARG 482001,TRUCK SERVICING CENTRE,10,452,2,25-29
3778,YOUNG CREATION  VARDHMAN TOWER,JABALPUR   482002,CLOTH SEWING WORK,6,141,2,25-29
3779,RUPALI RESTAURENT  S K PAL,IN FRONT OF NAUDRA BRIDGE  JABALPUR  482001,RESTAURENT,14,561,2,25-29
3780,SINGH   SINGH ELECTRICAL,ADHARTAL JABALPUR SINGH STATE 482004,IRON WORK ELECTRICAL,6,259,2,25-29
4037,M S SATPURA REFACTORIES,JABALPUR   482003,IRON BHATTI BRICKS MANUFACTURING,9,410,2,25-29
4038,JITENDRA MOTVANI,MANEGAON JABALPUR MAGPUR ROAD 482051,SALLING BUILDING MATERIAL,9,410,2,25-29
4039,JABALI POLES PVT LTD ,P C C  POLE FACTORY JABALPUR 482051,MANUFACTURING OF ELECTRIC POLES AND,6,310,2,25-29
4040,MUNNA SHRIPAL DAIRY,JABALPUR   482021,SELLING DAIRY ITEMS,2,14,2,25-29
4041,JAGDAMBA AMW AUTO MOTORS PVT  LTD ,PUSHPENDRA SINGH JABALPUR MEDICAL ROAD 482003,SELLING CARS,10,454,1,25-29
4042,JOY SCHOOL MULBURY HEIGHTS KINDAR,GARDAN JABALPUR KACHHPURA MR 4 ROAD 482002,EDUCATION,20,852,2,25-29
4043,ANJUMAN ISLAMIA PRIMARY SCHOOL ,JABALPUR GOHALPUR 482002,EDUCATION,20,851,5,25-29
4044,DR ANIL DUBEY,SERGEN DISPENSORY JABALPUR GHAMAPUR 482002,DR ANIL DUBEY SERGEN AND DISPENSORY,21,862,3,25-29
4045,MEDICELL FAREDEAL PHARMA,JABALPUR  WRIGHT TOWN 482002,SELLING MEDICINES IN WHOLESALE,12,477,2,25-29
4046,MUKHERJEE HOSPITAL,JABALPUR   482002,TREATMENT OF BONES RELATED DISEASES,21,861,2,25-29
4047,PANCHWATI HOTEL,JABALPUR  CIVIC CENTRE MADHATAL 482002,HOTEL,14,561,3,25-29
4048,CBSE SCHOOL,ADHARTAL JABALPUR JAI PRAKASH NAGAR 482004,EDUCATION,20,852,2,25-29
4049,JABALPUR STEEL PVT LTD ,JABALPUR INDUSTRIAL ESTATE 482004,MAKING IRON RODS AND ANGLE PATTI,6,259,2,25-29
4050,GENERAL IRECTORS   FABRICATORS,CORPORATION  JABALPUR INDUSTRIAL ESTATE 482004,MANUFACTURING DEFENCE ITEMS,6,108,2,25-29
4051,VIJAY INDUSTRIES,JABALPUR INDUSTRIAL ESTATE 482004,MANUFACTURING AUTO PARTS,6,291,2,25-29
4265,SARASWATI SHISHU MANDIR,SIHORA JABALPUR 483225,EDUCATION,20,852,1,20-24
4266,CHANDA DEVI NARAYAN PRASAD HIGHER,SECONDARY SCHOOL SIHORA JABALPUR  483225,EDUCATION,20,852,2,20-24
4267,OMKAR NAMDEV SARASWATI HIGHER,SECONDARY SCHOOL PATAN JABALPUR SHAHPURA ROAD 483113,EDUCATION,20,852,3,20-24
4268,RAILWAY STATION,SHAHPURA JABALPUR  483119,TRAVELLING AND TRASPOTATION,13,491,1,20-24
4269,RAMCHANDRA SHUWALKA,JABALPUR  NAGPUR ROAD 482003,SELLING BUILDING MATERIALS,9,432,2,20-24
4270,SADAR WINE SHOP,SADAR JABALPUR KINGSWAY ROAD  CANT 482001,SELLING WINE,12,472,2,20-24
4271,PUNJAB BANK,SADAR JABALPUR KINGSWAY ROAD 482001,BANKING,16,641,1,20-24
4272,SHRI SAI BAAB H S SCHOOL,BADKU KA BADA BADA PATTHER  RANJHI  JABALPUR  482005,EDUCATION,20,852,2,20-24
4273,OFCORD MOTOR,JABALPUR KATANGA CROSSING 482001,MOTOR WORK,10,451,2,20-24
4274,M S L N MALVIYA CONSULTENCY,GORUKHPUR JABALPUR RATAN COLONY 482001,CONSULTENCY,18,711,2,20-24
4275,DOMINO S PIZZA RESTAURENT,JABALPUR  MR 4 ROAD 482003,SELLING AND HOME DELIVERY OF PIZZA,14,561,4,20-24
4276,SARASWATI SHISHU MANDIR HIGHER SEC ,SCHOOL GALGALA JABALPUR GALGALA JABALPUR 482001,EDUCATION,20,852,5,20-24
4277,BANK OF INDIA,JABALPUR  RUSSEL CHOWK 482002,BANKING,16,641,9,20-24
4487,DAINIK JAILOK PRESS,BALDEOBAG JABALPUR BALDEOBAG ROAD 482002,PUBLISHING NEWSPAPER,6,181,2,20-24
4488,SHREE AMBIKA TRADERS, GHANSHYAM DAS KHATRI  JABALPUR 482002,SELLING CLOTHES,12,475,2,20-24
4489,ROYAL H S SCHOOL,GADHA  JABALPUR 482003,EDUCATION,20,852,2,20-24
4490,SARASWATI H S SCHOOL,JABALPUR  BARGI HILLS 482050,EDUCATION,20,852,3,20-24
4491,SARASWATI SHISHU VIDHYA MANDIR,JAY NAGAR JABALPUR JAY NAGAR 482002,EDUCATION,20,852,2,20-24
4492,HOTEL KANAK   RESTAURANT,NARSINGH WARD MADAN MAHAL  JABALPUR MADAN MAHAL STATION ROAD 482002,LODGING   BOARDING,14,561,3,20-24
4493,BANGAL PATHOLOGY,JABALPUR   482002,HEALTH RELATED SERVICES,21,869,2,20-24
4494,INDUSIND BANK,NAPIER TOWN  JABALPUR MODEL ROAD 482001,BANKING,16,641,9,20-24
4495,MAHINDRA EDUCATION PVT LTD  ,NAPIER TOWN  JABALPUR FOURTH BRIDGE 482001,EDUCATION,20,854,2,20-24
4496,SMT BINNI BAI JAIN KANYA SHALA,JABALPUR  NH 7 483220,EDUCATION,20,852,9,20-24
4780,GOVERNMENT UTKRAST HIGHER SECONDARY,SCHOOL SHAHPURA 483119,EDUCATION,20,852,1,20-24
4781,CENTRAL SCHOOL T F R I ,JABALPUR  SAMADHI ROAD 482021,EDUCATION,20,852,1,20-24
4782,SAHNI HOSPITAL,JABALPUR NARMADA ROAD 482001,TREATMENT OF PATIENTS,21,861,2,20-24
4783,HOTEL THE GALAXY,MADAN MAHAL  JABALPUR MADAN MAHAL STATION ROAD 482002,LODGING AND RESTAURANT,14,561,3,20-24
4784,DR BHARDWAJ CLINIC,JABALPUR  WRIGHT TOWN 482002,TREATMENT OF PATIENTS,21,862,2,20-24
4785,BULBUL KIDS MIDDLE SCHOOL,ADHARTAL  JABALPUR RAVINDRA NAGAR 482004,EDUCATION,20,852,2,20-24
4786,AMRIT INDUSTRIES,JABALPUR INDUSTRIAL AREA 482004,MAKING ALMIRAH COOLAR TA BLE AND,6,264,2,20-24
4787,PRESS,JABALPUR  RAILWAY STATION ROAD 483220,PRINTING PRESS,6,181,2,20-24
4788,SARVOTTAM HIGH SCHOOL,JABALPUR  NH 7 483220,EDUCATION,20,852,2,20-24
5100,JANKI RAMAD SCHOOL,KATANGI  TALAB MARG 483105,EDUCATION,20,852,9,20-24
5101,BHANU FARMS,S K PALOD JABALPUR PATAN ROAD 483119,FOOD PROCESSING,6,106,2,20-24
5102,DR  AMIT KHARE STAR CITY HOSPITAL,JABALPUR  PWD MAIN ROAD 483119,TREATMENT,21,861,3,20-24
5103,NAVAMBE CONVENT SCHOOL,JABALPUR  RAMPUR 482004,EDUCATION,20,852,6,20-24
5104,RAHUL HOTEL RESTAURENT   ,KULDEEP KOHLI JABALPUR IN FRONT OF JYOTI CINEMA 482001,RESTAURENT,14,561,2,20-24
5105,VIJYA PRIMARY MIDDLE SCHOOL ,AALIV JAIN LAJRAS  JABALPUR  482001,EDUCATION,20,852,2,20-24
5106,SAMDARIA ABHUSHAN,JABALPUR  CIVIC CENTRE MADHATAL 482002,SELLING JEWELLERY,12,475,2,20-24
5107,GOLCHHA HOSPITAL  DR VIMAL GOLCHHA,NAPIER TOWN  JABALPUR  482001,TREATMENT OF PATIENTS,21,861,2,20-24
5108,MAYUKH CONSTRUCTION ,ADHARTAL  JABALPUR ALOK NAGAR  482004,BUILDING AND ALL OTHER CONSTRUCTION,9,410,2,20-24
5532,M P  VIDHYUT MANDAL KATANGI,MAIN ROAD 483105,ELECTRICITY SUPPLY,7,351,1,20-24
5533,GOVT  GIRLS H S  SCHOOL,KATANGI  MAIN ROAD 483105,EDUCATION,20,852,1,20-24
5534,AJAY AGRAWAL,JABLPUR  CARAGWA ROAD 482003,WHOLESALE BUSINESS,11,464,2,20-24
5535,BARGI POLES PVT LTD ,JABALPUR   482051,MANUFACTURING OF ELECTRIC POLES,6,239,2,20-24
5536,TAMVINDAR KAUR GUJRAL KINGSWAY,SADAR JABALPUR 482001,GAS SUPPLY,12,477,2,20-24
5537,ANKIT RESTAURENT,JABALPUR   482001,FOOD FACILITY,14,561,2,20-24
5538,SWAMI AYAPPA HIGHER SECONDARY,SCHOOL BILHARI JABALPUR  482020,EDUCATION,20,852,9,20-24
5539,MAHENDRA KUMAR SETHI,JABALPUR,MARRIAGE HALL,21,889,2,20-24
5540,JAGOHAN DAS HIGH SCHOOL,JABALPUR  RATAN NAGAR 482002,EDUCATION,20,852,9,20-24
5541,FRONTIER BAJAJ,JABALPUR  GULATI PETROL PUMP ROAD 482001,SELLING AND REPAIRING OF,10,454,2,20-24
5542,CHHABRA 555,JABALPUR  MAIN ROAD GORAKHPUR 482001,SELLING CLOTHES,12,475,4,20-24
5543,AMIT ANAND ,KRISHI UPAJ MANDI  JABALPUR DAMOH ROAD 482002,WHOLESALE WORK OF BOSCH,11,463,2,20-24
5544,N S B  TELECOM,JABALPUR  HOME SCIENCE COLEGE ROAD 482002,DATA ENTRY SERVICES,15,582,3,20-24
5545,HARSH MARKETING,CORPORATION MARKETING JABALPUR MODEL ROAD 482002,SALES OF CADBURY PRODUCT IN,12,477,2,20-24
5546,FULLERTON INDIA CREDIT COMPANY LTD , RITUPARN VERMA  JABALPUR  482001,FINANCE WORK,16,641,2,20-24
5547,SURYODAYA HIGHER SECONDERY SCHOOL,JABALPUR  KATRA 482004,SCHOOL,20,852,6,20-24
5548,SYMBOISYS SCHOOL,JABALPUR  MAIN ROAD ADHARTAL 482004,EDUCATION,20,852,2,20-24
5549,SOHAM BAKERY PVT LTD ,JABALPUR INDUSTRIAL AREA 482004,MAKING BAKERY ITEMS,6,107,2,20-24
5550,P C I  PIPE FACTORY,JABALPUR INDUSTRIAL ESTATE 482004,MANUFACTURING PIPE POLE AND TILES,6,222,2,20-24
5551,SUKHDEV ENTERPRIZES,JABALPUR INDUSTRIAL ESTATE 482004,MAKING IRON BOXES AND OTHER THINGS,6,259,2,20-24
5889,RADHA MOTORS AGENCY,MAJHOLI  SIHORA ROAD 483336,MOTERS AGENCY,10,454,2,15-19
5890,GOVERNMENT EXCELLENCE HIGHER,SECONDARY SCHOOL PATAN JABALPUR MAIN ROAD 483113,EDUCATION,20,852,1,15-19
5891,VIJAY KHODIYAR,JABALPUR,S V  KHODIYAR   COMPANY,9,410,2,15-19
5892,PRADEEP CHINANI,JABALPUR  NAGPUR ROAD 482003,FOOD RELATED BUSINESS,14,561,2,15-19
5893,MAHARSHI VIDHYA MANDIR,JABALPUR SANJEEVNI NAGAR 482003,EDUCATION,20,852,1,15-19
5894,MUKESH CHOURASIA,JABALPUR   482003,EDUCATION,20,852,2,15-19
5895,NAGENDRA CHIKIN CENTRE,JABALPUR  GADA ROAD 482002,RESTAURENT CHIKIN  ,14,561,2,15-19
5896,HB COLLEGE,VIJAY NAGAR  JABALPUR  482001,EDUCATION,20,853,2,15-19
5897,HITKARINI SCIENCE COMMERCE  ARTS,COLLEGE JABALPUR NAGPUR ROAD DEVTAL 482003,EDUCATION,20,853,9,15-19
5898,J E S SCHOOL NEW SHOBHAPUR,JABALPUR   482009,EDUCATION,20,852,2,15-19
5899,GOVERNMENT SC ST RESIDENTIAL SCHOOL,SHARDA NAGAR RANJHI JABALPUR VFJ ROAD 482009,EDUCATION,20,852,1,15-19
5900,GOVERNMENT H S  SCHOOL,GANESH GANJ RAM NAGAR JABALPUR VFJ ROAD 482009,EDUCATION,20,852,1,15-19
5901,MARUTI LOAN BOND,MADAN MAHAL  JABALPUR NAGPUR ROAD 482001,MOLDING WORK ON IRON PIPES BY,6,241,2,15-19
5902,RELIANCE FRESH,DAMOH NAKA  JABALPUR CHERITAL 482002,RETAIL BUSINESS,12,472,4,15-19
5903,BHARAT PETROLIUM,JABALPUR  MODEL ROAD 482002,SALES OF PETROL DIESEL AND VEHICLE,12,473,3,15-19
5904,VIKRANT TRADE COM PVT LTD OFFICE,JABALPUR   482002,FREEZO ICECREAM OFFICE,19,821,2,15-19
5905,RAVINDRA CHHAVDA,JABALPUR  RUSSEL CHOWK 482001,ANMO0L HYUNDAI WORKSHOP ,10,452,2,15-19
5906,HITWADA PRESS,JABALPUR  CIVIC CENTRE MADHATAL 482002,NEWSPAPER OFFICE,6,181,3,15-19
5907,PRIYADARSHNI SUVIDHA SWA SEVA,KENDRE  JABALPUR CIVIC CENTRE MADHATAL 482002,KIRANA   GENERAL STORES,12,472,3,15-19
5908,HOLY LIGHT CHILDREN SCHOOL,JAI PRAKASH NAGAR ADHARTAL  JABALPUR MAIN ROAD 482004,EDUCATION,20,852,2,15-19
6330,GOVERNMENT GIRLS SCHOOL,MAJHOLI JABALPUR VISHNU VARAH 483336,EDUCATION,20,852,1,15-19
6331,GOVERNMENT GIRLS HIGHER SECONDARY,SCHOOL SHAHPURA 483119,EDUCATION,20,852,1,15-19
6332,ARIHANT PUBLIC SCHOOL,SHAHPURA JABALPUR SHAHPURA 483119,EDUCATION,20,851,2,15-19
6333,MUKTYAR SINGH,JABALPUR  GAUR RIVER 482021,MILK DAIRY,2,14,2,15-19
6334,MARBLE ROCK PVT  SCHOOL,JAABLPUR KHAMARIA GAUR  482021,EDUCATION,20,852,2,15-19
6335,PIPALWALA SHOP, SHARAD SAMAIYA  JABALPUR BADA FUHARA 482002,SELLING CLOTHES,12,475,2,15-19
6336,PAWANSUT WOODLANDS   HOTEL,SANDEEP JAIN  MAIN ROAD  CANT  JABALPUR 482001,HOTEL AND RESTAURANT,14,561,2,15-19
6337,KANYA MAHAVIDHYALAYA,RANJHI JABALPUR 482009,EDUCATION,20,853,1,15-19
6338,RELIANCE FRESH SHOP,JABALPUR KATANGA CROSSING 482001,RETAIL SHOP,12,477,2,15-19
6339,LAXMI NARAYAN HOSPITAL,JABALPUR  NAGPUR ROAD 482001,TREATMENT OF PATIENTS,21,861,2,15-19
6340,MAHESHWARI VIDHYA NIKETAN SCHOOL,STATE BANK COLONY  JABALPUR LAXMIPUR 482003,EDUCATION,20,852,3,15-19
6341,KULDEEP AGRAWAL,JABALPUR  PREM MANDIR 482002,SALES OF PLASTIC SHEATS AND FLUSH DOORS,12,477,2,15-19
6342,H P GAS AGENCY, MAHAKAUSHAL GAS AGENCY  JABALPUR MODERN ROAD 482002,DISTRIBUTION OF GAS,12,477,3,15-19
6343,BAPI MAJUMDAR,JABALPUR  IN FRONT OF JYOTI CINEMA 482002,FACTORY OF REDEYMADE CLOTHES ,6,141,2,15-19
6344,SAGARDEEP ADVERTISING  M M BIG,IN FRONT OF DESHBANDHU COMPLEX  JABALPUR CENTRE PLAZA JABALPUR 482001,MAKING BANNER WORK,6,105,2,15-19
6345,NAVEEN VIDHYA BHAVAN SCHOOL ,M L GAUTAM NAPIER TOWN  JABALPUR 482001,EDUCATION,20,852,2,15-19
6346,ASSEMBLY OF GOD HIGHER SECONDERY,SCHOOL  JABALPUR 482001,EDUCATION,20,852,2,15-19
6347,HOTEL KOZY RESIDENCY SAMEER CHADDA,NEAR KRISHNA TALKIES CAMPUS  JAABLPUR NAPIER TOWN 482001,LODGING,14,561,2,15-19
6348,MAHARSHI VIDHYA MANDIR,ADHARTAL JABALPUR BEHIND NAGAR NIGAM MARKET 482004,EDUCATION,20,852,6,15-19
6349,KAJAL METERNITY   CHILDREN HOSPITAL,JABALPUR  MAIN ROAD ADHARTAL 482004,TREATMENT OF CHILDREN,21,861,2,15-19
6350,SUKH SAGAR INDUSTRIES,JABALPUR INDUSTRIAL AREA 482004,MAKING PULSES AND SPICES,6,106,2,15-19
6351,SHEENA INDUSTRIES,JABALPUR INDUSTRIAL ESTATE 482004,MAKING DEFENCE PUMP BODIES AND,6,273,2,15-19
6777,RACHNA MEMORIAL H S  SCHOOL,DARSHANI,EDUCATION,20,852,2,15-19
6778,GOVERNMENT COLLEGE,PATAN JABALPUR MAHUAKHEDA ROAD 483113,EDUCATION,20,853,1,15-19
6779,TINKU JAIN STONE CRASER,JABALPUR  TIKHARI ROAD 482002,STONE CRASER,6,239,2,15-19
6780,CREASER,JABALPUR  PURWA 483001,CREASER,6,239,2,15-19
6781,UNION BANK,SADAR JABALPUR 482001,BANKING,16,641,1,15-19
6782,PRAGATI PUBLIC SCHOOL,JABALPUR  GADHA JABALPUR 482003,EDUCATION,20,852,2,15-19
6783,JALARAM INTERPRIZES LTD CO ,P O TILWARA GHAT  JABALPUR RAMNAGRA BYE PASS 482003,MANUFACTURING OF PLYWOOD WINDOWS,6,310,3,15-19
6784,INDIAN PUBLIC SCHOOL,TILHARI JABALPUR JALARAM 482020,EDUCATION,20,852,2,15-19
6785,ROYAL HOSPITAL,JABALPUR  GADA ROAD 482002,TREATMENT OF PATIENTS,21,861,2,15-19
6786,DR SANJEEV BANERJEE,JABALPUR  NAV ADARSH COLONY 482002,TREATMENT OF PATIENTS,21,862,2,15-19
6787,STATE BANK OF INDIA,KAMLA NEHRU NAGAR JABALPUR MR 4 ROAD 482002,BANKING,16,641,1,15-19
6788,ST MARRY CONVENT SCHOOL,JABALPUR  SHIV NAGAR 482003,EDUCATION,20,852,2,15-19
6789,LITTLE FLOWER SCHOOL,P P COLONY GWARIGHAT JABALPUR  482008,EDUCATION,20,851,2,15-19
6790,CENTRAL BANK OF INDIA,JABALPUR GOKULPUR 482011,BANKING,16,641,2,15-19
6791,BHURA JEWELLERS,JABALPUR KATANGA CROSSING 482001,SELLING JEWELLERY,6,321,3,15-19
6792,AFLON INDUSTRIES,JABALPUR   482003,DEVELOPMENT OF IRON INSTRUMENTS,6,110,2,15-19
6793,STATE BANK OF INDIA,DAMOH NAKA  JABALPUR CHERITAL 482002,BANKING,16,641,1,15-19
6794,SARASWATI H S SCHOOL,JABALPUR KANCHAN VIHAR 482002,EDUCATION,20,852,2,15-19
6795,DEVANSHU ENTERPRISES,JABALPUR  MODERN ROAD 482002,SALES OF SIM CARD AND MOBILE,12,475,2,15-19
6796,VIDEOCON HOSPITAL,JABALPUR   482002,SALES OF ELECTRONIC ITEMS IN,11,463,4,15-19
6797,UNION BANK  H C MITTAL,JABALPUR  RUSSEL CHOWK 482001,BANKING,16,641,2,15-19
6798,NAV JAGRAN HIGHER SECONDERY SCHOOL,JABALPUR  NEAR SUBHASH CHOWK 482004,EDUCATION,20,852,2,15-19
6799,ANUPAM SCHOOL,JAI PRAKASH NAGAR ADHARTAL  JABALPUR  482004,EDUCATION,20,852,2,15-19
6800,SPLENDID TRADE LINK,GRAM OURIYA PANAGAR JABALPUR KATANGI ROAD 482002,MANUFACTURING OF WATER AND COLD,6,110,2,15-19
6801,BHARAT BHARTI SCHOOL,JABALPUR BRAMHANAUDA ROAD 483220,EDUCATION,20,852,2,15-19
7340,M S M ISHAQ M GULAM MODERN BIDI,FACTORY HATAULI 483336,MANUCTORING BIDI,6,120,4,15-19
7341,MANUFACTURING OF SHIVLING AND,STATUES JABALPUR KHULARI 482003,SHIVLING AVAM MURTI NIRMAN,6,239,5,15-19
7342,STATE BANK OF INDIA,SHAHPURA JABALPUR  483119,BANKING,16,641,1,15-19
7343,NEW RISHABH CRASER,JABALPUR  TIKHARI ROAD 482002,CRASER,6,239,2,15-19
7344,MID DAY FOOD GROUP,JABALPUR MAHAGWA 482021,MID DAY FOOD SARASWATI SAMUH,14,562,1,15-19
7345,PRADEEP ARORA,JABALPUR PATRAKAR COLONY 482002,CHILD CARE HOSPITAL,21,861,2,15-19
7346,CHHAYA BAND,NO  5 482001,BAND SHOP,22,900,2,15-19
7347,TRAFFIC JAM,SADAR JABALPUR 482001,RESTAURANT,14,561,1,15-19
7348,GYANARJAN PRIMARY AND MIDDLE SCHOOL,JABALPUR  VIKAS NAGAR 482003,EDUCATION,20,851,2,15-19
7349,NURSING COLLEGE,VIRENDRA PANDEY JABALPUR  482002,EDUCATION,20,853,2,15-19
7350,REGIONAL INSTITUTE OF MANAGEMENT  ,TECHNOLOGY JABALPUR JAY NAGAR 482003,EDUCATION,20,853,2,15-19
7351,REKHA TIWARI,DIXIT PURA  JABALPUR MANJU PATH 482002,EDUCATION,20,852,2,15-19
7352,AAYURVEDIC AUSHADHALAYA DAWA NIRMAN,COMPANY JABALPUR JILAHRIGHAT GWARIGHAT 482008,TREATMENT,6,282,2,15-19
7353,SADBHAVAN NASHA MUKTI KENDRE,DAMOH NAKA  JABALPUR SHANTI NAGAR 482002,CLINIC,21,862,2,15-19
7354,FRONTIER MOTOR SERVICE CENTRE,JABALPUR   482002,SERVICING OF VEHICLES,10,452,2,15-19
7355,GOVERNMENT PRIMARY SCHOOL ,GOVERNMENT SCIENCE WOMEN COLLEGE CAMPUS JABALPUR 482002,EDUCATION,20,851,1,15-19
7356,HARSH ENTERPRISES,CORPORARION MARKET JABALPUR MODEL ROAD 482002,COURIOR   FORCASTING AGENCY C F ,22,900,3,15-19
7357,LOGIC TREAD,JABALPUR   482002,FINANCE ADVISORY,16,641,2,15-19
7358,BONANZA PORTFOLIO LTD PHOTOGRAPHY ,IN FRONT OF DESHBANDHU COMPLEX  AJAY SHARMA JABALPUR CENTRE PLAZA 482001,BONANZA PORTFOLIO LTD ,16,642,2,15-19
7359,ICICI LOAN WARD LTD  SANJEEV SINGH,JABALPUR  RUSSEL CHOWK 482001,INCOME  EXPENDITURE ACCOUNT,16,641,2,15-19
7360,AADHAR HOUSING FINANCE PVT LTD ,HOME LOAN ASEEM BAJPAI  JABALPUR RUSSEL CHOWK 482001,HOME LOAN,16,642,2,15-19
7361,GUPTA ASSOCIATES OF CHARTERED,ACCOUNTANT  DHEERAJ GHAI  NAPIER TOWN JABALPUR ANAND CINEMA ROAD 482001,ACCOUNTS WORK,16,641,2,15-19
7362,DRUG HOUSE ,MEDICIN MARKET NAPIER TOWN  JABALPUR MODEL ROAD 482001,SALES OF MEDICINE IN WOLESALE,11,463,2,15-19
7363,SUNIL HOSIERY ,PRAMILA AGRAWAL JABALPUR NAPIER TOWN 482001,SELLING CLOTHES,12,475,2,15-19
7364,JYOTI CINEMA,JABALPUR  NAPIER TOWN 482001,ENTERTAINMENT,22,900,2,15-19
7365,MOHAN LAL SEKSARIYA,ADHARTAL JABALPUR INDUSTRIAL ESTATE 482010,IRON WORK,6,241,2,15-19
7366,GAYATRI CONSTRUCTION COMPANY,ADHARTAL JABALPUR ALOK NAGAR 482004,BUILDING AND ALL OTHER CONSTRUCTION,9,410,4,15-19
7367,HIRA PACKEGING FACTORY,JABALPUR INDUSTRIAL ESTATE 482004,MAKING POLYTHENE BAGS,6,105,2,15-19
7972,PRATHMIK SWASTHYA KENDRA,KATANGI  MAIN ROAD BAZAR 483105,TREATMENT,21,861,6,15-19
7973,ATHARVA PLASTIC INDUSTRIES,GANGAI CHARAGWA  JABALPUR  482003,MANUFACTURING OF PLASTIC MATERIAL,6,222,2,15-19
7974,M S SAI RAM MINRALS CHEMICALS,POWDER FACTORY JABALPUR GANGAI CHARAGWA 482003,MINRALS FACTORY,6,275,2,15-19
7975,RAJU BARMAN,JABALPUR  NAGPUR ROAD 482003,FOOD BUSINESS,14,561,2,15-19
7976,VINOD GUPTA,MANEGAON JABALPUR NAGPUR ROAD 482051,SELLING HARDWARE ITEMS,6,239,2,15-19
7977,SANDU KAPOOR,JABALPUR MANEGAON 482051,SELLING PAINTS,6,239,2,15-19
7978,SWANAL CHANSORIA,JABALPUR   482051,SALLING BUILDING MATERIAL,6,239,2,15-19
7979,HARIRAM RAJAK GRAM MUKUNWARA,POST GHAT PIPARIA JABALPUR GHAT PIPARIA 482003,MILK DAIRY,2,14,2,15-19
7980,SATNAM GILL,JABALPUR,MILK DAIRY,2,14,2,15-19
7981,SHRIKRISHNA H S  SCHOOL,GORA BAZAR JABALPUR  GORA BAZAR JABALPUR 482001,EDUCATION,20,852,1,15-19
7982,ST JOSEPH GIRLS HIGH SCHOOL CONVENT,HINDI MEDIUM PENTI NAKA SADAR JABALPUR MAIN ROAD 482001,EDUCATION,20,852,9,15-19
7983,HP PETROL PUMP,PANEHRA JABALPUR GCF 482011,SELLING PETROL,12,473,3,15-19
7984,HEMCHAND KULARA,PRAGATI PUBLIC SCHOOL JABALPUR 482003,EDUCATION,20,852,2,15-19
7985,SYNERGY CASH MANAGEMENT SERVICES,PVT LTD  JABALPUR LABOUR CHOWK 482002,CASH MAANGEMENT SERVICES,16,641,2,15-19
7986,MARKS FETCHER CLASSES,JABALPUR  JAY NAGAR 482001,COACHING CLASSES,20,854,3,15-19
7987,CGHS HOSPITAL,JABALPUR  TIPER III 9 10 11 12 482003,TREATMENT OF PATIENTS,21,861,1,15-19
7988,AMIT SAHU,JABALPUR  NEAR DHANI MARRIAGE HALL 482002,EDUCATION,20,853,2,15-19
7989,SARASWATI SHISHU MINDER GHAMAPUR,JABALPUR  VINOBA BHAVE WARD JBP 482001,EDUCATION,20,852,1,15-19
7990,RELIABLE DAIRY,JILAHRIGHAT GWARIGHAT JABALPUR  482008,SELLING MILK AND MILK PRODUCTS,12,473,2,15-19
7991,ASHUTOSH AGRAWAL,GWARIGHAT JABALPUR NARMADA ROAD 482001,SELLING IRON RODS AND CEMENT,12,473,2,15-19
7992,MADAN MAHAL HOSPITAL,JABALPUR  PREM NAGAR ROAD 482001,TREATMENT OF PATIENTS,21,861,2,15-19
7993,OIL AGENCY,NEAR LIC MADAN MAHAL  JABALPUR NAGPUR ROAD 482001,OIL AGENCY,11,463,2,15-19
7994,SUDISH BHARIL,KRISHI UPAJ MANDI  JABALPUR DAMOH ROAD 482002,SERVICING AND REPAIRING OF,12,477,4,15-19
7995,MIDLAND DIESEL SERVICES PVT LTD ,JABALPUR P O ROAD VIJAY NAGAR 482002,SERVICING AND REPAIRING OF,12,477,4,15-19
7996,FIRST STEP PLAY   JUNIOR SCHOOL ,JABALPUR  ASHOK NAGAR ADHARTAL 482004,EDUCATION,20,851,2,15-19
7997,BANK OF BARODA,JABALPUR  SHASTRI BRIDGE 482002,BANKING,16,641,2,15-19
7998,NAVNEET SINGH,JABALPUR   482002,,12,477,2,15-19
7999,VIJAYA BANK  DEEPAK KUMAR,JABALPUR  IN FRONT OF JYOTI CINEMA 482001,BANKING,16,641,9,15-19
8000,THE NEW INDIA INSURANCE CO  ,SANJAY SHREEVASTAV  JABALPUR RUSSEL CHOWK 482001,INSURANCE,16,641,2,15-19
8001,MAX LIFE INSURANCE,JABALPUR   482002,LIFE INSURANCE,16,641,2,15-19
8002,STATE BANK OF INDIA,ADHARTAL JABALPUR KANCHANPUR ROAD 482004,BANKING,16,641,1,15-19
8003,JABALPUR INSTITUTE OF COMPUTER,SCIENCE AMAR COMPLEX  JABALPUR ANAND NAGAR ADHARTAL 482004,COMPUTER COACHING,20,854,3,15-19
8004,FURNITURE   FURNITURE,JABALPUR INDUSTRIAL AREA 482004,MAKING WOODEN ITEMS,11,463,2,15-19
8005,KANTA HERBALS,JABALPUR INDUSTRIAL ESTATE 482004,PACKING MEHANDI,12,477,2,15-19
8006,SWASTIK UDYOG,JABALPUR INDUSTRIAL ESTATE 482004,MANUFACTURING IRON ITEMS ,6,259,2,15-19
8583,POOJA INDUSTRIES,JABALPUR  GADIA MOHALLA 483225,MANUFACTURING OF GERAN AND LAL MITTI,6,239,2,10-14
8584,GOVT BOYS H S  SCHOOL,KATANGI PANCHAMPURA 483105,EDUCATION,20,852,1,10-14
8585,MISPA MISSION SCHOOL,PATAN JABALPUR JABALPUR ROAD 483113,EDUCATION,20,852,3,10-14
8586,HAVELI DHAVA   RESTAURENT,TEVAR JABALPUR BHEDAGHAT ROAD 482003,DHABA AND RESTAURENT,14,561,2,10-14
8587,HARI YADAV,JABALPUR KAUSAMGHAT,SELLING DAIRY ITEMS,11,463,2,10-14
8588,SHREE DADA DHAN DHAN PAL STONE,CREASER HINAUTIA BHAI JABALPUR 483001,CREASER,6,239,1,10-14
8589,JAIN KANYA H S  SHOOL,JAWAHARGANJ TRUST NARESH CHANDRA GADWAL ADYAKCHH  KHOVA MANDI 482002,EDUCATION,20,852,5,10-14
8590,DIGAMBAR JAIN,LAXMI PRATISTHAN JABALPUR KAMANIA GATE JABALPUR 482002,SELLING CLOTHES,12,475,2,10-14
8591,KAILIS FAST FOOD JABALPUR,482001,RESTAURANT,14,561,2,10-14
8592,CANTONMENT KHALSA SCHOOL ENGLISH ,JABALPUR  SUPPLY ROAD 482001,EDUCATION,20,852,5,10-14
8593,LEONARD THEOLOGICAL COLLEGE,JABALPUR   482002,EDUCATION,20,853,3,10-14
8594,BALMUKUND CHOUDHA, PETROL PUMP  JABALPUR  482003,SELLING PETROL,12,473,2,10-14
8595,SARDAR VALLABH BHAI PATEL SHISHU,GYAN MANDIR MADHYAMIC SCHOOL JABALPUR JAI NAGAR 482002,EDUCATION,20,851,2,10-14
8596,GIRIJA MEMORIAL H S SCHOOL,JABALPUR SANJEEVNI NAGAR 482002,EDUCATION,20,852,2,10-14
8597,NAGPAL GULATI PETROL PUMP,MADAN MAHAL  JABALPUR NAGPUR ROAD 482001,SELLING OF PETROL AND DIESEL,12,473,3,10-14
8598,MAHARSHI BABRA NARMADA VIDHYAPITH,GWARIGHAT JABALPUR  482002,EDUCATION,20,852,2,10-14
8599,GUPTESHWAR NURSING HOME,JABALPUR  NEAR KRIPAL CHOWK,TREATMENT,21,862,2,10-14
8600,AXIS BANK LTD ,DAMOH NAKA  JABALPUR CHERITAL WARD 482002,BANKING,16,641,2,10-14
8601,NAV KISSAN BIO PLANT SUSHIL JAIN,JABALPUR  VIJAY NAGAR 482002,FARMERS  RELATED ACTIVITIES,1,13,4,10-14
8602,J K INDUSTRIES  GURMEET SINGH,JABALPUR  ITI ROAD 482002,FABRICATION REPAIRING WORK,6,139,2,10-14
8603,INDIRA HIGH SCHOOL,JABALPUR   482002,EDUCATION,20,852,2,10-14
8604,GOVERNMENT PRIMARY GIRLS URDU,SCHOOL GOHALPUR NO 2  JABALPUR GOHALPUR 482002,EDUCATION,20,851,1,10-14
8605,KOTHARI HOSPITAL,JABALPUR   482002,TREATMENT OF PATIENTS,21,861,2,10-14
8606,RUPALI HOTEL  SUBRAT PAL,JABALPUR  INCOME TAX CHOWK 482001,LODGING AND BOARDING,14,561,2,10-14
8607,SWAYAM HOTEL RESTAURENT   ,NEETA NAGANG  JABALPUR IN FRONT OF JYOTI CINEMA 482001,RESTAURENT,14,561,2,10-14
8608,I D B NALANDA INFRASTRUCTURE PVT,LTD PREM SINGH NAUDRA BRIDGE  JABALPUR 482001,I D B NALANDA INFRASTUCTURE PVT,9,410,2,10-14
8609,PRISM CEMENT LTD  AJAY AGRAWAL,NAUDRA BRIDGE  JABALPUR  482001,INCOME  EXPENDITURE ACCOUNT,18,692,2,10-14
8610,KISHORE KUMAR BALCHAND,ADHARTAL JABALPUR INDUSTRIAL ESTATE 482010,MANUFACTURING MASALA,6,106,3,10-14
8611,RAKSHA NIDHI HOSPITAL NURSING HOME ,ADHARTAL  JABALPUR  482004,MATERNITY HOUSE NURSING CARE,21,861,2,10-14
8612,AAKANCHHA GAS AGENCY,AMAN COMPLEX JABALPUR ANAND NAGAR ADHARTAL 482004,DISTRIBUTION OF GAS CYLENDERS,12,477,2,10-14
8613,SARASWATI METAL INDUSTRIES,JABALPUR INDUSTRIAL ESTATE 482004,DEFENCE AUTOMOBILE RAILW AY COACH  ,6,241,2,10-14
8614,M P ELECTRICITY BOARD,KUNDAM   483110,DISTRIBUTING ELECTRICITY,7,351,1,10-14
9257,SYNDICATE BANK  BADA FUHARA CHOWK ,JAWARGANJ  JABALPUR KHOVA MANDI 482002,BANKING,16,641,1,10-14
9258,NAYAK GARMENTS MANOJ NAYAK ,JAWAHARGANJ  JABALPUR GHAMANDI CHOWK 482002,SELLING CLOTHES,12,475,3,10-14
9259,SHER NAGRIK SAHKARI BANK,JABALPUR JAWAHARGANJ BADA FUHARA 482002,BANKING,16,641,6,10-14
9260,BRAJESH KUMAR JAIN,RUPALI KATPIS BHANDAR JABALPUR 482002,SELLING CLOTHES,12,475,2,10-14
9261,MANJUSHA NURSING HOME,SADAR JABALPUR MAIN ROAD 482001,HOSPITAL AND MATERNITY WORK,21,861,2,10-14
9262,S C GUPTA HOSPITAL   RESEARCH,CENTRE  SADAR JABALPUR  482001,HOSPITAL,21,862,2,10-14
9263,RUDRAKCHHA AYURVED PVT LTD ,TILWARA GHAT JABALPUR NAGPUR ROAD 482003,MANUFACTURING OF MEDICINES,6,210,2,10-14
9264,NILESH MASEEH,JABALPUR   482001,HOTEL,14,561,2,10-14
9265,NICE COMPUTER EDUCATION,JABALPUR  LABOUR CHOWK 482001,COMPUTER EDUCATION TRAINING CENTRE,20,854,2,10-14
9266,SINGHAI MOTORS,BEHIND ICICI ATM JABALPUR RANITAL MAIN ROAD 482002,REPAIRING,10,452,2,10-14
9267,ST MARRY MIDDLE SCHOOL,JABALPUR   482003,EDUCATION,20,851,2,10-14
9268,BANK OF INDIA,MADAN MAHAL  JABALPUR NAGPUR ROAD 482001,BANKING,16,641,1,10-14
9269,I T I ,MADAN MAHAL  JABALPUR MADAN MAHAL JABALPUR 482001,ITI ACTIVITIES,20,854,2,10-14
9270,STATE BANK OF INDIA,JABALPUR  PREM NAGAR ROAD 482001,BANKING,16,641,1,10-14
9271,AGRAWAL PAKERS   MOVERS,JOHNSON APARTMENT GORUK HPUR  JABALPUR 482001,PAKERS   MOVERS,13,522,2,10-14
9272,SWARAJ TRACTOR,KRISHI UPAJ MANDI  JABALPUR DAMOH ROAD 482002,,10,454,2,10-14
9273,SONPAPDI FACTORY,JABALPUR  SHANTI NAGAR DAMOH NAKA 482002,SONPAPDI FACTORY,6,102,2,10-14
9274,DARUL ULOOM AHALLEY SUNNAT,JABALPUR  CHHOTI MADAR TAKERI 482002,MADARSA RELIGIOU S EDUCATION ,20,854,2,10-14
9275,BHARAT ISPAT BHANDAR,GOHALPUR  JABALPUR RADDI CHOWKI KATNI ROAD 482002,SELLING OF IRON ANGLE AND PATTI,12,477,1,10-14
9276,STAR HEALTH 7 INSURANCE COMPANY,JABALPUR  NEAR HOME SCIENCE COLLEGE 482002,INSURANCE COMPANY OFFICE,16,641,4,10-14
9277,MAHINDRA FINANCE SEVICES LTD,JABALPUR  HOME SCIENCE COLLEGE ROAD 482002,PROVIDING FINANCE FOR PURCHASE OF,16,642,4,10-14
9278,APPOLO DISTRIBUTER  HARDEV SINGH,JABALPUR  RUSSEL CHOWK 482001,APPOLO DISTRIBUTER TYRE SHOP,12,477,2,10-14
9279,CHILDREN BOOK HOUSE ,SURYA PRAKASH VERMA  JABALPUR DESHBANDHU COMPLEX 482001,SELLING OF BOOKS COPIES AND OTHER,12,476,2,10-14
9280,DESHMUKH TEETH CLINIC ,ASHWIN DESHMUKH  JABALPUR RUSSEL CHOWK 482001,TEETH CLINIC,21,862,2,10-14
9281,STATE BANK OF PATIYALA ,AJAY KUMAR SHREEVASTAV  JABALPUR RUSSEL CHOWK 482001,BANKING,16,641,2,10-14
9282,NES LAW COLLEGE  N K GHOSH,NAPIER TOWN  JABALPUR  482001,EDUCATION,20,853,2,10-14
9283,PALAN MEDICOSE  JABALPUR HOSPITAL ,JAYESH PALAN NAPIER TOWN  JABALPUR JABALPUR HOSPITAL 482001,SELLING MEDICINES,12,477,2,10-14
9284,REVA B ED COLLEGE,ADHARTAL  JABALPUR MAHAKAUSHAL NAGAR 482004,EDUCATION,20,853,2,10-14
9285,AGRAWAL ENGINEERING WORKS,JABALPUR   482004,DEFENCE COMPONENET BOXES AND,6,267,2,10-14
9286,BRAMHATAKAR SAHKARI SAKH SAMITI,PANAGAR  JABALPUR  483220,SELLING FOOD ITEMS AND SEED  ,12,472,6,10-14
9287,PRADEEP MOOLCHANDANI,KUNDAM   483110,CREASING,6,239,2,10-14
10136,ST  JEPIKA MIDDLE SCHOOL,SIHORA JABALPUR PADANI COLONY 483225,EDUCATION,20,851,2,10-14
10137,STATE BANK OF INDIA,PATAN JABALPUR JABALPUR ROAD 483113,BANKING AND LOAN FACILITY,16,641,1,10-14
10138,STAR GOLD PUBLIC SCHOOL,TEVAR JABALPUR TRIPUR SUNDRI MANDIR ROAD 482003,EDUCATION,20,852,3,10-14
10139,ARUN JHAGYANI,JABALPUR MANEGAON 482051,SELLING FURNITURE,6,239,2,10-14
10140,VIVEK AGRAWAL,MANEGAON JABALPUR NAGPUR ROAD 482001,SELLING FURNITURE,6,239,1,10-14
10141,NAVDEEP WADHWA,BARGI JABALPUR NAGPUR ROAD 482051,SELLING FURNITURE,6,239,2,10-14
10142,RAJNEESH KHER,JABALPUR NARAYANPUR 482051,SELLING PAINTS,6,239,2,10-14
10143,SHEIKH BABU,JABALPUR GHANTAGHAR JABALPUR 482001,MILK DAIRY,2,14,2,10-14
10144,LAXMI SWA SAHAYTA SAMUH,SALIWADA JABALPUR MANDALA ROAD 482021,LAXMI SWA SAHAYTA SAMUH,21,889,2,10-14
10145,AAGANWADA SAH SWA SAHAYTA SAMUH,JABALPUR KALGOTHI 483001,AAGANWADI AND SHARDA SWA SAHAYTA,21,881,1,10-14
10146,HUM LOG MEN S WEAR  SUBHASH NAYAK ,JABALPUR KHAJANCHI CHOWK 482002,SELLING CLOTHES,12,475,3,10-14
10147,VAISHALI COMMUNITECH PVT  LTD ,RAJEEV KUMAR SINGH DIRECTORKINGSWA Y   482001,INFORMATION AND COMMUNICATION,15,582,3,10-14
10148,CENTRAL GOVERNMENT HEALTH SCHEME,DISPENCERY NO 3 LEKHA NAGAR  JABALPUR  482001,HOSPITAL,21,861,1,10-14
10149,MAHINDIRA   MAHINDIRA AREA OFFICE,NEAR KERELA BHAWAN SADAR JABALPUR  482001,OFFICE,10,451,4,10-14
10150,STATE BANK OF INDIA,GADHA JABALPUR 482003,BANKING,16,641,1,10-14
10151,RAJENDRA VERMA RAJU VERMA ,JABALPUR  DELITE COMPOUND 482001,BHMS COURSE,20,853,2,10-14
10152,TARITUS SOFTWARE SOLUTIONS PVT LTD ,JABALPUR  LABOUR CHOWK 482002,SOFTWARE DEVELOPMENT AND BESPAKE,15,581,2,10-14
10153,SHREE NARMADA HOSPITAL,JABALPUR SHABDIPURAM MR 4 ROAD 482002,TREATMENT OF PATIENTS,21,861,2,10-14
10154,SAM RETAIL A DIVISION OF JECPL,SOUTH AVENUE MALL JABALPUR 482002,FRENCHISE OF MAX RETAIL INDIA,12,477,3,10-14
10155,L N Y H S SCHOOL,KARONDI RANJHI JABALPUR VFJ ROAD 482009,EDUCATION,20,852,1,10-14
10156,SAUFIZ INFORMATION,JABALPUR KATANGA CROSSING 482001,,6,192,2,10-14
10157,LIMBANI   CO TIMBER MERCHANT ,MADAN MAHAL  JABALPUR NARSINGH WARD 482002,SAW MILL,6,161,2,10-14
10158,HANSRAJ PATEL  HANSRAJ PATEL,MAHANADDA GUPTE SHWAR WARD  JABALPUR TARASINGH WARD 482001,TIMBER TAUL,6,161,2,10-14
10159,NIVEDITA H S SCHOOL,JABALPUR  NEAR KRIPAL CHOWK,EDUCATION,20,852,2,10-14
10160,SUNIL BHAGCHANDANI,JABALPUR BALDEOBAG 482002,TRANSPORT BUSINESS,13,522,2,10-14
10161,SHAKUNTALA GUPTA,JABALPUR   482002,TATA PROJECT LIMITED,6,241,2,10-14
10162,SAMDARIYA PUBLIC SCHOOL HOSTEL,JABALPUR MADHOTAL GREEN CITY 482002,HOSTEL,14,561,2,10-14
10163,FARAN H S SCHOOL ,GOHALPUR  JABALPUR GOHALPUR 482002,EDUCATION,20,852,2,10-14
10164,SHRI ARVIND DANCE MUSIC SCHOOL,CHANDRIKA TOWER  JABALPUR CHANDRIKA TOWER 482002,DANCE MUSIC SCHOOL,20,854,2,10-14
10165,CHRIESTIAN HIGHER SECONDERY SCHOOL ,NEAR TAYYAB PETROL PUMP CHOWK RAKESH BRANS JABALPUR IN FRONT OF REGAL HOTEL 482001,EDUCATION,20,852,2,10-14
10166,VIMAL NURSING HOME,ADHARTAL JABALPUR MAIN ROAD NH 7 482004,HOSPITAL,21,861,2,10-14
10167,GRAM VIDIYAN,JABALPUR  G  7 RAVINDRA NAGAR 482004,PROVIDING LOAN TO WOMEN AFTER,16,641,4,10-14
10168,ORANGE TRAINING CENTRE ,IN FRONT OF SALGARIA PUBLIC SCHOOL JABALPUR RAVINDRA NAGAR ADHARTAL 482004,PROVIDING VOCATIONAL AND COMPUTER,20,854,3,10-14
10169,PREETI UDYOG,JABALPUR,FURNITURE MANUFACTURING,6,310,2,10-14
10170,RAJ TRADING FACTORY,JABALPUR INDUSTRIAL AREA 482004,MAKING PULSES,6,106,2,10-14
10171,J S FOOD,JABALPUR INDUSTRIAL ESTATE 482004,MAKING NAMKEEN,6,106,2,10-14
10172,MERIFIC INDUSTRIES,JABALPUR   482004,PACKING MATERIAL,12,477,2,10-14
10173,MAHAKAUSHAL FACTORY,JABALPUR   482004,MANUFACTURING CEMENT PIPES,6,222,2,10-14
10174,SHEELA BAKERY,JABALPUR INDUSTRIAL AREA 482004,MAKING BREAD AND PAV,14,561,2,10-14
10175,PUTTHA FACTORY,JABALPUR INDUSTRIAL ESTATE 482004,MAKING PUTTHA,6,272,2,10-14
10176,S R PUBLIC SCHOOL,JABALPUR  TEHSIL ROAD 483220,EDUCATION,20,852,2,10-14
10177,STATE BANK OF INDIA,JABALPUR  MAIN ROAD PAANGAR 483220,BANKING,16,641,1,10-14
10178,SHARDA YADAV,KUNDAM   483110,CREASING,6,239,2,10-14
10179,PRAKASH YADAV,KUNDAM   483110,CREASING,6,239,2,10-14
10180,ARJUN DAS,KUNDAM   483110,CREASING,6,239,2,10-14
11372,ANJUMAN ISLAMIA SCHOOL,SIHORA JABALPUR 483225,EDUCATION,20,852,9,10-14
11373,SAHKARI VIPDAN SAMITI,JABALPUR   483225,CLOTH BUSINESS AND SAHKARI VIPDAN SAMITI,12,479,6,10-14
11374,BAIS FILLING STATION,MAJHOLI  SIHORA ROAD 483336,SELLING DIESEL AND PETROL,12,473,2,10-14
11375,SUMAN GAS AGENCY,MAJHOLI  SIHORA ROAD 483336,DISTRIBUTION OF HP GAS,12,477,2,10-14
11376,TARA BAI SANMATI VIDHYA MANDIR,KANCHAN NAGAR KATANGI PIPARIA ROAD 483105,EDUCATION,20,852,2,10-14
11377,MILLENIUM SWA SAHAYTA SAMUH,JABALPUR   482003,FACTORY  MANUFACTURING OF STATUES,6,239,5,10-14
11378,ANJU BAGHEL,JABALPUR   482051,SELIING SEWING ITEMS,6,275,2,10-14
11379,KRISHNADHAM PUBLIC PVT  SCHOOL,JABALPUR  GAUR KHAMARIA 482021,EDUCATION,20,852,2,10-14
11380,SHIV SAMARTH SWA SAHAYTA SAMUH,JABALPUR MANDALA ROAD 482021,SWA SAHAYTA SAMUH SALVILA GAUR,21,889,2,10-14
11381,JAI MAA DURGA,SALIWADA JABALPUR MANDALA ROAD 482021,JAI MAA DURGA SAMUH SALIWADA,21,889,2,10-14
11382,EKTA SWA SAHAYTA SAMUH,JABALPUR MANDALA ROAD 482021,EKTA SWA SAHAYTA SAMUH,21,889,2,10-14
11383,RANI DURGAVATI SWA SAHAYTA SAMUH,JABALPUR MANDALA ROAD 482021,RANI DURGAVATI SWA SAHAYTA SAMUH,21,889,2,10-14
11384,PUNJAB NATIONAL BANK,JABALPUR  BADA FUHARA CHOWK 482002,BANKING,16,641,1,10-14
11385,SOLAR OFFSET,HANUMANTAL  JABALPUR DARHAI ROAD 482002,PRINTING PRESS,6,181,3,10-14
11386,DR SARVAPALLI RADHAKRISHNAN,CANTONMENT H S SCHOOL GORA BAZAR  JABALPUR GORA BAZAR 482001,EDUCATION,20,852,1,10-14
11387,SARASWATI GYANODAYA PUBLIC SCHOOL,JABALPUR BHOOKAMP COLONY 482003,EDUCATION,20,852,2,10-14
11388,R R DUBEY,TILWARA GHAT JABALPUR NAGPUR ROAD 482003,DISTRIBUTION OF PETROL   DIESEL,12,473,2,10-14
11389,SNEH SADAN,JABALPUR   482001,NON GOVERNMENTAL ORGANIZATION,21,889,7,10-14
11390,RAJIV GANDHI INSTITUTE OF SCIENCE ,TECHNOLOGY CIVIL LINES JABALPUR 482002,EDUCATION,20,853,2,10-14
11391,JYOTSANA NAGIYA,GENIUS NURSURY   MIDDLE SCHOOL JABALPUR GOPAL PURAM BILHARI 482001,EDUCATION,20,851,2,10-14
11392,VISHWAKARMA I T I ,JABALPUR  KAMLA NEHRU NAGAR 482003,I T I  TAINING CENTRE,20,854,2,10-14
11393,BHARTIYA MEMORIAL CONVENT SCHOOL,JABALPUR  UKHARI ROAD 482002,EDUCATION,20,852,3,10-14
11394,GAYATRI VIDHYA MANDIR H S SCHOOL,SAKET NAGAR JABALPUR  482002,EDUCATION,20,852,3,10-14
11395,SANMATI SHISHU MANDIR,JABALPUR  TRIPURI WARD SIDHHA NAGAR 482003,EDUCATION,20,852,2,10-14
11396,DR  AJAY BOSE,RAMPUR JABALPUR 482002,TREATMENT OF PATIENTS,21,862,1,10-14
11397,SHASKIYA KANYA HIGH SCHOOL,JABALPUR GOKULPUR 482011,EDUCATION,20,852,2,10-14
11398,INTER NATIONAL SCHOOL,NEW SHOBHAPUR JABALPUR  482009,EDUCATION,20,852,2,10-14
11399,ARYAVERT SAI INSTITUTE,JABALPUR  NEW SHOBHAPUR 482009,EDUCATION,20,853,2,10-14
11400,G P  MEMORIAL SCHOOL,JABALPUR  VEHICLE FACTORY ROAD 482005,EDUCATION,20,852,2,10-14
11401,ALLAHABAD BANK,JABALPUR NARMADA ROAD 482001,BANKING,16,641,1,10-14
11402,MITTAL GAS AGENCY,JABALPUR NARMADA ROAD 482001,DISTRIBUTION OF GAS CYLENDERS,12,477,2,10-14
11403,WISDOM VALLEY SCHOOL,JABALPUR NARMADA ROAD 482001,EDUCATION,20,852,2,10-14
11404,MAHAVIR SAW MILL ,MADAN MAHAL  JABALPUR AAMANPUR ROAD 482002,SAW MILL,6,161,2,10-14
11405,MAHADEV SAW MILL ,NARSINGH WARD MADAN MAHAL  JABALPUR AAMANPUR ROAD 482002,SAW MILL,6,161,2,10-14
11406,MATRIX FOR MEN   WOMEN,JOHNSON APARTMENT GORAK HPUR  JABALPUR 482001,BEAUTY PARLOUR,23,960,2,10-14
11407,MEDICAM,JABALPUR SHEETALPURI BALDE OBAG 482002,SALE PURCHASE OF MEDICIN,12,477,2,10-14
11408,SAROJ MISHRA MIDDLE PRIMARY NURSURY,SCHOOL JABALPUR CHERITAL SARASWA TI COLONY 482002,EDUCATION,20,851,2,10-14
11409,ASHOKA HALL SCHOOL,JABALPUR   482002,EDUCATION,20,852,2,10-14
11410,MANENDRA TRACTORS,JABALPUR   482002,,10,454,2,10-14
11411,HIMANSHU PARETA PRAKASH UDYOG ,NORTH MILLONIGANJ  JABALPUR SHANTI NAGAR ROAD 482002,AGARBATTI BUSINESS,6,259,2,10-14
11412,UNITY FURNITURE,GOHALPUR  JABALPUR KATNI ROAD 482002,IRON WORK IRON FABRICATION,12,477,2,10-14
11413,DR RAVI AGRAWAL EYE HOSPITAL,JABALPUR  DR RAVI AGRAWAL ROAD 482002,TREATMENT OF PATIENTS,21,861,2,10-14
11414,SANDILYA TIWARI INSTITUTE,JABALPUR  DR RAVI AGRAWAL ROAD 482002,EDUCATION RELATED TO COMPETITIVE,20,854,2,10-14
11415,SYS COMPUTER MANAGEMENT INSTITUTE,JABALPUR  NEAR HOME SCIENCE COLLEGE 482002,COMPUTER EDUCATION,20,854,3,10-14
11416,GOVERNMENT HOSTEL GOVERNME NT,HOME SCIENCE WOMEN COLLEGE  JABALPUR  482002,HOSTEL,14,561,1,10-14
11417,KANGAROO KIDS SCHOOL,JABALPUR   482002,EDUCATION,20,852,2,10-14
11418,NEW LOK SEVA TRAVELS,JABALPUR  BUS STAND 482002,OFFICE BUSES TRAVELS FROM ONE PLACE,13,522,2,10-14
11419,ENGLISH WINE SHOP,JABALPUR  BUS STAND 482002,SELLING WINE,12,472,2,10-14
11420,MAA ROHANI TRAVELLS,JABALPUR   482002,BUS TRAVELL SERVICE,13,522,2,10-14
11421,PAWAR LODGE,JABALPUR  BUS STAND 482002,LODGING,14,561,2,10-14
11422,NEW PAWAR RESTAURENT,JABALPUR  MAIN BUS STAND 482002,RESTAURENT,14,561,2,10-14
11423,BALAJI MARKETING,TAYYABALI PETROL PUMP CHOWK JABALPUR  482001,BALAJI MARKETING  FINANCE WORK,16,641,2,10-14
11424,SHIVALAYA LODGE  MAYANK YADAV,JABALPUR  RUSSEL CHOWK 482002,LODGING,14,561,2,10-14
11425,UNION BANK ASHISH KUMAR,IN FRONT OF MARUTI SHOWROOM JABALPUR NAPIER TOWN 482001,BANKING,16,641,9,10-14
11426,PETROL PUMP  SAROJ AGRAWAL,NAPIER TOWN  JABALPUR JABALPUR HOSPITAL ROAD 482001,SELLING PETROL,12,473,2,10-14
11427,BANK OF MAHARASHTRA ,DHANANJAY VISHWAS NAPIER TOWN  RUSSEL CHOWK JABALPUR ANAND CINEMA ROAD  482001,BANKING,16,641,9,10-14
11428,THE OISONS FAMILY RESTAURENT ,KAMALJEET SINGH  JABALPUR MADHATAL 482001,RESTAURENT,14,561,2,10-14
11429,AADARSH GYAN SAGAR MADHYAMIC SCHOOL,JABALPUR  WARD NO 35 482003,EDUCATION,20,852,2,10-14
11430,ABHINANDAN HOSPITAL,ADHARTAL TRIANGLE JABALPUR SHOBHAPUR ROAD 482004,TREATMENT OF PATIENTS,21,861,2,10-14
11431,TRIMURTI SCHOOL PRIMARY ,ADHARTAL JABALPUR RAMNAGAR 482004,EDUCATION,20,851,2,10-14
11432,ST MATTHEWS MIDDLE SCHOOL,ADHARTAL  JABALPUR RAVINDRA NAGAR 482004,EDUCATION,20,852,2,10-14
11433,GYAN GARIMA MIDDLE PUBLIC SCHOOL,ADHARTAL  JABALPUR RAVINDRA NAGAR,EDUCATION,20,852,2,10-14
11434,IDEAL PLAY SCHOOL,ADHARTAL  JABALPUR RAVINDRA NAGAR 482004,EDUCATION,20,851,2,10-14
11435,JABALPUR PUBLIC SCHOOL,KANCHANPUR ROAD  JABALPUR TINPULIA ROAD 482004,EDUCATION,20,852,7,10-14
11436,PAWAN KUMAR SUREKHA,GRAM OURIYA PANAGAR JABALPUR KATANGI ROAD 482002,SELLING PETROL AND DIESEL,12,473,2,10-14
11437,GOVERNMENT HIGH SCHOOL,GRAM KHIRIAKALA PANAGA R  JABALPUR PURENA ROAD 482004,EDUCATION,20,852,1,10-14
11438,BANK OF INDIA,JABALPUR  NH 7 483220,BANKING,16,641,1,10-14
11439,ST MARRY SCHOOL,JABALPUR  SHIV DURGA MANDIR 483220,EDUCATION,20,852,2,10-14
11440,RAJENDRA YADAV,KUNDAM   483110,CREASING,6,239,2,10-14
11441,BHAGYASHREE,KUNDAM   483110,CREASING,6,239,2,10-14
11442,SUNIL BASU,KUNDAM   483110,CREASING,6,239,2,10-14
11443,DILEEP YADAV,KUNDAM   483110,CREASING,6,239,2,10-14
11444,PAWAN RAI,KUNDAM   483110,CREASING,6,239,2,10-14
11445,BABLU SHARMA,KUNDAM   483110,CREASING,6,239,2,10-14
11446,JANPAD PANCHAYAT OFFICE,JABALPUR   483110,OFFICE WORK,19,821,1,10-14
14724,THANA PARISAR,MAJHOLI JABALPUR 483336,THANA PARISAR,12,479,1,10-14
14725,SHANTI NIKETAN SCHOOL,KATANGI  MANDIR BADA 483105,EDUCATION,20,852,2,10-14
14726,DAL MILL ,ANIL JANGI  JABALPUR,DAL MILL,6,275,2,10-14
14727,GANESH SWA SAHAYTA SAMUH,ADYAKCHH SURBHI RAI  SACHIV SMT PATEL JABALPUR,GANESH SWA SAHAYTA SAMUH,21,889,5,10-14
14728,KHERAPATI SWA SAHAYTA SAMU ,ADYAKCHH ANITA BARMAN SACHIV RANI BARMAN JABALPUR,KHERAPATI SWA SAHAYTA SAMUH,21,889,5,10-14
14729,JOGINI MATA SWA SAHAYTA SAMUH ,SDYAKCHH UMA MISHRA SACHIV MUNNI BAI PATEL JABALPUR,JOGINI MATA SWA SAHAYTA SAMUH,21,889,5,10-14
14730,JILA SAHKARI KENDRIYA BANK MARYADIT,SHAKHA SHAHPURA JABALPUR SHAHPURA 483119,BANKING ABD LOAN,16,641,1,10-14
14731,ANIL TRANSPORT   COMPANY ,PETROL PUMP TEVAR JABALPUR BHEDAGHAT ROAD 482003,PETROL PUMP  SELLING PETROL   DIESEL,12,473,2,10-14
14732,RAKESH AGRAWAL,JABALPUR CARAGWA ROAD 482003,PROPERTY SELLING,6,239,2,10-14
14733,RAJAT MINERALS  CEREMICS,JABALPUR,MINERALS   CEREMICS,6,239,2,10-14
14734,SAGUN MINRALS,JABALPUR,JELOMITE GRINDING,6,239,1,10-14
14735,AVTAR SINGH CHAKRAVARTI,JABALPUR MANEGAON 482051,SELLING FURNITURE,6,239,2,10-14
14736,PANKAJ SINGH KHANUJA,JABALPUR MANEGAON 482051,SELLING PLASTIC ITEMS,12,477,2,10-14
14737,MURLI DHARAN SHARMA,JABALPUR MANEGAON 482051,SELLING FURNITURE,12,477,2,10-14
14738,V S CHAMKAL,JABALPUR   482051,SELLING FURNITURE,6,239,2,10-14
14739,RAJESH JAIN,NARAYANPUR JABALPUR NAGPUR ROAD 482051,SELLING FURNITURE,12,477,2,10-14
14740,SUDHIR KHER,MANEGAON NARAYA NPUR  JABALPUR NAGPUR ROAD 482051,SELLING FURNITURE,6,239,2,10-14
14741,NARMADA VALLABH CRASER,JABALPUR  TIKHARI ROAD 482002,CREASER,6,239,2,10-14
14742,PITTU BHATIA,JABALPUR   482051,SALES OF PLASTIC SHEATS AND FLUSH DOORS,6,275,2,10-14
14743,ANAND PAROHA,JABALPUR   482051,SELLING GRAINS IN WHOLESALE,6,275,2,10-14
14744,PANKAJ AGRAWAL,JABALPUR   482051,SELLING BUIDING ITEMS,6,275,2,10-14
14745,PRAVEEN VERMA PARAGON ,JABALPUR  NH  7 NAGPUR ROAD  482051,MURGI PALAN,2,14,3,10-14
14746,AJAY SINGH,JABALPUR   482021,HARVESTOR,1,16,2,10-14
14747,NAND LAL GYAN STALI SAMITI,JABALPUR   482021,NAND LAL GYAN STHALI SAMITI,20,854,1,10-14
14748,EKTA SWA SAHAYTA SAMUH NEEMKHEDA,JABALPUR   482021,EKTA SWA SAHAYTA SAMUH,21,889,2,10-14
14749,KAILASH RAO NAIDU,JABALPUR  APR COLONY KATANGA 482001,MILK DAIRY,2,14,2,10-14
14750,SHIV PRASAD SHRIPAL,JABALPUR HINOTIA BARAHA ,MILK DAIRY,2,14,2,10-14
14751,GOVERNMENT MIDDLE SCHOOL,KHAMARIA JABALPUR KHAMARIA,EDUCATION,20,851,1,10-14
14752,SWA SAHAYTA SAMUH SHASKIYA,KHAMARIA JABALPUR  482021,SWA SAHAYTA SAMUH,21,889,1,10-14
14753,PRADEEP MISHRA,BAJAJ AGENCY JABALPUR MANDALA ROAD 482021,SALES OF TWO WHEELERS,10,454,1,10-14
14754,VIJAY SAHGAL,KHATRI DAIRY JABALPUR  482021,MILK DAIRY AND MANUFACTURING,2,14,2,10-14
14755,ASHOK PAL,JABALPUR  KAUSAM GHAT 482021,SALES OF BAKERY ITEMS,11,463,2,10-14
14756,BANSAL ENGINEERS,JABALPUR  SANGAM COLONY BALDEOBAG 482002,SELLING AND SUPPLYING OF BUILDING ITEMS,12,477,2,10-14
14757,AASHIRVAD UTSAV BARAT GHAR ,NEELU AHUJA JABALPUR RANITAL AAGA CHOWK 482002,ARRANGING MARRIGES AND OTHER SOCIAL,21,889,4,10-14
14758,STATE BANK OF INDIA,JABALPUR  BADA FUHARA 482002,BANKING,16,641,1,10-14
14759,RATANDEEP COLLECTION, SACHIN KUMAR JAIN  JABALPUR MACHHARHAI 482002,SELLING CLOTHES,12,475,2,10-14
14760,PRAMILA AGRAWAL,SUNIL HOSIERY  JABALPUR TILAK BHUMI TALAIYA 482002,SELLING CLOTHES,12,475,2,10-14
14761,RAJENDRA KUMAR JAIN,LAXMI BHANDAR  JABALPUR KAMANIA GATE 482002,SELLING CLOTHES,12,475,2,10-14
14762,ANSHUL RATHORE,JABALPUR  BESIDE KAMANIA GATE 482002,SELLING TOBACCO,6,120,2,10-14
14763,MAYUR KESHERWANI,JABALPUR  KHOVA MANDI 482002,SELLING KHOVA,12,472,2,10-14
14764,PRAHALAD GATTHANI,JABALPUR  DIXIT PURA 482002,SELLING STATIONERY,12,476,2,10-14
14765,HOTEL SHUBHKAMNA,PANTI NAKA SADAR JABALPUR   482001,LODGING AND BOARDING,14,561,2,10-14
14766,CANARA BANK SADAR,KINGSWAY ROAD 482001,BANKING,16,641,1,10-14
14767,SANTOSH GUPTA,SADAR BAZAR JABALPUR SADAR BAZAR 482001,RAILWAY CONTRACTOR,11,461,2,10-14
14768,MADHU KALASH SWEETS,GANESH CHOWK  SADAR JABALPUR KINGSWAY ROAD 482001,SELLING SWEETS AND NAMKEEN,12,472,2,10-14
14769,KAMLA JAIN  HOME FINANCE,GANESH CHOWK SADAR JABALPUR KINGSWAY ROAD 482001,PROVIDING FRANCHISEE AND HOME,16,641,2,10-14
14770,BANK OF INDIA,SADAR JABALPUR KINGSWAY ROAD 482001,BANKING,16,641,1,10-14
14771,STATE BANK OF INDIA,SADAR JABALPUR 482001,BANKING,16,641,1,10-14
14772,SONALI SWEET MART,SADAR  JABALPUR C O D  ROAD 482001,SELLING SWEETS AND NAMKEEN,12,472,2,10-14
14773,UNION BANK OF INDIA,VIJAY NAGAR JABALPUR  482005,BANKING,16,641,1,10-14
14774,MADHUVAN BAR   RESTAURANT,GADHA JABALPUR SNAJEEVNI NAGAR ROAD 482003,BAR   RESTAURENT,14,561,1,10-14
14775,SUMERU AUTO SERVICE,NEAR GRAM SAGDA JABALPUR NAGPUR ROAD 482050,SELLING PETROL AND DIESEL,12,473,2,10-14
14776,KOKILA RESORT   RESTAURANT,NEAR GRAM SAGDA JABALPUR TILWARAGHAT ROAD 482050,RESTAURANT AND ARRANGING MARRIAGES,14,561,2,10-14
14777,ANKIT HOTEL,JABALPUR  RAILWAY STATION ROAD 482001,HOTEL,14,561,2,10-14
14778,CENTRAL BANK,DHOBI GHAT JABALPUR  482001,BANKING,16,641,1,10-14
14779,USHA FRANSIS,ST  JOHN MIDDLE SCHOOL BILHARI JABALPUR  482020,EDUCATION,20,851,2,10-14
14780,WORTH INDIA PVT LTD JABALPUR BRANCH,KAMLA NEHRU NAGAR NEAR CHOUBEY DAIRY JABALPUR GADA ROAD 482002,SELLING OF MOTOR PARTS AND OTHER,10,453,4,10-14
14781,SHREE MAHILA GRAH UDYOG LIJJAT,PAPAD JABALPUR SNEH NAGAR 482002,MANUFACTURING OF PAPAD,6,107,2,10-14
14782,VISHAM BRAVERAGE PVT  LTD ,JABALPUR  BHULAN 482002,SULLY OF WATER AFTER FILTERATION,8,360,2,10-14
14783,RUCHI HOME DECORATORS,JABALPUR  BHULAN 482002,MANUFACTURING OF FURNITURES AND,6,310,2,10-14
14784,TAGORE MADHYAMIC SCHOOL,JABALPUR GULAUAA CHOWK 482003,EDUCATION,20,851,2,10-14
14785,SMT KAMLA NARMADA VIDHYA MANDIR,JABALPUR  SHUKLA NAGAR GADHA 482003,EDUCATION,20,851,9,10-14
14786,WONDER WORLD MONTESARI SCHOOL,JABALPUR SANJEEVNI NAGAR 482002,EDUCATION,20,852,3,10-14
14787,BANK OF MAHARASHTRA,JABALPUR SANJEEVNI NAGAR 482003,BANKING,16,641,1,10-14
14788,GRAM VIDIYAL MICRO FINANCE,JABALPUR  PREM NAGAR 482001,PROVIDING LOAN,16,642,4,10-14
14789,SYSNET GLOBAL TECHNOLOGY PVT LTD ,JABALPUR  PREM NAGAR 482001,COMPUTER REPAIRING,12,477,4,10-14
14790,SYSNET GLOBAL TECHNOLOGIES PVT LTD ,JABALPUR  PREM NAGAR 482001,REPAIRING COMPUTER,12,477,4,10-14
14791,PRIMARY SCHOOL, DR PRARTHNA VISHWAKARMA  JABALPUR  482001,EDUCATION,20,851,2,10-14
14792,SIMPLEX AGRO FOOD,MADAN MAHAL  JABALPUR NAGPUR ROAD 482001,MANUFACTURING OF SIMPLEX DRINK,6,222,2,10-14
14793,SIMPLEX TUBELER STRUCTURES PVT LTD ,MADAN MAHAL  JABALPUR NAGPUR ROAD 482001,FABRICATION OF STEEL STRUCTURE,6,279,4,10-14
14794,SIMPLEX ENGINEERING,MADAN MAHAL  JABALPUR NAGPUR ROAD 482001,FABRICATION OF STEEL,6,281,2,10-14
14795,HIGHWAY MOTORS PETROL PUMP ,MADAN MAHAL  JABALPUR NAGPUR ROAD 482001,SELLING PETROL AND DIESEL,12,473,2,10-14
14796,DEVENDRA KUMAR JAISWAL,MADAN MAHAL  JABALPUR SHARDA MANDIR ROAD 482001,BELDING WORKSHOP,6,259,1,10-14
14797,ANIL BADKUL,SIDHHA NAGAR  JABALPUR GADHAPURVA 482003,BADKUL SWEET FACTORY,6,107,2,10-14
14798,LALAN CHOUDHARY,RAMPUR JABALPUR 482002,CHEMICAL INDUSTRIES,6,191,2,10-14
14799,KIDS CONVENT SCHOOL,GOKULPUR JABALPUR GOKULPUR 482011,EDUCATION,20,852,1,10-14
14800,ANIL RAO TEL OM INDANE GAS AGENCY,CHUNGI CHOWKI RANJHI JABALPUR KHAMRIA ROAD 482005,DISTRIBUTION OF LPG CYLENDER,12,473,2,10-14
14801,STATE BANK OF INDIA,RANJHI  JABALPUR MASTANA CHOWK 482005,BANKING,16,641,1,10-14
14802,TARA JEWELLERS,JABALPUR KATANGA CROSSING 482001,SELLING JEWELLERY,6,321,2,10-14
14803,PAYLOPE REDIMADE,JABALPUR KATANGA CROSSING 482001,SELLING CLOTHES,12,475,2,10-14
14804,AMBAI DILA MODNAS,JABALPUR KATANGA CROSSING 482001,,6,101,2,10-14
14805,ASIAN PAINT OFFICE,JABALPUR KATANGA CROSSING 482001,ASIAN PAINT OFFICE,19,821,4,10-14
14806,THE ASSOCIATES AUTO PARTS LTD ,JABALPUR   482002,SELLING AUTO SPARE PARTS,11,463,4,10-14
14807,M S PERATA INDUSTRIES,LAXMI COLONY GUPTESHW AR  JABALPUR STREET NO 3 482001,AGARBATTI FACTORY,6,259,2,10-14
14808,BLESSING PUBLIC SCHOOL,BALDEOBAG  JABALPUR NEAR SHEETALPURI GARDEN 482002,EDUCATION,20,852,2,10-14
14809,CENTRAL BANK OF INDIA,DAMOH NAKA  JABALPUR CHERITAL 482002,BANKING,16,641,1,10-14
14810,HITESH ANAND BOSCH DISTRIBUTER ,KRISHI UPAJ MANDI  JABALPUR DAMOH ROAD 482002,WHOLESELLER OF BOSCH COMPANY,11,463,2,10-14
14811,ALOK JAIN,KRISHI UPAJ MANDI  JABALPUR DAMOH ROAD 482002,WORKSHOP OF FIBRE DOORS AND STEEL,6,241,2,10-14
14812,KRISHNA SALES CORPORATION,JABALPUR  MR 4 ROAD 482003,SELLING ICECREAM,11,463,2,10-14
14813,N SANDHIL KUMAR,JABALPUR  MR 4 ROAD 482004,BANKING,16,641,9,10-14
14814,RAJKUMARI KESHRI,JABALPUR  MR 4 ROAD 482002,KERHRI DAILY NIDDS,12,472,2,10-14
14815,SMT ARCHNA MISHRA,JABALPUR   482003,SCHOOL EDUCATION,20,852,2,10-14
14816,ICICI BANK AMIT NAIR,JABALPUR   482002,BANKING,16,641,9,10-14
14817,BALAJI COLLEGE OF COMPUTER,JABALPUR  VIJAY NAGAR 482002,EDUCATION,20,853,2,10-14
14818,SNOW FACTORY   COLD ROOM ,PRABHUDAYAL GOSWAMY  JABALPUR ITI ROAD 482002,COLD FACOTRY,6,107,2,10-14
14819,GOVERNMENT MIDDLE SCHOOL,MADHOTAL  JABALPUR  482002,EDUCATION,20,851,1,10-14
14820,SHISHU GYAN MANDIR HIGH SCHOOL,JABALPUR   482002,EDUCATION,20,852,2,10-14
14821,CLOTHES FACTORY  KAILASH JADEJA,JABALPUR  NO 19 482002,MANUFACTURING OF CLOTHES,6,131,2,10-14
14822,BADSHAH STAR FURNITURE,JABALPUR  THIRD LANE 482002,SELLING THE STEEL AND WOODEN,12,475,2,10-14
14823,RATAN SHREE ENTERPRIZES,JABALPUR   482002,HINDUSTAN LIVER GODAWN   OFFICE,12,477,2,10-14
14824,FRONTIER MOTOR  BAJAJ,JABALPUR   482002,SELLING MOTORCYCLES,10,454,4,10-14
14825,INFERENCE MEHODEX LTD BRANCH OFFICE,JABALPUR   482002,SALES AND SERVICE OF PHOTO COPY,12,477,2,10-14
14826,MAHINDRA   MAHINDRA FINANCE LTD,PANCHRATAN TOWER  JABALPUR MODEL ROAD 482002,FINANCE COMPANY,16,641,4,10-14
14827,SONY T V ,JABALPUR  MADAN MAHAL STATION ROAD 482002,SALES OF SONY T V ,12,474,2,10-14
14828,T V   SONS LTD,JABALPUR   482002,SALES OF TV,12,474,3,10-14
14829,SHREE RAM TRANSPORT,JABALPUR   482002,PROVIDING FINANCE FOR MOTOR,16,641,3,10-14
14830,FANCY CRADING COMPANY,JABALPUR  MAIN BUS STAND 482002,SELLING FOOTWEAR IN WHOLESALE,11,463,3,10-14
14831,NOORJAHAN SIRAJ AHMAD MEMORIAL,HOSPITAL  JABALPUR GHANTAGHAR ROAD 482002,HOSPITAL,21,861,2,10-14
14832,CHHMA LODGE,JABALPUR GHANTAGHAR ROAD 482002,PROVIDING ROOMS ON RENT,14,561,2,10-14
14833,NEROLAC PAINTS RATAN JHA ,JABALPUR  NEAR SECOND BRIDGE 482001,NEROLAC PAINTS STORE,12,477,2,10-14
14834,SAJJAD HUSSAIN SAIFI,IN FRONT OF MISSION COMPOUND JABALPUR  482001,R C CONSTRUCTION  CIVIL WORK,9,421,2,10-14
14835,M P STATE GOVERNMENT BANK,JABALPUR  RUSSEL CHOWK 482002,BANKING,16,641,9,10-14
14836,YAMHA SHOWROOM  SATPAL SINGH,JABALPUR  RUSSEL CHOWK 482001,SALES OF TWO WHEELERS,10,454,2,10-14
14837,SWASTIK HOTEL  LALIT KUMAR PANDEY,JABALPUR  RUSSEL CHOWK 482001,HOTEL,14,561,2,10-14
14838,SWASTIK RESTAURENT ,DEEPAK KUMAR PANDEY JABALPUR RUSSEL CHOWK 482001,RESTAURENT,16,641,2,10-14
14839,EAST INDIA PHARMASEUTICAL WORKS LTD,A MUKHERJEE  IN FRONT OF JABALPUR HOSPITAL  NAPIER TOWN JABALPUR 482001,WHOLESALE DEALER OF MEDICINE,12,477,2,10-14
14840,MAHARSHI VIDHYA MANDIR MANAGEMENT,SCIENCE INSTITUTE OF VEDIC FOURTH BRIDGE NAPIER TOWN  ANAND CINEMA ROAD 482001,EDUCATION,20,853,2,10-14
14841,INDIAN COFFEE HOUSE ,R CHANDRASHEKHE R NAPIER TOWN  JABALPUR JABALPUR HOSPITAL 482001,JABALPUR HOSPITAL CANTEEN,14,561,2,10-14
14842,TATA A I A  LIFE INSURANCE COMPANY,LTD  NAPIER TOWN  JABALPUR FOURTH BRIDGE 482001,LIFE INSURANCE,16,641,9,10-14
14843,ORIENTAL BANK OF COMMERCE,JABALPUR MADHATAL 482001,BANKING,16,641,1,10-14
14844,ALLAHABAD BANK,BUS STAND  JABALPUR  482001,BANKING,16,641,1,10-14
14845,NAGPAL NURO CENTRE HOSPITAL ,IN FRONT OF BHAVARTAL GARDEN  DR TARUN NAGPAL JABALPUR NAPIER TOWN 482001,TREATMENT OF PATIENTS,21,862,2,10-14
14846,PLAY WAY SCHOOL,JABALPUR  PUNEET NAGAR 482003,EDUCATION,20,852,2,10-14
14847,LAXMI BAI SCHOOL,JABALPUR  PUNEET NAGAR 482003,EDUCATION,20,852,2,10-14
14848,ZISCO PAINTS,ADHARTAL  JABALPUR INDUSTRIAL ESTATE 482004,MAKING PAINTS,6,106,3,10-14
14849,YOGENDRA BHARGAV,ADHARTAL JABALPUR INDUSTRIAL ESTATE 482010,IRON WORK,6,107,2,10-14
14850, ADHAR DIVISION OF PHINOPAYTECH LTD,KANTA COMPLEX ADHARTAL   JABALPUR PUSHPAK NAGAR 482004,PROVIDE LOAN FROM UNION BANK OF,16,641,4,10-14
14851,D SMIRITI WIDOW AND HANDICAPED,TRAINING CENTRE JABALPUR ASHOK NAGAR ADHARTAL 482004,WIDOW AND HANDICAPED TRAINING,20,854,2,10-14
14852,R K INDUSTRIES,JABALPUR   482004,MANUFACTURING MOTOR PARTS,6,107,2,10-14
14853,JABALPUR CEMENT PIPE,  MANUFACTURING COMPANY JABALPUR SHOBHAPUR ROAD 482004,MANUFACTURING OF CEMENT PIPE  ,6,239,3,10-14
14854,PRICISION INDUSTRIAL FASTNERS,JABALPUR INDUSTRIAL AREA 482004,MAKING NUT BOLT FABRICATION,6,108,2,10-14
14855,A K STEEL INDUSTRIES,JABALPUR INDUSTRIAL ESTATE 482003,FABRICATION MAKIN G IRON GATES DOORS,6,259,2,10-14
14856,POLY INDUSTRIES,JABALPUR INDUSTRIAL ESTATE 482004,MAKING POLYTHENE,6,222,2,10-14
14857,SUPER PLASTO POLY FACTORY,JABALPUR INDUSTRIAL ESTATE 482004,MAKING PLASTIC BAGS,6,110,2,10-14
14858,SUPER AUTO INDUSTRIES,JABALPUR   482004,MAKING WOODEN BOXES AND TRIPAL,6,162,2,10-14
14859,REAL POPULAR UDYOG,JABALPUR INDUSTRIAL ESTATE 482004,MAKING POPULAR,6,106,2,10-14
14860,MARUTI POLYTHIN PACK PRINTING,JABALPUR INDUSTRIAL AREA 482004,PRINTING AT POLYTHENE,6,181,2,10-14
14861,OSWAL UDYOG,JABALPUR INDUSTRIAL ESTATE 482004,IRON CASTING,6,332,2,10-14
14862,SAI CEMENT PRODUCTS,JABALPUR SHOBHAPUR ROAD 482004,MAKING CEMENT TILES,6,265,2,10-14
14863,OSWAL CONCREAT,JABALPUR SHOBHAPUR ROAD 482004,MANUFACTURING CONCREAT PIPE POLE,6,222,2,10-14
14864,SHRIRAM SILICATE INDUSTRIES,JABALPUR INDUSTRIAL ESTATE 482004,MANUFACTURING SODIUM SILICATE,6,202,2,10-14
14865,SAROVA PUMP INDUSTRIES,JABALPUR INDUSTRIAL ESTATE 482004,MANUFACTURING SUBMERSHIBAL PUMPS,6,279,2,10-14
14866,R C N ,JABALPUR INDUSTRIAL ESTATE 482004,MANUFACTURING FACTORY BOXES AND,6,222,2,10-14
14867,NARMADA ESTATE,JABALPUR INDUSTRIAL ESTATE 482004,MANUFACTURING FURNITURES,6,310,2,10-14
14868,PRATEEK INDUSTRIES,JABALPUR INDUSTRIAL ESTATE 482004,MANUFACTURING DISTEMPER AND PUTTI,6,202,2,10-14
14869,GREEN POLTARY FARM,JABALPUR  RAILWAY STATION ROAD 483220,POLTARY FARM,2,14,2,10-14
14870,INDIAN WINE SHOP,JABALPUR  MAIN ROAD PANAGAR 483220,SELLING WINE,12,472,2,10-14
14871,THAKUR KRISHI SEVA KENDRA,JABALPUR BRAMHANAUDA ROAD 483220,REPAIRING AND SELLING OF MOTOR PUMP,12,477,2,10-14
14872,SHREYASH TRACTORS,JABALPUR  NH 7 MAIN ROAD 483220,TRACTOR SALES SERVICE AGENCY ,10,454,3,10-14
14873,JILA SAHKARI BANK ,PANAGAR JABALPUR MAIN ROAD 483220,BANKING,16,641,6,10-14
14874,HARIDITYA SINGH,KUNDAM   483110,CREASING,6,239,2,10-14
14875,DEENA YADAV,KUNDAM   483110,CREASING,6,239,2,10-14
14876,MANOJ TIWARI,KUNDAM   483110,CREASING,6,239,2,10-14
14877,GANESH YADAV,KUNDAM   483110,CREASING,6,239,2,10-14
14878,MAHENDRA SINGH,KUNDAM   483110,CREASING,6,239,2,10-14
14879,ANIL RAI,KUNDAM   483110,CREASING,6,239,2,10-14
14880,KAMLESH CHOUKSEY,KUNDAM   483110,CREASING,6,239,2,10-14
14881,PREM SINGH THAKUR,KUNDAM   483110,CREASING,6,239,2,10-14
14882,KHUMANI YADAV,KUNDAM   483110,CREASING,6,239,2,10-14
14883,DEEPAK PATARIYA,KUNDAM   483110,CREASING,6,239,2,10-14
14884,AJAY PATARIYA,KUNDAM   483110,CREASING,6,239,2,10-14
14885,RAKESH RAI,KUNDAM   483110,CREASING,6,239,2,10-14
14886,UPENDRA YADAV,KUNDAM   483110,CREASING,6,239,2,10-14
14887,NAYYER KARANVEER  ,KUNDAM   483110,CREASING,6,239,2,10-14
14888,GUGGAN YADAV,KUNDAM   483110,CREASING,6,239,2,10-14
14889,BHAGCHAND,KUNDAM   483110,CREASING,6,239,2,10-14
14890,PRAKASH YADAV,KUNDAM   483110,CREASING,6,239,2,10-14
14891,SURENDRA BADGAIYA,KUNDAM   483110,CREASING,6,239,2,10-14
14892,SURENDRA BADGAIYA,KUNDAM   483110,CREASING,6,239,2,10-14
14893,RINKU YADAV,KUNDAM   483110,CREASING,6,239,2,10-14
14894,GANESH YADAV,KUNDAM   483110,CREASING,6,239,2,10-14
14895,ANIL RAI,KUNDAM   483110,CREASING,6,239,2,10-14
14896,RAJENDRA YADAV,KUNDAM   483110,CREASING,6,239,2,10-14
14897,TEHSIL,KUNDAM   483110,OFFICE WORK,19,821,1,10-14
