S.No.,Name of the Establishment,Address,Major Activity Description,Broad Activity Code,NIC,Owner ship Code,Emplo yment Class Interval
156,GOVT HOSPITAL,MAIN ROAD KHANDWA 450001,HELTH SERVICES,21,861,1,200-499
321,KHANDWA OIL S,PANDHANA PANDHANA 450661,OIL PRODUCTION,6,104,2,100-199
368,DADAJI COLLAGE,INDORE ROAD KHANDWA 450001,TEACHING WORK,20,853,2,100-199
552,SOFIA HIGHER SECONDRY SCHOOL,INDORE ROAD KHANDWA 450001,SCHOOL TEACHING,20,852,2,100-199
1067,JILA SAHAKARI KENDRIYA BANK,RAMESHWAR ROAD KHANDWA 450001,BANKING WORK,16,641,1,30-99
1297,AGARWAL FLOOR MIL,INDORE ROAD KHANDWA 450001,MEDA FECTORY,6,107,2,30-99
1367,MAKHANLAL CHATURVEDI GOVT  GIRLS DE,GIRLS COLLAGE KHANDWA  INDORE ROAD KHANDWA 450001,GIRLS COLLAGE,20,853,1,30-99
1446,MADHYA PRADESH VIDYUT VITRAN CO ,PANDHANA  MAIN ROAD PANDHANA 450661,ELECTRICITY SUPPLY,7,351,1,30-99
1637,SARSWATI SHISHU MANDIR HSS SCHOOL K,KHANDWA KALYANGANJ KHANDWA 450001,TEACHING WORK,20,851,2,30-99
1638,SANT ANNA CONVENT SCHOOL,BORGAONBUJURG BORE GAONBUJURG 450337,SCHOOL HS,20,852,2,30-99
1752,DAINIK BHASKAR OFFICE,PADAWA KHANDWA 450001,NEWS PAPER REPORTING OR PRODUCTION,15,581,2,30-99
1811,SUDHANA SHG GROUP ,SUBLATADA,KHANA BANANA,14,562,5,30-99
1851,VIVHA HIGHBASE PRIVATE LTD ,132 TOL NAKA RUSTAMPUR RUSTAMPUR 450337,TOL NAKA ROAD TAX BASULI,16,649,9,30-99
1952,GOVT MOTILAL NEHRU SCHOOL KHANDWA,MOGHAT ROAD KHANDWA 450001,SCHOOL,20,852,1,30-99
1953,HINDUJA HOSPITAL KHANDWA,SINDHI COLONY KHANDWA 450001,HOSPITAL WORK,21,861,1,30-99
2445,GOVT PRIMARY HEALTH CENTER,PANDHANA  MAIN ROAD PANDHANA 450661,HEALTH CENTER,21,861,1,30-99
2588,GHANSHYAM DAS SANTWANI,450001,CHOUCOLET PRODUCTION,6,107,2,30-99
2589,STATE BANK OF INDIA,BOMBAY BAZAR KHANDWA 450001,BANKING WORK,16,641,1,30-99
2590,KRISHNA ACEDMY SCHOOL,PANDHANA  MAIN ROAD PANDHANA 450661,TEACHING WORK,20,852,2,30-99
2740,JAIN HOSPITAL,PADAWA KHANDWA 450001,HOSPITAL,21,861,1,30-99
2868,MAHAVIR AUTO MOTIV,INDORE ROAD KHANDWA 450001,MOTERCYCLE SELLING,10,451,2,30-99
3611,AMPIB OFFICE POWER MPPKSH VIDHUT VI,TRAN  INDORE ROAD KHANDWA 450001,VIDHUT VITRAN,7,351,1,25-29
3612,ARYA SAMAJ SCHOOL,SINGAD TALAI KHANDWA 450001,SCHOOL TEACHING WORK,20,854,2,25-29
3814,AGRAWAL TATA MOTORS REPAIERS,INDORE ROAD CHHAIGAON 450771,MOTORS WORKSHOP,10,454,2,25-29
3815,SANJAY INDUSTRIES,INDORE ROAD KHANDWA 450001,OIL SELLING,12,473,2,25-29
4102,ARIHANT PAIPE,BURAHANPUR ROAD KHANDWA 450001,PAIPE PRODUCTION,6,222,2,25-29
4103,JAVAHAR NAVODAY VIDHYALAY,PANDHANA PANDHANA 450661,TEACHING WORK,20,852,2,25-29
4846,KRISHI UPAJ MANDI,PANDHANA ROAD KHANDWA 450001,AGRICULTURAL PRODUCTS WHOLE SALE   PURCHASE,11,462,1,20-24
5636,AGRAWAL NURSHING HOME,KALYANGANJ KHANDWA 450001,HOSPITAL,21,861,2,20-24
5637,GOVT HIGHER SECONDRY SCHOOL,PANDHANA  MAIN ROAD PANDHANA 450661,TEACHING WORK,20,852,1,20-24
5969,NATIONAL INSURENCE COMPANY LIMITED,PANDHANA ROAD KHANDWA 450001,INSURENCE WORK,16,651,1,15-19
5970,PRAKASH NURSING HOME,INDORE ROAD KHANDWA 450001,NURSING HOME,21,861,2,15-19
6426,SHRIRAM TROSPORT FINANCE COMPANY,LIMITED  BADABAM CHOURAHA KHANDWA 450001,FINANCE COMPANY,16,649,1,15-19
6881,GOVT MAHAVIDHYALAY CHANERA,MAIN ROAD CHANERA 450001,GOVT MAHAVIDHYALAY CHANERA,20,853,1,15-19
6882,PANJAB NATIONAL BANK,NEAR NAGAR NIGAM KHANDWA 450001,BANKING WORK,16,641,1,15-19
6883,HINDU BAL SEWASADAN SCHOOL,LALCHOUKI KHANDWA 450001,SCHOOL TEACHING WORK,20,852,2,15-19
6884,SAHAKARI BANK,BADABAM KHANDWA 450001,BANKING WORK,16,641,1,15-19
7448,SUNIL BANSAL,SANJAY NAGAR JAIN GALI  JAIN GALI 450001,TEACHING WORK SCHOOL,20,854,2,15-19
7449,MIS RAGINI SANGHI HONDAI SHOROOM,INDORE ROAD KHANDWA 450001,FOURWEELS SELL AND SERVICES,10,451,2,15-19
7450,NAVARANG AGRAWAL,INDORE ROAD KHANDWA 450001,FURNITURE SELLING,12,475,2,15-19
7451,SARSWTI SHISHU MANDIR SHRIKRISHNA K,ALYAN SAMITI OFFICE  DHANORA ROAD ARUD 450661,SCHOOL HSS,20,852,2,15-19
8097,CENTRAL BANK OF INDIYA,SHIWAJI CHOUK KHANDWA 450001,BANKING WORK,16,641,1,15-19
8098,CENTRAL BANK,SHIVAJI CHOWK KHANDWA 450001,BANKING WORK,16,641,1,15-19
8099,JILA SAHAKARI KRISHI BANK,RAMESHWAR ROAD KHANDWA 450001,BANKING WORK,16,641,1,15-19
8100,MADHYA PRADESH BEEJ PRAMANIKARN,SANSTHA RAMESHWAR ROAD KHANDWA 450001,BEEJO KA PRAMANIKARN,18,692,2,15-19
8101,GOVT HSS SCHOOL BORGAON BUJURG,MAIN ROAD BORGAON BUJURG 450001,SCHOOL HSS,20,852,2,15-19
8732,RAM RAHIM SELF HELP GROUP,MAIN ROAD PRATAPPURA 450001,RAM RAHIM SELF HELP GROUP,21,881,5,10-14
8733,JAY AMBEY SELF HELP GROUP,MAIN ROAD SONKHEDI 450001,JAY AMBEY SELF HELP GROUP,21,881,5,10-14
8734,JAWALA SELF HELP GROUP,MAIN ROAD PALASIMAAL 450001,JAWALA SELF HELP GROUP,21,881,5,10-14
8735,BANK OF INDIYA,KHANDWA 450001,BANKING WORK,16,641,1,10-14
8736,HDFC BANK,PADABA KHANDWA 450001,BANKING WORK,16,641,1,10-14
8737,AXIS BANK,SHRI NAGAR COLONEY 450001,BANKING WORK,16,641,1,10-14
8738,PRADEEP INDUSTRIES,PADAWA KHANDWA 450001,DAAL MIL,6,106,2,10-14
9404,PINKY SELF HELP GROUP,MAIN ROAD GADBADHIMAAL 450001,PINKY SELF HELP GROUP KHANA TAIYAR,21,881,5,10-14
9405,BANK OFF INDIYA KHANDWA,AMIR MEDICLE KE PASS KHAN 450001,BANKING WORK,16,641,1,10-14
9406,AANAJ MANDI,PANDHANA  MAIN ROAD PANDHANA 450661,AANAJ MANDI,12,477,1,10-14
10380,BABA RAMDEV SELF HELP GROUP,MAIN ROAD SOMGOAN 450001,BABA RAMDEV SELF HELP GROUP,21,881,5,10-14
10381,BHARAT SELF HELP GROUP,MAIN ROAD KILLOUD 450001,BHARAT SELF HELP GROUP,21,881,5,10-14
10382,JAI AMBEY SELF HELP GROUP,MAIN ROAD SELDAMAAL 450001,JAI AMBEY SELF HELP GROUP,21,881,5,10-14
10383,MAA BHAGWATI SELF HELP GROUP,MAIN ROAD MOGAL RAIYAT 450001,MAA BHAGWATI SELF HELF GROUP,21,881,5,10-14
10384,SHRI KRISHN SELF HELP GROU,MAIN ROAD BORISARAI 450001,SHRI KRISHN SELF HELP GROUP,21,881,5,10-14
10385,JAY DURGA SELF HELP GROUP,MAIN ROAD BOTHIYAKALA 450001,JAY DURGA SWASAHAYATA GROUP,21,881,5,10-14
10386,GURUKIRPA SELP HELP GROUP,ANGANBADI OR SCHOOL KA KHANA BANANA  MAIN ROAD NABALPURA 450001,GURUKIRPA SELF HELP GROUP,21,881,5,10-14
10387,PRERNA SELF HELP GROUP,KHANA BANANA MAIN ROAD BRAMHAGRAM 450001,PRERNA SELF HELP GROUP,21,881,5,10-14
10388,DURGA SELF HELP GROUP,KHANA BANA  MAIN ROAD BRAHAMDAN 450001,DURGA SELF HELP GROUP,21,881,5,10-14
10389,JAY MATADI SELF HELP GROUP,KHANA BANANA MAIN ROAD SADIYAPANI 450001,JAY MATADI SELF HELP GROUP,21,881,5,10-14
10390,MAA NARMADA SELF HELP GROUP,KHANA BANANA MAIN ROAD KHAMLA 450001,MAA NARMADA SELF HELP GROUP,21,881,5,10-14
10391,GANAGASAGAR SELF HELP GROUP,KHANA BANANA MAIN ROAD COOCDHAAL 450001,GANAGA SAGAR SELF HELP GROUP,21,881,5,10-14
10392,BHARTIYA STATE BANK CHANERA,MAIN ROAD CHANERA 450001,BHARTIYA STATE BANK CHANERA,16,641,1,10-14
10393,GRAVITESION PRAVITE SCHOOL,PIPALYAPHUL 450991,SCHOOL AND TEACHING WORK,20,852,5,10-14
10394,MAA NARMDA SELE HELP GROUP,MAIN ROAD PIPALYAPHUL 450991,MADHYAN BHOJAN BANANA,14,562,5,10-14
10395,AJAY PAL MANDIR SAMITI,SALIDHANA 450881,MANDIR ME PUJA KARANA,23,949,5,10-14
10396,SARASWATI SHISU MANDIR KALYAN GANJ,KHANDWA KHANDWA 450001,EDUCATION,20,851,2,10-14
10397,SUNIL JAIN,INDORE ROAD KHANDWA 450001,PATTAL DONE BANANE KA KAAM,6,162,2,10-14
10398,BHARTI BEN PATEL,KHANDWA 450001,TILES PRODUCTION,6,239,2,10-14
10399,URDU KANYA SHALA,HARIGANJ KHANDWA 450001,SCHOOL TEACHING WORK,20,852,2,10-14
10400,JANPAD PANCHAYAT,PANDHANA PANDHANA 450661,OFFICIAL WORK,19,821,1,10-14
10401,SANT JEVIER SCHOOL,PANDHANA  MAIN ROAD PANDHANA 450661,TEACHING WORK,20,851,2,10-14
11692,GANGA SELF HELP GROUP,SCHOOL OR ANGANBADI KA KHANA BANANA MAIN ROAD BHANBARLI 450001,GANGA SELF HELP GROUP,21,881,5,10-14
11693,SHIV SHAKTI SELF HELP GROUP,MAIN ROAD CHIPIPURA 450001,SHIV SHAKTI SELF HELF GROUP,21,881,5,10-14
11694,JAGRATI SELF HELP GROUP,KHANA BANANA MAIN ROAD MOJBADIMAAL 450001,JAGRATI SELF HELP GROUP,21,881,5,10-14
11695,GANAGA SELF HELP GROUP,MAIN ROAD BHANBARLI 450001,GANGA SELF HELP GROUP,21,881,5,10-14
11696,MAA NARMADA SELF HELP GROUP,MAIN ROAD MAALUD 450001,MAA NARMADA SELF HELP GROUP,21,881,5,10-14
11697,RAM MANDIR,MAIN ROAD BHAGIYAPURA 450881,MANDIR ME PUJA,23,949,9,10-14
11698,MAHAVEER DHABA,INDORE ROAD CHHAIGAON 450771,BHOJAN SERVICE HOTAL,14,562,5,10-14
11699,IDBI BANK,KHANDWA  SHIVAJI CHOWK 450001,BANKING WORK,16,641,1,10-14
11700,ASHA DHAM KHANDWA,INDORE ROAD KHANDWA 450001,DHARMIK SERVICE,23,949,9,10-14
11701,ICICI BANK,JAWARGANJ KHANDWA 450001,BANKING WORK,16,641,1,10-14
11702,CWSN CHHATRAWASH,LALCHOUKI KHANDWA 450001,CHHATRAWAAS,14,551,2,10-14
11703,SULOCHANA SELF HELP GROUP,DONGARGOAN 450001,KHANA BANANA,14,562,5,10-14
11704,GOVT GIRLS SCHOOL,PANDHANA PANDHANA 450661,TEACHING WORK,20,852,1,10-14
11705,SARSWATI SHISHU MANDIR SCHOOL,PANDHANA  MAIN ROAD PANDHANA 450661,TEACHING WORK,20,852,2,10-14
15573,JAY AMBEY SELF HELP GROUP,MAIN ROAD BAILAWADI 450001,JAY AMBEY SELF HELP GROUP,21,881,5,10-14
15574,RAJESHWARI SELF HELP GROUP,MAIN ROAD JHAGARIYA 450001,RAJESHWARI SELF HELP GROUP,21,881,5,10-14
15575,RAGHAV SELF HELP GROUP,MAIN ROAD NISHANIYA 450001,RAGHAV SELF HELP GROUP,21,881,5,10-14
15576,SARSWATI SELF HELP GROUP,MAIN ROAD MANJHADHAD 450001,SARSWATI SELF HELP GROUP,21,881,5,10-14
15577,SANT SHRI SINGAJI SELF HELP GROUP,MAIN ROAD BHAVANIYA 450001,SANT SHRI SINGAJI SELF HELP GROUP,21,881,5,10-14
15578,SAKHI SAHELI SELF HELP GROPU,MAIN ROAD RAMPURI 450001,SAKHI SAHELI SELF HELP GROUP,21,881,5,10-14
15579,VISHAL SELF HELP GROUP,MAIN ROAD DHARUKHEDI 450001,VISHAL SELP HELP GROUP,21,881,5,10-14
15580,OM DIVYA SHAKTI KASHIPURA,MAIN ROAD KASHIPURA 450001,OM DIVYA SHAKI KASHIPURA,21,881,5,10-14
15581,NARMADA SELF HELP GROUP,MAIN ROAD DEBALDI 450001,NARMADA SELF HELP GROUP,21,881,5,10-14
15582,MAA NARMADA SELF HELP GROUP,KHANA BANANA MAIN ROAD HATHNORA 450001,MAA NARMADA SELF HELP GROUP,21,881,5,10-14
15583,SHRI RAMJI SELF HELP GROUP,KHANA BANANA MAIN ROAD RAMJIPURA 450001,SHRI RAM SELF HELP GROUP,21,881,5,10-14
15584,DIVYA SHAKTI SELF HELP GROUP,MAIN ROAD SAHAPURAMAAL 450001,DIVYA SHAKTI SELF HELP GROUP,21,881,5,10-14
15585,JAY NARAYAN SELF HELP GROUP,KHANA BANANA MAIN ROAD DAMDAMA 450001,JAY DEVNARAYAN SELF HELP GROUP,21,881,5,10-14
15586,DULARI SELP HELF GROUP,KHANA BANA  MAIN ROAD KADOLI 450001,DULARI SELF HELP GROUP,21,881,5,10-14
15587,MAN MOHINI SELF HELP GROUP,MAIN ROAD DAGADKHEDI 450001,MAN MOHINI SELF HELP GROUP,21,881,5,10-14
15588,JILA SAHAKARI BANK CHANERA,MAIN ROAD CHANERA 450001,JILA SAHAKARI BANK CHANERA,16,641,1,10-14
15589,JAY DURGA MAA SELF HELP GROUP,DONGARGAON MAIN ROAD DONGARGAON 450001,KHANA BANANA,14,562,2,10-14
15590,PERICOTT INDIYA PAPER CUP PRAVITE,LIMITED  MAIN ROAD TITIYAJOSHI 450001,PAPER CUP NIRMAN,6,170,2,10-14
15591,JAY BHAWANI SELF HELP GROUP,MAIN ROAD KORAGLA 445037,JAY BHAWANI SELF HELP GROUP,21,881,5,10-14
15592,JAGRATI SELF HELP GROUP,MAIN ROAD ATAR 450551,MADHAYAN BHOJAN BANANA,14,562,2,10-14
15593,KALIKA SELF HELP GROUP,MAIN ROAD 450551,MADHAYAN BHOJAN,14,562,2,10-14
15594,DURGA SELF HELP GROUPS,MAIN ROAD 450881,SCHOOL KHANABANANA,20,855,2,10-14
15595,DURGA SELE HELP GROUP,MAIN ROAD CHICHKHEDA 450881,MADHAYAN BHOJAN BANANA,14,562,2,10-14
15596,DURGA SHG,BHILAIKHEDA 450881,MADHYAN BHOJAN BANANA,14,562,2,10-14
15597,SHANTI SHG,BHILAIKHEDA 450881,KHANA BANANA,14,562,2,10-14
15598,JAY AMBEY SHG,GOALKHEDA 450881,MADHYAN BHOJAN,14,562,2,10-14
15599,KANCHAN SHG,HEERAPUR 450881,KHANA BANANA,14,562,2,10-14
15600,RADHA SHG GROUP,CHHIRVA 450881,MADHYAN BHOJAN BANANA,14,562,2,10-14
15601,RANI DURGAWATI SHG,BHUTYAKHEDA 450881,KHANA BANANA,14,562,2,10-14
15602,JAY BAWANI SHG GROUP,SARAI 450001,KHANA BANANA,14,562,5,10-14
15603,EKTA SHG GROUP,GANDHWA,KHANA BANANA,14,562,5,10-14
15604,SHIVDHARA SHG GROUP,BIHAR,KHANA BANANA,14,562,5,10-14
15605,MAA SHAKTI SHG GROUP,CHILYATANDA BHILKHEDI,KHANA BANANA,14,562,5,10-14
15606,SHG GROUP,PIPLOD KHAAS 450881,MADHYAN BHOJAN,14,562,5,10-14
15607,SHG GROUP,PIPLOD KHAAS 450881,MADHYAN BHOJAN,14,562,5,10-14
15608,SHG GROUP,LAALMAATI PIPLOD 450881,MADHYAN BHOJAN,14,562,5,10-14
15609,SHG GROUP,ETVA 450881,MADHYAN BHOJAN,14,562,5,10-14
15610,SHG GROUP,LUNHAAR 450881,MADHYAAN BHOJAN,14,562,5,10-14
15611,DURGA SHG GROUP,GUJRIKHEDA 450881,MADHYAN BHOJAN,14,562,5,10-14
15612,LAXMI SHG GROUP,CHANDFAR 450881,MADHYAN BHOJAN,14,562,5,10-14
15613,SHANTI SELF HELP GROUPS,PIPLODKHURD 450881,MADHYAN BOJAN BANANA,14,562,5,10-14
15614,JAI AMBEY SELE HELP GROUP,MAIN ROAD GONDWADI 450881,MADHYAN BHOJAN BANANA,14,562,5,10-14
15615,LAXMI SELE HELP GROUP,RAMPURI RAIYAT 450881,MADHYAN BHOJAN BANANA,14,562,5,10-14
15616,SELE HELP GROUP,MAIN ROAD JAGATPURA 450881,MADHYAN BHOJAN BANANA,14,562,5,10-14
15617,ROSHANI SELE HELP GROUP,MAIN ROAD BHILKHEDI 450881,MADHYAN BHOJAN BANANA,14,562,5,10-14
15618,BARELA SELE HELP GROUP,MAIN ROAD BHILKHEDI 450881,MADHYAN BHOJAN BANANA,14,562,5,10-14
15619,AYUSH SELE HELP GROUP,BHILKHEDI 450881,MADHAYAN BHOJAN BANANA,14,562,5,10-14
15620,GAYTRI SELE HELP GROUP,MAIN ROAD KIRGAON 450551,MADHYAN BHOJAN BANANA,14,562,5,10-14
15621,KAWEDHWARI SELE HELP GROUP,KALMUKHI 450551,MADHYAN BHOJAN BANANA,14,562,5,10-14
15622,LAXMI SELE HELP GROUP,MAIN ROAD AMODA 450551,MADHYAN BHOJAN BANANA,14,562,5,10-14
15623,MAA JAGADAMBA SELE HELP GROUP,BHAISAWATADA 450991,SELE HELP GROUP,21,881,5,10-14
15624,JAI BHOLE SELE HELP GROUP,MAIN ROAD SURGAON BANJARI 450551,MADHYAN BHOJAN BANANA,14,562,5,10-14
15625,JAI DEWAKI NANDAN GROUP,MAIN ROAD MATPUR 450551,JAI DEWAKI NANDAN GROUP,21,881,5,10-14
15626,SHG GROUP,MAATPUR 450551,KHANA BANANA,14,562,5,10-14
15627,JAY AMBEY SHG GROUP,MAATPUR 450551,JAI AMBEY SHG GROUP,21,881,5,10-14
15628,SARITA BAI RAMNARAYAN,DHAN GAON 450991,MADHYAN BHOJAN BANANA,14,562,5,10-14
15629,JAI MAA DURGA SHG GROUP,RAJPUT AVTAAR GALI 450991,BHOJAN BANANA,14,562,5,10-14
15630,MAA RENUKA SHG GROUP,ROHNI 450991,BHOJAN BANANA,14,562,5,10-14
15631,DAYA SHG GROUP,BHAGVAANPURA 450001,BHOJAN BANANA,14,562,5,10-14
15632,GAI GURUDEV SHG GROUP,BHAGVANPURA 450001,BHOJAN BANANA,14,562,5,10-14
15633,JAGRATI SELE HELP GROUP,MAIN ROAD RAMPURA 450881,MADHYAN BHOJAN BANANA,14,562,5,10-14
15634,NIMAR SELE HELP GROUP,MAIN ROAD RAMPURA 450881,MADHYAN BHOJAN BANANA,14,562,5,10-14
15635,JYOTI SELE HELP GROUP,MAIN ROAD HANDIYA KHEDA 450881,MADHYAN BHOJAN BANANA,14,562,5,10-14
15636,SARSWATI SELE HELP GROUP,MAIN ROAD 450881,MADHYAN BHOJAN BANANA,14,562,5,10-14
15637,SHANTI SELE HELP GROUP,MAIN ROAD KARPUR 450881,MADHYAN BHOJAN BANANA,14,562,5,10-14
15638,JAYANTI SELE HELP GROUP,MAIN ROAD KARPUR 450881,MADHYAN BHOJAN BANANA,14,562,5,10-14
15639,SULOCHANA SELE HELP GROUP,MAIN ROAD GOHALARI 450991,MADHYAN BHOJAN BANANA,14,562,5,10-14
15640,GAYATRI BAI SELE HELP GROUP,GOHALARI 450991,MADHYAN BHOJAN BANANA,14,562,5,10-14
15641,JAI MAA DURGA SELE HELP GROUP,MAIN ROAD JINWANIYA 450991,MADHYAN BHOJAN BANANA,14,562,5,10-14
15642,JAI MAA AMBEY SELE HELP GROUP,MAIN ROAD BALIYAPURA 450991,MADHYAN BHOJAN BANANA,14,562,5,10-14
15643,JAY DURGA SELE HELP GROUP,MAIN ROAD KALMUKHI 450881,MADHYAN BHOJAN BANANA,14,562,5,10-14
15644,MAA DURGA SELE HELP GROUP,MAIN ROAD PIPALYAPHOOL 450991,MADHYAN BHOJAN BANANA,14,562,5,10-14
15645,SUNDER SELE HELP GROUP,MAIN ROAD SURGAON BANJARI 450991,MADHYAN BHOJAN BANANA,14,562,5,10-14
15646,JAY MAA VAISHNO SELE HELP GROUP,MAIN ROAD JAWAR 450991,AGANWADI ME SANJHA CHULA AUR SCHOOL,20,851,5,10-14
15647,INDIRA SELF HELP GROUP,MAIN ROAD JAWAR 450991,AGANWADI ME SANJHA CHULA AUR SCHOOL,20,851,5,10-14
15648,SHRI DURGA SELF HELP GROUP,MAIN ROAD RAI KHUTAWAL 450881,MADHYAN BHOJAN BANANA,14,562,5,10-14
15649,SHIVRAJ SELF HELP GROUP,RAI KHUTAWAL 450881,MADHYAN BHOJAN BANANA,14,562,5,10-14
15650,GANESH SELF HELP GROUP,MAIN ROAD BADAGAONMAL 450001,MADHYAN BHOJAN,14,562,5,10-14
15651,DURGA SELF HELP GROUP,MAIN ROAD BADAGAONMAL 450881,BHOJAN POSHAN AHAR,14,562,5,10-14
15652,VAISHNAVI SELF HELP GROUP,MAIN ROAD RAI KHUTAWAL 450881,POSHAN AHAR VITATAN BHOJAN,14,562,5,10-14
15653,SACHIN SELF HELP GROUP,MAIN ROAD JIRAWAN 450881,MADHYAN BHOJAN BANANA,14,562,5,10-14
15654,MAHARANI LAXMI BAI SELF HELP GROUP,MAIN ROAD SALIDHANA 450881,MADHYAN BHOJAN BANANA,14,562,5,10-14
15655,GAYATRI SELF HELP GROUP,MAIN ROAD BHAGIYAPURA 450881,MADHYAN BHOJAN BANANA,14,562,5,10-14
15656,VIDHA SELF HELP GROUP,MAIN ROAD RAJGADH RAIYAT 450881,MADHYAN BHOJAN BANANA,14,562,5,10-14
15657,NARMADA SELF HELP GROUP,MAIN ROAD RAJGADH RAIYAT 450881,SELF HELP GROUP,21,881,5,10-14
15658,ANNAPURNA SELF HELP GROUP,MAIN ROAD RAJGADH RAIYAT 450881,SELF HELP GROUP,21,881,5,10-14
15659,DURGESHWARI SELF HELP GROUP,MAIN ROAD BARAR RAIYAT 450881,MADHYAN BHOJAN BANANA,14,562,5,10-14
15660,DURGA SELF HELP GROUP,MAIN ROAD AMPALPURA 450001,MADHYAN BHOJAN VITARAN,14,562,5,10-14
15661,SAI SELF HELP GROUP,MAIN ROAD AMALPURA 450001,SCHOOL MADHYAN BHOJAN VITARAN,20,855,5,10-14
15662,JAIN DHABA,INDORE ROAD CHHAIGAONMAKH 450771,HOTAL SERVICE,14,561,2,10-14
15663,RESHAM BAI SELF HELP GROUP,MAIN ROAD PALASI 450771,MADHYAN BHOJAN BANANA,14,562,5,10-14
15664,RILEANCE MIDIYA WORK,BIG CINEMA ABISHEK BURAHANPUR ROAD KHANDWA 450001,ENTERTAINMENT,22,900,9,10-14
15665,TAPADIYA LIMITED,PANDHANA ROAD KHANDWA 450001,JINIG TRAISHIG JOB WORK,6,139,2,10-14
15666,DENA BANK,SHIWAJI CHOUK KHANDWA 450001,BANKING WORK,16,641,1,10-14
15667,SETHI SEEDS PVT LTD ,BHAVANI MATA ROAD KHANDWA BHAVANI MATA ROAD KHANDWA 450001,SEEDS BUSSINESS,12,479,2,10-14
15668,BHATIA TRANSPORT SERVICE,PANDHANA ROAD KHANDWA 450001,TRANSPORT,13,492,2,10-14
15669,MADHYA PRADESH SAHAKARI SANGH MARYA,DIT  BHAVANI MATA ROAD KHANDWA 450001,LPG GAS DELEVARY,12,473,2,10-14
15670,BANK OF INDIA,PADAWA BRANCH KHANDWA  PADAWA BRANCH KHANDWA 450001,BANK,16,641,1,10-14
15671,GOVT VETENARY HOSPITAL,PADAWA KHANDWA INDORE ROAD KHANDWA 450001,VATENARY HOSPITAL,18,750,1,10-14
15672,PRIMARY SCHOOL,PADAM NAGAR KHANDWA 450001,TEACHING WORK,20,854,2,10-14
15673,UNION BANK OF INDIA,NEAR NAGAR NIGAM KHANDWA 450001,BANKING WORK,16,641,1,10-14
15674,HERO MOTO CORP,INDORE ROAD KHANDWA 450001,MOTERCYCLE SELLING,10,451,2,10-14
15675,DEEP PETHOLOGY LEB,DADAJI MARG KHANDWA 450001,PETHOLOGY LEB,21,869,2,10-14
15676,HINDU BAL SEWA SADAN ANATHALAY,LAALCHOUKI KHANDWA 450001,ANATHALAY ASHRAM,21,879,9,10-14
15677,GOVT  URDU PRAMIRY SCHOOL,MAIN ROAD KHANDWA 450001,SCHOOL TEACHIN WORK,20,852,2,10-14
15678,NAGAR NIGAM OFFICE,SHIVAJI CHOWK KHANDWA 450001,NAGAR NIGAM OFFICE,19,821,2,10-14
15679,AISECT COMPUTER CENTER,RAMESHWAR ROAD KHANDWA 450001,COMPUTER CENTER,15,620,2,10-14
15680,MAHARASTRA BANK,TINPULIA KE PAAS KHANDWA 450001,BANKING WORK,16,641,1,10-14
15681,AISHWARYA HOTAL,MAIN ROAD KHANDWA 450001,HOTAL BUNSISSES,14,551,2,10-14
15682,SANDHAYA SHRIMALI,RAMESHWAR ROAD KHANDWA 450001,HOSPITAL,21,861,1,10-14
15683,PARMANANAD PRATHMIC SCHOOL,KHANDWA 450001,TEACHING WORK,20,851,2,10-14
15684,SWAMI VIVEKANAND SCHOOL,NAGCHUN ROAD KHANDWA 450001,TEACHING WORK,20,852,2,10-14
15685,STATE BANK OF INDIA,NAGCHUN ROAD KHANDWA 450001,FINANACE SERVICE,16,651,1,10-14
15686,SHREE SATYANARAYAN COMPANY,MOGHAT ROAD KHANDWA 450001,OIL MANUFACTURING,6,104,2,10-14
15687,SAFAL SHG,MACHHODI RAYAT 450001,KHANA BANANA,14,562,5,10-14
15688,JAY DURGA SHG,SARAI 450001,KHANA BANANA,14,562,5,10-14
15689,EKTA SHG,BHAMGAD 450001,KHANA BANANA,14,562,5,10-14
15690,PAKIJA SHG,BHAMGAD 450001,MADHYAN BHOJAN BANANA,14,562,5,10-14
15691,NIRMALA BAI SAIRAM SELF HELP GROUP,DONGARGOAN 450001,KHANA BANANA,14,562,5,10-14
15692,REKHABAI GAJANAND BABA SELF HELP GR,OUP  DONGARGOAN 450001,KHANA BANANA,14,562,5,10-14
15693,JILA SAHAKARI KENDRIYA MARYADIT BAN,K BORGAON BUJURG  BORGAON BUJURG 450001,SAHAKARI BAINK,16,641,6,10-14
15694,SARASWATI SELF HELP GROUP,RUSTAMPUR  0 450001,MADHAYAN KHANA BANANA,14,562,5,10-14
15695,JAGRATI SELF HELP GROUP,RUSTAMPUR RUSTAMPUR 450337,MADHYAN KHANA BANANA,14,562,5,10-14
15696,BHUMIKA SELF HELP GROUP,RUSTAMPUR RUSTAMPUR 450337,AGANWADI KA NASTA OR KHANA BANANA,14,562,5,10-14
15697,SANSKAR SELF HELP GROUP,RUSTAMPUR RUSTAMPUR 450337,KHANA BANANA,14,562,5,10-14
15698,SARASWATI SELF HELP GROUP,MADHYAMIC SCHOOL MOHANPUR MOHANPUR 450661,KHANA BANANA,14,562,2,10-14
15699,SELF HELP GROUP,MOHANPUR MOHANPUR 450661,KHANA BANANA,14,562,5,10-14
15700,SARASWATI SELF HELP GROUP,MOHANPUR MOHANPUR 450661,KHANA BANANA,14,562,5,10-14
15701,SELF HELP GROUP,MOHANPUR MOHANPUR 450661,KHANA BANANA,14,562,5,10-14
15702,KARYALAY SAMUDAYIK SWASTH KENDRA,PANDHANA PANDHANA 450661,UPCHAAR HELP,21,861,1,10-14
15703,JILA SAHAKARI BANK,PANDHANA PANDHANA 450661,BANKING WORK,16,641,1,10-14
15704,MAHILA BAAL VIKAS KENDRA,PANDHANA PANDHANA 450661,OFFICIAL WORK,19,821,1,10-14
15705,BEO OFFICE,PANDHANA PANDHNA 450661,OFFICIAL WORK,19,821,1,10-14
15706,KANYA HIGHYER SECONDRY SCHOOL,PANDHANA  MAIN ROAD PANDHANA 450661,TEACHING WORK,20,852,2,10-14
