S.No.,Name of the Establishment,Address,Major Activity Description,Broad Activity Code,NIC,Ownershi p Code,"Employm ent
Class
Interval"
4281,G B  PANT INTER COLLEGE,26 2 BHAWALI 263132,Secondary Education,20,852,9,15-19
4282,JAL SANSTHAN,26 1 BHOWALI 263132,Water Collection  Treatment  and Supply,8,360,9,10-14
4283,D V T  SCHOOL,26 1 RETAR BHAWALI 263132,Primary  Education,20,851,9,20-24
4284,SURESH PAL S O BRIJPAL,11 BARELI ROAD HADLWANI   263139,Manufacture Of  Non  Metallic Mineral Products n e c ,6,239,9,15-19
4285,MODEN CITY PUBLIC SCHOOL,14 HALDWANI 263139,Primary  Education,20,851,9,10-14
4286,SIKIKM MANIPAL UNIVARCITY,36 UTTRANCHAL roaD I T  CAMPUS CENTER TIKONIYA HALDWANI 263139,Higher education,20,853,9,10-14
4287,SANSKRIT P G  COLLAGE,41 1  AANADLOK DEVLCHOD          263139,Higher education,20,853,9,10-14
4288,FIROJ AALAM,20  2  JITPUR NIGALTIYA           263139,Construction of Buildings,9,410,9,30-99
4289,PIMARY SCHOOL,115 Vakh Sunar Khola 263138,Primary  Education,20,851,9,15-19
4290,GYAN PRAKASH INTER COLLEGE,14 1  P O  DHAMOLA 263140,Secondary Education,20,852,7,15-19
4291,SARASWATI SHISHU MANDIR,110 KOTABAG AWALAKOT 263159,Secondary Education,20,852,7,10-14
4292,NAINA DEVI MANDIR,58 1 NAINITAL 263001,Activities of other membership organizations,23,949,7,10-14
4293,BIRLA VIDHYA MANDIR,63 3 NAINITAL 263002,Secondary Education,20,852,7,100-199
4294,SCHOOL SHISHU MANDIR,22 6  NAINITAL 263001,Primary  Education,20,851,7,10-14
4295,SARSWATI SHISHU VIDHYA MANDIR,84 BLOCK ROAD TOWN AREA BHIMTAL 263136,Secondary Education,20,852,7,10-14
4296,THE HARBAR SCHOOL,60 MALLITAL BAZAR TOWN AREA BHIMTAL 263136,Secondary Education,20,852,7,25-29
4297,Upper primary vidhyalaya,48 3  lalkuwan 262402,Primary  Education,20,852,7,30-99
4298,HEER CANVENT SCHOOL MUKANI,16 BHAGAT DESRAJ CALONI      263139,Secondary Education,20,852,7,10-14
4299,SWAMI RAM CANSAR HOSPITAL,92  1  HALDWANI 263139,Hospital Activities,21,861,7,30-99
4300,HOSPITAL WOMEN SPELIST,28  JAIL ROAD HEERANAGAR HALDWANI 263139,Hospital Activities,21,861,7,15-19
4301,SANT TERSHA SENIOUR SECONDARY SCHOOL,14  2  KATHGODAM DISTT NAINITAL 263126,Secondary Education,20,852,7,30-99
4302,ARUNODAY DHRMSHALA,27  1  MAHESH NAGAR NAWABI ROAD HALDWANI 263139,Shrot term accqdation Activities,14,551,7,30-99
4303,EPOS HEALTH INDIA,55 MUKHANI CHORAH HALDWANI   263139,MEDICAL,21,861,7,15-19
4304,MEHTA CHARITABL HOSPITAL,29  2  DEWALCHOD KHAM 263139,Hospital Activities,21,861,7,20-24
4305,CHURCH,109 PUNCHUWALKHEDA 263139,Activities of other membership organizations,23,949,7,20-24
4306,JUNIYAR MORDAN SCHOOL,75  1  MAHRAGOAN 263136,Primary  Education,20,851,7,15-19
4307,KUMAUN GRAMIN UDHOG,25 BANA 263136,Manufacture  Of  Knitted and Crocheted Apparel,6,143,7,20-24
4308,CHIRAG,37 BANA 263136,NGO,21,889,7,10-14
4309,KAICHI HANUMAN MANDIR ASHRAM   TRUST,83 TALLA NIGLAT               263132,Activities of other membership organizations,23,949,7,15-19
4310,GREAT MISHAN PUBLIC SCHOOL,34 HIMATPUR BLOCK RAMNAGAR 244715,Secondary Education,20,852,7,30-99
4311,I C  A  PUBLIC SCHOOL,81 TADA MAALU RAMNAGAR 244715,Primary  Education,20,851,7,10-14
4312,SENT JOSEF CONVENT SCHOOL,15  1  KHUWAJA PUR RAMNAGAR 244715,Primary  Education,20,851,7,30-99
4313,MOUNT SINAI SCHOOL,16  1  SHIVLALPUR RIWUNIYA 244715,Secondary Education,20,852,7,10-14
4314,MILK DAIREE,115 BHAWALI 263132,Manufacture of dairy Products,6,105,6,10-14
4315,KISAN SEVA SEHKARI SAMTI,75 KALADHUNGI 263140,Retail sale of Other Goods in  Specialized Store,12,477,6,10-14
4316,DUGDH PLANT,29 KALADHUNGI 263140,Animal Producation,2,14,6,10-14
4317,ALMORA URBAN CO OPRETIVE BANK,29  2  NAINA TOWER NAINITAL ROAD HALDWANI 263139,Monetary Intermediation,16,641,6,10-14
4318,ALMORA URBAN CO OPRETIVE BANK,81  2  MEERA MARG HALDWANI 263139,Monetary Intermediation,16,641,6,20-24
4319,CO OPRETIVE BANK,48 NAINITAL ROAD HALDWANI 263139,Monetary Intermediation,16,641,6,100-199
4320,BANK OF INDIA,39 ESHBAG COLONY 263139,Monetary Intermediation,16,641,1,10-14
4321,AMBEDKAR SABHAGAR,16 D S B  ROAD 263002,Shrot term accqdation Activities,14,551,5,15-19
4322,LAXMI SHISHU MANDIR SCHOOL,26  1  DHARMPURA HALDWANI 263139,Secondary Education,20,852,5,20-24
4323,UNIUN BANK,2 KALADHUNGI ROAD HALDWANI 263139,Monetary Intermediation,16,641,1,10-14
4324,JAI DURGE EDUCATION PUBLIC SCHOOL,29 LALDATH ROAD DAMUWADUGA HALDWANI 263126,Secondary Education,20,852,5,10-14
4325,NIRMALA CONVENT SenioR SCENDRY SCHOOL,132 SISTER NIRUPI KATHGODAM 263126,Secondary Education,20,852,5,30-99
4326,KOKSHEAR FROJAN FOODS PVT  LTD ,83 3 VIDRAMPUR 263139,FRUIT PRODUCT,6,103,4,25-29
4327,KANSAL PAPER PRODUCTS,71  GULJARPUR RAM SINGH CHAKALUA KALADHUNGI 263139,Manufacture Of Paper and Paper Products,6,170,4,10-14
4328,H D F C  BANK,54 1 NAINITAL 263001,Monetary Intermediation,16,641,4,10-14
4329,NAINI RETRET,1 NAINITAL 263001,Shrot term accqdation Activities,14,551,4,25-29
4330,ARIF CASTLES,1  JAHAGIRABAD PALICE MALLITAL NAINITAL 263002,Shrot term accqdation Activities,14,551,4,30-99
4331,MR  PATHASHTRI SINGH   HOTEL ,16 60  NAINITAL 263002,Shrot term accqdation Activities,14,551,4,15-19
4332,I D B I  BANK,59 2  MALLITAL BAZAR BHIMTAL 263136,Monetary Intermediation,16,641,4,10-14
4333,L I C  MANDAL OFFICE,6  HAIDIL GATE NAINITAL ROAD HALDWANI 263139,Life Insurance,16,651,4,100-199
4334,L I C  BRACH OFFICE,6  HIGHDIL GATE NAINITAL RAOD HALDWANI 263139,Life Insurance,16,651,4,30-99
4335,OFFICE SUMSUNG,82 KALADHUNGI ROAD HALDWANI 263139,Repair of  Personal and Household goods,23,952,4,15-19
4336,VISHAL MEGA MART,72   NAINITAL ROAD HALDWANI    263139,Retail Sale in Non  Specialized Stores,12,471,4,25-29
4337,ICICI BANK,47 SUBHASH NAGAR HALDWANI 263139,Monetary Intermediation,16,641,4,25-29
4338,BRANCH OFFICE VODAPHONE LTD ,87  2  CHRCH COMPOUND HALDWANI 263139,Wireless Tele Communications Activities,15,612,4,30-99
4339,LUMIONS POWER TECNO HOME ELECTRONIC,9 AWASH VIKAS HALDWANI 263139,Retail Sale of  other Household Equipment in Specialized Store,12,475,4,10-14
4340,OFFICE NATIONAL SAHARA,65  12  JNANPAD COMPEX HALDWANI 263139,Other Information Service Activities,15,639,4,10-14
4341,MEGAMA FAINEANS,52 BARELI ROAD HALDWANI 263139,PROPETY DEELER,17,682,4,15-19
4342,BAJAJ ALIANZ,99 1 DURGA CITY CENTER HALDWANI 263139,Life Insurance,16,651,4,25-29
4343,BHARTI AXA,99 2 DURGA CITY CENTER HALDWANI 263139,Life Insurance,16,651,4,10-14
4344,IFCO TOKIYO,100 3  DURGA CITY CENTER HALDWANI 263139,Life Insurance,16,651,4,15-19
4345,S B I  LIFE INSURENS,101 2 DURGA CITY CENTER HALDWANI 263139,Life Insurance,16,651,4,15-19
4346,RELIANCE INSURENS,101 5 DURGA CITY CENTER HALDWANI 263139,Life Insurance,16,651,4,20-24
4347,MAX LIFE INSURERENCE,102 5 DURGA CITY CENTER HALDWANI 263139,Life Insurance,16,651,4,15-19
4348,ING JIVAN BIMA,105 13  DURGA CITY CENTER HALDWANI 263139,Life Insurance,16,651,4,30-99
4349,ACC OFFICE,112 DURGA CITY CENTER HALDWANI 263139,Activities of Business  Employers and Professional,23,941,4,20-24
4350,THE ORIANTAL INSURENC,39  1  COMPANY LTD HALDWANI 263139,Life Insurance,16,651,4,20-24
4351,BAJAJ CAPITAL LIFE ISNSURENS COMPANY,45 GURU GOVIND SINGH TOWER NAINITAL ROAD HALDWANI    263139,Life Insurance,16,651,4,25-29
4352,CHOLA MNDLAM,25 GURU GOVIND SINGH TOWER NAINITAL ROAD HALDWANI    263139,Activities of Business  Employers and Professional,23,941,4,30-99
4353,SACHIN HUNDAI  CAR SHO ROOM,53 AANADLOK 263139,Sale of  Motar Vehicles,10,451,4,30-99
4354,AMAR UJALA,167 MANPUR WEST PART 263139,Publishing of books  Periodicals and Other Publishing  Activities,15,581,4,30-99
4355,MHA LAXMI STON INDUSYS,115 HALDWANI 263139,Manufacture Of  Non  Metallic Mineral Products n e c ,6,239,4,30-99
4356,ELECTRONIC SERVICE CENTER,81  HARINAGAR HALDWANI 263139,SERVICE CENTRE,23,952,4,10-14
4357,M P  ELECTONIC SHOWROOM,108 HALDWANI 263139,Retail Sale of ELECTRONIC,12,475,4,10-14
4358,TATA MOTERS,107 GOJAJALI BICHLI 263139,Sale of  Motar Vehicles,10,451,4,30-99
4359,GOLA GANPATI MOTERS,201 HARIPUR PUNANAND 263139,Sale of  Motar Vehicles,10,451,4,25-29
4360,KARAN ASHOK AATO PVT LTD,117 HARIPUR PUNANAND 263139,Sale of  Motar Vehicles,10,451,4,30-99
4361,HONDA PLANET KARAN ASHOK PVT LTD,67 HARIPUR PUNANAND           263139,Sale  Maintenance and Repair of  Motarcycles and Related Parts and Accessories,10,454,4,30-99
4362,INDODUCH HORTICULTURE PVT  LTD ,18 ALCHUNAA 263136,Retail sale of Other Goods in  Specialized Store,12,477,4,15-19
4363,MAHINDRA CLUB,Bohragaon  Naukuchiatal  Nainital  263136,HOTEL,14,551,4,30-99
4364,H M T  WATCHES LIMITED,111  5 RANIBAG Jantuwal Gaon 263136,Manufacture Of Measuring  Testing  Navigating and Control Equipament  Watches and clocks,6,265,4,>=500
4365,MOTHER DARY JAM AND JUICE FACTORY,37  1  RAMGARH NAINITAL 263137,FRUIT PRODUCT,6,103,4,10-14
4366,V  TO  R  OFFICE,154 JHUTIYA 263137,Retail sale of Other Goods in  Specialized Store,12,477,4,30-99
4367,THE CORBETT,19 CITY RAMNAGAR HIHGWAY DHIKULI 244715,Shrot term accqdation Activities,14,551,4,30-99
4368,M  R  HEALTHCARE P  LTD ,127 PEATH PARAV RAMNAGAR 244715,Manufacture Of Pharmaceuticals  Medical Chemical and Botanical Products,6,210,4,30-99
4369,WILD EXATICA,57 DHIKULI RAMNAGAR 244715,Shrot term accqdation Activities,14,551,4,20-24
4370,HOTEL   RESORT CLUB MAHINDRA,75 DHIKULI 244715,Shrot term accqdation Activities,14,551,4,30-99
4371,NIDHI SEDAS CORPRESTION,49  2  Bail Pokhra 263136,Retail sale of Other Goods in  Specialized Store,12,477,4,15-19
4372,SANWAL SCHOOL,65  RICKSHA STAND MALLITAL NAINITAL 263001,Primary  Education,20,851,3,30-99
4373,BELVEDER HOTEL,1 1  NAINITAL 263001,Shrot term accqdation Activities,14,551,3,10-14
4374,ASHOK HOTEL,1  BHAWALI ROAD TALLITAL NAINITAL 263002,Shrot term accqdation Activities,14,551,3,15-19
4375,SEVAYA HOTEL,55  BHOWALI ROAD NAINITAL 263002,Shrot term accqdation Activities,14,551,3,15-19
4376,AVLIYAN HOTEL,115   MALL   ROAD NAINITAL 263002,Shrot term accqdation Activities,14,551,3,15-19
4377,AVREST HOTEL,136  MALL ROAD NAINITAL 263002,Shrot term accqdation Activities,14,551,3,15-19
4378,DHANVIEER ROLAR FLOUR MILL,1 MUKHANI 263139,Manufacture of Grain Mill Products Starches and starch Products,6,106,3,25-29
4379,SHANHLATA BHATTNAGAR,76 MALTI CHAINAL ENGINIER ENCLAVE 263139,Wired telecommunications Activities,15,611,3,10-14
4380,NEW HERITEJ PUBLIC SCHOOL,45 SUBASH NAGAR HALDANI 263139,Primary  Education,20,851,3,10-14
4381,HOTEL SUNTUSTI,83 NAINTAL ROAD TIKONIYA HALDWANI          263139,Shrot term accqdation Activities,14,551,3,10-14
4382,R R  CLAKING,88 NAINTAL ROAD TIKONIYA HALDWANI          263139,Retail sale of Other Goods in  Specialized Store,12,477,3,10-14
4383,HOTEL VINDHWASHNI,4 HARIPUR SUKHA 263139,Shrot term accqdation Activities,14,551,3,15-19
4384,GAURAV AGRWAL,5 AAN SING NAWAR 263139,EDUCATION,20,854,3,25-29
4385,SARSWATI VIDHAPITH SCHOOL,97 BANGALI COLONY 262402,Secondary Education,20,852,3,10-14
4386,TATA MOTERS RIPEYRING,256 KHEDA 160 263126,Sale of  Motar Vehicles,10,452,3,10-14
4387,DEV BHUMI STON KRESHR,89 KISHNPUR SKULIYA 263139,STONE CRASER,6,239,3,30-99
4388,LESA FACTORY,83 DEWLCHOD 263139,Gathering of non wood Forest Proucts,3,23,3,10-14
4389,BAJRANG MOTERS MHENDRA AJANCI,14 DEVALCHOD 263139,Sale of  Motar Vehicles,10,451,3,100-199
4390,NAINITAL AUTO VILAS,53 DEVALCHORE 263139,Sale of  Motar Vehicles,10,451,3,10-14
4391,MAHAKALI STON CRESRUR,22  2  DEWLA MALLA                263139,STONE CRASER,6,239,3,30-99
4392,AMRPALI INSTITUTE,25 SHIKSHA NAGAR LAMACHOD 263139,Secondary Education,20,852,3,30-99
4393,INDRA ACADUMY SCHOOL,5 DUMKA BAGAR UMAPATI       263139,Primary  Education,20,851,3,10-14
4394,GURUKUL INTER NATIONAL COLLEGE,47  Kamaluwa Ganja Gaur HALDWANI 263139,Secondary Education,20,852,3,30-99
4395,VINOD SAGAR MADAN  HOTEL ,51  1  Chanoti CHANATI 263136,Shrot term accqdation Activities,14,551,3,10-14
4396,KUNAL SAGAR MADAN  HOTEL ,51  2  Chanoti 263136,Shrot term accqdation Activities,14,551,3,10-14
4397,HILL SIKET HOTAL,58  1  Siloti Pant 263136,Shrot term accqdation Activities,14,551,3,15-19
4398,DHEERAJ DOLWANI,52 Simyal Gaon 263158,Activities of Business  Employers and Professional,23,941,3,30-99
4399,MUKUL PRAKASH,2 2  Simyal Gaon 263158,Activities of Business  Employers and Professional,23,941,3,30-99
4400,SARSWATI SHISHU MANDIR,22 MAJEDA 263135,Secondary Education,20,852,3,10-14
4401,WOOD CASAL SPA   RESORT,73 DHIKULI 244715,Shrot term accqdation Activities,14,551,3,100-199
4402,SHAINING SCHOOL,12 MALDHAN ROAD 244715,Primary  Education,20,851,3,15-19
4403,TRIVENI HILLS ACADEMY,14  NEGI GAON PANDEY GOAN 263159,Secondary Education,20,852,2,15-19
4404,DOON MODERN ACEDEMY,69  PATALIYA KOTABAG 263159,Secondary Education,20,852,2,20-24
4405,J N G  SCHOOL,55 1 PATALIYA 263159,Primary  Education,20,851,2,10-14
4406,N M C  BIO PHARMA,36 DHAMOLA 263140,Manufacture Of Pharmaceuticals  Medical Chemical and Botanical Products,6,210,2,30-99
4407,ABHISHEK MISRA KAJU KATING FACTORY,45  DHAMOLA KATABAG 263140,KAJU CUTTING FACTORY,6,107,2,30-99
4408,NEW MONTESSORI SCHOOL,54 5 GULJARPUR RAM SINGH                  P O  KALADHUNGI 263139,Education,20,851,2,10-14
4409,NEW PRAGATISHIL SCHOOL,114 2 GULJARPUR BAKI KALADHUNGI 263139,Primary  Education,20,851,2,10-14
4410,GREEN FEILD NETURE PVT  LTD ,13 GULJARPUR 263139,Manufacture Bakery Products,6,107,2,30-99
4411,MILK DAIRY PURANPUR,78 3                         NEAR DEVIPURA CHAURAHA P O  CHAKALUA 263139,Animal Producation,2,14,2,10-14
4412,JAGRITI SHIKSHA NIKETAN  JUNIOR SCHOOL,18 2  POORANPUR 263139,Secondary Education,20,852,2,10-14
4413,CAMADIE SCHOOL,58  KALADHUNGI BAKI KOTABAG 263140,Primary  Education,20,851,2,10-14
4414,CHAK DEVANAND,1  GAJARI ROAD PANDEY GAON 263159,Construction of Buildings,9,410,2,20-24
4415,BUDLAKOTI TRADRAS,34  BAJONIA HALDU KOTABAG 263159,Retail Sale of  other Household Equipment in Specialized Store,12,475,2,10-14
4416,SUNRISE SCHOOL,35  BAJONIA HALDU KOTABAG 263159,Primary  Education,20,851,2,10-14
4417,BAJUNIA HALDU,36 KOTABAG 263159,Manufacture Of Paper and Paper Products,6,170,2,10-14
4418,SCHOOL ASHA SHIKSHA NIKETAN,21 1 DEVIRAMPUR KOTABAG 263159,Secondary Education,20,852,2,10-14
4419,DEEPTI FILLING STATION,14 BHAWALI 263132,Retail Sale of  automotive fuel in Specialized Store,12,473,2,20-24
4420,SHARDA INDUSTRI,50 1  TALLA PLOAT JAWAHAR JYOTI 263139,Gathering of non wood Forest Proucts,3,23,2,10-14
4421,DUN N S N D  AMBETAKAR SCHOOL,38  SHIVPURI KATHGODUN 263123,Primary  Education,20,851,2,10-14
4422,SANT LYUKUS SCHOOL,59  MILAN COMPOUND JOWAHAR JYOTI DAMUWADHUNGA KATHGODAM 263126,Secondary Education,20,852,2,15-19
4423,SUN RISE PUBLIC SCHOOL,107  DAMUWADUNGA JWAHAR JYOTI KATHGODAM 263126,Secondary Education,20,852,2,10-14
4424,HIMALAYAN PUBLIC SCHOOL,38 1 JAWAHAR JYOTI DAMUWADUNGA KATHGODAM 263126,Secondary Education,20,852,2,15-19
4425,LISA FACTORY,18 HYDLE STREET 263139,Gathering of non wood Forest Proucts,3,23,2,10-14
4426,GIFT STORE,55 MALLITAL 263001,Retail sale of Other Goods in  Specialized Store,12,477,2,10-14
4427,PUROHIT RESTORANT,2 5  NAINITAL 263001,Restaurants amd Mobile Food Service Activities,14,561,2,10-14
4428,EMBASSY RESTORANT,3 5  NAINITAL 263001,Restaurants amd Mobile Food Service Activities,14,561,2,10-14
4429,MOTI MAHAL RESTORANT,5 5  NAINITAL 263001,Restaurants amd Mobile Food Service Activities,14,561,2,10-14
4430,MACHAN HOTEL,6 MALLITAL 263001,Shrot term accqdation Activities,14,551,2,15-19
4431,ROYAL KICHAN,3 12  MALLITAL 263001,Restaurants amd Mobile Food Service Activities,14,561,2,10-14
4432,CHANNI RAJA HOTEL,17 2 MALLITAL 263001,Shrot term accqdation Activities,14,551,2,30-99
4433,SARDAR SANS,27  MALL ROAD NAINITAL 263001,Retail sale of Other Goods in  Specialized Store,12,477,2,10-14
4434,MOTHERS HEART,62  SHANTI NIKETAN MALLITAL NAINITAL 263001,Primary  Education,20,851,2,15-19
4435,THE HIGHWAY GUST,72  HOUSE NAINITAL 263001,Shrot term accqdation Activities,14,551,2,10-14
4436,HOLI ANGIL PUBLIC,1 1   SCHOOL NAINITAL 263001,Secondary Education,20,852,2,30-99
4437,FOOD KOOT RESTORENT,103 NAINITAL 263002,Restaurants amd Mobile Food Service Activities,14,561,2,10-14
4438,JANTA PRESS,104 NAINITAL 263002,Printing and Service Activities Related to Printing,6,181,2,15-19
4439,SAKILEEM SERVIES,106 NAINITAL 263002,Restaurants,14,561,2,15-19
4440,BANK OF BARODA,2 1   MALLITAL NAINITAL 263001,Monetary Intermediation,16,641,1,10-14
4441,CABIL OFFICE,7 7  NAINITAL 263001,Wired telecommunications Activities,15,611,2,10-14
4442,SUBODH PRESS,5 1  NAINITAL 263002,Primting and Service Activities Related to Printing,6,181,2,15-19
4443,RADHA CHILDREN ACADEMY,1 1  MALLITAL NAINITAL 263001,Primary  Education,20,851,2,20-24
4444,SUMAN PAIRADAIES,4  ARMADEL COMPOUND MALLITAL NAINITAL 263002,Shrot term accqdation Activities,14,551,2,10-14
4445,ALARS COUT,39 1  MALLITAL NAINITAL 263002,Shrot term accqdation Activities,14,551,2,20-24
4446,HOTEL SWIS,40 1  MALLITAL NAINITAL 263002,Shrot term accqdation Activities,14,551,2,10-14
4447,ROYAL HOTEL PRIVATE LTD  COMPANY,76 1  MALLITAL NAINITAL 263002,Shrot term accqdation Activities,14,551,2,30-99
4448,MANU MAHARANI HOTEL PVT  LTD ,103  GRAS MIYAR STATE MALLITAL NAINITAL 263002,Shrot term accqdation Activities,14,551,2,100-199
4449,MANOJ DEV,22 1  VIKRAM HOTEL NAINITAL 263002,Shrot term accqdation Activities,14,551,2,30-99
4450,H P GAS SERVICE,52 MALLITAL NAINITAL 263002,Retail sale of Other Goods in  Specialized Store,12,477,2,10-14
4451,FAIR HEVENCE HOTEL,33 2  AVAGHAR 263001,Shrot term accqdation Activities,14,551,2,10-14
4452,LAVALI SCHOOL,29 1  AWAGAR MALLITAL NAINITAL 263001,Primary  Education,20,851,2,15-19
4453,RAMA MANTESARY SCHOOL,25 1   MALLITAL NAINITAL 263002,Primary  Education,20,851,2,15-19
4454,SARARWATI RESTORENT,25 MALLITAL NAINITAL 263002,Restaurants amd Mobile Food Service Activities,14,561,2,10-14
4455,HOTEL HIMALAYA,34 1  MALLITAL  NAINITAL 263002,Shrot term accqdation Activities,14,551,2,30-99
4456,SUNDAR SINGH PARIHAR,5 Nainital 263001,Shrot term accqdation Activities,14,551,2,25-29
4457,ST  JOHNS SCHOOL,25  MALLITAL NAINITAL 263002,Primary  Education,20,851,2,25-29
4458,OFFICE BAL VIDYA MANDIR,26  MALLITAL NAINITAL 263002,EDUCATION,20,851,2,30-99
4459,OFFICE BALIKA INTER COLLAGE,28  MALLITAL NAINITAL 263002,EDUCATION,20,852,2,30-99
4460,SARASWATI VIDYALAY INTER COLLAGE,22                        Nainital 263002,Secondary Education,20,852,2,30-99
4461,NISHANT SCHOOL,25 NAINITAL 263002,Primary  Education,20,851,2,10-14
4462,PAVELIYAN HOTEL,13 3  NAINITAL 263001,Shrot term accqdation Activities,14,551,2,25-29
4463,MUKESH PRASAD ADHIKARI SHERWANI HOTEL,135 1  NAINITAL 263001,Shrot term accqdation Activities,14,551,2,30-99
4464,MAHARAJA HOTEL,145  ZOO ROAD TALLITAL NAINITAL 263002,Shrot term accqdation Activities,14,551,2,10-14
4465,HOTEL VIKRANT,147  ZOO ROAD TALLITAL NAINITAL 263002,Shrot term accqdation Activities,14,551,2,10-14
4466,VRANDAVAN PUBLIC SCHOOL,75  TALLITAL NAINITAL 263002,Primary  Education,20,851,2,15-19
4467,ALPHISTAN HOTEL,55  MALL ROAD TALLITAL NAINITAL 263002,Shrot term accqdation Activities,14,551,2,15-19
4468,HOTEL SHIVRAJ,105 MALL ROAD NAINITAL 263002,Shrot term accqdation Activities,14,551,2,10-14
4469,HOTEL PAILES,107  MALL ROAD NAINITAL 263002,Shrot term accqdation Activities,14,551,2,10-14
4470,INDIA HOTEL,120 THE MALL ROAD NAINITAL 263002,Shrot term accqdation Activities,14,551,2,25-29
4471,ALKA HOTEL,122  THE MALL NAINITAL 263002,Shrot term accqdation Activities,14,551,2,30-99
4472,MONOLITH GUST HOUSE,75  TALLITAL BHIMTAL 263136,Shrot term accqdation Activities,14,551,2,10-14
4473,ABID KHAN,45  NAGAR PANCHAYAT BHIMTAL 263136,Manufacture Of  Products Wood  Cork  Straw and Plaithing Materials,6,162,2,15-19
4474,MOH  IRFAN,47 NAGAR PANCHAYAT BHIMTAL 263136,BAND BAJA,22,932,2,10-14
4475,PHOOL BAGAN OFFICE,3 2  BHIMTAL NAINITAL 263136,FLOWER MARKETING,12,477,2,20-24
4476,LAKES HOSTEL  SATYENDRA SINGH NEGI ,6 2  INDUSTRIAL AREA P0ST  BHIMTAL 263136,Other accommodation,14,559,2,200-499
4477,FACTORY ORA,9  BLOCK ROAD MALLITAL BHIMTAL 263136,COSMETIC PRODUCT,6,202,2,20-24
4478,FACTORY AQUAMALL,10  BLOCK ROAD MALLITAL BHIMTAL 263136,WATER PURIFIRE,6,275,2,30-99
4479,BRID BROTHER L T D ,11 1  BLOCK ROAD MALLITAL BHIMTAL 263136,Manufacture  Of Pesticides and Other Agro Chemicl Products,6,202,2,25-29
4480,PURAN CHANDRA JOSHI,4 3  BHAWALI ROAD KHUTANI BHIMTAL 263136,Shrot term accqdation Activities,14,551,2,10-14
4481,ANIL KHANNA,31 INDUSTRIYAL AREA BHIMTAL 263136,Retail sale of Other Goods in  Specialized Store,12,477,2,30-99
4482,KARAN RAWAT,47 1  INDUSTRIAL AREA BHIMTAL 263136,Manufacture Of Measuring  Testing  Navigating and Control Equipament  Watches and clocks,6,265,2,30-99
4483,NISHCHAY SURE SHAILEEN SURE,53   INDUSTRIAL AREA BHIMTAL              263136,Retail sale of Other Goods in  Specialized Store,12,477,2,10-14
4484,BHIM SINGH BISHT,156  VIKAS BHAWAN ROAD GORAKHAPUR BHIMTAL 263136,Shrot term accqdation Activities,14,551,2,15-19
4485,MISHAN SCHOOL,63 BHIMTAL 263136,Primary  Education,20,851,2,25-29
4486,LAKE HAIRETAGE HOTEL,105 BHIMTAL 263136,Shrot term accqdation Activities,14,551,2,10-14
4487,MOUNTAIN CLUB,19 1                         JONE STATE TOWN AREA BHIMTAL 263136,HOTAL,14,551,2,15-19
4488,B K  RODWAYS,46 Lalkuan 262402,TRASPOTAR,13,492,2,10-14
4489,SAGAR TRANSPORT COMPANY,50 LALKUWAN 262402,Other Land Transport,13,492,2,25-29
4490,NEW BAHRAICH GOODS CARIYAR,50 LALKUWAN 262402,Support activities for transportation,13,522,2,25-29
4491,CHODARI TRANSPORT COMPANY,48 LALKUWAN 262402,Other Land Transport,13,492,2,20-24
4492,DIMAND ROAD LINS,48 LALKUWAN 262402,Support activities for transportation,13,522,2,15-19
4493,GOYAL MANTESHWARI SCHOOL,74 LALKUWAN 262402,Primary  Education,20,851,2,10-14
4494,THE SCHOLORS ACDEMY,77 WARD NO  7 KALADHUNGI 263140,Secondary Education,20,852,2,15-19
4495,UNIVERSAL CONVENT SENIOR SECONDRY SCHOOL,21 KALADHUNGI 263140,Secondary Education,20,852,2,30-99
4496,MOTHERS HOME SCHOOL,18 WARD NO  1 KALADHUNGI 263140,Secondary Education,20,852,2,15-19
4497,SHIL CHANDRA,56 DHANMIL ROAD HALDWANI 263139,Manufacture of Grain Mill Products Starches and starch Products,6,106,2,15-19
4498,ANDRA ACKEDAMI,54 MUKHANI HALDWANI 263139,Higher education,20,853,2,15-19
4499,KID KINGDAM SCHOOL,109 DHANMIL 263139,Primary  Education,20,851,2,15-19
4500,RAGHUVEER SINGH,49 ROTELA COLONY C T  HALDWANI 263139,Sale  Maintenance and Repair of  Motarcycles and Related Parts and Accessories,10,454,2,10-14
4501,BEAR SHIVA SCHOOL,60 POLYSHEET KATHGODAM 263139,Secondary Education,20,852,2,30-99
4502,ABHISHK NAGPALMASALA,8 HAIDIL GATE NAINITAL ROAD HALDWANI    263139,Wholesale  fo food  Beverages and Tobacco,11,463,2,10-14
4503,SANJAY BAJAJ PUBLIC SCHOOL,13  2  HIGHDIL GATE NAINITAL ROAD HALDWANI 263139,Secondary Education,20,852,2,30-99
4504,LEMEN PARK HOTEL MOHIT BANSAL JI,86   HAIDIL GATE NAINITAL ROAD HALDWANI    263139,Shrot term accqdation Activities,14,551,2,25-29
4505,RAJAT GARG PLAYWOOD GODAM,28 TEDI PULIYA NAINITAL ROAD HALDWANI 263139,PLYWOOD FACTORY,6,162,2,15-19
4506,AUTO ZONE CENTER,35 TEDI PULIYA NAINITALROAD HALDWANI 263139,Sale  Maintenance and Repair of  Motarcycles and Related Parts and Accessories,10,454,2,10-14
4507,PREJENTESHON B E D  COLLEGE,48 TEDIPULIYA NAINITAL ROAD HALDWANI 263139,Secondary Education,20,853,2,10-14
4508,MUKESH BALUTHIYA KIDZI SCHOOL,62 TEDI PULIYA NAINITAL ROAD HALDWANI 263139,Primary  Education,20,851,2,15-19
4509,JIM COBET SCHOOL,2  3  NAINITAL RAOD KATHGODAM 263139,Secondary Education,20,852,2,30-99
4510,INSPRINSE SCHOOL,105 NAINITAL ROAD KATHGODAM 263139,Secondary Education,20,852,2,30-99
4511,NAVNEET AGRWAL,157  5  HALDWANI 263139,Sale of  Motar Vehicles,10,451,2,100-199
4512,RADHA BHANDARI K V M  SCHOOL,58  1  HEERANAGAR HALDWANI 263139,Secondary Education,20,852,2,30-99
4513,SURESH HINDWAN SAI PRINTER,50  2  HEERA NAGAR 263139,Publishing of books  Periodicals and Other Publishing  Activities,15,581,2,10-14
4514,GREEN WOOD ENGLISH MIDIYAM SCHOOL,28  1  HEERANAGAR HALDWANI 263139,Secondary Education,20,852,2,30-99
4515,CHAINA GARDAN RESTAURENT,57 SHEESHMAHAL HALDWANI 263126,Restaurants amd Mobile Food Service Activities,14,561,2,10-14
4516,PAL HOSTAL,56  SHEESHMAHAL KATHGODAM 263126,Other accommodation,14,559,2,10-14
4517,SENT PALES SENIOUR SECENDARY SCHOOL,2 KATHGODAM 263126,Secondary Education,20,852,2,100-199
4518,SENT PALES SCHOOL,9  1  KATHGODAM 263126,EDUCATION,20,851,2,30-99
4519,KNG MEMORIYAL MENTORICE SCHOOL,85 SHISHMAHAL KATHGODAM 263126,Primary  Education,20,851,2,10-14
4520,HEAD OFFICE UTTAR UJALA NEWS PRESS,37  1  UJALA NAGAR BARELY ROAD HALDWANI      263139,Primting and Service Activities Related to Printing,6,181,2,30-99
4521,DEVI DATT JOSHI,9  1  HALDWANI 263139,Shrot term accqdation Activities,14,551,2,10-14
4522,RAVI KUMAR,12 HALDWANI 263139,Activities of Business  Employers and Professional,23,941,2,10-14
4523,RAJ LAXMI FUNITURE SHOP,20 HALDWANI 263139,Manufacture of  Furniture,6,310,2,15-19
4524,WOOD PEKET RESTAURANT,25 HALDWANI 263139,Restaurants amd Mobile Food Service Activities,14,561,2,10-14
4525,ASHOK KAPOOR,35  1  HALDWANI 263139,Retail Sale of  other Household Equipment in Specialized Store,12,475,2,15-19
4526,BRIJLAL HOSPITAL,23 POLISHEET NAINITAL ROAD HALDWANI    263139,Hospital Activities,21,861,2,200-499
4527,CHATWAL CHIKAN POINT,85  44  BARSATI NAHAR TIKONIYA HALDWANI 263139,Restaurants amd Mobile Food Service Activities,14,561,2,10-14
4528,CHANNAL MOTERS,44  THANDI ROAD HALDWANI 263139,Sale of  Motar Vehicles,10,451,2,10-14
4529,S K  GUPTA HOSPITAL,48 COLD ROAD HALDWANI         263139,Hospital Activities,21,861,2,20-24
4530,DAYMAND BREKARI,4 SAFDAR KA BAGICHA BARELI ROAD HALDWANI      263139,Manufacture Bakery Products,6,107,2,10-14
4531,HALDWANI PUBLIC J H  SCHOOL,26  1  NWAABI ROAD HALDWANI 263139,Secondary Education,20,852,2,15-19
4532,VANSON SCHOOL,40  1  KALADHUNGI ROADH HALDWANI 263139,Primary  Education,20,851,2,15-19
4533,P M N  SENIOUR SECANDARY SCHOOL,81  2  PANDEY NIWAS HALDWANI 263139,Secondary Education,20,852,2,10-14
4534,M S  SAWEB KHAN,46  3  DHARMPURA HALDWANI 263139,Manufacture of  Furniture,6,310,2,10-14
4535,HAZI ABDUL WAZID,58  2  DHARMPURA HALDWANI         263139,Manufacture of Grain Mill Products Starches and starch Products,6,106,2,100-199
4536,CHANDRSHEKHAR TIWARI,57 PARWATIY MOHALLA 263139,Hospital Activities,21,861,2,25-29
4537,SANDEEP AGRWAL,60 PARWTIYA MOHALLA 263139,Hospital Activities,21,861,2,15-19
4538,R N  NARIMAN COMPANY  PETROL PUMP ,147 KATHGODAM 263136,Retail Sale of  automotive fuel in Specialized Store,12,473,2,10-14
4539,RAVI BAIND,38 KALADHUNGI ROAD HALDWANI  263139,BAND BAJA,22,932,2,20-24
4540,BHARAT BAIND,43 KALADHUNGI ROAD HALDWANI  263139,BAND BAJA,22,932,2,20-24
4541,MASTER BAIND,46 KALADHUNGI ROAD HALDWANI  263139,BAND BAJA,22,932,2,20-24
4542,TAJ BAIND,48 KALADHUNGI ROAD HALDWANI  263139,BAND BAJA,22,932,2,20-24
4543,GULAB BAIND,49 KALADHUNGI ROAD HALDWANI  263139,BAND BAJA,22,932,2,20-24
4544,SUNDAR BAIND,49 KALADHUNGI ROAD HALDWANI  263139,BAND BAJA,22,932,2,15-19
4545,MASTER BAIND,68 KALADHUNGI ROAD HALDWANI  263139,BAND BAJA,22,932,2,15-19
4546,JANTA BAIND,74 KALADHUNGI ROAD NAINITAL  263139,BAND BAJA,22,932,2,15-19
4547,SHAKAR BAIND,75 KALADHUNGI ROAD 263139,BAND BAJA,22,932,2,15-19
4548,AARA MACHIN,104  2  KALADHUNGI ROAD HALDWANI  263139,Saw Milling and Planing of  Wood,6,161,2,10-14
4549,DR MANOJ JOSHI HOSPITAL,114  2  KALADHUNGI ROAD HALDWANI  263139,Hospital Activities,21,861,2,10-14
4550,HIMALALYA SENIOUR SECANDARY SCHOOL,86  2  AWASH VIKASH HALDWANI     263139,Secondary Education,20,852,2,30-99
4551,MEENU AGRWAL,113 SHAKTI PURAM HALDWANI 263139,Other Education,20,854,2,10-14
4552,DUN PUBLIC SCHOOL,101 KALAWATI COLNY HALDWANI   263139,Secondary Education,20,852,2,30-99
4553,DHERENDRA KABEDWAL,12  2  KALAWATI COLNY MEN ROAD HALDWANI 263139,Retail Sale of  other Household Equipment in Specialized Store,12,475,2,15-19
4554,NAWAB PUBLIC SCHOOL,49  1  KATHGODAM HALDWANI 263126,Primary  Education,20,851,2,10-14
4555,RELEX IN JAYKA RESTAURENT,29 NARIMAN CHORAHA KATHGODAM HALDWANI 263136,Restaurants amd Mobile Food Service Activities,14,561,2,10-14
4556,JASCEM AHMAD,20 HALDWANI 263139,Primary  Education,20,851,2,10-14
4557,AGRWAL NURASING HOME,17  MAHESH NAGAR NAWABI ROAD HALDWANI 263139,Hospital Activities,21,861,2,15-19
4558,SAVITRI UPRETI  JUNIR HIGHSCHOOL,21  6  GANDHI AASRM GALI KALAWATI COLNY HALDWANI   263139,Secondary Education,20,852,2,10-14
4559,HOTEL PARDEEP,203 HALDWANI 263139,Shrot term accqdation Activities,14,551,2,20-24
4560,CHANDAN DYGNOSTIC,229 HALDWANI 263139,Medical,21,869,2,10-14
4561,NOOR MEMORIYAL PUBLIC SCHOOL,11  3  INDRANAGAR HALDWANI 263139,Secondary Education,20,852,2,15-19
4562,NISANT MEMORIYAL SCHOOL,43  1  INDRANAGAR HALDWANI 263139,Secondary Education,20,852,2,15-19
4563,DR MEENA SAH,55 1  MALLA GORKHAPUR HALDWANI 263139,Hospital Activities,21,861,2,10-14
4564,GURU KRIPA TOUR AND TREVALAS,65  1  OFFICE COMPLEX HALDWANI 263139,Travel Agency and Tour Operator Activities,19,791,2,15-19
4565,VISWAS MITRA ACOCIYET,65  23  JANPAD COMPLEX HALDWANI 263139,Real Estate Activities on a fee or Contract Basis,17,682,2,20-24
4566,SNEKS RESTAURENT,1 NAINITAL ROAD S D M  ROAD HALDWANI 263139,Restaurants amd Mobile Food Service Activities,14,561,2,10-14
4567,MISSON SCHOOL,43  1  NAINITAL ROAD  BUS STAND HALDWANI 263139,Primary  Education,20,851,2,10-14
4568,PREM CINEMA HALL,28 HALDWANI NAINITAL ROAD 263139,PICTURE HALL,22,900,2,10-14
4569,AZAD BAIND  GRET ,66 TIKONIYA HALDWANI 263139,BAND BAJA,22,932,2,20-24
4570,AZAD BAIND,73 TIKONIYA ROAD HALDWANI 263139,BAND BAJA,22,932,2,10-14
4571,MATHURA DATT PETROL PUMP,174  1  NAINITAL ROAD HALDWANI 263139,Retail Sale of  automotive fuel in Specialized Store,12,473,2,10-14
4572,AJAY NAGPAL S O,3  1  11 BARELI ROAD HALDWANI   263139,Shrot term accqdation Activities,14,551,2,10-14
4573,DEEPAK AGRWAL  S O PURAN LAL,34 1  11 BARELI ROAD HALDWANI   263139,Shrot term accqdation Activities,14,551,2,10-14
4574,FARNICHAR KA WORKSHOP,64 HALDWANI 263139,FURNITURE,6,310,2,10-14
4575,YUSUF BEKARI,101  2  GAFUR BASTI HADLWANI 263139,Manufacture Bakery Products,6,107,2,10-14
4576,SHRI SHYAM AUTOMOBILE,54 2  RAMPUR ROAD HALDWANI 263139,Sale of  Motar Vehicles,10,451,2,10-14
4577,C M  MRMORIYAL PUBLIC SCHOOL,23 SHUBASH NAGAR HALDWANI 263139,Secondary Education,20,852,2,10-14
4578,KRISNA HOSPITAL RESERCH HOSPITAL,15  2  GURUNANAK PURA SHUBHASH NAGAR HALDWANI   263139,Human Health Activities,21,861,2,30-99
4579,CHILDS HOSPITAL,25 2  NWABI ROAD HALDWANI       263139,Hospital Activities,21,861,2,15-19
4580,SATI SWEET HOUSE,74 2   KINSHUL SATI KALADHUNGI ROAD HALDWANI 263139,Retail Sale of  food  Beverges and Tobacco In Specialized stores,12,472,2,10-14
4581,CHANDAR BHUSAN BANSAL,17  2  BHOLANATH GARDAN 263139,Activities of Business  Employers and Professional,23,941,2,15-19
4582,STENDAR SWEET,18 1  BHWANIGANJ NIKAT RAMPUR ROADHALDWANI 263139,Retail Sale of  food  Beverges and Tobacco In Specialized stores,12,472,2,30-99
4583,STENDEER RESTURENT,18 2    BHWANIGANJ NIKAT RAMPUR ROAD HALDWANI           263139,Restaurants amd Mobile Food Service Activities,14,561,2,15-19
4584,DR M C SATI,44 NEAR MAHILA HOSPITAL HALDWANI 263139,clinic,21,862,2,10-14
4585,HEPPY HOME HOTEL,75 2  NIKET BOMBY CROCARI HOUSE NAINITAL ROAD HALDWANI    263139,Shrot term accqdation Activities,14,551,2,15-19
4586,BOMBAY CROKARI HOUSE,73 NAINITAL ROAD HALDWANI    263139,Retail Sale of  other Household Equipment in Specialized Store,12,475,2,15-19
4587,SORAV HOTEL,36  TANDI SADAK HALDWANI 263139,Shrot term accqdation Activities,14,551,2,30-99
4588,BOMBAY HOSPITAL   REASARCH CENTER,41 AWAS VIKAS ROAD HALDWANI 263139,Hospital Activities,21,861,2,30-99
4589,JANTA BENKAT HALL,57 THANDI SADAK HALDWANI 263139,BANQUET HALL,14,551,2,10-14
4590,TINKU MORDEN SCHOOL,72 THANDI ROAD HALDWANI 263139,Primary  Education,20,851,2,30-99
4591,MAHARANI HOTEL,75 NAINITAL ROAD HALDWANI 263139,Shrot term accqdation Activities,14,551,2,15-19
4592,J C  TIWARI  AGENT ,97 DURGA CITY CENTER HALDWANI 263139,Life Insurance,16,651,2,10-14
4593,H D F C   Life Insurance,100 2 DURGA CIYTY CENTER HALDWANI 263139,Life Insurance,16,651,2,20-24
4594,ICICI,101 6 HALDWANI 263139,Monetary Intermediation,16,641,4,20-24
4595,KAREZY KICHAN,102 7  DURGA CITY CENTER HALDWANI 263139,Restaurants amd Mobile Food Service Activities,14,561,2,15-19
4596,SHIKAR GROUP,102 9 DURGA CITY CENTER HALDWANI 263139,Retail Sale of  other Household Equipment in Specialized Store,12,475,2,10-14
4597,BIRLA SUN LIFE,105 5 DURGA CITY CENTER HALDWANI 263139,Life Insurance,16,651,2,10-14
4598,PETROL PUMU  TEJA SINGH BHASIN,109 NEAR DIGRI COLLEGE HALDWANI 263139,Retail Sale of  automotive fuel in Specialized Store,12,473,2,10-14
4599,EASY DAY,111 2 NERA DURGA CITY CENTER HALDWANI 263139,GROCRY,12,471,2,15-19
4600,PETROL PUMP,115 NEAR DURGA CITY CENTER 263139,Retail Sale of  automotive fuel in Specialized Store,12,473,2,10-14
4601,EYES HOSPITAL,125 NEAR DURGA CITY CENTER HALDWANI 263139,Hospital Activities,21,861,2,20-24
4602,RELIANCE FOOTWEAR,75 NAINITAL ROAD HALDWANI 263139,Retail sale of Other Goods in  Specialized Store,12,477,2,20-24
4603,WOODLAND,56 NEAR DURGA CITY CENTER HALDWANI 263139,Retail sale of Other Goods in  Specialized Store,12,477,2,10-14
4604,HOTEL SV,49 NAINITAL ROAD HALDWANI 263139,Shrot term accqdation Activities,14,551,2,10-14
4605,SHRI RAM HOSPITAL,69 NAINITAL ROAD HALDWANI 263139,Hospital Activities,21,861,2,15-19
4606,GREEN VELI SCHOOL,303  1  HALDWANI 263139,Primary  Education,20,851,2,10-14
4607,ALIGAD PUBLIC SCHOOL,59  1  UTTAR UJALAL HALDWANI 263139,Primary  Education,20,851,2,10-14
4608,LAXMI MEDICAL STORE,35 RAMAN MARKET 263139,Wholesale of  Household goods,11,464,2,10-14
4609,KAMAL MEDIKOJ,24 Haldwani cum  Kathgodam  HALDWANI 263139,Wholesale of  Household goods,11,464,2,10-14
4610,RAEESA KHATOON,28 HALDWANI 263139,Manufacture Of  Products Wood  Cork  Straw and Plaithing Materials,6,162,2,10-14
4611,PUNIT AGRWAL CARIYAR WILD,24 2 KATHGODAM 263126,Primary  Education,20,851,2,10-14
4612,SMRT SKEEL OPEAN UNIVERCITY,67  1  AMRAWATI COLONY TALLI BAMORI 263139,Higher education,20,853,2,15-19
4613,MAENEGAR HARISH TIWARI BAL SANSAR SCHOOL,1  HALDWANI 263139,Primary  Education,20,851,2,20-24
4614,PRKHA IMEGING CENTER,69 2 THANDI SADAK HALDWANI 263139,Other Human Health Activities,21,869,2,10-14
4615,GURU TEG BAHADUR SCHOOL,77 THANDI ROAD HALDWANI 263139,Secondary Education,20,852,2,30-99
4616,ROHIT SATI CLASIK COCHING CENTER,47 MUKHANI CHORAH HALDWANI   263139,Other Education,20,854,2,10-14
4617,RAGHAV DAIGNOSHIS PETHOLOGY    LAB,92 MUKHANI CHORAHA HALDWANI  263139,Other Human Health Activities,21,869,2,10-14
4618,DR PRAKASH PANT,94 MUKHANI CHORAH HALDWANI   263139,Medical and Dental Practice Activities,21,862,2,10-14
4619,URO KIDES PUBLIC SCHOOL,93 BHATT COLONY N0 1           TALLI BAMORI 263139,Primary  Education,20,851,2,15-19
4620,HIGH LANDER SCHOOL,81 BHATT COLONY NO 1           TALLI BAMORI 263139,Education,20,852,2,20-24
4621,APRAJIT RAWAL NURSHING HOME,56 MUKHANI CHORAH HALWANI    263139,Hospital Activities,21,861,2,10-14
4622,SAI HOSPTIAL,54 MUKHANI CHORAHA HALDWANI 263139,Medical Activities,21,861,2,30-99
4623,TIWARI NARSHING HOME,57 MUKHANI CHORAHA HALDWANI 263139,Hospital Activities,21,861,2,10-14
4624,KIDZEE SCHOOL,102  BITHORIYA ROAD TALLI BAMORI HALDWANI 263139,Primary  Education,20,851,2,15-19
4625,ROYAL FOOD PRODUCTION,20  1  KOHALI COLONY BITHORIYA N1 263139,Manufacture Bakery Products,6,107,2,10-14
4626,ABDUL SATTAR,1  1  KUSHUMKHEDA HALDWANI      263139,Saw Milling and Planing of  Wood,6,161,2,20-24
4627,MOHAMAD ASIF,74 1  HALDWANI 263139,Retail Sale of  other Household Equipment in Specialized Store,12,475,2,15-19
4628,GAS GODAM,144 HALDWANI 263139,GAS GODAM,13,521,2,20-24
4629,B S N L OFFICE,45          MANDALIY ABHIYANTA PRATAP NAGAR HALDWANI     263139,Activities of Business  Employers and Professional,15,611,2,10-14
4630,FOREST OFFICE,93 2  HALDWANI 263139,Gathering of non wood Forest Proucts,3,23,2,20-24
4631,JASWANT PETROL PUMP,6 KATHGODAM 263126,Retail Sale of  automotive fuel in Specialized Store,12,473,2,10-14
4632,RAJENDR JAIN,11 KATHGODAM 263126,Retail Sale of  other Household Equipment in Specialized Store,12,475,2,10-14
4633,PIJA BAIT,16 2  MAYANK MAHAJAN KATHGODAM 263126,Restaurants amd Mobile Food Service Activities,14,561,2,20-24
4634,MARUTI WORK SHOP,6 1  KALADHUNGI ROAD KUSMKHEDA HALDWANI         263139,Sale  Maintenance and Repair of  Motarcycles and Related Parts and Accessories,10,454,2,30-99
4635,ABADULA PETROAL PUMP,6 2  KALADHUNGI ROAD KUSMKHEDA HALDWANI         263139,Retail Sale of  automotive fuel in Specialized Store,12,473,2,10-14
4636,NAITONAL PUBLIC SCHOOL,12 6  R K TENT HOUSE ROAD 263139,Primary  Education,20,851,2,10-14
4637,HARGOVIND SUYAL,53 1  SARSWTI VIDH MANDIR R K TENT HOUSE ROAD       263139,Primary  Education,20,851,2,30-99
4638,KINGS CODE PUBLIC SCHOOL,114  2  R K TENT HOUSE RODE KUSMKHEDA 263139,Primary  Education,20,851,2,10-14
4639,INDIA STIL INDASTEEL,115 BUS STATION ROAD NIKT DEVI MANDIR HALDWANI 263139,Retail Sale of  other Household Equipment in Specialized Store,12,475,2,10-14
4640,UJJAVAL INTARPRICES,83 GURU TEG BHADUR GALI                 MALLA GORKHPUR HALDWANI 263139,Retail sale of Other Goods in  Specialized Store,12,477,2,10-14
4641,ALKA GOAD,24 BARELI ROAD DURGA COLNY 263139,Secondary Education,20,852,2,15-19
4642,MUKESH SINGH,139 BARELI ROAD HALDWNAI      263139,Retail Sale of  other Household Equipment in Specialized Store,12,475,2,30-99
4643,NASIM AHAMAD,155 BARELI ROAD HALDWANI      263139,Sale of  Motar Vehicles,10,451,2,15-19
4644,TONI HARIYAL,135 BARELLY ROAD HALDWANI     263139,Sale  Maintenance and Repair of  Motarcycles and Related Parts and Accessories,10,454,2,10-14
4645,NAND KISHOR KOTARI,124 R K TENT HOUSE road KUSMKHEDA HALDWANI         263139,Retail Sale of  other Household Equipment in Specialized Store,12,475,2,10-14
4646,BHAWANI DUTT JOSHI,15 BHUMIYA VIHAR FACE2 GAS GODAM ROAD KUSMKHEDA 263139,Activities of Business  Employers and Professional,23,941,2,10-14
4647,KISHAN GUPTA,105 RESHM BAG GAS GODAM ROAD KUSAMKHEDA HALDWANI       263139,Building Completion and Finishing,9,433,2,10-14
4648,DEV CHANDRA PANDEY,106 RESHM BAG GASS GODAM ROAD KUSUMKHEDA HALDWANI       263139,Activities of Business  Employers and Professional,23,941,2,10-14
4649,LITTLE FLOWER SCHOOL,26 DEVENDER SINGH JINA LAL DAATE ROAD HALDWANI 263139,Primary  Education,20,851,2,15-19
4650,MRS VIMLA JOSHI  IN PUBLIC HIGH SCHOOL,73  DURGA COLONY BARELY ROAD HALDWANI 263139,Secondary Education,20,852,2,10-14
4651,SRIMATI DAYA RAWAT,67 DURGA COLNY BARELY ROAD HALDWANI 263139,Secondary Education,20,852,2,20-24
4652,RAJENDER SINGH SATWAL,23 HALDWANI TALLI 263139,Retail Sale of  automotive fuel in Specialized Store,12,473,2,10-14
4653,HARISH CHANDER SHRMA,30 2  TALLI HALDWANI 263139,Secondary Education,20,852,2,10-14
4654,GATTA FACTORY,46 HALDWANI  TALLI 263139,Manufacture Of Paper and Paper Products,6,170,2,15-19
4655,SANJIV SHRMA KRISNA MURARI enterprises P LTD   ReAL STET  ,120 TALLI HALDWANI 263139,Real Estate Activities on a fee or Contract Basis,17,682,2,10-14
4656,VIDHA PUSPA ACADEMY,229 HALDWANI HALDWANI TALI 263139,Primary  Education,20,851,2,10-14
4657,TIME QUIMENT P LTD,136 PURANI I T I   ROAD HALDWANI TALLI             263139,FACTORY,6,265,2,10-14
4658,UTTARKHAND STONE CURESHER,71 GOUJAJALI DAKHIN HALDWANI 263139,STONE CURESHER,6,239,2,30-99
4659,KANHAIYA LAL TANDAN,21 BHARATPUR NO 2 263139,Manufacture of   Cotton Fabrics,6,139,2,15-19
4660,KRISHNA STONE CRASHER,34  2  HARIPU BACHHI HALDWANI 262402,STONE CURESHER,6,239,2,25-29
4661,JAGDAMBA STONE CRESHER,34  1  HARIPU BACHHI HALDWANI 262402,STONE CURESHER,6,239,2,10-14
4662,SARSWATI GYAN MANDIR,56 BANGALI COLNY 262402,Primary  Education,20,851,2,15-19
4663,DR SUSHILA TIWARI SCHOOL,101 GANDHINAGAR 1 LALKUWA     263144,Secondary Education,20,852,2,10-14
4664,ANAAND ACADAMY SCHOOL,197 BANGALI COLNY LALKUWA     262402,Primary  Education,20,851,2,10-14
4665,MOTHER TERESHA PUBLIC SCHOOL,86 BAGALI COLONY LALKUWA     262402,Primary  Education,20,851,2,10-14
4666,RISE AND SHINE PUBLICK SCHOOL,1 5  HIMMATPUR MALLA 263139,Secondary Education,20,852,2,10-14
4667,GOPAL SINGH MATYANI,2 KALYANPUR HALDWANI         263139,CERAMIC PRODUCTS,6,239,2,10-14
4668,GRAMIN BAL VIDHYA MANDIR,33 KISHNPUR HALDWANI 263139,Primary  Education,20,851,2,10-14
4669,SARASWATI SISHU MANDIR,64 1  KISHANPUR HALDWANI 263139,Primary  Education,20,851,2,15-19
4670,C M T  ENGINIRING COLLEGE,5 KISHANPUR HALDWANI 263139,Secondary Education,20,852,2,10-14
4671,PASHU AHAR FACTORY,71  2  DEVPUR DEWKA HALDWANI 263139,PASHU AHAR FACTORY,6,108,2,10-14
4672,BHATT MINRALES LTD,73  1  DEVPUR DEWKA HALDWANI 263139,Manufacture Of  Non  Metallic Mineral Products n e c ,6,239,2,15-19
4673,RAMBAG SOAS INDISTRIES,63 JAGATPUR 263139,SOS INDUSTRIES,6,103,2,10-14
4674,MORDEN PUBLIC SCHOOL,121 KHEDA NAINITAL 263126,Primary  Education,20,851,2,10-14
4675,HARISH CHANDER JOSHI,115 BKULIYA MOTAHALDU 263139,Other Land Transport,13,492,2,10-14
4676,B S N  SCHOOL,45 KISANPUR SKULIYA 263139,Primary  Education,20,851,2,10-14
4677,KISHN CHANDER BHATT,134 KISHNPUR SAKULIYA 263139,Other Land Transport,13,492,2,10-14
4678,KHASTI DEVI SCHOOL,59 DURGAPALPUR MOTIRAM       263139,Secondary Education,20,852,2,10-14
4679,ARYAMAN VIKRM BIDALA SCHOOL,113 JOSASAL KARAYAL 263139,Secondary Education,20,852,2,20-24
4680,BEAR GODAM,64  1  AANADLOK 263139,Warehousing and Storage,13,521,2,10-14
4681,K V CONVENT SCHOOL,137 DEVALCHOD KHAM 263139,Secondary Education,20,852,2,15-19
4682,MURGI DANA FECOTRY,124 Dewarchaur Kham HALDWANI 263139,Animal Producation,6,108,2,20-24
4683,CAR WORK SHOP,66 MANPURU PACHIM 263139,Maintenance and Repair of Moter Vehicles,10,452,2,10-14
4684,M R F  TYARE GODAM,68 1  MANPUR WEST                263139,Warehousing and Storage,13,521,2,15-19
4685,BOOKS SHOP   GODAM,69  1  MANPUR WEST                263139,RETAIL BOOK SHOP,12,476,2,10-14
4686,KONAK PUBLIC SCHOOL,92 DEWALCOD 263139,Primary  Education,20,851,2,10-14
4687,JAGRAN PRAKASHN LTD,43 DEVACHORE 263139,Primting and Service Activities Related to Printing,6,181,2,100-199
4688,POOJA PEKEJING,147 DEVALCHORE 263139,GATTA FACTORY,6,170,2,30-99
4689,H C MEMORIAL SCHOOL,112 HALDUCHORE PRRGATI VIHAR DOLIY       263139,Primary  Education,20,851,2,10-14
4690,BHART MINES   MINIRAES,39 1  RAMPUR ROAD HALDWANI 263139,Manufacture Of   Mineral,6,239,2,15-19
4691,MS GIRDHARILAL AND SANS,114 MANPUR PASCHIM 263139,Gathering of non wood Forest Proucts,3,23,2,100-199
4692,PAL FORD,44 MANPUR PASCHIM RAMPUR ROA 263139,Maintenance and Repair of Moter Vehicles,10,452,2,15-19
4693,ASOCIYET SOM STON DISST   CO PVT  LTD ,36 HARIPUR MOTIY              263139,STONE CURESHER,6,239,2,10-14
4694,EXCE FOOT PVT LTD,25 HARIPUR LALMANI 263139,SHOSE MAKING,6,152,2,30-99
4695,PARWAT PUBLIC SCHOOL,94 DUEWALA MALLA 263139,Primary  Education,20,851,2,10-14
4696,MAHAVEER FLOUR MIL PVT  LTD ,HARIPUR PUNANAND 263139,Manufacture of Grain Mill Products Starches and starch Products,6,106,2,25-29
4697,HASAN ANSARI,20  1  DOULATPUR HALDWANI         263139,Construction of Buildings,9,410,2,10-14
4698,JAI ARIHENT COLLEGE,113  4  DUMKABANGAR BACCHI LALKUA 263139,Educational Support Services,20,853,2,30-99
4699,CHILDRAN AEADEMY,180 DUMKABANGAR BACHIDHRMA    263139,Other Education,20,854,2,20-24
4700,SAGAR STON PVT LTD ,100 HALDUCHOD DEVRAY 263139,Manufacture Of  Non  Metallic Mineral Products n e c ,6,239,2,20-24
4701,LET  MADHO SHING BAL VIDHA MANDIR,79 GOLA RENJ 262402,Primary  Education,20,851,2,10-14
4702,UTTRANCHAL PRES SERVICES,128 LOHARIYSAL TALLA 263139,Primting and Service Activities Related to Printing,6,181,2,15-19
4703,TIWARI KHADIYA FECTORY,209 LAMACHOR 263139,MANUFACTURE OF FOOD ITEMS,6,104,2,10-14
4704,NIMONIK PUBLIK SCHOOL,2 PADAMPUR PADALIYA LAMACHOD 263139,Primary  Education,20,851,2,15-19
4705,STONE CURESHER,68 MOTAHALU 263139,STONE CURESHER,5,81,2,10-14
4706,VIJAY INDUSTRIES,18 MOTAHALDU 263139,STONE CURESHER,5,81,2,30-99
4707,SHUBASH STON KRESHR,87 MOTAHALDU 263139,STONE CURESHER,5,81,2,20-24
4708,MITTAL PLASTIKS,114 PADALIPUR 263139,Manufacture  Of PALASTIC PRODUCT,6,222,2,15-19
4709,MAHAVIR POLYSEK INDUSYS,125 PADALIPUR 263139,Manufacture  Of PALASTIC PRODUCT,6,222,2,15-19
4710,PAL ALLAY AND STEEL COSTRIM FACTORY,117 PADALIPUR 263139,Manufacture Of Structural Metal Products,6,251,2,20-24
4711,DEEPAK PRINTERS AND PUBLISHANS,55 PADALIPUR 263139,Primting and Service Activities Related to Printing,6,181,2,10-14
4712,KRIPA FARM,84 PADLIPUR 263139,Manufacture  Of MEDICINE,6,210,2,15-19
4713,BHWANI PLASTIC FAECOTRY,89 MOTAHALDU 263139,Manufacture  Of PALASTIC PRODUCT,6,222,2,15-19
4714,MADARSN SUMI SYSTM LIMITED,42 PADALIPUR 263139,AUTO PARTS,6,293,2,200-499
4715,VINDHYAVASNI HIWAY CENTER,15 MOTAHALDU 263139,Retail Sale of  automotive fuel in Specialized Store,12,473,2,15-19
4716,A B M  PUBLIC SCHOOL,2 Ramari Chhoti HALDWANI 263139,Secondary Education,20,852,2,30-99
4717,D A V  SCHOOL,45 HIMATPUR MALLA 263139,Secondary Education,20,852,2,30-99
4718,VIVEKANAND SCHOOL,58 R T O  OFFICE ROAD 263139,Primary  Education,20,851,2,10-14
4719,MANAS HOSPITAL,280 KAMLUWAGAJA HARIPUR NAYAK 263139,Hospital Activities,21,861,2,15-19
4720,SWITARI SCHOOL,105  NARAYAN UPRETI MALLI BAMORI HALDWANI 263139,Primary  Education,20,851,2,10-14
4721,P D JOSHI MEMORIYAL PUBLIC SCHOOL,7 INDRANAGAR GOAL RANGE     262402,Primary  Education,20,851,2,10-14
4722,G B PUBLIC SCHOOL,28 SHISHM BUJIYA 262402,Primary  Education,20,851,2,10-14
4723,NEW D S  CONVENT,109 HALDUCHOD DEENA 263139,Primary  Education,20,851,2,10-14
4724,SOYABIN FECOTRY AND U M P L ,16 HALDUCHOD Bameta Bangar Kheema 262402,SOYABEEN FACTORY,6,107,2,30-99
4725,JAL PACK FECOTRY,4 Tularampur 263139,Manufacture Of   Mineral WATER,6,110,2,100-199
4726,MHALAXMI GARDEN VEKANT HALL,48 Tularampur 263139,BANQUET HALL,14,551,2,10-14
4727,EEVER GREEN SCHOOL,63 Tularampur 263139,Secondary Education,20,852,2,30-99
4728,DON BOSCO S S SCHOOL,133 Himmatpur Chamwal 263139,Secondary Education,20,852,2,30-99
4729,MANJU JOSHI UNIVERSAL SCHOOL,108 CHADAYAL HALDWANI 263139,Primary  Education,20,851,2,15-19
4730,GIRISH CHANDER JOSHI  DARPAN SCHOOL,3  Harinagar  263139,Primary  Education,20,851,2,15-19
4731,HARISH CHANDAR JOSHI   DIPTI PUBLIC SCHOOL,11 1  Harinagar 263139,Primary  Education,20,851,2,20-24
4732,BHARTIY BAL VIDHA MANDIR,158  1  Bamori Tallikham 263139,Primary  Education,20,851,2,20-24
4733,J C PANT INTER COLLAG,25 1  HIMATPUR MALLA 263139,Secondary Education,20,852,2,15-19
4734,AGARWAL MINIRAL,9 JEETPUR NEGI RAMPUR ROAD 263139,Manufacture Of  Non  Metallic Mineral Products n e c ,6,239,2,10-14
4735,T V  SUNDARAM AIYAGAR SONS LIMTED,10 Jeetpur Negi 263139,Sale of  Motar Vehicles,10,451,2,30-99
4736,NAINITAL MOTORS PVT LTD,22 Jeetpur Negi 263139,Sale of  Motar Vehicles,10,451,2,30-99
4737,DALAKOTI MINIRAL AND CHMIKAL,66 RAMPUR ROAD HALDWANI 263139,Manufacture Of  Non  Metallic Mineral Products n e c ,6,239,2,10-14
4738,LAKHPATI TRADERS BRITRANIYA DIPO,98 Jeetpur Negi 263139,Manufacture Bakery Products,6,107,2,15-19
4739,ANGEL VIDHA MANDIR  PVT SCHOOL   ,63 GUSAIPUR 263139,Secondary Education,20,852,2,10-14
4740,RENBO ACADEMY SCHOOL,115 GOJAJALI BICHALI 263139,Primary  Education,20,851,2,10-14
4741,CITY HOSPITAL AND RESEARCH  CENTER,125 GOJAJALI BICHLI 263139,Hospital Activities,21,861,2,20-24
4742,CHILDREN VALLY SCHOOL,63 HARIPUR PUNANAND 263139,Primary  Education,20,851,2,10-14
4743,DEVLARS MINIRALS PVT LTD,109 HARIPUR PUNANAND 263139,STONE CURESHER,6,239,2,10-14
4744,KHARIA FACTORY,108 HARIPUR PUNANAND 263139,Manufacture Of  Non  Metallic Mineral Products n e c ,6,239,2,30-99
4745,BHANDARI HIWAY CENTER,12 HARIPUR RATAN SINGH       263139,Retail Sale of  automotive fuel in Specialized Store,12,473,2,10-14
4746,UTTARCHAL RALLER FLOUR MILL,32 HARIPUR RATAN SINGH       263139,Manufacture of Grain Mill Products Starches and starch Products,6,106,2,20-24
4747,SAI PUBLIC SCHOOL,22 BAJWALPUR 263139,Primary  Education,20,851,2,15-19
4748,NANI VIDYA PEETH SCHOOL,85 Loharia Salmalla 263139,Primary  Education,20,851,2,20-24
4749,ANJANI SERVICE CENTER,16 Loharia Salmalla 263139,Maintenance and Repair of Moter Vehicles,10,452,2,25-29
4750,SARSWATI ACEDIMEY,11 PURAN SINGH JANTWAL 263139,Secondary Education,20,852,2,25-29
4751,JEAN IRON STORE NAINITAL ROAD,178 RANIBAAG 263126,IRON WORK,6,241,2,10-14
4752,TEMPLTAN ACADAMY SCHOOL,134 Thaplia Mahara  Gaon 263136,Primary  Education,20,851,2,30-99
4753,NATURE PARADICE RESORT UNITED 21,101  1  Thaplia Mahara  Gaon 263136,Shrot term accqdation Activities,14,551,2,20-24
4754,HOTAL LAKE RESORT,156 Thaplia Mahara  Gaon 263136,Shrot term accqdation Activities,14,551,2,25-29
4755,SANJEEV BHAGAT RESTAURANT,87 Nagri Gaon 263132,RESTAURANT,14,561,2,20-24
4756,DAINESTY RESORT,87 KURPANKHA 263002,Shrot term accqdation Activities,14,551,2,30-99
4757,GEETAM BATRA TEJPAL    accqdator,16  4  Gethiya 263136,Shrot term accqdation Activities,14,551,2,10-14
4758,ARIJ WORKSHOP,4 Beluwakhan 263127,Maintenance and Repair of Moter Vehicles,10,452,2,15-19
4759,MARINO INDUSTRISES LIMITED,55 JANGLIYAGOAN 263136,Seed Processing,6,104,2,20-24
4760,MENPAL HARITAGE,155 Mahara gaon 263136,Shrot term accqdation Activities,14,551,2,20-24
4761,COUNTRY IN,151 MEHRA GAON 263132,Shrot term accqdation Activities,14,551,2,30-99
4762,UNAHOTAL,32  1  DOLMAR 263127,Restaurants amd Mobile Food Service Activities,14,561,2,20-24
4763,SHIV DUTT CHONAL,88  3  GHIDARANI 263136,ELECTRIC PRODUCT,6,273,2,10-14
4764,CUNTRY IN,14 MAHRAGOAN BHIMTAL   263136,Shrot term accqdation Activities,14,551,2,100-199
4765,DHARAM SINGH SCHOOL,52 Jalal Gaon 263136,Secondary Education,20,852,2,10-14
4766,SHISHU MANDIR,15 Pokhrar 263132,Primary  Education,20,851,2,10-14
4767,GOV  INTER COLLAGE,109 DHANACHULI 263136,Primary  Education,20,851,2,20-24
4768,D S S  PAL PUBLIC SCHOOL,25 SYAMKHET 263132,Educational Support Services,20,852,2,10-14
4769,BAAL VIDHA NIKETAN,46 GHODAKHAL 263132,Educational Support Services,20,852,2,15-19
4770,G I C ,2 Lvesal 263132,education,20,852,2,20-24
4771,SMT POONAM PANDEY,127 Mukteshwar 263138,Secondary Education,20,852,2,20-24
4772,MURARI SAH,25 DANIYAKOT 263135,Retail sale of Other Goods in  Specialized Store,12,477,2,30-99
4773,CHIRAG SANSTHAN,27 CHETRIYA DHOKNE 263135,SANSTHAN,23,949,2,10-14
4774,RETAURANT,7  2  Visar Ganj 263135,Restaurants amd Mobile Food Service Activities,14,561,2,30-99
4775,CHIRAG P V ,2  3  SIMAYAL GAON 263158,Activities of Business  Employers and Professional,23,941,2,10-14
4776,BIO LIFE FRUITS LTD ,12 BOHARKOT 263158,FRUIT PRODUCT,6,103,2,30-99
4777,NIMRANA HOTAL P LTD,25 RAMGARH MALLA 263136,Shrot term accqdation Activities,14,551,2,20-24
4778,DHIRAJ DOLWANI,5 SIMLAKHA 244715,Photographic Activities,18,742,2,30-99
4779,B  2 R  TECNOLOGI,37 1  ODAKHAN 263158,Management Consultancy Activities,18,702,2,30-99
4780,SUDHIR CHADDA TALA,11 Niglat Talla 263132,Retail sale of Other Goods in  Specialized Store,12,477,2,20-24
4781,SUJATA JELLOR INDERSTES,94 Ropa 263134,Retail sale of Other Goods in  Specialized Store,12,477,2,20-24
4782,SARSWATI VIDHA MANDIR,8 ROPA 263134,Primary  Education,20,851,2,15-19
4783,SAI HOSPITAL,5 BHAWANIGANJ 244715,Medical Activities,21,861,2,15-19
4784,M  P  INTER COLLAGE,220  4  RAMNAGAR RANIKHET ROAD 244715,education,20,852,2,15-19
4785,SUSHIL KUMAR AGRWAL,75 Ramnagar 244715,Manufacture Of  Products Wood  Cork  Straw and Plaithing Materials,6,162,2,30-99
4786,HOTAL KINGDAM,1 BHAWANIGANJ RAMNAGAR 244715,Shrot term accqdation Activities,14,551,2,10-14
4787,BAJAJA ELOCTRONICS,109  2  RAMNAGAR BAJAJA LINE 244715,Wholesale of  Household goods,11,464,2,10-14
4788,GREAT MISSION SCHOOL,85 RAMNAGAR 244715,Primary  Education,20,851,2,15-19
4789,SUN RISE SCHOOL,86 RAMNAGAR 244715,Primary  Education,20,851,2,15-19
4790,SEMI PUBLIC SCHOOL,75  1  RAMNAGAR GULARGHATTI 244715,Primary  Education,20,851,2,10-14
4791,FOODIM RESTORENT,9  2  RAMNAGAR LAKHANPUR 244715,Restaurants amd Mobile Food Service Activities,14,561,2,10-14
4792,P N G P G  MAHAVIDHALAY,77 Ramnagar 244715,Secondary Education,20,852,2,30-99
4793,MESAR WOODS KRAFT WORKS,94 BHAWANIGANJ 244715,Manufacture Of  Products Wood  Cork  Straw and Plaithing Materials,6,162,2,30-99
4794,NEW RAMNAGAR STONE CO ,96  1  BHAWANI GUNJ 244715,Quarrying Of  Stones,5,81,2,15-19
4795,POLYTECNIC COLLAGE,40  1  KARANPUR 244715,Secondary Education,20,852,2,30-99
4796,PUBLIC SCHOOL NARIPURA,7 CHHOI 244715,Secondary Education,20,852,2,10-14
4797,GARDAN VALLEY SCHOOL,39 Goujani 244715,Primary  Education,20,851,2,20-24
4798,V  RESORT,40 KYARIKHAM 244715,Shrot term accqdation Activities,14,551,2,10-14
4799,NARDAN PLAI WOOD FACTORY,59 SANDEEP GUPTA NAYA GOAN RAMNAGAR 244715,Manufacture Of  Products Wood  Cork  Straw and Plaithing Materials,6,162,2,100-199
4800,IRIS HOTAL,38 KYARIKHAM 244715,Shrot term accqdation Activities,14,551,2,10-14
4801,CLARK HOTAL,39 Kiari Kham 244715,Shrot term accqdation Activities,14,551,2,15-19
4802,SRI SHIDHI VINAYAK FLOUR MILL,29 AND RAIS MEEL HIMATPUR 244715,Manufacture of Grain Mill Products Starches and starch Products,6,106,2,30-99
4803,INDO FAITO CEMICAL LIMITED,73 Sakkhanpur 244715,Manufacture  Of Pesticides and Other Agro Chemicl Products,6,202,2,200-499
4804,CORBET RIVER SIDE,12 DHIKULI 244715,Shrot term accqdation Activities,14,551,2,30-99
4805,MYRICA HOTELS,27 DHIKULI 244715,Shrot term accqdation Activities,14,551,2,10-14
4806,ESCAPE CORBETT RESORT,32 DHIKULI 244715,Shrot term accqdation Activities,14,551,2,10-14
4807,PARVATIYA PLYWOOD LTD,11 SHIVLALPUR 244715,Manufacture Of  Products Wood  Cork  Straw and Plaithing Materials,6,162,2,100-199
4808,O A K  BARDS,8 SHIVLALPUR CHUNGI 244715,Primary  Education,20,851,2,10-14
4809,MADRAS GLORI PUBLIC SCHOOL,106 CHOPADA RODA 244715,Primary  Education,20,851,2,15-19
4810,CORBETT LEELA VILAS,41 DHIKULI 244715,Shrot term accqdation Activities,14,551,2,25-29
4811,SUMAN GREAT HOTAL,6 Dhikuli 244715,Shrot term accqdation Activities,14,551,2,10-14
4812,HOTAL COUNTRY INN,11 DHUKULI 244715,Shrot term accqdation Activities,14,551,2,30-99
4813,CORBETT ADWANCHER,92 PATTAPANI 263140,Shrot term accqdation Activities,14,551,2,15-19
4814,HOTEL MAIPAL SALDE PACHIM,69  SEMLKHALIYA RAMNAGAR NAINITAL 244715,Shrot term accqdation Activities,14,551,2,30-99
4815,HOTEL AAHANA SAWALDE PACHIM,102  SEMALKHALIYA RAMNAGAR NAINITAL 244715,Shrot term accqdation Activities,14,551,2,30-99
4816,CORBAIT ARORA,3 DHIKULI RAMNAGAR 244715,Shrot term accqdation Activities,14,551,2,10-14
4817,D D  CHIMWAL PUBLIC SCHOOL,38  1  DHIKULI RAMNAGRAR 244715,Primary  Education,20,851,2,20-24
4818,HOTEL CORBET,171 DHELA RAMNAGAR 244715,Shrot term accqdation Activities,14,551,2,15-19
4819,HOTEL ASOKA TIGAR TRIL,172 DHELA RAMNAGAR 244715,Shrot term accqdation Activities,14,551,2,15-19
4820,CARBET WOODS RESORT,19 DHELA 244715,Shrot term accqdation Activities,14,551,2,15-19
4821,ELEKTRONIC TRAING,94 KANIYA RAMNGAR 244715,Educational Support Services,20,852,2,15-19
4822,EAST CONVENT,160  1  KANIYA RAMNGAR 244715,Primary  Education,20,851,2,10-14
4823,KISAN RICE MIL,124 BEDAJHAL 244715,RICE MILL,6,106,2,10-14
4824,CORBET GET WAY GEST HOUSE,14 SEMALCHOR RAMNAGR          244715,Shrot term accqdation Activities,14,551,2,20-24
4825,SHISHU MANDIR SCHOOL,62 LALITPUR RAMNAGAR 244715,Secondary Education,20,852,2,10-14
4826,RAHUL PUNERA,77 MAYA RESORT SEMLKHALIYA 244715,Shrot term accqdation Activities,14,551,2,10-14
4827,DEEPAK PURI SCHOOL,1  3  Shivpur Beljuri 244715,Primary  Education,20,851,2,30-99
4828,SOHAN SINGH,19 1  VEERPUR LACHCHI RAMNAGAR 244715,Manufacture Of  Non  Metallic Mineral Products n e c ,6,239,2,15-19
4829,ROOP HOTAL   RESORT,19 1  MOHAAN RAMNAGR 244715,Shrot term accqdation Activities,14,551,2,10-14
4830,KRISHNA VILDAR NES RITRIT,112 DHIKULI 244715,Shrot term accqdation Activities,14,551,2,10-14
4831,HOTEL JAIMS FOREST RITREG,174 DHELA RAMNAGAR 244715,Shrot term accqdation Activities,14,551,2,15-19
4832,G I C ,56  1  MANAKKANTPUR 263140,Primary  Education,20,851,2,15-19
4833,NARDAN PLAYWOOD FECOTRI,161 TALIPURA 244715,FACTORY,6,162,2,30-99
4834,ASHOK STON KARECHER,69 CHORPANI RAMNAGAR 244715,STONE CURESHER,5,81,2,10-14
4835,HOTEL VAILD CREST,98 LADUA CHOD 244715,Shrot term accqdation Activities,14,551,2,30-99
4836,HOTEL INFINITI,100 LADUA CHOD RAMNAGAR RANIKHET ROAD RAMNAGAR    244715,Shrot term accqdation Activities,14,551,2,30-99
4837,HOTEL LA PARL,106 LADUA CHOD RAMNAGAR RANIKHET ROAD RAMNAGAR    244715,Shrot term accqdation Activities,14,551,2,15-19
4838,HOTEL NADIYA PARAV,51  1  LADUA CHOD RAMNAGAR 244715,Shrot term accqdation Activities,14,551,2,30-99
4839,HOTEL TIGAR CAMP,40 LADUWA CHOD RANIKHET ROAD RAMNAGAR    244715,Shrot term accqdation Activities,14,551,2,30-99
4840,SURYANSH POWER PVT  LTD,91 E S T  ROAD KANIYA RAMNAGAR 244715,Specialized Design Activities,18,741,2,10-14
4841,EASTA CONVENT PUBLIC SCHOOL,160 PIRUMDAR ROAD KANIYA RAMNAGAR 244715,Primary  Education,20,851,2,10-14
4842,SARSWATI BAL VIDAHA,65 NEAR PUBLIC SCHOOL KANIYA 244715,Primary  Education,20,851,2,10-14
4843,RAMESH GIRI,26 SHELAKHET 263132,Loging,3,22,2,15-19
4844,GOVT  GIRLS POLYTECHNIC COLLEGE,26 KOTABAG 263159,Secondary Education,20,852,1,15-19
4845,GOVT  HIGHER SECONDARY  SCHOOL,5   PRATAPUR P O  CHAKALUA 263159,Secondary Education,20,852,1,10-14
4846,AMAR PUBLIC SCHOOL,7 KAMOLA CHANDAN SINGH 263139,Secondary Education,20,852,2,30-99
4847,GOVT  INTER COLLEGE,11  KAMOLA P O  DHAMOLA 263140,Secondary Education,20,852,1,15-19
4848,VAN NIGAM DIPOT,30 1   BANNAKEDA RANGE Kaladhungi 263137,Loging,3,22,1,10-14
4849,OFFICE VAN NIGAM DEPOT,30 2  KALADHUNGI 263140,Loging,3,22,1,30-99
4850,GOVT  HIGH SCHOOL,92 2 KUNKHET 244715,Secondary Education,20,852,1,10-14
4851,GOVT  INTER COLLEGE,105 DOUN PAREVA 263159,Secondary Education,20,852,1,20-24
4852,GOVT  R M J  SCHOOL,86 1 SYAT KALADHUNI ROAD 263159,Secondary Education,20,852,1,20-24
4853,GOVT  INTER COLLEGE,14 KOTABAG BAGAR 263159,Secondary Education,20,852,1,25-29
4854,GOVT  GIRL INTER COLLEGE,27 KOTABAG 263159,Secondary Education,20,852,1,25-29
4855,COMMUNITY HEALTH CENRAL,32 KOTABAG 263159,Hospital Activities,21,861,1,30-99
4856,GOVT  INTER COLLEGE,11 KOTABAG 263159,Secondary Education,20,852,1,30-99
4857,GOVT  HIGHER SECONDARY SCHOOL,43 DEVIRAMPUR CHANDPUR 263159,Secondary Education,20,852,1,15-19
4858,GOVT  HIGHER SECONDERY SCHOOL,29 KOTABAG NAUDA GINTI GAON 263159,Secondary Education,20,852,1,15-19
4859,GOVT  JUNIOR HIGH SCHOOL,26 NATHUNAGAR SYAT CHEKPATALIYA 263159,Secondary Education,20,852,1,10-14
4860,GOVT  INTER COLLEGE,30 KOTABAG BAJUNI HALDU 263159,Secondary Education,20,852,1,30-99
4861,GOVT  HIGHER SECONDARY SCHOOL,31  DEVIPURA RATANPUR CHAKALVA 263139,Secondary Education,20,852,1,15-19
4862,GOVT  HIGH SCHOOL,32  SAUR KOTABAG 263159,Secondary Education,20,852,1,10-14
4863,S B I ,21 2 BHOWALI 263132,Monetary Intermediation,16,641,1,10-14
4864,S T  ANDREW S PUBLIC SCHOOL,66 1 BHOWALI 263132,Secondary Education,20,852,9,30-99
4865,U A  PUBLIC SCHOOL,97 BHOWALI 263132,Primary  Education,20,851,9,10-14
4866,C H C ,124  BHOWALI 263132,Hospital Activities,21,861,1,30-99
4867,MAHRSHI VIDHA MANDIR,54 1 MAUNIYADHAR BHOWALI 263132,Secondary Education,20,852,1,15-19
4868,GOVT  PRIMARY SCHOOL,93  JWAHAR JYOTI DAMUWA DHUNGA KATHGODAM 263126,Primary  Education,20,851,1,10-14
4869,RAJKIYA UCHATAR MADYAMIK   VIDHALAY,94   JAWAHAR JYOTI DAMUWADUNGA KATHGODAM 263126,Secondary Education,20,852,1,15-19
4870,S B I ,49 1   TALLITAL NAINITAL 263002,Monetary Intermediation,16,641,1,10-14
4871,C R S T  INTER COLLEGE,1 1  NAINITAL 263001,Secondary Education,20,852,1,25-29
4872,KURMANCHAL NAGAR SAHARI BANK,68 1 MALLITAL NAINITAL 263001,Monetary Intermediation,16,641,6,15-19
4873,D S B  CAMPUS,1 NAINITAL 263002,Higher education,20,853,1,200-499
4874,B D  PANDEY,102   NAINITAL 263002,Hospital Activities,21,861,2,10-14
4875,S B I  BANK,108 1 MALLITAL NAINITAL 263002,Monetary Intermediation,16,641,1,30-99
4876,KUMAUN MANDAL VIKAS,110 NAINITAL 263002,Support activities for transportation,13,522,1,25-29
4877,B D  PANDEY MAN,33  MALLITAL NAINITAL 263001,Hospital Activities,21,861,2,100-199
4878,B D  PANDEY WEMAN,38  MALLITAL NAINITAL 263001,Hospital Activities,21,861,2,30-99
4879,POLYTECHNIC ADMINISTEATIVE HOUSE,13 1 NAINITAL 263001,Secondary Education,20,852,1,30-99
4880,ILAHABAD BANK,39 2  MALLITAL NAINITAL 263002,Monetary Intermediation,16,641,1,10-14
4881,POST OFFICE,1 4   TALLITAL NAINITAL 263002,Postal   Activities,13,531,1,25-29
4882,OFFICE ELECTRICAL DEPARTMANT,109 MALLITAL NAINITAL 263002,Electric Power Generation Transmission and Distribution,7,351,1,30-99
4883,MEAN POST HOUSE NAINITAL,41 AAWAGAR 263002,Postal   Activities,13,531,1,25-29
4884,L I C  OFFICE,23 MALLITAL NAINITAL 263002,Life Insurance,16,651,1,30-99
4885,SARV SHISHA ABHIYAN,29 MALLITAL NAINITAL 263002,Primary  Education,20,851,1,10-14
4886,BANK KURMANCHAL,1 1  Nainital 263002,Monetary Intermediation,16,641,6,25-29
4887,BISHAP SCHOOL,34 2  NAINITAL 263002,Primary  Education,20,851,1,20-24
4888,NAINITAL BANK,4 3  Nainital 263001,Monetary Intermediation,16,641,1,10-14
4889,PARYATAL AVAS GRAH,29  SUKHATAL MALLITAL NAINITAL 263002,Shrot term accqdation Activities,14,551,1,30-99
4890,GOVERNMENT GIRL INTER    COLLEGE,14 NAINITAL 263002,Secondary Education,20,852,1,30-99
4891,GOVERNMENT INTER COLLAGE,27 NAINITAL 263002,Secondary Education,20,852,1,30-99
4892,NAINITAL BANK,31  G B  PANT MARG MALLITAL NAINITAL 263002,Monetary Intermediation,16,641,1,25-29
4893,BHARATIYA SHAHID SAINIK,26 NAINITAL 263001,Primary  Education,20,851,1,30-99
4894,PANJAB NATIONAL BANK,25  TALLITAL NAINITAL 263002,Monetary Intermediation,16,641,1,10-14
4895,CHADNI CHAUK,57  MALL ROAD NAINITAL 263002,Restaurants amd Mobile Food Service Activities,14,561,2,15-19
4896,N P  NARSARI SCHOOL,101  MALL ROAD NAINITAL 263002,Primary  Education,20,851,1,10-14
4897,PURVATTAR RAILWAY HOLIDAY HOME,1  MALL ROAD NAINITAL 263002,Shrot term accqdation Activities,14,551,1,10-14
4898,STATE BANK BHIMTAL,25  DATH BHIMTAL 263136,Monetary Intermediation,16,641,1,10-14
4899,G G I C  INTER COLLAGE,28 BHIMTAL 263136,Primary  Education,20,851,1,15-19
4900,SUB STAITION VIDHUT   VIDHUT VI ,2 1  OFFICE BLOCK ROAD MALLITAL BHIMTAL 263136,Electric Power Generation Transmission and Distribution,7,351,1,15-19
4901,HILLTRON FACTORY,15  INDUSTRIAL AREA PO  BHIMTAL 263136,Manufacture of Electric Mators Generators Transformers and Electricity Distribution and contrel  apparatus,6,271,4,15-19
4902,DOOR SANCHAR OFFICE,19  BLOCK ROAD MALLITAL BHIMTAL 263136,Wired telecommunications Activities,15,611,1,10-14
4903,TASAR OFFFICE,27  BLOCK ROAD MALLITAL BHIMTAL 263136,Animal Producation,2,14,1,15-19
4904,M B A  COMPUS,85 1   BLOCK ROAD MALLITAL BHIMTAL 263136,Education,20,853,1,20-24
4905,PHARMACY DEPARTMENT,85 2   BLOCK ROAD MALLITAL BHIMTAL 263136,Education,20,853,1,30-99
4906,CENTRAL SCHOOL,102 BHIMTAL 263136,Primary  Education,20,851,1,25-29
4907,I P G I C ,55 BHIMTAL 263136,Primary  Education,20,851,1,30-99
4908,R U P SCHOOL,155 LALKUWA 262402,Secondary Education,20,852,1,15-19
4909,R P SCHOOL,157 LALKUWA 262402,Primary  Education,20,851,1,20-24
4910,LIGHT SUB STATION,48 LALKUWA 262402,Electric Power Generation Transmission and Distribution,7,351,1,10-14
4911,R I C,41 LALKUWA 262402,Secondary Education,20,852,1,30-99
4912,S B I ,59 HALDWANI 263139,Monetary Intermediation,16,641,1,15-19
4913,GOVT  PRIMARY SCHOOL,32 RAILWAY COLNY LALKUA WAN 262402,Primary  Education,20,851,1,10-14
4914,GOVT  INTER COLLEG,157 WARD NO  5 KALADHUNGI 263140,Secondary Education,20,852,1,25-29
4915,GOVT  PRIMARY SCHOOL,219 KALADHUNGI 263140,Primary  Education,20,851,1,10-14
4916,POLYTECHNIC COLLEGE,218 KALADHUNGI 263140,Secondary Education,20,852,1,15-19
4917,MINI BANK,55 KALADHUNGI 263140,Monetary Intermediation,16,641,6,10-14
4918,GOVT GIRLS INTER COLLEGE,27 KALADHUNGI 263140,Secondary Education,20,852,1,25-29
4919,VAN VIKAS NIGAM OFFICE,52 DAK BANGLA KALADHUNGI 263140,FOREST ACTIVITY,3,22,1,15-19
4920,VAN VIKAS NIGAM OFFICE,80 WARD NO  1 KALADHUNGI 263140,Loging,3,22,1,100-199
4921,ANITA JOSHI EDUCATIONAL INSTITUTE,89 KALADHUNGI 263139,Other Education,20,854,2,30-99
4922,OFFICE DIRECTOR TRAINING AND IMPLOYE DIRECTOREY,8 MUKHANI 263139,Other Education,20,854,1,30-99
4923,OFFICE PRINCIPAL GOVERMENT ITI YUVAK,9 MUKHANI 263139,Primary  Education,20,851,1,30-99
4924,I T I  MAHILA,7 MUKHANI 263139,Other Education,20,852,1,10-14
4925,JOB I T I ,59 BRIJWASI CALONY 263139,Secondary Education,20,852,1,15-19
4926,GGIC INTER COLLAGE,16  1  HEERNAGAR KALADHUNGI ROAD HALDWANI 263139,Secondary Education,20,852,1,30-99
4927,VIVEKA NAND SCHOOL,87 AWASH VIKSASH HALDWANI 263139,Secondary Education,20,852,1,10-14
4928,OFFICE GOVT MEDICAL COLLAGE,13  9  RAMPUR ROAD HALDWANI 263139,Hospital Activities,21,861,1,20-24
4929,GOVT  MEDICAL COLLAGE,1 RAMPUR ROAD HALDWANI 263139,Hospital Activities,21,861,1,100-199
4930,H N  SCHOOL,53 NEAR MEDICAL COLLAGE RAMPUR ROAD HALDWANI 263139,Secondary Education,20,852,1,10-14
4931,BANK OF BARODA,93 NEAR NAGAR NIGAM HALDWANI 263139,Monetary Intermediation,16,641,1,15-19
4932,ROADWAYS WORK SHOP,95 ARODRAM ROAD HALDWANI     263139,Maintenance and Repair of Moter Vehicles,10,452,1,100-199
4933,ORIANTAL BANK,84  2  CHARCH COMPOUND NAINITAL ROAD HALDWANI 263139,Monetary Intermediation,16,641,1,10-14
4934,UTTARAKHAND GRAMIN BANK,87  3  CHRCH COMPOUND HALDWANI 263139,Monetary Intermediation,16,641,1,20-24
4935,PUNJAB NATIONAL BANK,87  5  CHRCH COMPOUND HALDWANI 263139,Monetary Intermediation,16,641,1,20-24
4936,MARIYAM B E D COLLEGE,52 DHARMPURA HALDWANI 263139,Secondary Education,20,852,1,10-14
4937,NAGAR NIGAM GIRLS INTER COLLAGE,5 KATHGODAM 263139,Secondary Education,20,852,1,20-24
4938,APNA BAZAR,17 KALADHUNGI CHORAHA         263139,Retail Sale in Non  Specialized Stores,12,471,4,15-19
4939,CORPORETION BANK,151 KALADHUNGI ROAD HALDWANI  263139,Monetary Intermediation,16,641,1,10-14
4940,MEDICAL COLLAGE,65 RAMPUR ROAD HALDWANI      263139,Hospital Activities,21,861,1,30-99
4941,GOV  WOMEN COLLAGE,51 HALDWANI 263139,Higher education,20,853,1,30-99
4942,STATE BANK OF INDIA,30 KATHGODAM HALDWANI 263126,Monetary Intermediation,16,641,1,15-19
4943,EXECUTIVE ENGINEER YANTRIK    DVISION UK PAYJAL NIGAM,180  2  BHATT COLNY TIWARI BHAWAN HALDWANI 263139,Sewerage,8,370,1,25-29
4944,SHRI GANDHI ASHARM SHOP,23  1  HALDWANI 263139,Retail Sale of  other Household Equipment in Specialized Store,12,475,1,30-99
4945,HEAD POST OFFICE,1  1  HALDWANI 263139,Postal   Activities,13,531,1,20-24
4946,BASE HOSPITAL,46  1  HALDWANI 263139,Hospital Activities,21,861,1,30-99
4947,STATE BANK OF INDIA,61 NEAR NAGRA NIGAM HALDWANI 263139,Monetary Intermediation,16,641,1,30-99
4948,NEW INDIA INSURANSES COMPANY,40  33  KHAN CHANDRA MARKET 263139,Life Insurance,16,651,1,20-24
4949,GOVT  GIRLS INTER COLLAGE,1 BANBHULPURA HALDWANI 263139,Secondary Education,20,852,1,20-24
4950,INSIDE SCHOOL,15 HALDWANI 263139,Primary  Education,20,851,1,10-14
4951,GOV  MAHILA HOSPITAL,48 NAINITAL ROAD HALDWANI    263139,Hospital Activities,21,861,1,25-29
4952,BANK OF BODRA RIGANAL OFFICE,32 SAKLAN CIVIL LINE BHOTIYA PARAW HALDWANI 263139,Monetary Intermediation,16,641,1,30-99
4953,M B P G  COLLEGE,36 NAINITAL ROAD HALDWANI 263139,Higher education,20,853,1,100-199
4954,M B INTER COLLEGE,37 DONAHRIYA HALDWANI NAINITAL 263139,Secondary Education,20,852,1,30-99
4955,DREAM SEPRAS,99 5 DURGA CITY CENTER HALDWANI 263139,Other Education,20,854,1,15-19
4956,STAT BANK OF INDIA,105 10 DURGA CITY CENTE HALDWANI 263139,Monetary Intermediation,16,641,1,10-14
4957,ILAHABAD BANK,110 NEAR DURGA CITY CENTER HALDWANI 263139,Monetary Intermediation,16,641,1,10-14
4958,H D F C BANK,79 NAINITAL ROAD HALDWANI 263139,Monetary Intermediation,16,641,4,10-14
4959,GOV  GANNA OFFICE,76 NAINIATAL ROAD HALDWANI 263139,SUGAR FACTORY WORK,6,107,1,25-29
4960,STATE BANK OF PATIYALA,83 NAINITAL ROAD HALDWANI 263139,Monetary Intermediation,16,641,1,10-14
4961,VISHAL VINAYAK,1  2  HALDWANI 263139,Restaurants amd Mobile Food Service Activities,14,561,2,10-14
4962,KHALSA GIRLS SCHOOL,76 THANDI SADK HALDWANI 263139,Secondary Education,20,852,1,30-99
4963,VAN NIGAM,52 HALDWANI 263139,Gathering of non wood Forest Proucts,3,23,1,30-99
4964,KUMOUN MOTER OWNARES UNION K M U OFFICE,76 BAS STATION HALDWANI 263139,Activities of  Trade Unions,23,942,7,30-99
4965,ASHOK MISHRA  RESTAURANT ,136 AT BUS STATION SANGIT MARKET NIKAT DEVI MANDIR HALDWANI 263139,RESTORENT,14,561,2,10-14
4966,GEUST HOUSE,111 CHAKHATA RANE 263139,Shrot term accqdation Activities,14,551,1,10-14
4967,N H P C,123 CHHAKHATA RANGE 263139,Electric Power Generation Transmission and Distribution,7,351,1,25-29
4968,LISA DEPO,130 CHHAKHATA RANGE 263139,Gathering of non wood Forest Proucts,3,23,1,10-14
4969,GOVT  PRIYMARY SCHOL,52 Lalkuan BANGLAI COLNY              262402,Primary  Education,20,851,1,10-14
4970,SCHOLAR ACADAMY HOME,1 CHADYAL NAYK 263139,Secondary Education,20,852,1,15-19
4971,INTER COLLAGE,145 LAMACHOR 263139,Secondary Education,20,852,1,30-99
4972,GOVT GIRLS INTER COLLEGE,95 HALDUCHOD DOLIYA 263139,Secondary Education,20,852,1,10-14
4973,NATURALS LAB PVT LTD,85 1  GANNA CENTER RAMPUR ROAD HALDWANI 263139,Manufacture  Of Pesticides and Other Agro Chemicl Products,6,202,1,20-24
4974,GOV  SCHOOL PRIMARY,189 HARIPUR PUNANAND 263139,Primary  Education,20,851,1,10-14
4975,GOV  SCHOOL SECONDRY,190 HARIPUR PUNANAND HARIPUR PUNANAD            263139,Secondary Education,20,852,1,10-14
4976,GOVT INTER COLLAGE,2  1  DAULATPUR 263139,Secondary Education,20,852,1,25-29
4977,GOV INTER COLLAGE,89 KATHGHARIYA 263139,Secondary Education,20,852,1,25-29
4978,HINDUSTANI UNILIVER LIMTED,12 1  MOTAHALDU 263139,Manufacture  Of Pesticides and Other Agro Chemicl Products,6,202,1,25-29
4979,INDEN BATLING PALNT,11 MOTAHALDU      lalkua 263139,GAS PLANT,7,352,1,30-99
4980,GOVT INTER COOLEG,105 MOTINAGAR HARIPUR TULARAM HALDWANI  263139,Secondary Education,20,852,1,25-29
4981,GOVT SECONDRY VIDHALAY,45 NAWABKHEDA 263139,Secondary Education,20,852,1,10-14
4982,KHEMA NAND AGARI,65 LAKHAN MANDI KHOLA BAZAR  263139,Secondary Education,20,852,1,10-14
4983,GOVT GIRLS SECONDERY SCHOOL,45 PIPALPOKHARA 263139,Secondary Education,20,852,1,10-14
4984,HWAIT HALL SCHOOL,65 LOHARIYASAL TALLA 263139,Primary  Education,20,851,1,30-99
4985,GIRLS HIGHSCHOOL,65 MALLI BAMORI HALDWANI 263139,Secondary Education,20,852,1,10-14
4986,G I C ,12 JAGGIBANGAR 263139,Secondary Education,20,852,1,30-99
4987,STATE BANK OF INDIA,211 HALDWANI 263139,Monetary Intermediation,16,641,1,25-29
4988,LIC OFFICE,148  1  HALDWANI 263139,Life Insurance,16,651,1,15-19
4989,THE NAINITAL BANK LTD ,107  20  HALDWANI 263139,Monetary Intermediation,16,641,1,15-19
4990,BANK OF BARODA,152  1  Bamori Tallikham HALDWANI 263139,Monetary Intermediation,16,641,1,15-19
4991,GOVT INTER COLLAGE,61 1  HALDUPOKAR DARMWAL 263139,Secondary Education,20,852,1,20-24
4992,GOVT SECONDRY SCHOOL,234 HIMMATPUR BAIJNATH 263139,Secondary Education,20,852,1,10-14
4993,CHANDRAWATI TIWARI INTER COLLAGE,105 DHOLAKHEDA HARIPUR PUNANAND           263139,Secondary Education,20,852,1,30-99
4994,GOV JUNIYAR HIGH SCHOOL,59 Ranibagh 263139,Secondary Education,20,852,1,10-14
4995,GOV  JUNIYAR HIGH SCHOOL,86 BHUMIYADHAR BHUMIYADHAR 263132,Primary  Education,20,851,1,10-14
4996,GOV  INTER COLLAGE,24 BANNA 263136,Primary  Education,20,852,1,25-29
4997,MAHARSHI VIDHYA MANDIR,38  AMARTPUR AMARTPUR 263126,Secondary Education,20,852,1,25-29
4998,T R C ,62 Siloti Pant 263136,Shrot term accqdation Activities,14,551,1,10-14
4999,G  I C ,70 SILOTIPANT 263136,Secondary Education,20,852,1,15-19
5000,GOV  INTER COLLAGE,23 1  Kurpankha 263136,Secondary Education,20,852,1,20-24
5001,JUNIYAR HIGH SCHOOL,52 JANGLIYAGOAN 263136,Secondary Education,20,852,1,10-14
5002,GOV  INTER COLLAGE,2 Amiya 263126,Secondary Education,20,852,1,25-29
5003,GOVT JUNIOR HIGH SCHOOL,152  2  MAHRAGOAN 263136,Secondary Education,20,852,1,10-14
5004,GOV  HIGH SCHOOL,155 BHORSA 263136,Secondary Education,20,852,1,10-14
5005,EDUCTION DEPTT  JUNIOR HIGH SCHOOL,17 Okhal Dunga 263136,Secondary Education,20,852,1,10-14
5006,TURIESM PARYATAN,111 CHOKHUTA 1 263132,Support activities for transportation,13,522,1,10-14
5007,GOV  INTER COLLAGE,132 PAHADPANI 263132,Secondary Education,20,852,1,20-24
5008,GOVT  INTER COLLAGE,85 SHASHBANI 263132,Secondary Education,20,852,1,25-29
5009,GOV  INTER COLLAGE,51 KASIYALEKH 263136,Secondary Education,20,852,1,10-14
5010,GOV  I C ,3 BABIYAD 263136,Secondary Education,20,852,1,10-14
5011,GOV  INTER COLLAGE,98 Kaul 263137,Secondary Education,20,852,1,15-19
5012,SANTH SOMWATI MAHRAJ GOV  INTER COLLAGE,78 PADAMPURI 263136,Secondary Education,20,852,1,20-24
5013,GOVT  I C ,32 CHANFI 263136,Secondary Education,20,852,1,20-24
5014,G I C ,58  1  PUYURA 263138,education,20,852,1,15-19
5015,GOV  INTER COLLAGE,35 JORASI 263132,Secondary Education,20,852,1,25-29
5016,GOV INTER COLLAGE,4 SATBUNGA 263138,Secondary Education,20,852,1,30-99
5017,HIGH SCHOOL EDUCTION,9  1  NIDESHALAY UTTRAKHAND 263137,Secondary Education,20,852,1,10-14
5018,GOV  PARYMARY SAWSITHYA KENDRA,72 BISARAT GANJ RAMGARH 263137,Hospital Activities,21,861,1,20-24
5019,G I C ,97 DHOKNE 263135,Secondary Education,20,852,1,20-24
5020,GOVT HIGH SCHOOL VIDHALAY,33 UMAGARH NAINITAL 263137,Secondary Education,20,852,1,15-19
5021,JUNIOR HIGH SCHOOL,92 HARTOLA 263138,Secondary Education,20,852,1,10-14
5022,GOV  U  M  SCHOOL,36 1  DEVDWAR 263158,Secondary Education,20,852,1,15-19
5023,AMUDAYIK HEALTH CENTER,8 Kilor 263135,Hospital Activities,21,861,1,10-14
5024,SARSWATI SHISHU MADIR,17 1 Kilor 263135,Primary  Education,20,851,1,10-14
5025,GOVT  INTER COLLAGE,50 RAMGARH 263158,Secondary Education,20,852,1,30-99
5026,GOVT  GIRLS JUNIOR SCHOOL,74 TALLA RAMGARH 263158,Secondary Education,20,852,1,15-19
5027,GOVT  INTER COLLAGE,54 Ghuna 263135,Secondary Education,20,852,1,25-29
5028,GOVT  INTER COLLAGE,60 ATAVIRTA  NAINITAL UTTRAKHAND 263135,Secondary Education,20,852,1,25-29
5029,GOVT  MADHYAMIC VIDHYALAY,85 TARIKHET 263135,Secondary Education,20,852,1,10-14
5030,T V  SENOTORIYAM HOSPITAL,35 Bhowali Senitorium 263132,Hospital Activities,21,861,1,200-499
5031,HIGH SCHOOL VIDHALAY,039  1  GARJOLI 244715,Secondary Education,20,852,1,10-14
5032,INTER COLLAGE,1 Kujoli 263135,Secondary Education,20,852,1,25-29
5033,GOVT  PAEMARY SCHOOL,4 SIMLIKHA CHAKPAWAS 263135,Education,20,851,1,20-24
5034,GOVT INTER COLLAGE,105 1  UNCHAKOT NAINITAL 263134,Secondary Education,20,852,1,25-29
5035,GOVT  INTER COLLAGE,47 BHATROJKHAN 263646,Secondary Education,20,852,1,20-24
5036,RAMESH CHANDRA PHOOLO KA UTPADAN,36 Chauni 263134,FLOWER  MARKETING,12,477,2,15-19
5037,GOVT U  M  VIDHALAY,15 RINCHI 263646,Secondary Education,20,852,1,10-14
5038,G V PANT KRISHI ANUSANDHAN,130 MAJEDA 263135,Seed Processing For Propagation,1,16,1,30-99
5039,G I C ,61 KHAIRNA NAINITAL 263135,Secondary Education,20,852,1,25-29
5040,SAMUDAYIK SWASTHYA KENDRA,74 KHERNA 263135,Hospital Activities,21,861,1,10-14
5041,A P U  MADHYAMIK SCHOOL,100  3  CHAPAD 263134,Secondary Education,20,852,1,10-14
5042,GOVT  GIRLS INTER COLLAGE,27  1  CHHAPAR 263134,Secondary Education,20,852,1,20-24
5043,I T I ,107 CHAPAR 263134,Secondary Education,20,852,1,10-14
5044,G I C ,57  3  HALSO 263134,Primary  Education,20,851,1,20-24
5045,G I C ,59 BETALGHAT 263134,Secondary Education,20,852,1,25-29
5046,G I C ,177  1  JUTWAKHAL 263134,Secondary Education,20,852,1,15-19
5047,G I C  SCHOOL,25 RAMNAGAR 244715,Secondary Education,20,852,1,20-24
5048,G P P  KANYA INTER COLLAGE,64 RAMNAGAR NAINITAL 244715,Secondary Education,20,852,1,30-99
5049,BANK OF BARODA,61 RAMNAGAR NAINITAL 244715,Monetary Intermediation,16,641,1,10-14
5050,GIC,79 KARANPUR 244715,Secondary Education,20,852,1,25-29
5051,GOV  J  HIGHSCHOOL,37 GOPAL NAGAR NO  6 244715,Primary  Education,20,851,1,10-14
5052,GOV  INTER COLLAGE,86 PATKOT 263159,Secondary Education,20,852,1,10-14
5053,RAJKIYA MADHYAMIC SCHOOL,54  1  KANAKPUR 263140,Primary  Education,20,851,1,15-19
5054,GOVT  HIGH SCHOOL,64  1  JASAGANJA RAMNAGAR 244715,Secondary Education,20,852,1,10-14
5055,GOVT  INTER COLLAGE,19 DHIKULI 244715,Secondary Education,20,852,1,25-29
5056,GOV  U  M  V ,19 NARAYANPUR 244715,Secondary Education,20,852,1,25-29
5057,PREM BALLABH PUBLIC SCHOOL,2 KUWARPUR 263141,Primary  Education,20,851,2,10-14
5058,ASHA NIKETAN SCHOOL,105  1  PATTAPANI 263140,Primary  Education,20,851,1,15-19
5059,GOVT INTER COLEGE,88 DHELA RAMNAGAR 244715,Secondary Education,20,852,1,20-24
5060,I T I  CENTER,64 KANIYA RAMNAGAR 244715,Secondary Education,20,852,1,10-14
5061,GOV SCENDRAY SCHOOL,11  4  DEVIPURA MALDHAN ROAD RAMNAGAR 244715,Primary  Education,20,851,1,15-19
5062,GOVT INTER COOLEG,26 DHELA RENJ 244715,Secondary Education,20,852,1,25-29
5063,KISAN INTER COLLAGE,55 RING ROAD Gangapur Pahari  244715,Primary  Education,20,851,1,15-19
5064,GOVT INTER COLLAGE,18  1  BAIL POKHRA 263140,Secondary Education,20,852,1,15-19
5065,U S R  SCHOOL,159 BASAI 244715,Secondary Education,20,852,1,30-99
5066,VAN VIKAS NIGAM,71 MANKANTPUR 263140,FOREST ACTIVITY,3,22,1,15-19
5067,G I C ,1 JOSUDA 263132,Secondary Education,20,852,1,10-14
5068,GOVT  INTER COLLAGE,149 GARGADI TALLI 263157,Secondary Education,20,852,1,15-19
5069,GOVT  INTER COLLEGE,96 LAWARDOWA 263126,Secondary Education,20,852,1,10-14
5070,PRIMARY HEALTH CENTER,82 MALLA OKHALKANDA 263157,Hospital Activities,21,861,1,15-19
5071,GOVT  INTER COLLEGE,14 OKHALKANDA TALL 263157,Secondary Education,20,852,1,25-29
5072,SHRISHIDADH DEV CHAUGAN INTER COLLEGE,24 GALANI 263157,Secondary Education,20,852,1,10-14
5073,GOVT  INTER COLLEGE,14 CHURIGAR 263136,Secondary Education,20,852,1,30-99
5074,R I C ,108  PATLOT  MATELA NAINITAL 263157,Secondary Education,20,852,1,25-29
5075,G I C ,105 DHALOGAON 262580,Secondary Education,20,852,1,20-24
5076,KANYA MADHYAMIC VIDHYALAY,16 KANSHYU 263157,Secondary Education,20,852,1,10-14
5077,HIGH SCHOOL,22 KANSYUN 263157,Secondary Education,20,852,1,10-14
5078,GOVT INTER COLLAGE,183 BHOLAPUR DALKANYA 263157,Secondary Education,20,852,1,10-14
5079,GOVT  I  COLLEGE,114 P O  NARTOLA  DIST  NAINITAL 263126,Secondary Education,20,852,1,20-24
