S.No.,Name of the Establishment,Address,Major Activity Description,"Broad
Activity Code",NIC,Ownershi p Code,"Employme
nt Class Interval"
5031,GOVT HIGH SCHOOL,MALOKE 152005,EDUCATION PROVIDE,20,852,1,10-14
5032,ADERSH SENIOR SECIONDARY SCHOOL,SHEHJADA SANT SINGH 142047,EDUCATION PROVIDE,20,852,1,30-99
5033,SHREE GURU HAR GOBIND SAHIB SS SCHOOL,SAHINI SAHIB MEHAR SINGH WALA 142047,EDUCATION PROVIDE,20,852,9,30-99
5034,GOVT HOSPITAL,KASOANA 142047,HEALTH SERVICES HUMAN BEINGS,21,861,1,30-99
5035,GOVT HIGH SCHOOL,KASOANA 142047,EDUCATION PROVIDE,20,852,1,20-24
5036,G M S SUKHE WALA,ZIRA 1 FIROZPUR 152028,EDUCATION PROVIDE,20,851,1,10-14
5037,GOVT HIGH SCHOOL TALWANDI JALLEKHAN,Talwandi Jalle Khan  323  152028,EDUCATION PROVIDE,20,852,1,20-24
5038,GURDEV SINGH S O KRISHAN SINGH,WARA KALI ROUNA 126 142051,MINT FACTORY,6,104,1,25-29
5039,GOVT HIGH SCHOOL,PIR MUHAMAD 142044,EDUCATION PROVIDE,20,852,2,10-14
5040,GOVT  HIGH SCHOOL,SHEEHANPARRI 142044,EDUCATION PROVIDE,20,852,1,10-14
5041,AKAL ACADEMY,BEHAK FATTU 34 142044,EDUCATION SERVICES,20,852,3,25-29
5042,Govt Sr Sec School,Makhu 142044,EDUCATION PROVIDE,20,852,1,10-14
5043,SARVHITKARI VIDIYA MANDIR,MAKHU 142044,EDUCATION PROVIDE,20,852,6,20-24
5044,STATE BANK OF INDIA,MAKHU 142044,BANKING SERVICES,16,641,1,10-14
5045,GOVT SR SECIONDARY SCHOOL  BOYS ,MAKHU 142044,EDUCATION PROVIDE,20,852,1,10-14
5046,H D F C BANK,MAKHU 223 142044,BANKING SERVICES,16,641,2,15-19
5047,RAILWAY STATION,MAKHU 142044,RAILWAY SERVICES,13,491,1,10-14
5048,EASY DAY ZIRA,474 KOT ISSE KHAN ROAD 142047,HOUSE HOLD GOODS,12,472,4,10-14
5049,CIVIL HOSPITAL,ZIRA 142047,HEALTH SERVICES,21,861,1,30-99
5050,FOREST OFFICE ZIRA,715 KOT ISSE KHAN ROAD 142047,PRODUCTION AND PLANTATION OF TREE,1,13,1,10-14
5051,TEHSIL OFFICE,ZIRA 747 142047,ADMINISTRATIVE SERVICES,18,691,1,20-24
5052,LIFE INSURANCE CORPORATION OF INDIA,ZIRA 150 FIROZPUR ROAD 142047,BIMA COMPANY,16,649,1,30-99
5053,Civil Hospital  Mallan Wala,MALLAN WALA KHAS 152021,HEALTH SERVICES,21,861,1,10-14
5054,B S HUNDAL MODEL SR SEC SCHOOL MALL,MALLAN WALA KHAS 152021,EDUCATION PROVIDE,20,852,2,15-19
5055,ELECTRICITY BOARD,MALLANWALA KHAS 152021,ELECTRICITY SUPPLY AND BILL PAYMENT RECEIVED,7,351,1,30-99
5056,ISTARY SHAKTI RASOI,MOHAN KE UTTAR 152022,FOOD SERVICES,14,551,7,30-99
5057,PUNJAB STATE POWER CORPORATION LIMITED,GURU HAR SAHAI 152022,ELECTRICITY  BOARD DISTRIBUTRY AND SUPPLY,7,351,1,100-199
5058,D A V SR SEC SCHOOL GURU HAR SAHAI,GURU HAR SAHAI 130 1  FARIDKOT ROAD 152022,EDUCATION PROVIDE,20,852,7,30-99
5059,DASHMESH PUBLIC SEN SEC SCHOOL,SOHANGARH 152022,EDUCATION PROVIDE,20,852,3,10-14
5060,GOVT HIGH SCHOOL SOHANGARH,Jalalabad 152022,EDUCATION PROVIDE,20,852,1,15-19
5061,GOVT MIDDLE SCHOOL AMIR KHAS,AMIR KHAS 30 152024,EDUCATION PROVIDE,20,852,1,10-14
5062,SECRED HERT CONVENT SCHOOL AMIR KHAS,AMIR KHAS 414 152024,EDUCATION PROVIDE,20,852,5,30-99
5063,GOVT MIDDLE SCHOOL PIR BAKHASH CHOHAN,PIR BAKHASH CHOHAN 152024,EDUCATION PROVIDE,20,852,1,10-14
5064,POST OFFICE,GURUHAR SAHAI 156 2  152022,POST AND COURIOR SERVICES,13,531,1,10-14
5065,STATE BANK OF INDIA GURUHAR SAHAI,Jalalabad 157 152022,BANKING SERVICES,16,641,1,20-24
5066,ORIENTIAL BANK OF COMMERCE,GURUHAR SAHAI 166 152022,BANKIN SERVICES,16,641,1,10-14
5067,H D F C BANK  GURU HAR SAHAI,GURUHAR SAHAI 152022,BANKING SERVICES,16,641,4,10-14
5068,GOVT HIGH SCHOOL,TOOMBER BHAN 142050,EDUCATION PROVIDE,20,851,1,10-14
5069,SARKARI HIGH SCHOOL,SULHANI 381 4  142050,EDUCATION PROVIDE,20,851,1,10-14
5070,GOVT SEN SEC SCHOOL BOYS AND GIRLS,FIROZSHAH 142050,EDUCATION PROVIDE,20,852,1,20-24
5071,DEV SAMAJ ABCC SCHOOL,FIROZSHAH 142052,EDUCATION PROVIDE,20,851,2,30-99
5072,FIROZPUR COLLEGE OF ENGINEERING ANDTECHNOLOGY,142052,EDUCATION PROVIDE,20,855,1,30-99
5073,Govt High School Village,Toot 152002,EDUCATION PROVIDE,20,852,1,15-19
5074,DISTT EDUCATION OFFICER  S ,FIROZPUR 142052,EDUCATION PROVIDE,20,852,1,15-19
5075,Govt HIGH SCHOOL,Ugo Ke 142052,EDUCATION PROVIDE,20,852,1,15-19
5076,GOVT HIGH SCHOOL,SODI NAGAR 142052,EDUCATION PROVIDE,20,852,1,15-19
5077,DISTT EDUCATION OFFICE  S  FIROZPUR,FIROZPUR 152001,EDUCATION PROVIDE,20,851,1,10-14
5078,FIROZPUR DISTRICT MILK PRODUCER UNI,MALWAL 152001,DAIRY PRODUCTS,6,105,1,30-99
5079,G S PUBLIC SCHOOL NOORPUR SETHAN,Nurpur  213  152002,EDUCATION PROVIDE,20,851,2,10-14
5080,GOVT SR SEC SCHOOL,NOORPUR SETHAN 152002,EDUCATION PROVIDE,20,851,1,30-99
5081,GOVT HIGH SCHOOL,JHOK HARIHAR 152003,EDUCATION PROVIDE,20,851,1,20-24
5082,PUNJAB STATE POWER CORPORATION LIMITED  ELECTRICITY BOARD ,PATIALA 152003,ELECTRICITY SUPPLY,7,351,1,30-99
5083,BRICKS  BAGHEL,SINGH WALA 152002,BRICKS KILN,6,239,2,25-29
5084,GOVT HIGH SCHOOL,KHUSHAL SINGH WALA 152002,EDUCATION PROVIDE,20,852,1,15-19
5085,INDIAN GAS AGENCY KHUSHAL SINGH WALA,KHUSHAL SINGH WALA 152002,GAS AGENCY,12,477,2,20-24
5086,GOVT MIDDLE SCHOOL,DULCHE KE 152002,EDUCATION PROVIDE,20,851,1,10-14
5087,RICE MILL  FOJA SINGH ,152002,SHELLER,6,106,2,30-99
5088,ASSTT EXECUTIVE OFFICER SUB DIVISIO,N MAMDOT  PSPCL  152023,ELECTRICITY  SUPPLY,7,351,1,30-99
5089,CIVIL HOSPITAL,MAMDOT 152023,HEALTH SERVICES,21,861,1,30-99
5090,GOVT SR SEC SCHOOL,MAMDOT 152023,EDUCATION PROVIDE,20,852,1,25-29
5091,GOVT SR SEC SCHOOL HAZARA SINGH WALA,HAZARA SINGH WALA 152023,EDUCATION PROVIDE,20,852,1,25-29
5092,PUNJAB STATE POWER CORPORATION LIMITED,JHOK TEHIL SINGH 152002,ELECTRICITY SUPPLY,7,351,1,25-29
5093,GOVT HIGH SCHOOL,JHOKE TEHIL SINGH 152002,EDUCATION PROVIDE,20,852,1,10-14
5094,GOVT POLYTECHENICAL COLLEGE FZR CITY,FIROZPUR CITY DULCHI KE ROAD 152002,EDUCATION PROVIDE,20,853,1,30-99
5095,Diet Firozpur City,Dulchi Ke Road 152002,TEACHING CENTRE,20,853,1,15-19
5096,GOVT SR SEC SCHOOL  GIRLS ,FIROZPUR 152002,EDUCATION PROVIDE,20,852,1,30-99
5097,GOVT SR SEC SCHOOL  BOYS ,FIROZPUR 152002,EDUCATION PROVIDE,20,852,1,30-99
5098,MISSION HOSPITAL FIROZPUR CANTT,PREM NAGAR 152002,HEALTH SERVICES,21,862,9,100-199
5099,Sat Josephs Convent School,PREM NAGAR FIROZPUR CANT Firozpur Cantt  152001,EDUCATION PROVIDE,20,852,9,30-99
5100,PRIMARY COOPERATIVE AGRICULTURE VIK,AS BANK FIROZPUR CITY NEAR MALWA KHALSA SCHOOL 152002,BANKING SERVICES,16,641,6,10-14
5101,STATE BANK OF PATIALA,FIROZPUR CITY NEAR UDAM SINGH CHOWK 152002,BANKING SERVICES,16,641,1,20-24
5102,Agro Club Woodland Store,SHOP NO  30 195 NEAR UDAM SINGH CHOWK Firozpur City 152002,PARCHOON DEPARTMENTAL STORE SAIL,12,472,4,10-14
5103,O B C FIROZPUR CITY,Firozpur  M Cl  571 152002,BANKING SERVICES,16,641,1,10-14
5104,S B I A D B BRANCH,FIROZPUR CITY 578 152002,BANKING SERVICES,16,641,1,15-19
5105,MALWA KHALSA PRIMARY SCHOOL FZR CITY,FZR CITY 582 152002,EDUCATION PROVIDE,20,852,1,10-14
5106,B S M SCHOOL FZR CITY,852 1  SHANTI NAGAR 152002,EDUCATION PROVIDE,20,852,2,10-14
5107,JONAL MALARIA HASPTAL MOCHHI BAZAR,HIRA MANDI GATE FIROZPUR CITY MOCHI BAZAR HIRA MANDI GA 152002,HEALTH SERVICES,21,862,1,10-14
5108,PUNJAB NATIONAL BANK MAIN BRANCH BA,BAGDADI GATE FIROZPUR CITY MAIN BRANCH BAGDADI GATE 152002,BANKING SERVICES,16,641,1,10-14
5109,C B PRIMARY SCHOOL  GWAL MANDI ,139 GWAL MANDI ROAD 152001,EDUCATION PROVIDE,20,851,1,10-14
5110,C B  SCHOOL  ROAD FIROZPUR CAN,SETHITT  1 SETHI ROAD 152001,EDUCATION PROVIDE,20,851,1,20-24
5111,SUNSHINE MODERN SCHOOL FZR CANTT ,FZR CANTT  152001,EDUCATION PROVIDE,20,852,1,15-19
5112,CANTT GENERAL HOSPITAL,FZR CANTT 152001,HEALTH SERVICES,21,862,1,10-14
5113,D C M JAIN SR  SEC SCHOOL FZR CANTT,144 1 SADAR BAZAR 152001,EDUCATION PROVIDE,20,852,1,30-99
5114,FAMILY WELFARE CENTRE B S F CAMP,FAMILY LINE 152023,TAILORING,6,141,1,20-24
5115,KENDRI VIDIYALIA NO 1,FIROZPUR CANTT K V 1 FZR CANTT 152001,EDUCATION PROVIDE,20,852,1,10-14
5116,KENDRI VIDIYALIA NO 2 FZR CANTT ,NEAR POLICE LINES FAZILKA ROAD FZR CANTT 349 NEAR POLICE LINES 152001,EDUCATION PROVIDE,20,852,1,20-24
5117,H D F C BANK,TALWANDI BHAI 142050,BANKING SERVICES,16,641,9,10-14
5118,O B C BANK OF COMMERCE,TALWANDI BHAI 142050,BANKING SERVICES,16,641,9,10-14
5119,STATE BANK OF INDIA,TALWANDI BHAI 142050,BANKING SERVICES,16,641,9,15-19
5120,CANERA BANK,TALWANDI BHAI 135 142050,BANKING SERVICES,16,641,1,10-14
5121,STATE BANK OF PATIALA,Talwandi Bhai  M Cl  169 3  NO  1 142050,BANKING SERVICES,16,641,1,10-14
5122,S B R D A V SR SEC SCH OOL,TALWANDI BHAI 20 142050,EDUCATION PROVIDE,20,852,2,30-99
5123,FCI TALWANDI BHAI,TALWANDI BHAI Zira Road 528 3  142050,FOOD RICE WHEAT GODAM ,13,521,1,10-14
5124,MATA SAHIB KAUR GIRLS COLLEGE,TALWANDI BHAI 142050,EDUCATION PROVIDE,20,855,1,30-99
5125,BABE KA COLLEGE OF EDUCATION MUDKI,MUDKI 1 142060,EDUCATION PROVIDE,20,853,9,30-99
5126,ISTARY SHAKTI RASOI,FIROZPUR Satyewala  CT  152001,MAKING FOOD FOR CHILDREN,14,562,2,30-99
5127,DADA MOTORS PRIVATE LIMITED MOGA ROAD,FIROZPUR 152001,MOTOR SALE PURCHASE,10,454,2,30-99
5128,MANOHAR SINGH GURDIAL SINGH,S O LAL SINGH RANJIT SINGH MILKHA SINGH S  S O KISHAN SINGH VILL THATHA KISHAN 31 152021,BRICK KILNS,6,239,9,25-29
5129,LAKSHMI INDUSTRY THATHA KISHAN SING,H GURBACHAN SINGH S O BALKAR SINGH SANTOKH SINGH S O GURBACHAN SINGH BASTI TARA SINGH 152021,BRICK KILN,6,239,2,20-24
5130,SADHU RAM TARA SINGH,THATHA KISHAN SINGH 152021,BRICK KILN,6,239,2,30-99
5131,NEW LIFE WELFARE SOCIETY,GURDITI WALA 4 152021,DRUG COUNCILING,21,881,3,10-14
5132,GOVT SENIOR SECIONDARY SCHOOL,BHAGO KE 86 152021,EDUCATION PROVIDE,20,852,1,15-19
5133,GURUDWARA SHREE GURU TEG BAHADUR SAHIB,BHAGO KE 89 152021,RELIGIOUS,23,949,7,15-19
5134,MATA GUJRI EDUCATION SOCIETY,BHARANA 481 152005,EDUCATION PROVIDE,20,852,2,15-19
5135,GOVT HIGH SCHOOL,BHARANA 152005,EDUCATION PROVIDE,20,852,1,15-19
5136,KALGIDHAR AKAL ACADEMY,BHARANA 480 152005,EDUCATION BHARANA,20,852,2,30-99
5137,SUKRIT PUBLIC SCHOOL,BHARANA 152005,EDUCATION PROVIDE,20,851,2,15-19
5138,GURU RAM DAS PUBLIC SCHOOL,BAHAVALPUR 7 142047,EDUCATION PROVIDE,20,851,2,10-14
5139,SARSVATI PANEL PRODUCT,GADRI WALA 142047,MANUFACTURING OF PLYWOOD,6,170,2,10-14
5140,PARADISE PUBLIC SS  SCHOOL FIROZPUR,ROAD GADHRI WALA 142047,EDUCATION PROVIDE,20,852,9,30-99
5141,BRAR DHABA,MEHAR SINGH WALA 142047,FOOD MAKING AND SELLING,14,561,2,10-14
5142,S S MEMORIAL PUBLIC SCHOOL,KASOANA 142050,EDUCATION PROVIDE,20,851,7,10-14
5143,GOVT HIGH SCHOOL,VAKILAN WALA 142047,EDUCATION PROVIDE,20,852,1,10-14
5144,BHAGAT DUNI CHAND GIRLS SEN SEC  SCHOOL,MAHIAN WALA K 142047,EDUCATION PROVIDE,20,852,1,10-14
5145,JAWAHAR NAVODYA VIDIYALYA MAHIAN,WALA KALAN 142047,EDUCATION PROVIDE,20,852,1,30-99
5146,BHARDWAJ STONE WARE PVT LIMITED VILLAGE,LEHRA ROHI 142047,MANUFACTURING OF PIPES,6,241,3,15-19
5147,GOVT HIGH SCHOOL,LEHRA ROHI 142047,EDUCATION PROVIDE,20,852,1,15-19
5148,SHREE GURU HARGOBIND SAHIB PUBLIC SCHOOL,LEHRA ROHI 142047,EDUCATION PROVIDE,20,852,2,20-24
5149,SHREE TARA AGRO FOOD RICE MILL,RATOL ROHI 104 142050,SHELLER,6,106,2,20-24
5150,GOVT HIGH SCHOOL RATOL ROHI FIROZPUR ,FIROZPUR 120 142050,EDUCATION PROVIDE,20,852,1,10-14
5151,GURUJI CHAIN INDUSTRY PRIVATE LIMITED,LIMITED 272 142050,MANUFACTURING OF CHAIN,6,259,2,25-29
5152,MAL BROSS INTERNATIONAL PVT LIMITED,MANSOORWAL KALLAN 127 142050,MANUFACTURING OF VINE,6,202,2,30-99
5153,GOVT HIGH SCHOOL,SANER 172 142050,EDUCATION PROVIDE,20,852,1,15-19
5154,NURSING HOME,MANSUR DEVA 12  142047,PROVIDING HEALTH SERVICES,21,873,2,25-29
5155,GOVT HIGH SCHOOL,MANSUR DEVA 149 142047,EDUCATION PROVIDE,20,852,1,20-24
5156,FAST FOOD RICE MILL,MANSUR DEVA 23 142047,SHELLER,6,106,3,30-99
5157,SATGURU RICE MILL,MANSUR DEVA 389 1 142047,SHELLER,6,106,3,30-99
5158,GOLDEN BRIGES KILS,RATOL BET 142047,BRICK KILN,6,239,3,25-29
5159,ATAM VIROUS RATOL BET,RATOL BET 152028,PRODUCTION OF VELDING ROD,6,241,3,10-14
5160,MODERN BRICKS INDUSTRY RATOL BET,RATOL BET 152028,BRICKS KILN,6,239,3,10-14
5161,BABA KUNDAN SINGH COLLEGE,MUHAR 142043,EDUCATION PROVIDE,20,853,3,30-99
5162,BABA EISHER SINGH  NANAKSAR SR SEC ,SCHOOL MUHAR 142043,EDUCATION PROVIDE,20,852,9,30-99
5163,SHERE PUNJAB PUBLIC SCHOOL,LALLE 110 142051,EDUCATION PROVIDE,20,851,2,10-14
5164,G T B NATIONAL HIGH SCHOOL PIR MUHAMAD,PIR MUHAMAD 98 1 142044,EDUCATION PROVIDE,20,852,2,15-19
5165,POL STALL PUBLIC SCHOOL,RASULPUR 142044,EDUCATION PROVIDE,20,851,2,25-29
5166,MES H HERO AGRO INDUSTRY PRIVATE LI,MITED BASTI RAJ SINGH 142044,MANUFACTURING INPUT OF AGRICULTURE,6,106,4,25-29
5167,SHREE GURU HARGOBIND SAHIB SR SEC SCHOOL,VATTU BHATTI 142044,EDUCATION PROVIDE,20,852,2,25-29
5168,SHAHEED S S S  ATARI KHALSA SENIORSECIONDARY SCHOOL,FATEHGARH 142044,EDUCATION PROVIDE,20,852,5,30-99
5169,S SHAM SINGH ATARI GURUDWARA,FATEHGARH SAHIB 142044,RELEGIOUS SERVICES,23,949,7,30-99
5170,DESHMESH PITA B K O,ASAF WALA 142044,BRICK KILN,6,239,2,10-14
5171,GURU GOBIND SINGH SEN SECIONDARY PUBLIC SCHOOL,JATTAN WALI 142044,EDUCATION PROVIDE,20,852,2,20-24
5172,JALANDHAR PUBLIC SCHOOL,WARIAN 168 142044,EDUCATION PROVIDE,20,852,2,15-19
5173,AGARWAL BRICKS SHEEHAN PARRI,SHEEHAN PARRI MAIN LINK ROAD 142044,BRICKS KILN,6,239,2,20-24
5174,S S SCHOOL,KUTABPURA ROAD MAKHU 136 1 KUTABPUR ROAD 142044,EDUCATION PROVIDE,20,852,2,10-14
5175,RAJINDRA SCHOOL,MAKHU SAMRALA ROAD 142044,EDUCATION PROVIDE,20,851,2,15-19
5176,GOVT HOSPITAL,KASOANA 18 1 142044,HEALTH SERVICES,21,861,1,20-24
5177,KALRA HOSPITAL,MAKHU 142044,HEALTH SERVICES,21,861,2,15-19
5178,SAT MARRY CONVENT SCHOOL,MAKHU MISSION BASTI 142044,EDUCATION PROVIDE,20,852,3,25-29
5179,SHREE SADANAND SAKRAPURI HIGH SCHOOL,ZIRA 161 142047,EDUCATION PROVIDE,20,852,9,15-19
5180,MAHAVEER TRACTOR AGENCY,ZIRA 541 142047,TRACTOR AGENCY,10,454,2,15-19
5181,GOVT  COLLAGE,ZIRA 615 142047,EDUCATION PROVIDE,20,854,1,30-99
5182,S D M OFFICE,ZIRA 359 142047,ADMINISTRATIVE SERVICES,21,889,1,10-14
5183,B D P O OFFICE,ZIRA 360 142047,ADMINISTRATIVE SERVICES,21,889,1,10-14
5184,GURDITTA MALL SHANTI PARKASH,ZIRA 237 KOT ISSE KHAN ROAD ZIRA 142047,SHELLER,6,106,2,10-14
5185,SHANTI INDUSTRY,ZIRA 253 JHTRA ROAD ZIRA 142047,SHELLER,6,106,2,10-14
5186,S K S I T I INDUSTRY,ZIRA 263 2 JHTRA ROAD ZIRA 142047,EDUCATION PROVIDE,20,852,2,15-19
5187,D P D COLLEGE,ZIRA 267 JHTRA ROAD 142047,EDUCATION PROVIDE,20,854,2,15-19
5188,AMBROZIAL PUBLIC SCHOOL,ZIRA 299 AWAN ROAD ZIRA 142047,EDUCATION PROVIDE,20,851,2,30-99
5189,SANDHU SAW MILL,ZIRA 389 KOT ISSE KHAN ROAD ZIRA 142047,SAW MILL,6,162,2,20-24
5190,RAM GOPAL ZIRA GASS SERVICES ,ZIRA 487 KOT ISSE KHAN ROAD ZIRA 142047,L P G GASS SERVICE STATION,12,477,2,15-19
5191,SHREE SAWAN MALL AGARWAL MEMORIAL SCHOOL,ZIRA 427 142047,EDUCATION PROVIDE,20,852,5,10-14
5192,SHREE SAWANMALAGGARWAL MEMORIAL COLLEGE,ZIRA WOMEN 446 142047,EDUCATION SERVICES,20,852,5,10-14
5193,PUNJAB AND SIND BANK,ZIRA 451 142047,BANKING SERVICES,16,641,1,10-14
5194,TARA CHSND AGARWAL MEMORIAL SCHOOL AND COLLEGE,ZIRA 518 142047,EDUCATION PROVIDE,20,854,5,30-99
5195,STATE BANK OF PATIALA,ZIRA 523 142047,BANKING SERVICES,16,641,1,15-19
5196,WOMEN POWER KITCHEN,ZIRA 142047,FOOD SUPPLY  MID DAY MEEL IN SCHOOL,14,551,4,30-99
5197,HIRA INDUSTRY ZIRA,ZIRA 255 MALLANWALA ROAD 142047,MANFACTURING OF WELDING ROD,6,331,3,15-19
5198,SWAMI SAVTE PARKASH SARVHITKARI VIDIYA MANDIR SCHOOL,ZIRA DISTT  FIROZPUR 1210 2 142047,EDUCATION PROVIDE,20,851,5,30-99
5199,TELEPHONE EXCHANGE,ZIRA 1462 3 142047,TELEPHONE EXCHANGE,15,611,1,25-29
5200,BHARTI STATE BANK,ZIRA 142047,STATE BANK OF INDIA ZIRA,16,641,1,15-19
5201,POST OFFICE,ZIRA 300 SUBASH COLONY ZIRA 142047,POST OFFICE SERVICES,13,531,1,10-14
5202,OBC BANK,ZIRA 362 142047,BANKING SERVICES,16,641,4,10-14
5203,OSAHAN HOSPITAL,DR JASWANT SINGH 168 142047,HEALTH SERVICES,21,861,2,10-14
5204,JIWAN MALL GOVT  SR SEC SCHOOL,ZIRA 169 142047,EDUCATION PROVIDE,20,852,1,30-99
5205,T C RICE MILL,ZIRA 544 142047,SHELLER,6,106,2,20-24
5206,FRIENDS RICE MILL,ZIRA 142047,SHELLER,6,106,2,20-24
5207,ANIL NARULA RICE MILL,ZIRA 543 142047,SHELLER,6,106,2,20-24
5208,SHAGAN HOTEL AND RESTORENT ZIRA,ZIRA 462 TALWANDI ROAD ZIRA 142047,HOTEL,14,551,2,15-19
5209,ATAM FLOOR MILL,ZIRA 500 142047,ATTA MILL,6,106,2,10-14
5210,SHREE MAHAVEER RICE MILL,ZIRA 517 142047,SHELLER,6,106,2,25-29
5211,SHREE VARDHMAN RICE MILL,ZIRA 527 142047,SHELLER,6,106,2,10-14
5212,STATE BANK OF INDIA,ZIRA 142047,BANKING SERVICES,16,641,1,10-14
5213,PUNJAB RICE MILL,ZIRA 528 142047,SHELLER,6,106,2,25-29
5214,TATA RICE MILL,ZIRA 142047,SHELLER,6,106,2,25-29
5215,NAV BHARAT TRADING COMPANY,ZIRA 530 142047,SHELLER,6,106,2,15-19
5216,SHIVA RICE MILL,ZIRA 531 142047,SHELLER,6,106,2,15-19
5217,PUNJAB NATIONAL BANK,ZIRA 142047,BANKING SERVICES,16,641,1,10-14
5218,BABA AUTOS,ZIRA 25  142047,SHOWROOM FOR MARUTI SUZUKI,10,451,2,20-24
5219,DASHMESH PUBLIC SCHOOL,ZIRA 142047,EDUCATION PROVIDE,20,852,2,15-19
5220,GURU NANAK PUBLIC SCHOOL,MALLANWALA 142 152021,EDUCATION SERVICES,20,852,2,15-19
5221,FEED FACTORY,MALLANWALA KHAS 256 152021,CATTLE FEED,6,108,2,10-14
5222,GOVT HIGH SCHOOL,KOHAR SINGH WALA 355 1 152002,EDUCATION PROVIDE,20,852,1,15-19
5223,GOVT SENIOR SECIONDARY SCHOOL MEGHA RAI,MEGHA RAI 045 152022,EDUCATION PROVIDE,20,852,1,25-29
5224,KISAN FOOD MILL,MARRE KALLAN 273 1 152022,SHELLER,6,106,2,30-99
5225,GOVT HIGH SCHOOL,PINDI 442 152022,EDUCATION PROVIDE,20,852,1,10-14
5226,VADHVA BRICKS COMPANY,PINDI 454 152022,BRICK KILN,6,239,3,100-199
5227,SHAHEED UDHAM SINGH PUBLIC SR SEC SCHOOL,VASAL MOHAN KE 206 152022,EDUCATION PROVIDE,20,852,2,25-29
5228,D C M SR SEC SCHOOL,GOLUKA 408 152022,EDUCATION PROVIDE,20,852,2,30-99
5229,GANESH BRICKS COMPANY,MOHAN KE UTTAR GOLU KA ROAD 152022,BRICK KILN,6,239,2,30-99
5230,MUKAND LAL ROSHAN LAL BRICKS COMPANY,MOHAN KE UTTAR GOLU KAA ROAD 152022,BRICK KILN,6,239,2,30-99
5231,A A BRICKS INDUSTRY,MOHAN KE UTTAR GOLU KA ROAD 152022,BRICKS KILN,6,239,2,30-99
5232,B J P BRICKS INDUSTRY,MOHAN KE UTTAR GOLU KA ROAD 152022,BRICKS KILN,6,239,2,30-99
5233,RADHA SWAMI BRICKS COMPANY,MOHAN KE UTTAR GOLU KAA ROAD 152022,BRICKS KILN,6,239,2,30-99
5234,SACHDEVA BRICKS COMPANY,MOHAN KE UTTAR GOLU KAA ROAD 152022,BRICKS KILN,6,239,2,100-199
5235,SHIV SHANKER RICE MILL,MOHAN KE UTTAR GOLU KAA ROAD 152022,PRODUCTION OF FOOD MATERIAL,6,106,2,30-99
5236,A V INDUSTRY,MOHAN KE UTTAR 152022,PRODUCTION OF FOOD MATERIAL,6,106,2,15-19
5237,KAMBOJ BRICKS COMPANY,MOHAN KE HITHAR 152022,BRICKS KILN,6,239,3,30-99
5238,GOVT HIGH SCHOOL,MOHAN KE HITHAR 458 1 152022,EDUCATION PROVIDE,20,852,1,15-19
5239,SHAHEED UDHAM SINGH COLLEGE,MOHAN KE HITHAR 152022,EDUCATION PROVIDE,20,854,1,20-24
5240,GOVT HIGH SCHOOL,SHANGA RAI UTTAR 152022,EDUCATION PROVIDE,20,852,1,10-14
5241,GOVT SR SEC SCHOOL,PANJE KE UTTAR 152024,EDUCATION PROVIDE,20,852,1,10-14
5242,FAKIR CHAND BRICKS COMPANY,MOHAN 152022,BRICK KILN,6,239,2,100-199
5243,SURYA PIPE FACTORY,SAIDE KE MOHAN 152022,MANUFACTURING OF CEMENTED PIPE,6,239,2,15-19
5244,J N INTERNATIONAL SCHOOL,SAIDE KE MMOHAN 152022,EDUCATION PROVIDE,20,852,2,15-19
5245,R C INDUSTRY KUTABGARH,KUTABGARH 152022,SHELLER,6,106,3,30-99
5246,KISAN AGRO INDUSTRY,KUTABGARH 152022,SHELLER,6,106,2,20-24
5247,KELLIOP PUBLIC SCHOOL,JIWAN ARIAN 152022,EDUCATION PROVIDE,20,851,2,10-14
5248,K K BHATHA JIWAN ARIAN,JIWAN ARIAN 152022,MANUFACTURING AND SELLING OF BRICKS,6,239,2,25-29
5249,GOVT HIGH SCHOOL,JIWAN ARIAN 239 1 1  152022,EDUCATION PROVIDE,20,852,1,10-14
5250,RANBIR SINGH H H BHATHA,REHAIME SHAH BODLA 004 1 152022,BRICKS KILN,6,239,2,30-99
5251,BAJAJ BROTHERS AND COMPANY K K BHATHA,REHAIME SHAH BODLA 152022,BRICKS KILN,6,239,2,30-99
5252,ANAND BRICKS COMPANY,TILLU ARIAN 152022,BRICKS KILN,6,239,2,30-99
5253,GURU GOBIND SENIOR SECIONDARY SCHOOL,CHAK MAHANTA WALA 152022,EDUCATION PROVIDE,20,852,2,15-19
5254,S S MODEL HIGH SCHOOL,CHAK NIDHANA 181 2 152022,EDUCATION PROVIDE,20,852,2,15-19
5255,DESHMESH BRICKS INDUSTRY,MOTHAN WALA 152022,BRICKS KILN,6,239,2,30-99
5256,GURU NANAK AGRO PRODUCT,MOTHAN WALA 152022,SHELLER,6,106,2,30-99
5257,BRARR RICE MILL GURU HAR SAHAI,GURU HAR SAHAI MUKTSAR ROAD 152022,SHELLER,6,106,7,10-14
5258,M V AGRO INDUSTRY GURU HAR SAHAI,GURU HAR SAHAI MUKTSAR ROAD 152022,MANUFACTURING OF CARDBOARD,6,170,2,10-14
5259,GOVT ELEMENTARY SCHOOL,GURU HAR SAHAI 152022,EDUCATION PROVIDE,20,851,1,10-14
5260,POTHIMALA HALCHAL,GURU HAR SAHAI 1138 2 152022,NEWS AGENCY,15,581,2,30-99
5261,GOVT HIGH SCHOOL,JHANDU WALA 152022,EDUCATION PROVIDE,20,852,1,10-14
5262,PARSHOTAM LAL AND COMPANY GURU HAR SAHAI,GURU HAR SAHAI 58 1 FARIDKOT ROAD 152022,SHELLER,6,106,3,30-99
5263,J K S  PUBLIC SCHOOL,GURU HAR SAHAI 152022,EDUCATION PROVIDE,20,852,3,30-99
5264,SHREE RAM SOLVEX,GURU HAR SAHAI 165 1 SADIQ ROAD GURU HAR SAHAI 152022,SHELLER,6,106,4,100-199
5265,PUNJAB AGRO INDUSTRIES GURU HAR SAHAI,GURU HAR SAHAI 197 K S W ROAD 152022,SHELLER OIL AND CATTLE FEED,6,106,3,30-99
5266,NARULA FOOD SUPPLY LIMITED COMPANY,SARUPE WALA ROAD GURU HAR SAHAI 152022,SHELLER,6,106,4,30-99
5267,LITTLE FLOWER CONVENT SCHOOL,GURU HAR SAHAI NEAR MOHAN KE ROAD 152022,EDUCATION PROVIDE,20,851,9,20-24
5268,MOHAN LAL AND COMPANY,ITTAN BHATHA GUDDAR DHANDI GHS ROAD 152022,BRICK KILN,6,239,2,30-99
5269,NEW CHERISTIAN MODEL SCHOOL,BASTI BOHARIAN JOY SINGH WALA ROAD 152022,EDUCATION PROVIDE,20,851,2,10-14
5270,VOHRA B K O ITT BHATHA,NANAKPUR BASTI GUDDAR DHANDI ROAD 152022,BRICK KILN,6,239,2,30-99
5271,MATA SAHIB KOUR PUBLIC SCHOOL,BASTI BOHARIAN GUDDAR DHANDI ROAD 152022,EDUCATION PROVIDE,20,851,2,30-99
5272,GOVT HIGH SCHOOL,CHAK JAMALGARH 152024,EDUCATION PROVIDE,20,852,1,10-14
5273,H K BROTHERS B K O TIRPAL KE,TIRPAL KE 152022,BRICKS KILN,6,239,2,100-199
5274,G S S MAHMU JOIAN,MAHMU JOIAN 117 152024,EDUCATION PROVIDE,20,852,1,30-99
5275,CHETAK ENTERPRISES PRIVATE LIMITED,MAHMU JOIAN 123 152024,ROAD TEX,21,881,4,30-99
5276,MAA BHAVANI BRICKS OFFICE,RUKNA KASIM 152024,BRICKS KILN,6,239,2,100-199
5277,N K BRICKS INDUSTRY,AMIR KHAS 347 152024,BRICKS KILN,6,239,3,30-99
5278,BAJAJ B K O AMIR KHAS,AMIR KHAS 348 152024,BRICK KILN,6,239,2,30-99
5279,SIDHU B K O,AMIR KHAS 364 1 152024,BRICKS KILN,6,239,2,30-99
5280,HARPAL SINGH HARDAMAN SINGH,B K O AMIR KHAS 399 152024,BRICKS KILN,6,239,2,30-99
5281,H B B K O,AMIR KHAS 399 6 152024,BRICKS KILN,6,239,3,30-99
5282,KISAN SOLVEX PLANT PRIVATE LIMITED,AMIR KHAS 152024,MANUFACTURING OF MUSTERED OIL,6,106,2,25-29
5283,KISAN INDUSTRY AMIR KHAS,AMIR KHAS 415 4  152024,BRICKS KILN,6,239,3,15-19
5284,J K BROTHERS COMPANY,AMIR KHAS 152024,BRICKS KILN,6,239,2,100-199
5285,KISAN BRICKS INDUSTRY,PIR BAKHASH CHOHAN 152024,BRICKS KILN,6,239,2,100-199
5286,NEW SURYA SAPAN PIPE INDUSTRY,PIR BAKHASH CHOHAN 152024,MANUFACTURING OF PIPES,6,239,2,15-19
5287,G M BRICKS INDUSTRY,PIR BAKHASH CHOHAN 152024,Bricks Kilns,6,239,2,100-199
5288,GOVT HIGH SCHOOL,MIDDA 152024,EDUCATION PROVIDE,20,852,1,15-19
5289,SARKARI HIGH SCHOOL,SWAH WALA 133 152024,EDUCATION PROVIDE,20,852,1,20-24
5290,BABA SEWA SINGH INDUSTRY,CHAK KATHGARH 414 3 152024,SHELLER,6,106,4,15-19
5291,S S INDUSTRY,CHAK KATHGARH 415 1 152024,SHELLER,6,106,4,20-24
5292,S S OVERSEASE,CHAK KATHGARH 415 2 152024,SHELLER,6,106,4,25-29
5293,GURU GOBIND MODEL SCHOOL,CHAK SAIDO 37 CENTRAL BANK OF INDIA 152024,EDUCATION PROVIDE,20,852,2,10-14
5294,GROW PINJ FIBER LIMITED,CHAK SAIDO 73 JALALABAD MUKTSAR ROAD 152024,MANUFACTURING OF THREAD,6,106,2,200-499
5295,GOVT HIGH SCHOOL,CHAK SAIDO C 079 152024,EDUCATION PROVIDE,20,852,1,20-24
5296,AKME PUBLIC SCHOOL,CHAK SAIDO KE C 86 152024,EDUCATION PROVIDE,20,852,2,30-99
5297,JIWAN JOTI SCHOOL GURUHAR SAHAI,RAILWAY BASTI RAILWAY BASTI 152022,EDUCATION PROVIDE,20,852,9,10-14
5298,PUNJAB NATIONAL BANK,GURUHARSAHAI 183 152022,BANKING SERVICES,16,641,1,15-19
5299,GOVT CIVIL HOSPITAL GURU HAR SAHAI,FARIDKOT ROAD 270 FARIDKOT ROAD 152022,MADICAL SERVICES,21,861,1,25-29
5300,GURU GOBIND SINGH PUBLIC SCHOOL GURUHAR SAHAI,GUDDAR DHANDI ROAD GUDDAR DHANDI ROAD 152022,EDUCATION PROVIDE,20,852,2,15-19
5301,H K L NURSING COLLEGE GURU HAR SAHAI,GUDDAR DHANDI ROAD GUDDAR DHANDI ROAD 152022,EDUCATION PROVIDE,20,854,2,30-99
5302,ASTHA HOSPITAL,GURU HAR SAHAI 391 1 152022,MADICAL SERVICES,21,861,2,10-14
5303,BABA FARID I T C  I T I STREET,GURU HAR SAHAI I T I WALI GALLI 152022,EDUCATION PROVIDE,20,854,2,10-14
5304,GOVT SR SEC SCHOOL,GURUHARSAHAI 426 1 152022,EDUCATION PROVIDE,20,852,1,30-99
5305,PAWAN AGARWAL DOCTOR ,HOSPITAL GURUHARSAHAI 435 2 152022,MEDICAL SERVICES,21,861,2,30-99
5306,CHERISTIAN MODEL SCHOOL,BASTI GURU AMAR SINGH 42 3 BASTI GURU KARM SINGH 152022,EDUCATION PROVIDE,20,852,2,10-14
5307,VOHRA TRADING COMPANY,GURU HAR SAHAI FARIDKOT ROAD 152022,SHELLER,6,106,2,10-14
5308,SHREE GURU GOBIND SINGH PUBLIC SCHOOL,GURU HAR SAHAI 401 FARIDKOT ROAD 152022,EDUCATION PROVIDE,20,851,7,15-19
5309,MONGA TELECOMMUNICATION,GURU HAR SAHAI RAILWAY ROAD GURUHAR SAHA 152022,SPICE IDEA SHOWROOM,12,474,4,10-14
5310,CHANDIGARH LABORATORY,GURU HAR SAHAI FARIDKOT ROAD 152022,MEDICAL SERVICES  TEST ,21,862,2,10-14
5311,GURU TRACTORS,GURU HAR SAHAI FARIDKOT ROAD 152022,TRACTORS AGENCY,10,451,2,10-14
5312,BLUE STAR TAILORS,GURUHAR SAHAI GHUMOARANA WALI 152022,TAILRING,6,141,2,10-14
5313,BABA FARID PUBLIC SCHOOL,MUKTSAR ROAD MUKTSAR ROAD 152022,EDUCATION PROVIDE,20,851,2,10-14
5314,GURU TEG BAHADUR PUBLIC SR SEC SCHOOL,GURU HAR SAHAI 336 152022,EDUCATION PROVIDE,20,852,2,30-99
5315,HAKIM KISHORI LAL HOSPITAL,GURUHAR SAHAI 51 ADERSH NAGAR 152022,MEDICAL SERVICES,21,861,2,15-19
5316,NEW KALIA PUBLIC SCHOOL ADERSH NAGAR,GURUHAR SAHAI 191 ADERSH NAGAR 152022,EDUCATION PROVIDE,20,852,2,10-14
5317,DESHMESH PUBLIC SCHOOL,GURU HAR SAHAI 305 152022,EDUCATION PROVIDE,20,851,2,10-14
5318,MODERN PUBLIC HIGH SCHOOL,GURU HAR SAHAI 005 OLD S B I 152022,EDUCATION PROVIDE,20,852,3,30-99
5319,R S RICE MILL,HARAJ 142050,RICE MILL,6,106,2,15-19
5320,GOVT SEN SEC SCHOOL,HARAJ 142050,EDUCATION PROVIDE,20,852,1,10-14
5321,SARKARI HIGH SCHOOL,KOT KARROR KALLAN 142060,EDUCATION PROVIDE,20,852,1,10-14
5322,SURINDERPAL VILLAGE,GILL 142060,BRICKS KILLNS,6,239,2,25-29
5323,SARKARI HIGH SCHOOL,GILL 142060,EDUCATION PROVIDE,20,852,1,10-14
5324,MID DAY MEEL RASOI,MAKHU ROAD ZIRA 142047,FOOD SERVICES,14,561,4,10-14
5325,GOVT  HIGH SCHOOL,MASHI BUGRA 289 G T ROAD 142052,EDUCATION PROVIDE,20,852,1,10-14
5326,G P G CATTLE FEED INDUSTRY,MASHI BUGRA 142050,FACTORY,11,463,2,30-99
5327,GOVT HIGH SCHOOL,BHANGALI 142050,EDUCATION PROVIDE,20,852,1,10-14
5328,GOVT HIGH SCHOOL,KARMU WALA 142052,EDUCATION PROVIDE,20,852,1,10-14
5329,GOVT HIGH SCHOOL,WARRA BHAIKA 152001,EDUCATION PROVIDE,20,852,1,10-14
5330,GURU DWARA SHAPPRI SAHIB,VILLAGE TOOT 152001,GURUDWARA,23,949,2,10-14
5331,SHAHEED BABA HIMAT SINGH PUBLC SCHOOL,VILLAGE TOOT 152001,EDUCATION PROVIDE,20,851,2,10-14
5332,B L V EXPORT PRIVATE LIMITED,MANA SINGH WALA 142052,SHELLER,6,106,2,200-499
5333,GOVT SEC SCHOOL MANA SINGH WALA,FIROZPUR 142052,EDUCATION PROVIDE,20,852,1,10-14
5334,GOVT SENIOR SEC SCHOOL,SURSINGH WALA 268 152002,EDUCATION PROVIDE,20,852,1,15-19
5335,S B S PUBLIC SCHOOL,KULGARHI 278 152002,EDUCATION PROVIDE,20,851,2,30-99
5336,GOVT HIGH SCHOOL,FARIDE WALA 035 152002,EDUCATION PROVIDE,20,851,1,15-19
5337,GOVT ELEMENTARY SCHOOL,CHANGALI KADIM 59 2 152001,EDUCATION PROVIDE,20,851,1,10-14
5338,SHAHEED UDHAM SINGH PUBLIC SCHOOL,CHANGALI KADIM 172 152001,EDUCATION PROVIDE,20,851,2,10-14
5339,S GURNEK SINGH,VILLAGE RUKAN SHAH WALA 152005,BRICKS KILLNS,6,239,3,30-99
5340,M S SEN SEC SCHOOL,SHERKHAN WALA 152005,EDUCATION PROVIDE,20,852,2,10-14
5341,GOVT HIGH SCHOOL,SHERKHAN WALA 445 152005,EDUCATION PROVIDE,20,851,1,20-24
5342,SATPAL MOONGA BAJRI PLANTS,MOKHAM BHATTI 142052,CRASHER PLANTS,12,475,2,15-19
5343,GOVT SEN SEC SCHOOL,VALOOR 86 142052,EDUCATION PROVIDE,20,852,1,20-24
5344,SURJEET MEMORIAL SEN SEC  SCHOOL,PIYAREANA 429 2 142052,EDUCATION PROVIDE,20,851,2,15-19
5345,SURJEET MEMORIAL COLLEGE OF EDUCATION,PIYAREANA 142052,EDUCATION PROVIDE,20,852,2,25-29
5346,SHEKH FARID AUTO MOBILE LIMITED,B 11283 FARIDKOT ROAd KOTKPURA Ferozepur Rd  Mallwal  Punjab 152004,AUTU MOBILE AGENCY,10,451,2,100-199
5347,GURU DWARA JAMNI SAHIB,BAJIDPUR 152001,GURUDWARA SAHIB,23,949,1,30-99
5348,GOVT SEN SEC SCHOOL,BAJIDPUR 152001,EDUCATION PROVIDE,20,852,1,25-29
5349,SATLUJ INSTITUTE OFF VOCATIONAL EDUCATION,SANDE HASHAM 152001,EDUCATION PROVIDE,20,852,1,15-19
5350,OASIS DISTTLERICS LTD,VILLAGE SANDE HASHAM 152001,LIQAR,12,472,2,100-199
5351,SAT KARTAR AKM PRIVATE LIMITED FOCAL POINT,V  SANDE HASHAM 152001,OIL,12,473,1,15-19
5352,M S R S G FOOD PRIVATE LIMITED FOCAL POINT,VILLAGE SANDE HASHAM 152001,RICE MILL,6,106,2,200-499
5353,GOVT SEN SEC SCHOOL LOOBRI WALA,LOOBRI WALA 272 152001,EDUCATION PROVIDE,20,852,1,25-29
5354,GOVT S S SCHOOL BAGGE KE PIPPLE,BAGGE KE PIPPLE 152001,EDUCATION PROVIDE,20,852,1,25-29
5355,DISHA SEN SEC  SCHOOL BAGGE KE PIPPLE,BAGGE KE PIPPLE 152002,EDUCATION PROVIDE,20,852,2,10-14
5356,SHREE GURU RAM DASS UDYOG MANDAL,SUDH SINGH WALA 260 152021,BRICKS KILLNS,6,239,3,30-99
5357,SHREE GURU GOBIND SINGH PUBLIC SCHOOL,SUDH SINGH WALA 240 152021,BRICKS KILLNS,6,239,3,100-199
5358,SHREE GURU TEG BAHADUR,SUDH SINGH WALA 152021,BRICKS KILNS,6,239,2,100-199
5359,GOVT HIGH SCHOOL,CHUGTE WALA 152005,EDUCATION PROVIDE,20,851,1,15-19
5360,GURU RAM DASS PUBLIC SCHOOL,SHAHDEEN WALA 152002,EDUCATION PROVIDE,20,852,2,30-99
5361,AMBKA AGRO RICE MILL,HARAJ 142050,RICE MILL,6,106,2,20-24
5362,SHAM SUNDER RICE MILL,HARAJ 142050,RICE MILL,6,106,2,15-19
5363,TOIL RICE MILL,HARAJ 142050,RICE MILL,6,106,2,15-19
5364,GURU TEG BAHADUR INDUSTRY,HARAJ 142050,INDUSTRY,20,851,2,15-19
5365,AJIT VANS RICE MILL,HARAJ 142050,RICE MILL,6,106,2,20-24
5366,ANAND RICE MILL,HARAJ 142050,RICE MILL,6,106,2,15-19
5367,SATHE RICE MILL,HARAJ 142050,RICE MILL,6,106,2,15-19
5368,JAGDAMBA RICE MILL,HARAJ 142050,RICE MILL,6,106,2,15-19
5369,66 AGRO INDUSTRY,HARAJ 142050,RICE MILL,6,106,2,15-19
5370,RICE FACTORY,JHOK HARIHAR 152003,SHELLER,6,106,2,30-99
5371,SHAHEED UDHAM SINGH I T I FZR,JHOK HARIHAR 152001,EDUCATION PROVIDE,20,853,2,15-19
5372,HARPAL B K O JHOK HARIHAR,JHOK HARIHAR 152001,BRICKS KILN,6,239,3,10-14
5373,SHAHEED BABA DEEP SINGH B K O KAMAL,WALA KHURD MALLANWALA 152001,BRICKS KILN,6,239,3,10-14
5374,GOVT HIGH SCHOOL RUKNE WALA,RUKNE WALA 168 152021,EDUCATION PROVIDE,20,852,1,10-14
5375,GOVT MODEL SENIOR SEC SCHOOL USMAN WALA,USMAN WALA 152002,EDUCATION PROVIDE,20,851,1,15-19
5376,SANDHU GRAM UDYOG ARIFKE,ARIF KE 152002,BRICKS KILN,6,239,3,25-29
5377,SHREE GURU ANGAD DEV PUBLIC SCHOOL,ARIF KE 152002,EDUCATION PROVIDE,20,852,2,15-19
5378,GOVT SENIOR SEC SCHOOL NAWAN PIND,NAWAN PIND 152002,EDUCATION PROVIDE,20,852,1,30-99
5379,SHAHEED BHAGAT SINGH MEMORIAL PUBLIC SCHOOL,KATORA 152002,EDUCATION PROVIDE,20,851,2,10-14
5380,GOVT SR SEC SCHOOL,ATARI 152002,EDUCATION PROVIDE,20,852,1,20-24
5381,GURU NANAK MODEL SCHOOL,ATARI 37 1 152002,EDUCATION PROVIDE,20,852,2,10-14
5382,ARORA GRAM UDYOG,ATARI 259 1 152002,BRICKS KILN,6,239,9,20-24
5383,M SATNAM B K O,ASAL 152002,BRICKS KILN,6,239,2,30-99
5384,JAGDEEP SINGH ASAL,ASAL 152002,DAIRY FARM,2,14,2,15-19
5385,D C MODEL INTERNATIONAL SCHOOL,RAME WALA 127 1  152002,EDUCATION PROVIDE,20,851,6,100-199
5386,S B S PUBLIC SCHOOL,KHUSHAL SINGH WALA 152002,EDUCATION PROVIDE,20,851,6,10-14
5387,NAGPAL BRICKS GRAM UDYOG SAMTI,BAHADUR WALA 152002,BRICKS KILN,6,239,2,30-99
5388,VIZ AGRO EXSPART PRIVATE LIMITED,BAHADUR WALA 152002,SHELLER,6,106,3,30-99
5389,D P D INDUSTRY LIMITED,BAHADUR WALA 152002,SHELLER,6,106,3,30-99
5390,SHAHEED BHAGAT SINGH COLLEGE,NURSING SODE WALA FIROZPUR 152002,NURSING,20,853,2,30-99
5391,GOVT HIGH SCHOOL,PALLA MEGHA 070 152002,EDUCATION PROVIDE,20,852,1,20-24
5392,D P D MODEL SR SEC SCHOOL,PALLA MEGHA 217 152002,EDUCATION PROVIDE,20,852,2,10-14
5393,NADHA AND COMPANY BHATHA,DULCHE KE 137 152002,BRICKS KILN,6,239,3,200-499
5394,SHAHEED BHAGAT SINGH SCHOOL,GATTI REHAIME KE 152002,EDUCATION PROVIDE,20,851,2,10-14
5395,GOVT HIGH SCHOOL WEAR,Weer  65 1  152003,EDUCATION PROVIDE,20,851,1,10-14
5396,GOVT HIGH SCHOOL BARE KE,BARE KE 152002,EDUCATION PROVIDE,20,852,1,20-24
5397,GOVT SR SEC SCHOOL,KARIAN PEHALWAN 3 152003,EDUCATION PROVIDE,20,852,1,30-99
5398,MESS PANKAJ KUMAR KALRA,SUBA KAHAN CHAND 152003,BRICKS KILN,6,239,2,100-199
5399,ASHOK KUMAR AND COMPANY,KHILCHI KADIM 152003,BRICKS KILN,6,239,4,25-29
5400,GURU GOBIND SINGH SR SEC SCHOOL,NARANG KE SYAL 322 152003,EDUCATION PROVIDE,20,852,2,10-14
5401,SATPAL AGARWAL B K O NARANG KE LALY,NARANG KE LALY 153 152003,BRICKS KILN,6,239,2,30-99
5402,PUNJAB PUBLIC SR SEC SCHOOL VILLAGE,BASTI NATHE SHAH 302 152001,EDUCATION PROVIDE,20,852,2,30-99
5403,BABA NAND SINGH PUBLIC SCHOOL,RODE WALA 58 152024,EDUCATION PROVIDE,20,851,2,10-14
5404,GOVT HIGH SCHOOL LAKHA HAJI,LAKHA HAJI 152023,EDUCATION PROVIDE,20,852,1,15-19
5405,GURU AMARDASS PUBLIC SCHOOL,SADER DEEN WALA 116 152023,EDUCATION PROVIDE,20,851,2,15-19
5406,GOVT HIGH SCHOOL BHURRE KHURD,BHURRE KHURD 1 152002,EDUCATION PROVIDE,20,852,2,10-14
5407,GGS CONVENT SR SEC SCHOOL,MOHAMAD KHAN NIAZIAN 152024,EDUCATION PROVIDE,20,852,2,15-19
5408,GURU GYAN CONVENT SR SEC SCHOOL,MOHAMAD KHAN NIAZIAN 12 1  152023,EDUCATION PROVIDE,20,852,2,15-19
5409,SANTSAR PUBLIC SCHOOL,LAKHMEER KE UTTAR 152023,EDUCATION PROVIDE,20,852,2,10-14
5410,BABA INDER DASS PUBLIC SR SEC SCHOOL,LAKHO KE BEHRAM KHAMBA ROAD 152023,EDUCATION PROVIDE,20,852,2,15-19
5411,GOVT SR SEC SCHOOL LAKHO KE BEHRAM,LAKHO KE BEHRAM 152023,EDUCATION PROVIDE,20,852,1,20-24
5412,GURU NANAK PUBLIC SCHOOL,LAKHO KE BEHRAM 152023,EDUCATION PROVIDE,20,851,2,15-19
5413,GOVT SR SEC SCHOOL  BOYS ,MAMDOT 152023,EDUCATION PROVIDE,20,852,1,25-29
5414,G M PUBLIC HIGH SCHOOL MAMDOT UTTAR,MAMDOT 152023,EDUCATION PROVIDE,20,852,2,20-24
5415,CITY HEART S S SCHOOL MAMDOT,MAMDOT 152023,EDUCATION PROVIDE,20,852,2,25-29
5416,GURUDWARA SHREE PARGAT SAHIB HAMAD,HAMAD 152023,RELEGIOUS SERVICES,23,949,7,15-19
5417,SANT KARTAR SINGH KHALSA MEMORIAL S,EC SCHOOL BURAJ MAKHAN SINGH 152002,EDUCATION PROVIDE,20,852,2,25-29
5418,INDIAN FOUNDARY WORKS FIROZPUR,FIROZPUR 152 6 152001,OIL FACTORY,6,104,2,30-99
5419,TELEPHONE EXCHANGE FIROZPUR,FIROZPUR ICHHE WALA ROAD 152002,TELEPHONE EXCHANGE,15,611,2,10-14
5420,RAINBOW SCHOOL,FIROZPUR ICHHE WALA ROAD 152002,EDUCATION PROVIDE,20,852,2,10-14
5421,USHA MODEL SCHOOL FIROZPUR,FIROZPUR 289 1 BALMIK ROAD 152002,EDUCATION PROVIDE,20,852,2,10-14
5422,C K SCHOOL KASURI GATE FIROZPUR,FIROZPUR 152002,EDUCATION PROVIDE,20,852,2,15-19
5423,SAI PUBLIC SCHOOL FIROZPUR CITY,FIROZPUR KASURIGATE 152002,EDUCATION PROVIDE,20,852,2,15-19
5424,SIKH KANIAN MAHAVIDIYALIA S S SCHOOL,FIROZPUR CITY 152002,EDUCATION PROVIDE,20,852,1,15-19
5425,NAGRA CARD BOARD MILLS FIROZPUR CITY,FIROZPUR CITY RAJ GHAT ROAD 152002,CARDBOARD MILLS,6,170,1,15-19
5426,R S D COLLEGE,FIROZPUR CITY 312 MALLANWALA ROAD 152002,EDUCATION PROVIDE,20,852,1,30-99
5427,RAJ RATTAN SCHOOL FIROZPUR,FIROZPUR CITY NEAR R S D COLLEGE 152002,EDUCATION PROVIDE,20,852,2,20-24
5428,MODERN DCENT MODEL HIGH SCHOOL FZR,FIROZPUR CITY SODE WALA ROAD 152002,EDUCATION PROVIDE,20,852,2,15-19
5429,SATNAM ANAMI DERA,FIROZPUR CITY 1100 ICCHE WALA ROAD 152002,RELEGIOUS SERVICES,23,949,7,30-99
5430,DR KAMAL BAGI HOSPITAL FIROZPUR CITY,FIROZPUR CITY 070 BAGI ROAD FIROZPUR CITY 152002,HEALTH SERVICES,21,862,2,30-99
5431,DR ANIL BAGI HOSPITAL FIROZPUR CITY,FIROZPUR CITY 070 BAGI ROAD 152002,EDUCATION PROVIDE,20,852,2,30-99
5432,GOBIND CONVENT SCHOOL FIROZPUR CITY,FIROZPUR CITY 90 BAGHI ROAD 152002,EDUCATION PROVIDE,20,852,1,15-19
5433,MANAV MANDIR SENIOR SEC SCHOOL,FIROZPUR CITY 2 152002,EDUCATION PROVIDE,20,852,2,25-29
5434,BACHPAN PLAY  SCHOOL FIROZPUR CITY,FIROZPUR CITY MAL ROAD 152002,EDUCATION PROVIDE,20,851,2,10-14
5435,SANJAVANI HOSPITAL DR O P BAGRI,FIROZPUR CITY MODEL TOWN 152002,HEALTH SERVICES,21,862,2,10-14
5436,AKASH HOSPITAL FIROZPUR CITY,FIROZPUR CITY 2 MODEL TOWN 152002,HEALTH SERVICES,20,852,2,10-14
5437,SHEEL HOSPITAL FIROZPUR CITY,FIROZPUR CITY MODEL TOWN 152002,HEALTH SERVICES,21,862,2,10-14
5438,GOVT I T I GIRLS FIROZPUR,FIROZPUR 390 MODI MILL ROAD 152002,TECHENICAL EDUCATION PROVIDE,20,852,1,15-19
5439,HOTEL INTERNATIONAL RESTORENT AND BEER BAR,FIROZPUR 400 SHAHEED UDAM SINGH CHOWK 152002,RESTORENT AND HOTEL,14,551,2,10-14
5440,MALWA KHALSA SR SEC SCHOOL NEAR UDAM SINGH CHOWK,FIROZPUR CITY NEAR UDAM SINGH CHOWK 152002,EDUCATION PROVIDE,20,852,1,15-19
5441,GOVT I T I  BOYS ,MALL NEAR UDAM SINGH CHOWK FIROZPUR CITY 436  1 NEAR UDAM SINGH CHOWK 152002,TECHENICAL EDUCATION PROVIDING,20,853,1,30-99
5442,VINEY PUBLIC HIGH SCHOOL FIROZPUR,FIROZPUR 524 GURU RAM DASS NAGAR 152002,EDUCATION PROVIDE,20,852,2,10-14
5443,B S M S S SCHOOL FIROZPUR CITY,FIROZPUR 790 HOUSING BOARD COLONY 152002,EDUCATION PROVIDE,20,852,5,20-24
5444,DR GROVER EYE CARE CENTRE FIROZPUR,FIROZPUR DELHI GATE 152002,GROVER OPTICALS,6,267,2,10-14
5445,DR  KALIA EYE AND MATERNITY HOSPITAL,FIROZPUR CITY NEAR GYAN VATIKA 152002,HOSPITAL,21,862,2,10-14
5446,SONU ELECTRONICS,FIROZPUR CITY DELHI GATE 152002,ELECTRONIC GOODS SAIL,12,474,2,10-14
5447,KRISHNA BRASS BAND,FIROZPUR CITY 439 1 OPP MANJIT PALACE 152002,BRASS BAND,22,900,2,10-14
5448,KALI RAM AGARWAL AND SONS FIROZPUR,FIROZPUR CITY 475 152002,BORE PIPES WORK,9,422,2,10-14
5449,THE FIROZPUR COOPERATIVE BANK,FIROZPUR CITY 485 152002,CO OPERATIVE BANK,16,641,6,15-19
5450,SPORTS KING SHOWROOM,FIROZPUR CITY 719 152002,READYMADE GARMENTS,12,477,4,15-19
5451,H M SEN SEC SCHOOL FIROZPUR CITY,FIROZPUR CITY 777 152002,EDUCATION PROVIDE,20,852,1,20-24
5452,H M D A V SR SEC SCHOOL FZR CITY,FIROZPUR CITY 779 152002,EDUCATION PROVIDE,20,852,9,30-99
5453,MANVTA SENIOR SECIONDARY SCHOOL NEA   R RAILWAY FATAK MODI MILL ROAD,FIROZPUR CITY WARD NO  17 FZR CITY 152002,EDUCATION PROVIDE,20,852,2,30-99
5454,ROHIT PUBLIC MADAL HIGH SCHOOL NEW ABADI,BASTI BHATIAN WALI 502 152002,EDUCATION PROVIDE,20,852,2,15-19
5455,ORIENTAL BANK OF COMMERCE,FIROZPUR CITY MOCHI BAZAR 152002,BANKING SERVICES,16,641,1,10-14
5456,STATE BANK OF INDIA,FIROZPUR CITY MOCHI BAZAR 152002,BANKING SERVICES,16,641,1,20-24
5457,S D SR SEC SCHOOL,FIROZPUR CITY DEVI DWARA ROAD 152002,EDUCATION  PROVIDE,20,852,1,30-99
5458,S D S MODEL SCHOOL,FIROZPUR CITY 459 1 152002,EDUCATION PROVIDE,20,852,2,15-19
5459,ARUN JOTI MODEL SR SEC SCHOOL,FIROZPUR CITY AMRITSARI GATE 152002,EDUCATION PROVIDE,20,852,2,30-99
5460,DEV SAMAJ GIRLS SENIOR SECIONDARY SCHOOL,FIROZPUR CITY 157 1 BASI GATE 152002,EDUCATION PROVIDE,20,852,2,10-14
5461,DEV SAMAJ GIRLS COLLEGE,FIROZPUR CITY 158 3 BANSI GATE 152002,EDUCATION PROVIDE,20,852,2,30-99
5462,HINDU HIGH SCHOOL FIROZPUR CANTT,FIROZPUR CANTT 152001,EDUCATION PROVIDE,20,852,9,10-14
5463,ORIENTAL BANK OF COMMERCE,FIROZPUR CANTT NO 3 SADAR BAZZAR 152002,BANKING SERVICES,16,641,1,10-14
5464,B M JAIN SR SEC SCHOOL,FIROZPUR CANTT 157 18 152001,EDUCATION PROVIDE,20,852,7,10-14
5465,D A V SCHOOL,FIROZPUR CANTT 147 1  152001,EDUCATION PROVIDE,20,852,3,15-19
5466,PUNJAB AND SINDH BANK,FIROZPUR CANTT 65 JHOK ROAD 152001,BANKING SERVICES,16,641,1,10-14
5467,GURU HAR KRISHA PUBLIC SCHOOL,FIROZPUR CANTT 122 1 CHURCH ROAD 152001,EDUCATION PROVIDE,20,852,5,20-24
5468,MALHOTRA AND COMPANY,FIROZPUR CANTT 159   16 152001,WINE SHOP,11,461,4,20-24
5469,SAINT ANDREW HIGH SCHOOL,FIROZPUR CANTT 152001,EDUCATION PROVIDE,20,852,2,10-14
5470,KHALSA GIRLS HIGH SCHOOL  AIDED SCHOOL ,FIROZPUR CANTT 158 7 SETHI ROAD 152001,EDUCATION PROVIDE,20,852,2,10-14
5471,KHALSA GURUDWARA SAHIB,FIROZPUR CANTT 158 11 SANT LAL ROAD 152001,RELEGIOUS SERVICES,23,949,7,10-14
5472,STATE BANK OF PATIALA,FIROZPUR CANTT 158   18 152001,BANKING SERVICES,16,641,1,15-19
5473,DYA NAND MODEL HIGH SCHOOL SOCIETY RAILWAY ROAD,FZR CANTT  164 152001,EDUCATION PROVIDE,20,852,4,15-19
5474,ARYA ANATH ALIYA SOCIETY,FZR CANTT  RAILWAY ROAD 164 152001,ASHRAM,21,873,4,10-14
5475,D A V SAINTARY SCHOOL,FZR CANTT  RAILWAY ROAD 164 152001,EDUCATION PROVIDE,20,852,4,15-19
5476,ORIENTAL BANK OF COMMERCE,FZR CANTT RAILWAY ROAD 152001,BANKING SERVICES,16,641,1,10-14
5477,M L M SOCIETY RAILWAYROAD,FIROZPUR CANTT 152001,EDUCATION PROVIDE,20,852,1,25-29
5478,D C MODEL HIGH SCHOOL SOCIETY,FIROZPUR CANTT RAILWAY ROAD FZR CANTT 152001,EDUCATION PROVIDE,20,852,4,200-499
5479,GIYAN HONDA AGENCY,FIROZPUR CANTT 152001,TWO WHEELER AGENCY,10,453,2,20-24
5480,D A V  COLLEGE FOR WOMEN,FIROZPUR CANTT RAILWAY ROAD FZR CANTT 152001,EDUCATION PROVIDE,20,852,4,30-99
5481,K S MOTOR CYCLE DIVISION,FIROZPUR CANTT 152001,MOTOR CYCLE SELLING,10,453,3,15-19
5482,SAT JOSEPHS CONVENT SCHOOL,FIROZPUR CANTT 152001,EDUCATION PROVIDE,20,852,6,25-29
5483,MAIN OFFICE ADMINISTRATIVE WORK,FIROZPUR CANTT 159 GENERAL HOSPITALC S 56APO 152001,GOVT SOCIETY OFFICE,21,889,1,15-19
5484,M I ROOM MEDICAL INFECTION ROOM,FIROZPUR CANTT 159 GENERAL HOSPITAL C S56APO 152001,MEDICAL SERVICES,21,861,1,10-14
5485,OPERATION THEATRE  PATIENT  GENERAL HOSPITAL,FIROZPUR CANTT 159 C O 56 APO GENERAL HOSPITAL 152001,MEDICAL SERVICES,21,862,1,10-14
5486,ARMY PUBLIC SCHOOL,FIROZPUR CANTT 152001,EDUCATION SERVICES,20,852,6,30-99
5487,GOVT SR SEC SCHOOL TALWANDI BHAI,FIROZPUR CANTT 142050,EDUCATION PROVIDE,20,852,2,30-99
5488,BABA FARID PUBLIC SCHOOL,TALWANDI BHAI 334 142050,EDUCATION PROVIDE,20,852,2,10-14
5489,ARORA RICE INDUSTRY,TALWANDI BHAI 482 9 KHOSA DAL SINGH ROAD 142050,SHELLER,6,106,2,20-24
5490,RAMA RICE MILL,TALWANDI BHAI KHOSA DAL SINGH ROAD 142050,SHELLER,6,106,2,10-14
5491,AMARJIT AND COMPANY,TALWANDI BHAI 489 142050,SHELLER,6,106,2,10-14
5492,DEEPAK FOOD PRODUCT,TALWANDI BHAI 489 1 KHOSA DAL SINGH 142050,FOOD PRODUCTION,6,107,2,10-14
5493,KHURANA RICE MILL,TALWANDI BHAI 489 2 142050,SHELLER,6,106,2,20-24
5494,PREM SINGH RICE MILL,TALWANDI BHAI 500 KHOSA DAL SINGH ROAD 142050,SHELLER,6,106,2,30-99
5495,BHASKAR RICE MILL,TALWANDI BHAI 501 KHOSA DAL SINGH ROAD 142050,SHELLER,6,106,2,20-24
5496,ARORA RICE  AND GENERAL MILL,TALWANDI BHAI 039 142050,SHELLER,6,106,2,20-24
5497,INTERNATIONAL PUBLIC SCHOOL,TALWANDI BHAI 142050,EDUCATION PROVIDE,20,852,2,10-14
5498,SANGA RICE MILL TALWANDI BHAI,TALWANDI BHAI 411 ZIRA ROAD 142050,SHELLER,6,106,2,10-14
5499,TAKHAR SINGH SANGA RICE AND GENERAL MILL,TALWANDI BHAI ZIRA ROAD 142050,SHELLER,6,106,2,25-29
5500,KISAN AGRO WORKS TALWANDI BHAI,TALWANDI BHAI NEAR RAILWAY LINE 142050,MANUFACTURING OF AGRICULTURE GOODS,6,259,2,10-14
5501,BABA NAND SINGH GENERAL AND RICE MILL,TALWANDI BHAI 525 142050,SHELLER,6,106,2,25-29
5502,AGARWAL RICE MILL TALWANDI BHAI,TALWANDI BHAI 517 ZIRA ROAD 142050,SHELLER,6,106,2,10-14
5503,ANMOL PUBLIC SCHOOL,TALWANDI BHAI 7 DHARMSHALA 142050,EDUCATION PROVIDE,20,851,7,10-14
5504,AVTAR AGRO,TALWANDI BHAI 180 MOGA LINK ROAD 142050,AGRICULTURE WORKSHOP,6,331,3,30-99
5505,FUN IS LAND,TALWANDI BHAI 198 MOGA G T ROAD 142050,ENTERTAINMENT,22,932,2,30-99
5506,JUJAR MOTORS,TALWANDI BHAI 24 2 FARIDKOT ROAD 142050,REPAIR WORKSHOP,6,331,2,10-14
5507,SHAHEED GANJ PUBLIC SCHOOL,TALWANDI BHAI 102 142050,EDUCATION PROVIDE,20,852,2,30-99
5508,B S KALSI ENGG WORKS,TALWANDI BHAI 242 142050,REPAIR WORKS,6,331,2,10-14
5509,POWER ENGG WORKS,TALWANDI BHAI 243 LAKHE WALI GALLI 142050,REPAIR WORKSHOP,6,331,2,10-14
5510,PNASER AGRICULTURE WORKS,TALWANDI BHAI 136 FARIDKOT ROAD 142050,AGRICULTURE WORKS,6,331,2,10-14
5511,GURU NANAK INDUSTRY,TALWANDI BHAI 137 FARIDKOT ROAD 142050,TRACTOR REPAIR,10,451,2,10-14
5512,NEW GRAND ENGG WORKS,TALWANDI BHAI 177 FARIDKOT ROAD 142050,REPAIR WORKS,6,331,2,10-14
5513,NEW GRAND MOHINDER STORE,TALWANDI BHAI 173 FARIDKOT ROAD 142050,REPAIR WORK SHOP,6,331,2,15-19
5514,KULDIP ENGG WORKS,TALWANDI BHAI 192 FARIDKOT ROAD 142050,REPAIR WORKSHOP,6,331,2,10-14
5515,GURDEV ENGG WORKS,TALWANDI BHAI 215 FARIDKOT ROAD 142050,AGRICULTURE WORKSHOP,6,331,2,15-19
5516,NEW MALWA ENGG WORKS,TALWANDI BHAI 216 FARIDKOT ROAD 142050,AGRICULTURE WORKS,6,331,2,30-99
5517,S K PUBLIC SCHOOL,TALWANDI BHAI 218 S K SCHOOL LANE 142050,EDUCATION PROVIDE,20,851,2,30-99
5518,SHIVALIK MODEL SR SEC SCHOOL,MUDKI 45 142060,EDUCATION PROVIDE,20,852,2,15-19
5519,NEW GURU TEG BAHADUR SCHOOL,MUDKI 239 142060,EDUCATION PROVIDE,20,852,2,15-19
5520,GOVT GIRLS HIGH SCHOOL,MUDKI 188 MAIN BAZAR 142060,EDUCATION PROVIDE,20,852,1,15-19
5521,GOVT PRIMARY SCHOOL,MUDKI 249 142060,EDUCATION PROVIDE,20,851,1,10-14
5522,GOVT S S SCHOOL BOY S ,MUDKI 002 TALWANDI BHAI ROAD 142060,EDUCATION PROVIDE,20,852,1,25-29
5523,ELECTRICITY HOUSE,MUDKI 003 TALWANDI BHAI ROAD 142060,ELECTRICITY SUPPLY,7,351,1,20-24
5524,SHAHEED GANJ PUBLIC SCHOOL,MUDKI 100 LOHAM ROAD 142060,EDUCATION PROVIDE,20,851,9,100-199
5525,SHAHEED GANJ COLLEGE FOR WOMEN,MUDKI 101 142060,EDUCATION PROVIDE,20,853,9,20-24
5526,SHIV SHANKER RICE MILL,MUDKI 165 LOHAM ROAD 142060,SHELLER,6,106,3,20-24
5527,KHARA AUTO MOBILE PRIVATE LIMITED,ALLE WALA 254 ALLE WALA 152001,TWO WHEELER AGENCY,10,454,2,10-14
5528,J E AGRISOLUTION,ALLE WALA ALLE WALA 152001,SHOP FOR PESTICIDES AND SEEDS,12,477,3,15-19
5529,DASHMESH AUTOS,ALLE WALA 152001,CARS AGENCY,10,451,3,30-99
5530,BABA AUTOS,ALLE WALA 152001,MOTOR CYCLE AGENCY,10,454,3,30-99
5531,MARUTI BAJAJ,ALLE WALA 258 152001,FOUR WHELLER AGENCY,10,451,3,30-99
5532,GURU HAR GOBIND ITI,SATIYA WALA 152001,DIPLOMA COURSE,20,853,6,25-29
5533,DHARMPAL AND COMPANY,SATIYA WALA NEAR RAILWAY FATAK SATIYA 152001,BRICKS KILN,6,239,2,20-24
5534,ADESH GRAM UDYOG SAMTI,SATIYA WALA 152001,BRICKS KILN,6,239,6,30-99
5535,MATHARU ENGINEERING WORKS NEAR,SATIYA WALA BYPASS 152001,MANUFACTURING OF COMBINE MACHINES,6,331,3,20-24
5536,KALI RAM VED PARKASH,SATIYA WALA 152001,BRICKS KILN,6,239,2,30-99
5537,SHANTI VIDYA MANDIR SCHOOL,SATIYA WALA 152001,EDUCATION PROVIDE,20,852,3,30-99
12383,GOVT HIGH SCHOOL MALOKE,FAZILKA 142047,EDUCATION PROVIDE,20,852,1,10-14
12384,ADERSH SENIOR SECIONDARY SCHOOL,SHEHJADA SANT SINGH 142047,EDUCATION PROVIDE,20,852,1,30-99
12385,SHREE GURU HAR GOBIND SAHIB SS SCHOOL,SAHINI SAHIB MEHAR SINGH WALA 142047,EDUCATION PROVIDE,20,852,9,30-99
12386,GOVT HOSPITAL KASOANA,FAZILKA 142047,HEALTH SERVICES HUMAN BEINGS,21,861,1,30-99
12387,GOVT HIGH SCHOOL KASOANA,FAZILKA 142047,EDUCATION PROVIDE,20,852,1,20-24
12388,GOVT HIGH SCHOOL PIR MUHAMAD,FAZILKA 142044,EDUCATION PROVIDE,20,852,2,10-14
12389,GOVT  HIGH SCHOOL,SHEEHANPARRI 142044,EDUCATION PROVIDE,20,852,1,10-14
12390,AKAL ACADEMY,BEHAK FATTU 34 142044,EDUCATION SERVICES,20,852,3,25-29
12391,Govt Sr Sec School,Makhu 142044,EDUCATION PROVIDE,20,852,1,10-14
12392,SARVHITKARI VIDIYA MANDIR MAKHU,FAZILKA 142044,EDUCATION PROVIDE,20,852,6,20-24
12393,STATE BANK OF INDIA,MAKHU 142044,BANKING SERVICES,16,641,1,10-14
12394,GOVT SR SECIONDARY SCHOOL  BOYS ,MAKHU 142044,EDUCATION PROVIDE,20,852,1,10-14
12395,H D F C BANK,MAKHU 223 142044,BANKING SERVICES,16,641,2,15-19
12396,RAILWAY STATION MAKHU,FAZILKA 142044,RAILWAY SERVICES,13,491,1,10-14
12397,EASY DAY ZIRA,474 KOT ISSE KHAN ROAD 142047,HOUSE HOLD GOODS,12,472,4,10-14
12398,CIVIL HOSPITAL,ZIRA 142047,HEALTH SERVICES,21,861,1,30-99
12399,FOREST OFFICE ZIRA,715 KOT ISSE KHAN ROAD 142047,PRODUCTION AND PLANTATION OF TREE,1,13,1,10-14
12400,TEHSIL OFFICE,ZIRA 747 142047,ADMINISTRATIVE SERVICES,18,691,1,20-24
12401,LIFE INSURANCE CORPORATION OF INDIA,ZIRA 150 FIROZPUR ROAD 142047,BIMA COMPANY,16,649,1,30-99
12402,Civil Hospital,FAZILKA 152021,HEALTH SERVICES,21,861,1,10-14
12403,B S HUNDAL MODEL SR SEC SCHOOL MALL,MALLAN WALA KHAS 152021,EDUCATION PROVIDE,20,852,2,15-19
12404,ELECTRICITY BOARD,MALLANWALA KHAS 152021,ELECTRICITY SUPPLY AND BILL PAYMENT RECEIVED,7,351,1,30-99
12405,GOVT MIDDLE SCHOOL AMIR KHAS,FAZILKA 30 152024,EDUCATION PROVIDE,20,852,1,10-14
12406,SECRED HERT CONVENT SCHOOL,AMIR KHAS 414 152024,EDUCATION PROVIDE,20,852,5,30-99
12407,GOVT MIDDLE SCHOOL PIR BAKHASH CHOHAN,FAZILKA 152024,EDUCATION PROVIDE,20,852,1,10-14
12408,POST OFFICE,GURUHAR SAHAI 156 2  152022,POST AND COURIOR SERVICES,13,531,1,10-14
12409,STATE BANK OF INDIA GURUHAR SAHAI,FAZILKA 157 152022,BANKING SERVICES,16,641,1,20-24
12410,ORIENTIAL BANK OF INDIA,FAZILKA 166 152022,BANKIN SERVICES,16,641,1,10-14
12411,H D F C Bank,FAZILKA 152022,BANKING SERVICES,16,641,1,10-14
12412,GOVT HIGH SCHOOL,TOOMBER BHAN 142050,EDUCATION PROVIDE,20,851,1,10-14
12413,SARKARI HIGH SCHOOL SULHANI,FAZILKA 381 4  142050,EDUCATION PROVIDE,20,851,1,10-14
12414,GOVT SEN SEC SCHOOL BOYS AND GIRLS,FIROZSHAH 142052,EDUCATION PROVIDE,20,852,1,20-24
12415,DEV SAMAJ ABCC SCHOOL,FIROZSHAH 142052,EDUCATION PROVIDE,20,851,2,30-99
12416,FIROZPUR COLLEGE OF ENGINEERING AND TECHNOLOGY,FAZILKA 142052,EDUCATION PROVIDE,20,855,1,30-99
12417,Govt High School Village Toot,FAZILKA 142052,EDUCATION PROVIDE,20,852,1,15-19
12418,DISTT EDUCATION OFFICER  S ,FIROZPU 142052,EDUCATION PROVIDE,20,852,1,15-19
12419,Govt HIGH SCHOOLUgo Ke,FAZILKA 142052,EDUCATION PROVIDE,20,852,1,15-19
12420,GOVT HIGH SCHOOL SODI NAGAR,FAZILKA 142052,EDUCATION PROVIDE,20,852,1,15-19
12421,G S PUBLIC SCHOOL NOORPUR SETHAN,FAZILKA 152002,EDUCATION PROVIDE,20,851,2,10-14
12422,GOVT SR SEC SCHOOL,NOORPUR SETHAN 152002,EDUCATION PROVIDE,20,851,1,30-99
12423,GOVT HIGH SCHOOL,JHOK HARIHAR 152003,EDUCATION PROVIDE,20,851,1,20-24
12424,PUNJAB STATE POWER CORPORATION LIMITED  ELECTRICITY BOARD ,FAZILKA 152003,ELECTRICITY SUPPLY,7,351,1,30-99
12425,BRICKS  BAGHEL,SINGH WALA 152002,BRICKS KILN,6,239,2,25-29
12426,GOVT HIGH SCHOOL,KHUSHAL SINGH WALA 152002,EDUCATION PROVIDE,20,852,1,15-19
12427,INDIAN GAS AGENCY KHUSHAL,FAZILKA 152002,GAS AGENCY,12,477,2,20-24
12428,GOVT MIDDLE SCHOOL,DULCHE KE 152002,EDUCATION PROVIDE,20,851,1,10-14
12429,RICE MILL  FOJA SINGH ,FAZILKA 152002,SHELLER,6,106,2,30-99
12430,ASSTT EXECUTIVE OFFICER SUB DIVISIO,N MAMDOT  PSPCL  152023,ELECTRICITY  SUPPLY,7,351,1,30-99
12431,CIVIL HOSPITAL,MAMDOT 152023,HEALTH SERVICES,21,861,1,30-99
12432,GOVT SR SEC SCHOOL,MAMDOT 152023,EDUCATION PROVIDE,20,852,1,25-29
12433,GOVT SR SEC SCHOOL HAZARA SINGH WALA,SINGH WALA 152023,EDUCATION PROVIDE,20,852,1,25-29
12434,PUNJAB STATE POWER CORPORATION LIMI,TED JHOK TEHIL SINGH 152002,ELECTRICITY SUPPLY,7,351,1,25-29
12435,GOVT HIGH SCHOOL JHOKE TEHIL SINGH,FAZILKA 152002,EDUCATION PROVIDE,20,852,1,10-14
12436,GOVT POLYTECHENICAL COLLEGE,FZR CITY DULCHI KE ROAD 152002,EDUCATION PROVIDE,20,853,1,30-99
12437,Diet Firozpur City,Dulchi Ke Road 152002,TEACHING CENTRE,20,853,1,15-19
12438,GOVT SR SEC SCHOOL  GIRLS ,FIROZPUR 152002,EDUCATION PROVIDE,20,852,1,30-99
12439,GOVT SR SEC SCHOOL  BOYS ,FIROZPUR 152002,EDUCATION PROVIDE,20,852,1,30-99
12440,MISSION HOSPITAL FIROZPUR CANTT,PREM NAGAR 152002,HEALTH SERVICES,21,862,9,100-199
12441,Sat Josephs Convent School,Firozpur Cantt  152001,EDUCATION PROVIDE,20,852,9,30-99
12442,PRIMARY COOPERATIVE AGRICULTURE VIK,AS BANK FIROZPUR CITY NEAR MALWA KHALSA SCHOOL 152002,BANKING SERVICES,16,641,6,10-14
12443,STATE BANK OF PATIALA,FIROZPUR CITY NEAR UDAM SINGH CHOWK 152002,BANKING SERVICES,16,641,1,20-24
12444,Agro Club Woodland Store,FZR City 152002,PARCHOON DEPARTMENTAL STORE SAIL,12,472,4,10-14
12445,O B C FIROZPUR CITY,FZR City 571 152002,BANKING SERVICES,16,641,1,10-14
12446,S B I A D B BRANCH,FAZILKA 578 152002,BANKING SERVICES,16,641,1,15-19
12447,MALWA KHALSA PRIMARY SCHOOL,FZR CITY 582 152002,EDUCATION PROVIDE,20,852,1,10-14
12448,B S M SCHOOL FZR CITY,852 1  SHANTI NAGAR 152002,EDUCATION PROVIDE,20,852,2,10-14
12449,JONAL MALARIA HASPTAL MOCHHI BAZAR,HIRA MANDI GATE FIROZPUR CITY MOCHI BAZAR HIRA MANDI GA 152002,HEALTH SERVICES,21,862,1,10-14
12450,PUNJAB NATIONAL BANK MAIN BRANCH BA,BAGDADI GATE FIROZPUR CITY MAIN BRANCH BAGDADI GATE 152002,BANKING SERVICES,16,641,1,10-14
12451,C B PRIMARY SCHOOL  GWAL MANDI ,139 GWAL MANDI ROAD 152001,EDUCATION PROVIDE,20,851,1,10-14
12452,C B  SCHOOL,SETHI ROAD FIROZPUR CANTT  1 SETHI ROAD 152001,EDUCATION PROVIDE,20,851,1,20-24
12453,SUNSHINE MODERN SCHOOL FZR CANTT ,Firozpur Cantt  152001,EDUCATION PROVIDE,20,852,1,15-19
12454,CANTT GENERAL HOSPITAL,FZR CANTT 152001,HEALTH SERVICES,21,862,1,10-14
12455,D C M JAIN SR  SEC SCHOOL FZR CANTT,144 1 SADAR BAZAR 152001,EDUCATION PROVIDE,20,852,1,30-99
12456,FAMILY WELFARE CENTRE B S F CAMP,FAMILY LINE 152023,TAILORING,6,141,1,20-24
12457,CANERA BANK,TALWANDI BHAI 135 142050,BANKING SERVICES,16,641,1,10-14
12458,MATA SAHIB KAUR GIRLS COLLEGE TALWA,NDI BHAI 142050,EDUCATION PROVIDE,20,855,1,30-99
12459,ISTARY SHAKTI RASOI,FIROZPUR 152001,MAKING FOOD FOR CHILDREN,14,562,2,30-99
12460,MANOHAR SINGH GURDIAL SINGH S O LALAL  SINGH RANJIT SINGH MILKHA SINGH S ,VILL THATHA KISHAN 31 152021,BRICK KILNS,6,239,9,25-29
12461,LAKSHMI INDUSTRY THATHA KISHAN SING,H GURBACHAN SINGH S O BALKAR SINGH SANTOKH SINGH S O GURBACHAN SINGH BASTI TARA SINGH 152021,BRICK KILN,6,239,2,20-24
12462,SADHU RAM TARA SINGH,THATHA KISHAN SINGH 152021,BRICK KILN,6,239,2,30-99
12463,NEW LIFE WELFARE SOCIETY,GURDITI WALA 4 152021,DRUG COUNCILING,21,881,3,10-14
12464,GOVT SENIOR SECIONDARY SCHOOL,BHAGO KE 86 152021,EDUCATION PROVIDE,20,852,1,15-19
12465,GURUDWARA SHREE GURU TEG BAHADUR SA,HIB BHAGO KE 89 152021,RELIGIOUS,23,949,7,15-19
12466,MATA GUJRI EDUCATION SOCIETY,BHARANA 481 152005,EDUCATION PROVIDE,20,852,2,15-19
12467,GOVT HIGH SCHOOL,BHARANA 152005,EDUCATION PROVIDE,20,852,1,15-19
12468,KALGIDHAR AKAL ACADEMY,BHARANA 480 152005,EDUCATION BHARANA,20,852,2,30-99
12469,SUKRIT PUBLIC SCHOOL,BHARANA 152005,EDUCATION PROVIDE,20,851,2,15-19
12470,GURU RAM DAS PUBLIC SCHOOL,BAHAVALPUR 7 142047,EDUCATION PROVIDE,20,851,2,10-14
12471,SARSVATI PANEL PRODUCT,GADRI WALA 142047,MANUFACTURING OF PLYWOOD,6,170,2,10-14
12472,PARADISE PUBLIC SS  SCHOOL FIROZPUR,ROAD GADHRI WALA 142047,EDUCATION PROVIDE,20,852,9,30-99
12473,BRAR DHABA,MEHAR SINGH WALA 142047,FOOD MAKING AND SELLING,14,561,2,10-14
12474,S S MEMORIAL PUBLIC SCHOOL,KASOANA 142050,EDUCATION PROVIDE,20,851,7,10-14
12475,GOVT HIGH SCHOOL,VAKILAN WALA 142047,EDUCATION PROVIDE,20,852,1,10-14
12476,G T B NATIONAL HIGH SCHOOL PIR MUHA,MAD 98 1 142044,EDUCATION PROVIDE,20,852,2,15-19
12477,POL STALL PUBLIC SCHOOL,RASULPUR 142044,EDUCATION PROVIDE,20,851,2,25-29
12478,MES H HERO AGRO INDUSTRY PRIVATE LI,MITED BASTI RAJ SINGH 142044,MANUFACTURING INPUT OF AGRICULTURE,6,106,4,25-29
12479,SHREE GURU HARGOBIND SAHIB SR SEC S,CHOOL VATTU BHATTI 142044,EDUCATION PROVIDE,20,852,2,25-29
12480,SHAHEED S S S  ATARI KHALSA SENIOR,SECIONDARY SCHOOL FATEHGARH 142044,EDUCATION PROVIDE,20,852,5,30-99
12481,SS  GURUDWARA,FAZILKA 142044,RELEGIOUS SERVICES,23,949,7,30-99
12482,DESHMESH PITA B K O,FAZILKA 142044,BRICK KILN,6,239,2,10-14
12483,GURU GOBIND SINGH SEN SECIONDARY PU,BLIC SCHOOL JATTAN WALI 142044,EDUCATION PROVIDE,20,852,2,20-24
12484,JALANDHAR PUBLIC SCHOOL,WARIAN 168 142044,EDUCATION PROVIDE,20,852,2,15-19
12485,AGARWAL BRICKS,SHEEHAN PARRI 142044,BRICKS KILN,6,239,2,20-24
12486,S S SCHOOL MAKHU,136 1 KUTABPUR ROAD 142044,EDUCATION PROVIDE,20,852,2,10-14
12487,RAJINDRA SCHOOL MAKHU,SAMRALA ROAD 142044,EDUCATION PROVIDE,20,851,2,15-19
12488,GOVT HOSPITAL,KASOANA 18 1 142044,HEALTH SERVICES,21,861,1,20-24
12489,KALRA HOSPITAL,MAKHU 142044,HEALTH SERVICES,21,861,2,15-19
12490,SAT MARRY CONVENT SCHOOL MAKHU,MISSION BASTI 142044,EDUCATION PROVIDE,20,852,3,25-29
12491,SHREE SADANAND SAKRAPURI HIGH SCHOOL,ZIRA 161 142047,EDUCATION PROVIDE,20,852,9,15-19
12492,MAHAVEER TRACTOR AGENCY,ZIRA 541 142047,TRACTOR AGENCY,10,454,2,15-19
12493,GOVT  COLLAGE,ZIRA 615 142047,EDUCATION PROVIDE,20,854,1,30-99
12494,S D M OFFICE,ZIRA 359 142047,ADMINISTRATIVE SERVICES,21,889,1,10-14
12495,B D P O OFFICE,ZIRA 360 142047,ADMINISTRATIVE SERVICES,21,889,1,10-14
12496,GURDITTA MALL SHANTI PARKASH,ZIRA 237 KOT ISSE KHAN ROAD ZIRA 142047,SHELLER,6,106,2,10-14
12497,SHANTI INDUSTRY,ZIRA 253 JHTRA ROAD ZIRA 142047,SHELLER,6,106,2,10-14
12498,S K S I T I INDUSTRY ZIRA,263 2 JHTRA ROAD ZIRA 142047,EDUCATION PROVIDE,20,852,2,15-19
12499,D P D COLLEGE ZIRA,267 JHTRA ROAD 142047,EDUCATION PROVIDE,20,854,2,15-19
12500,AMBROZIAL PUBLIC SCHOOL,ZIRA 299 AWAN ROAD ZIRA 142047,EDUCATION PROVIDE,20,851,2,30-99
12501,SANDHU SAW MILL,ZIRA 389 KOT ISSE KHAN ROAD ZIRA 142047,SAW MILL,6,162,2,20-24
12502,RAM GOPAL ZIRA GASS SERVICES ,487 KOT ISSE KHAN ROAD ZIRA 142047,L P G GASS SERVICE STATION,12,477,2,15-19
12503,SHREE SAWAN MALL AGARWAL MEMORIAL S,CHOOL ZIRA 427 142047,EDUCATION PROVIDE,20,852,5,10-14
12504,SHREE SAWANMALAGGARWAL MEMORIAL COL,LEGE ZIRA WOMEN 446 142047,EDUCATION SERVICES,20,852,5,10-14
12505,PUNJAB AND SIND BANK,ZIRA 451 142047,BANKING SERVICES,16,641,1,10-14
12506,TARA CHSND AGARWAL MEMORIAL SCHOOL,AND COLLEGE ZIRA 518 142047,EDUCATION PROVIDE,20,854,5,30-99
12507,STATE BANK OF PATIALA,ZIRA 523 142047,BANKING SERVICES,16,641,1,15-19
12508,WOMEN POWER KITCHEN,ZIRA 142047,FOOD SUPPLY  MID DAY MEEL IN SCHOOL,14,551,4,30-99
12509,HIRA INDUSTRY ZIRA,255 MALLANWALA ROAD 142047,MANFACTURING OF WELDING ROD,6,331,3,15-19
12510,SWAMI SAVTE PARKASH SARVHITKARI VID,IYA MANDIR SCHOOL ZIRA DISTT  FIROZPUR 1210 2 142047,EDUCATION PROVIDE,20,851,5,30-99
12511,TELEPHONE EXCHANGE,ZIRA 1462 3 142047,TELEPHONE EXCHANGE,15,611,1,25-29
12512,BHARTI STATE BANK,ZIRA 142047,STATE BANK OF INDIA ZIRA,16,641,1,15-19
12513,POST OFFICE ZIRA,300 SUBASH COLONY ZIRA 142047,POST OFFICE SERVICES,13,531,1,10-14
12514,OBC BANK,ZIRA 362 142047,BANKING SERVICES,16,641,4,10-14
12515,OSAHAN HOSPITAL,DR JASWANT SINGH FAZILKA 168 142047,HEALTH SERVICES,21,861,2,10-14
12516,JIWAN MALL GOVT  SR SEC SCHOOL,ZIRA 169 142047,EDUCATION PROVIDE,20,852,1,30-99
12517,T C RICE MILL,FAZILKA 544 142047,SHELLER,6,106,2,20-24
12518,FRIENDS RICE MILL,ZIRA 142047,SHELLER,6,106,2,20-24
12519,ANIL NARULA RICE MILL,FAZILKA 543 142047,SHELLER,6,106,2,20-24
12520,SHAGAN HOTEL AND RESTORENT ZIRA,462 TALWANDI ROAD ZIRA 142047,HOTEL,14,551,2,15-19
12521,ATAM FLOOR MILL,ZIRA 500 142047,ATTA MILL,6,106,2,10-14
12522,SHREE MAHAVEER RICE MILL,ZIRA 517 142047,SHELLER,6,106,2,25-29
12523,SHREE VARDHMAN RICE MILL,ZIRA 527 142047,SHELLER,6,106,2,10-14
12524,STATE BANK OF INDIA,ZIRA 142047,BANKING SERVICES,16,641,1,10-14
12525,PUNJAB RICE MILL,ZIRA 528 142047,SHELLER,6,106,2,25-29
12526,TATA RICE MILL,ZIRA 142047,SHELLER,6,106,2,25-29
12527,NAV BHARAT TRADING COMPANY,FAZILKA 530 142047,SHELLER,6,106,2,15-19
12528,SHIVA RICE MILL,ZIRA 531 142047,SHELLER,6,106,2,15-19
12529,PUNJAB NATIONAL BANK,ZIRA 142047,BANKING SERVICES,16,641,1,10-14
12530,BABA AUTOS,ZIRA 25  142047,SHOWROOM FOR MARUTI SUZUKI,10,451,2,20-24
12531,DASHMESH PUBLIC SCHOOL,ZIRA 142047,EDUCATION PROVIDE,20,852,2,15-19
12532,GURU NANAK PUBLIC SCHOOL,MALLANWALA 142 152021,EDUCATION SERVICES,20,852,2,15-19
12533,FEED FACTORY,MALLANWALA KHAS 256 152021,CATTLE FEED,6,108,2,10-14
12534,GOVT HIGH SCHOOL,KOHAR SINGH WALA 355 1 152002,EDUCATION PROVIDE,20,852,1,15-19
12535,GOVT SENIOR SECIONDARY SCHOOL MEGHA,RAI 045 152022,EDUCATION PROVIDE,20,852,1,25-29
12536,KISAN FOOD MILL,MARRE KALLAN 273 1 152022,SHELLER,6,106,2,30-99
12537,GOVT HIGH SCHOOL,PINDI 442 152022,EDUCATION PROVIDE,20,852,1,10-14
12538,VADHVA BRICKS COMPANY,PINDI 454 152022,BRICK KILN,6,239,3,100-199
12539,SHAHEED UDHAM SINGH PUBLIC SR SEC ,SCHOOL VASAL MOHAN KE 206 152022,EDUCATION PROVIDE,20,852,2,25-29
12540,GOVT HIGH SCHOOL,SHANGA RAI UTTAR 152022,EDUCATION PROVIDE,20,852,1,10-14
12541,MAA BHAVANI BRICKS OFFICE,RUKNA KASIM 152024,BRICKS KILN,6,239,2,100-199
12542,N K BRICKS INDUSTRY,FAZILKA 347 152024,BRICKS KILN,6,239,3,30-99
12543,BAJAJ B K O AMIR KHAS,FAZILKA 348 152024,BRICK KILN,6,239,2,30-99
12544,SIDHU B K O,AMIR KHAS 364 1 152024,BRICKS KILN,6,239,2,30-99
12545,HARPAL SINGH HARDAMAN SINGH,B K O AMIR KHAS 399 152024,BRICKS KILN,6,239,2,30-99
12546,H B B K O AMIR KHAS,FAZILKA 399 6 152024,BRICKS KILN,6,239,3,30-99
12547,KISAN SOLVEX PLANT PRIVATE LIMITED,AMIR KHAS 152024,MANUFACTURING OF MUSTERED OIL,6,106,2,25-29
12548,KISAN INDUSTRY AMIR KHAS,FAZILKA 415 4  152024,BRICKS KILN,6,239,3,15-19
12549,J K BROTHERS COMPANY,AMIR KHAS 152024,BRICKS KILN,6,239,2,100-199
12550,KISAN BRICKS INDUSTRY PIR BAKHASH C,HOHAN 152024,BRICKS KILN,6,239,2,100-199
12551,NEW SURYA SAPAN PIPE INDUSTRY,PIR BAKHASH CHOHAN 152024,MANUFACTURING OF PIPES,6,239,2,15-19
12552,G M BRICKS INDUSTRY PIR BAKHASH CHO,HAN 152024,Bricks Kilns,6,239,2,100-199
12553,GOVT HIGH SCHOOL,MIDDA 152024,EDUCATION PROVIDE,20,852,1,15-19
12554,SARKARI HIGH SCHOOL,SWAH WALA 133 152024,EDUCATION PROVIDE,20,852,1,20-24
12555,BABA SEWA SINGH INDUSTRY,CHAK KATHGARH 414 3 152024,SHELLER,6,106,4,15-19
12556,S S INDUSTRY,CHAK KATHGARH 415 1 152024,SHELLER,6,106,4,20-24
12557,S S OVERSEASE,CHAK KATHGARH 415 2 152024,SHELLER,6,106,4,25-29
12558,GURU GOBIND MODEL SCHOOL CHAK SAIDO,KE 37 CENTRAL BANK OF INDIA 152024,EDUCATION PROVIDE,20,852,2,10-14
12559,GROW PINJ FIBER LIMITED CHAK SAIDO,KE 73 JALALABAD MUKTSAR ROAD 152024,MANUFACTURING OF THREAD,6,106,2,200-499
12560,GOVT HIGH SCHOOL CHAK SAIDO KE,C 079 152024,EDUCATION PROVIDE,20,852,1,20-24
12561,AKME PUBLIC SCHOOL,CHAK SAIDO KE C 86 152024,EDUCATION PROVIDE,20,852,2,30-99
12562,JIWAN JOTI SCHOOL GURUHAR SAHAI,RAILWAY BASTI 152022,EDUCATION PROVIDE,20,852,9,10-14
12563,PUNJAB NATIONAL BANK,GURUHARSAHAI 183 152022,BANKING SERVICES,16,641,1,15-19
12564,GOVT CIVIL HOSPITAL GURU HAR SAHAI,270 FARIDKOT ROAD 152022,MADICAL SERVICES,21,861,1,25-29
12565,GURU GOBIND SINGH PUBLIC SCHOOL GUR,U HAR SAHAI GUDDAR DHANDI ROAD 152022,EDUCATION PROVIDE,20,852,2,15-19
12566,H K L NURSING COLLEGE GURU HAR SAHAI,GUDDAR DHANDI ROAD 152022,EDUCATION PROVIDE,20,854,2,30-99
12567,ASTHA HOSPITAL,GURU HAR SAHAI 391 1 152022,MADICAL SERVICES,21,861,2,10-14
12568,BABA FARID I T C GURU HAR SAHAI,I T I WALI GALLI 152022,EDUCATION PROVIDE,20,854,2,10-14
12569,GOVT SR SEC SCHOOL,GURUHARSAHAI 426 1 152022,EDUCATION PROVIDE,20,852,1,30-99
12570,PAWAN AGARWAL DOCTOR ,HOSPITAL GURUHARSAHAI 435 2 GUDDAR DHANDI ROAD 152022,MEDICAL SERVICES,21,861,2,30-99
12571,CHERISTIAN MODEL SCHOOL,42 3 BASTI GURU KARM SINGH 152022,EDUCATION PROVIDE,20,852,2,10-14
12572,VOHRA TRADING COMPANY,GURU HAR SAHAI FARIDKOT ROAD 152022,SHELLER,6,106,2,10-14
12573,SHREE GURU GOBIND SINGH PUBLIC SCHO,OL GURU HAR SAHAI 401 FARIDKOT ROAD 152022,EDUCATION PROVIDE,20,851,7,15-19
12574,MONGA TELECOMMUNICATION GURU HAR S,AHAI RAILWAY ROAD GURUHAR SAHA 152022,SPICE IDEA SHOWROOM,12,474,4,10-14
12575,CHANDIGARH LABORATORY,GURU HAR SAHAI FARIDKOT ROAD 152022,MEDICAL SERVICES  TEST ,21,862,2,10-14
12576,GURU TRACTORS GURU HAR SAHAI,FARIDKOT ROAD 152022,TRACTORS AGENCY,10,451,2,10-14
12577,BLUE STAR TAILORS,GURUHAR SAHAI GHUMOARANA WALI 152022,TAILRING,6,141,2,10-14
12578,BABA FARID PUBLIC SCHOOL GURU HAR S,AHAI MUKTSAR ROAD 152022,EDUCATION PROVIDE,20,851,2,10-14
12579,GURU TEG BAHADUR PUBLIC SR SEC SCHO,OL GURU HAR SAHAI 336 152022,EDUCATION PROVIDE,20,852,2,30-99
12580,HAKIM KISHORI LAL HOSPITAL,GURUHAR SAHAI 51 ADERSH NAGAR 152022,MEDICAL SERVICES,21,861,2,15-19
12581,NEW KALIA PUBLIC SCHOOL ADERSH NAGA,R GURUHAR SAHAI 191 ADERSH NAGAR 152022,EDUCATION PROVIDE,20,852,2,10-14
12582,DESHMESH PUBLIC SCHOOL,GURU HAR SAHAI 305 152022,EDUCATION PROVIDE,20,851,2,10-14
12583,MODERN PUBLIC HIGH SCHOOL GURU HAR,SAHAI 005 OLD S B I 152022,EDUCATION PROVIDE,20,852,3,30-99
12584,R S RICE MILL HARAJ,FAZILKA 142050,RICE MILL,6,106,2,15-19
12585,GOVT SEN SEC SCHOOL HARAJ,FAZILKA 142050,EDUCATION PROVIDE,20,852,1,10-14
12586,SARKARI HIGH SCHOOL,KOT KAROR KALLAN 142060,EDUCATION PROVIDE,20,852,1,10-14
12587,SURINDERPAL VILLAGE GILL,FAZILKA 142060,BRICKS KILLNS,6,239,2,25-29
12588,SARKARI HIGH SCHOOL,GILL 142060,EDUCATION PROVIDE,20,852,1,10-14
12589,MID DAY MEEL RASOI,MAKHU ROAD ZIRA 142047,FOOD SERVICES,14,561,4,10-14
12590,GOVT  HIGH SCHOOL MASHI BUGRA,289 G T ROAD 142052,EDUCATION PROVIDE,20,852,1,10-14
12591,G P G CATTLE FEED INDUSTRY,MASHI BUGRA 142050,FACTORY,11,463,2,30-99
12592,GOVT HIGH SCHOOL,BHANGALI 142050,EDUCATION PROVIDE,20,852,1,10-14
12593,GOVT HIGH SCHOOL,KARMU WALA 142052,EDUCATION PROVIDE,20,852,1,10-14
12594,GOVT HIGH SCHOOL,WARRA BHAIKA 152001,EDUCATION PROVIDE,20,852,1,10-14
12595,GURU DWARA SHAPPRI SAHIB,VILLAGE TOOT 152001,GURUDWARA,23,949,2,10-14
12596,SHAHEED BABA HIMAT SINGH PUBLC SCHOOL,VILLAGE TOOT 152001,EDUCATION PROVIDE,20,851,2,10-14
12597,B L V EXPORT PRIVATE LIMITED MANA S,INGH WALA 142052,SHELLER,6,106,2,200-499
12598,GOVT SEC SCHOOL MANA SINGH WALA,FIROZPUR 142052,EDUCATION PROVIDE,20,852,1,10-14
12599,GOVT SENIOR SEC SCHOOL,SURSINGH WALA 268 152002,EDUCATION PROVIDE,20,852,1,15-19
12600,S B S PUBLIC SCHOOL KULGARHI,FAZILKA 278 152002,EDUCATION PROVIDE,20,851,2,30-99
12601,GOVT HIGH SCHOOL FARIDE WALA,FAZILKA 035 152002,EDUCATION PROVIDE,20,851,1,15-19
12602,GOVT ELEMENTARY SCHOOL,CHANGALI KADIM 59 2 152001,EDUCATION PROVIDE,20,851,1,10-14
12603,SHAHEED UDHAM SINGH PUBLIC SCHOOL,CHANGALI KADIM 172 152001,EDUCATION PROVIDE,20,851,2,10-14
12604,GOVT S S SCHOOL BAGGE KE PIPPLE,FAZILKA 152001,EDUCATION PROVIDE,20,852,1,25-29
12605,DISHA SEN SEC  SCHOOL,BAGGE KE PIPPLE 152002,EDUCATION PROVIDE,20,852,2,10-14
12606,SHREE GURU RAM DASS UDYOG MANDAL,SUDH SINGH WALA 260 152021,BRICKS KILLNS,6,239,3,30-99
12607,SHREE GURU GOBIND SINGH,FAZILKA 240 152021,BRICKS KILLNS,6,239,3,100-199
12608,SHREE GURU TEG BAHADUR,SUDH SINGH WALA 152021,BRICKS KILNS,6,239,2,100-199
12609,GOVT HIGH SCHOOL CHUGTE WALA,SATIYA WALA 152005,EDUCATION PROVIDE,20,851,1,15-19
12610,GURU RAM DASS PUBLIC SCHOOL,SHAHDEEN WALA 152002,EDUCATION PROVIDE,20,852,2,30-99
12611,AMBKA AGRO RICE MILL HARAJ,HARAJ 142050,RICE MILL,6,106,2,20-24
12612,SHAM SUNDER RICE MILL HARAJ,HARAJ 142050,RICE MILL,6,106,2,15-19
12613,TOIL RICE MILL HARAJ,HARAJ 142050,RICE MILL,6,106,2,15-19
12614,GURU TEG BAHADUR INDUSTRY HARAJ,HARAJ 142050,INDUSTRY,20,851,2,15-19
12615,AJIT VANS RICE MILL HARAJ,HARAJ 142050,RICE MILL,6,106,2,20-24
12616,ANAND RICE MILL HARAJ,HARAJ 142050,RICE MILL,6,106,2,15-19
12617,SATHE RICE MILL HIRAJ,HARAJ 142050,RICE MILL,6,106,2,15-19
12618,JAGDAMBA RICE MILL HARAJ,HARAJ 142050,RICE MILL,6,106,2,15-19
12619,66 AGRO INDUSTRY HIRAJ,HARAJ 142050,RICE MILL,6,106,2,15-19
12620,RICE FACTORY,JHOK HARIHAR 152003,SHELLER,6,106,2,30-99
12621,SHAHEED UDHAM SINGH I T I FZR,FIROZPUR 152001,EDUCATION PROVIDE,20,853,2,15-19
12622,HARPAL B K O JHOK HARIHAR,FAZILKA 152001,BRICKS KILN,6,239,3,10-14
12623,SHAHEED BABA DEEP SINGH B K O KAMAL,WALA KHURD MALLANWALA 152001,BRICKS KILN,6,239,3,10-14
12624,GOVT HIGH SCHOOL RUKNE WALA,FAZILKA 168 152021,EDUCATION PROVIDE,20,852,1,10-14
12625,GOVT MODEL SENIOR SEC SCHOOL USMAN,WALA 152002,EDUCATION PROVIDE,20,851,1,15-19
12626,SANDHU GRAM UDYOG ARIFKE,FAZILKA 152002,BRICKS KILN,6,239,3,25-29
12627,SHREE GURU ANGAD DEV PUBLIC SCHOOL,ARIF KE 152002,EDUCATION PROVIDE,20,852,2,15-19
12628,GOVT SENIOR SEC SCHOOL NAWAN PIND,FAZILKA 152002,EDUCATION PROVIDE,20,852,1,30-99
12629,SHAHEED BHAGAT SINGH MEMORIAL PUBLIC SCHOOL,KATORA 152002,EDUCATION PROVIDE,20,851,2,10-14
12630,GOVT SR SEC SCHOOL ATARI,FAZILKA 152002,EDUCATION PROVIDE,20,852,1,20-24
12631,GURU NANAK MODEL SCHOOL ATARI,FAZILKA 37 1 152002,EDUCATION PROVIDE,20,852,2,10-14
12632,ARORA GRAM UDYOG ATTARI,FAZILKA 259 1 152002,BRICKS KILN,6,239,9,20-24
12633,M SATNAM B K O,ASAL 152002,BRICKS KILN,6,239,2,30-99
12634,JAGDEEP SINGH ASAL,FAZILKA 152002,DAIRY FARM,2,14,2,15-19
12635,D C MODEL INTERNATIONAL SCHOOL RAME,WALA 127 1  152002,EDUCATION PROVIDE,20,851,6,100-199
12636,S B S PUBLIC SCHOOL,KHUSHAL SINGH WALA 152002,EDUCATION PROVIDE,20,851,6,10-14
12637,NAGPAL BRICKS GRAM UDYOG SAMTI BAHA,DUR WALA 152002,BRICKS KILN,6,239,2,30-99
12638,VIZ AGRO EXSPART PRIVATE LIMITED,BAHADUR WALA 152002,SHELLER,6,106,3,30-99
12639,D P D INDUSTRY LIMITED BAHADUR WALA,FAZILKA 152002,SHELLER,6,106,3,30-99
12640,SHAHEED BHAGAT SINGH COLLEGE,NURSING SODE WALA FIROZPUR 152002,NURSING,20,853,2,30-99
12641,GOVT HIGH SCHOOL PALLA MEGHA,FAZILKA 070 152002,EDUCATION PROVIDE,20,852,1,20-24
12642,D P D MODEL SR SEC SCHOOL,PALLA MEGHA 217 152002,EDUCATION PROVIDE,20,852,2,10-14
12643,NADHA AND COMPANY BHATHA,DULCHE KE 137 152002,BRICKS KILN,6,239,3,200-499
12644,SHAHEED BHAGAT SINGH SCHOOL GATTI R,EHAIME KE 152002,EDUCATION PROVIDE,20,851,2,10-14
12645,GOVT HIGH SCHOOL WEAR,FAZILKA 152003,EDUCATION PROVIDE,20,851,1,10-14
12646,GOVT HIGH SCHOOL BARE KE,FAZILKA 152002,EDUCATION PROVIDE,20,852,1,20-24
12647,GOVT SR SEC SCHOOL,KARIAN PEHALWAN 3 152003,EDUCATION PROVIDE,20,852,1,30-99
12648,MESS PANKAJ KUMAR KALRA,FAZILKA 152003,BRICKS KILN,6,239,2,100-199
12649,ASHOK KUMAR AND COMPANY,KHILCHI KADIM 152003,BRICKS KILN,6,239,1,25-29
12650,GURU GOBIND SINGH SR SEC SCHOOL NAR,ANG KE SYAL 322 152003,EDUCATION PROVIDE,20,852,2,10-14
12651,SATPAL AGARWAL B K O NARANG KE LALY,FAZILKA 153 152003,BRICKS KILN,6,239,2,30-99
12652,PUNJAB PUBLIC SR SEC SCHOOL VILLAGE,BASTI NATHE SHAH 302 152001,EDUCATION PROVIDE,20,852,2,30-99
12653,BABA NAND SINGH PUBLIC SCHOOL RODE,WALA 58 152024,EDUCATION PROVIDE,20,851,2,10-14
12654,GOVT HIGH SCHOOL LAKHA HAJI,FAZILKA 152023,EDUCATION PROVIDE,20,852,1,15-19
12655,GURU AMARDASS PUBLIC SCHOOL SADER D,EEN WALA 116 152023,EDUCATION PROVIDE,20,851,2,15-19
12656,GOVT HIGH SCHOOL BHURRE KHURD,FAZILKA 1 152002,EDUCATION PROVIDE,20,852,2,10-14
12657,GGS CONVENT SR SEC SCHOOL MOHAMAD K,HAN NIAZIAN 152024,EDUCATION PROVIDE,20,852,2,15-19
12658,GURU GYAN CONVENT SR SEC SCHOOL MOH,AMAD KHAN NIAZIAN 12 1  152023,EDUCATION PROVIDE,20,852,2,15-19
12659,SANTSAR PUBLIC SCHOOL LAKHMEER KE U,TTAR 152023,EDUCATION PROVIDE,20,852,2,10-14
12660,BABA INDER DASS PUBLIC SR SEC SCHOO,L LAKHO KE BEHRAM KHAMBA ROAD 152023,EDUCATION PROVIDE,20,852,2,15-19
12661,GOVT SR SEC SCHOOL LAKHO KE BEHRAM,FAZILKA 152023,EDUCATION PROVIDE,20,852,1,20-24
12662,GURU NANAK PUBLIC SCHOOL  LAKHO KE,BEHRAM 152023,EDUCATION PROVIDE,20,851,2,15-19
12663,GOVT SR SEC SCHOOL  BOYS MAMDOT,FAZILKA 152023,EDUCATION PROVIDE,20,852,1,25-29
12664,G M PUBLIC HIGH SCHOOL MAMDOT UTTAR,FAZILKA 152023,EDUCATION PROVIDE,20,852,2,20-24
12665,CITY HEART S S SCHOOL MAMDOT,FAZILKA 152023,EDUCATION PROVIDE,20,852,2,25-29
12666,GURUDWARA SHREE PARGAT SAHIB HAMAD,FAZILKA 152023,RELEGIOUS SERVICES,23,949,7,15-19
12667,SANT KARTAR SINGH KHALSA MEMORIAL SEC SCHOOL,BURAJ MAKHAN SINGH 152002,EDUCATION PROVIDE,20,852,2,25-29
12668,INDIAN FOUNDARY WORKS FIROZPUR,FIROZPUR 152 6 152001,OIL FACTORY,6,104,2,30-99
12669,TELEPHONE EXCHANGE FIROZPUR,ICHHE WALA ROAD 152002,TELEPHONE EXCHANGE,15,611,2,10-14
12670,RAINBOW SCHOOL,FIROZPUR ICHHE WALA ROAD 152002,EDUCATION PROVIDE,20,852,2,10-14
12671,USHA MODEL SCHOOL FIROZPUR,289 1 BALMIK ROAD 152002,EDUCATION PROVIDE,20,852,2,10-14
12672,C K SCHOOL KASURI GATE FIROZPUR,FIROZPUR 152002,EDUCATION PROVIDE,20,852,2,15-19
12673,SAI PUBLIC SCHOOL FIROZPUR CITY,KASURIGATE 152002,EDUCATION PROVIDE,20,852,2,15-19
12674,SIKH KANIAN MAHAVIDIYALIA S S SCHOOL,FIROZPUR CITY 152002,EDUCATION PROVIDE,20,852,1,15-19
12675,NAGRA CARD BOARD MILLS,FIROZPUR CITY RAJ GHAT ROAD 152002,CARDBOARD MILLS,6,170,1,15-19
12676,R S D COLLEGE,FIROZPUR CITY 312 MALLANWALA ROAD 152002,EDUCATION PROVIDE,20,852,1,30-99
12677,RAJ RATTAN SCHOOL FIROZPUR,NEAR R S D COLLEGE 152002,EDUCATION PROVIDE,20,852,2,20-24
12678,MODERN DCENT MODEL HIGH SCHOOL,FZR CITY SODE WALA ROAD 152002,EDUCATION PROVIDE,20,852,2,15-19
12679,SATNAM ANAMI DERA,FIROZPUR CITY 1100 ICCHE WALA ROAD 152002,RELEGIOUS SERVICES,23,949,7,30-99
12680,DR KAMAL BAGI HOSPITAL,FIROZPUR CITY 070 BAGI ROAD FIROZPUR CITY 152002,HEALTH SERVICES,21,862,2,30-99
12681,DR ANIL BAGI HOSPITAL FIROZPUR CITY,070 BAGI ROAD 152002,EDUCATION PROVIDE,20,852,2,30-99
12682,GOBIND CONVENT SCHOOL FIROZPUR CITY,90 BAGHI ROAD 152002,EDUCATION PROVIDE,20,852,1,15-19
12683,MANAV MANDIR SENIOR SEC SCHOOL,FIROZPUR 2 152002,EDUCATION PROVIDE,20,852,2,25-29
12684,BACHPAN PLAY  SCHOOL FIROZPUR CITY,MAL ROAD 152002,EDUCATION PROVIDE,20,851,2,10-14
12685,SANJAVANI HOSPITAL DR O P BAGRI,FIROZPUR CITY MODEL TOWN 152002,HEALTH SERVICES,21,862,2,10-14
12686,AKASH HOSPITAL FIROZPUR CITY,2 MODEL TOWN 152002,HEALTH SERVICES,20,852,2,10-14
12687,SHEEL HOSPITAL FIROZPUR CITY,MODEL TOWN 152002,HEALTH SERVICES,21,862,2,10-14
12688,GOVT I T I GIRLS FIROZPUR,390 MODI MILL ROAD 152002,TECHENICAL EDUCATION PROVIDE,20,852,1,15-19
12689,HOTEL INTERNATIONAL RESTORENT AND BEER BAR,FIROZPUR CITY 400 SHAHEED UDAM SINGH CHOWK 152002,RESTORENT AND HOTEL,14,561,2,10-14
12690,MALWA KHALSA SR SEC SCHOOL NEAR UDA,M SINGH CHOWK FIROZPUR CITY NEAR UDAM SINGH CHOWK 152002,EDUCATION PROVIDE,20,852,1,15-19
12691,GOVT I T I  BOYS ,MALL NEAR UDAM SINGH CHOWK FIROZPUR CITY 436  1 NEAR UDAM SINGH CHOWK 152002,TECHENICAL EDUCATION PROVIDING,20,853,1,30-99
12692,VINEY PUBLIC HIGH SCHOOL,FIROZPUR CITY 524 GURU RAM DASS NAGAR 152002,EDUCATION PROVIDE,20,852,2,10-14
12693,B S M S S SCHOOL FIROZPUR CITY,790 HOUSING BOARD COLONY 152002,EDUCATION PROVIDE,20,852,5,20-24
12694,DR GROVER EYE CARE CENTRE,FIROZPUR CITY DELHI GATE 152002,GROVER OPTICALS,6,267,2,10-14
12695,DR  KALIA EYE AND MATERNITY HOSPITAL,FIROZPUR CITY NEAR GYAN VATIKA 152002,HOSPITAL,21,862,2,10-14
12696,SONU ELECTRONICS,FIROZPUR CITY DELHI GATE 152002,ELECTRONIC GOODS SAIL,12,474,2,10-14
12697,KRISHNA BRASS BAND,FIROZPUR CITY 439 1 OPP MANJIT PALACE 152002,BRASS BAND,22,900,2,10-14
12698,KALI RAM AGARWAL AND SONS,FIROZPURCITY 475 152002,BORE PIPES WORK,9,429,2,10-14
12699,THE FIROZPUR COOPERATIVE BANK,FIROZPUR CITY 485 152002,CO OPERATIVE BANK,16,641,6,15-19
12700,SPORTS KING SHOWROOM,FIROZPUR CITY 719 152002,READYMADE GARMENTS,12,477,4,15-19
12701,H M SEN SEC SCHOOL FIROZPUR CITY,FIROZPUR 777 152002,EDUCATION PROVIDE,20,852,1,20-24
12702,H M D A V SR SEC SCHOOL FZR CITY,FIROZPUR 779 152002,EDUCATION PROVIDE,20,852,9,30-99
12703,MANVTA SENIOR SECIONDARY SCHOOL NEA,R RAILWAY FATAK MODI MILL ROAD WARD NO  17 FZR CITY 152002,EDUCATION PROVIDE,20,852,2,30-99
12704,ROHIT PUBLIC MADAL HIGH SCHOOL NEW,ABADI BASTI BHATIAN WALI 502 152002,EDUCATION PROVIDE,20,852,2,15-19
12705,ORIENTAL BANK OF COMMERCE,FZR CITY MOCHI BAZAR 152002,BANKING SERVICES,16,641,1,10-14
12706,STATE BANK OF INDIA FIROZPUR CITY,MOCHI BAZAR 152002,BANKING SERVICES,16,641,1,20-24
12707,S D SR SEC SCHOOL FIROZPUR CITY,DEVI DWARA ROAD 152002,EDUCATION  PROVIDE,20,852,1,30-99
12708,S D S MODEL SCHOOL,FIROZPUR CITY 459 1 152002,EDUCATION PROVIDE,20,852,2,15-19
12709,ARUN JOTI MODEL SR SEC SCHOOL,FIROZPUR CITY AMRITSARI GATE 152002,EDUCATION PROVIDE,20,852,2,30-99
12710,DEV SAMAJ GIRLS SENIOR SECIONDARY S,CHOOL FIROZPUR CITY 157 1 BASI GATE 152002,EDUCATION PROVIDE,20,852,2,10-14
12711,DEV SAMAJ GIRLS COLLEGE,FIROZPUR CITY 158 3 BANSI GATE 152002,EDUCATION PROVIDE,20,852,2,30-99
12712,HINDU HIGH SCHOOL FIROZPUR CANTT,FIROZPUR CANTT 152001,EDUCATION PROVIDE,20,852,9,10-14
12713,ORIENTAL BANK OF COMMERCE,FIROZPURCANTT NO 3 SADAR BAZZAR 152002,BANKING SERVICES,16,641,1,10-14
12714,B M JAIN SR SEC SCHOOL FZR CANTT ,FIROZPUR CANTT 157 18 152001,EDUCATION PROVIDE,20,852,7,10-14
12715,D A V SCHOOL FZR CANTT ,FIROZPUR CANTT 147 1  152001,EDUCATION PROVIDE,20,852,3,15-19
12716,PUNJAB AND SINDH BANK FZR CANTT,65 JHOK ROAD 152001,BANKING SERVICES,16,641,1,10-14
12717,GURU HAR KRISHA PUBLIC SCHOOL,FZR CANTT 122 1 CHURCH ROAD 152001,EDUCATION PROVIDE,20,852,5,20-24
12718,MALHOTRA AND COMPANY FZR CANTT,FIROZPUR CANTT 159   16 152001,WINE SHOP,12,472,4,20-24
12719,SAINT ANDREW HIGH SCHOOL FZR CANTT ,FIROZPUR CANTT 152001,EDUCATION PROVIDE,20,852,2,10-14
12720,KHALSA GIRLS HIGH SCHOOL  AIDED SCHOOL ,FZR CANTT  158 7 SETHI ROAD 152001,EDUCATION PROVIDE,20,852,2,10-14
12721,KHALSA GURUDWARA SAHIB FZR CANTT,158 11 SANT LAL ROAD 152001,RELEGIOUS SERVICES,23,949,7,10-14
12722,STATE BANK OF PATIALA   FZR CANTT,FIROZPUR CANTT 158   18 152001,BANKING SERVICES,16,641,1,15-19
12723,DYA NAND MODEL HIGH SCHOOL SOCIETY,RAILWAY ROAD FZR CANTT  164 152001,EDUCATION PROVIDE,20,852,4,15-19
12724,ARYA ANATH ALIYA SOCIETY,RAILWAY ROAD FZR CANTT  164 152001,ASHRAM,21,873,4,10-14
12725,M I ROOM MEDICAL INFECTION ROOM,FIROZPUR CANTT 159 GENERAL HOSPITAL C S56APO 152001,MEDICAL SERVICES,21,861,1,10-14
12726,OPERATION THEATRE  PATIENT ,FIROZPUR CANTT 159 C O 56 APO GENERAL HOSPITAL 152001,MEDICAL SERVICES,21,862,1,10-14
12727,ARMY PUBLIC SCHOOL FIROZPUR CANTT,FIROZPUR CANTT 152001,EDUCATION SERVICES,20,852,6,30-99
12728,PREM SINGH RICE MILL,TALWANDI BHAI 500 KHOSA DAL SINGH ROAD 142050,SHELLER,6,106,2,30-99
12729,BHASKAR RICE MILL,TALWANDI BHAI 501 KHOSA DAL SINGH ROAD 142050,SHELLER,6,106,2,20-24
12730,ANMOL PUBLIC SCHOOL TALWANDI BHAI,7 DHARMSHALA 142050,EDUCATION PROVIDE,20,851,7,10-14
12731,AVTAR AGRO TALWANDI BHAI,180 MOGA LINK ROAD 142050,AGRICULTURE WORKSHOP,6,331,3,30-99
12732,FUN IS LAND,TALWANDI BHAI 198 MOGA G T ROAD 142050,ENTERTAINMENT,22,932,2,30-99
12733,JUJAR MOTORS TALWANDI BHAI,24 2 FARIDKOT ROAD 142050,REPAIR WORKSHOP,6,331,2,10-14
12734,SHAHEED GANJ PUBLIC SCHOOL TALWANDI,BHAI 102 142050,EDUCATION PROVIDE,20,852,2,30-99
12735,DHARMPAL AND COMPANY SATIYA WALA,NEAR RAILWAY FATAK SATIYA 152001,BRICKS KILN,6,239,2,20-24
12736,ADESH GRAM UDYOG SAMTI SATIYA WALA,SATIYA WALA 152001,BRICKS KILN,6,239,6,30-99
12737,MATHARU ENGINEERING WORKS,NEAR SATIYA WALA BYPASS 152001,MANUFACTURING OF COMBINE MACHINES,6,331,3,20-24
12738,KALI RAM VED PARKASH SATIYA WALA,SATIYA WALA 152001,BRICKS KILN,6,239,2,30-99
12739,SHANTI VIDYA MANDIR SCHOOL,SATIYA WALA 152001,EDUCATION PROVIDE,20,852,3,30-99
