S.No.,Name of the Establishment,Address,Major Activity Description,"Broad
Activity Code",NIC,Ownershi p Code,"Employme
nt Class Interval"
12740,PUBLIC HEALTH CENTER,KASEL 143105,HEALTH SERVICES,21,861,1,30-99
12741,HOWARD LANE SENIOR SCHOOL,AMRITSAR ROAD 143301,EDUCATION,20,852,2,15-19
12742,MEHAK FOOD LIMITED COMPANY,91 2 143301,MILK PRODUCTION,6,105,2,25-29
12743,PALWINDER SINGH AND COMPANY,143302,AGGENT,11,461,2,10-14
12744,MRS KANCHAN BABA DEEP SINGH PUNBLIC SCHOOL,143302,EDUCATION,20,851,2,20-24
12745,EDUCATION,143401,EDUCATION,20,852,1,30-99
12746,HARPAL SINGH,143302,POLITRY FARM,2,14,2,15-19
12747,SRI HAR GOBIND PUBLIC MODREN HIGH SCHOOL,143105,EDUCATION,20,852,2,10-14
12748,District Education Officer,Tarn Taran 143105,EDUCATION,20,852,1,10-14
12749,District Education Officer Tarn Taran,Tarn Taran 143105,EDUCATION,20,852,1,10-14
12750,CHIEF KHALSA DEEWAN CHARITABLE,SOCIRTY   G T ROAD AMRITSAR 143001,EDUCATION,20,851,2,25-29
12751,District Education Officer Tarn Taran,Tarn Taran 143105,EDUCATION,20,852,1,15-19
12752,District Education Officer Tarn Taran,Tarn Taran 143302,EDUCATION,20,852,1,15-19
12753,SATNAAM SINGH POLATRY FARM,143305,POLATRY FARM,2,14,2,15-19
12754,BALKAR SINGH DAIRY,143302,DAIRY,2,14,2,10-14
12755,DIDAR SINGH BABA SAHIB DATTA PUBLIC SCHOOL,143302,EDUCATION,20,851,2,10-14
12756,BALJIT SINGH BRICK KLIN OWNER,193 MAIN ROAD KHADUR SAHIB 143406,BRICK KLIN,6,239,2,20-24
12757,GURU AMAR DAS SEN  SEC  SCHOOL,SHI GOINDWAL SAHIB 110 MANDIR WAKI GALI 143422,EDUCATION,20,852,2,20-24
12758,H D F C BANK,CHANDIGARH 160017,BANK,16,641,4,10-14
12759,GURUDWARA BAULI SAHIB,143422,RELIGIOUS PLACE,23,949,7,100-199
12760,KARTAR ROLAR FALOUR MILL,143422,FALOUR MILL,6,106,2,10-14
12761,B H E L,SRI GOINDWAL SAHIB 143422,INDUSTRIAL GATE VOLVE MANUFACTURE,6,281,2,200-499
12762,TOYAL ENERGY LTD ,SRI GOINDWAL SAHIB 143422,TREAD MANUFACTURE,6,131,2,30-99
12763,AMARPURI PUBLIC SCHOOL,SRI GOINDWAL SAHIB 154 143422,SCHOOL,20,852,2,25-29
12764,PINGALWADA,SRI GOINDWAL SAHIB 143422,WELFARE SOCIETY,21,873,5,30-99
12765,DISTT  EDUCATION OFFICER,TARN TARAN 143401,SDUCATION,20,851,1,10-14
12766,REGAL LABORTRY,SRI GOINDWAL SAHIB 143422,LABORTRY,21,869,2,15-19
12767,ADRASH INSITUTE,SRI GOINDWAL SAHIB 143422,EDUCATION,20,851,2,25-29
12768,AZAD HOSPITAL,143422,HEALTH,21,861,2,10-14
12769,CIVIL SURGEON OFFICE,TARN TARAN 143401,HEALTH DEPT ,21,861,1,10-14
12770,JANTA PUBLIC SCHOOL,PINDIAN 143118,EDUCATION,20,852,2,15-19
12771,DISTT  EDUCATION OFFICER,143401,EDUCATION,20,851,1,15-19
12772,RIVER DALE PUBLIC SEN  SEC  SCHOOL,BHAROWAL 143401,EDUCATION,20,852,2,15-19
12773,MATA SAHIN KAUR GIRLS COLLEGE,BHAROWAL 143401,EDUCATION,20,853,2,20-24
12774,NISHAN E  SIKHI CHARITABLE TRUST,KHADUR SAHIB 143117,EDUCATION,20,852,2,20-24
12775,SHRI GURU  ANGAND DEV CHARITABLE TRUST,KHADUR SAHIB 143117,HEALTH,21,861,2,15-19
12776,GHRI GURU ANGAD DEV COLLEGE,KHADUR SAHIB 143117,EDUCATION,20,853,2,20-24
12777,BABA GURMUKH SINGH BABA UTAM SINGHSEN  SEC  SCHOOL,KHADUR SAHIB 143117,EDUCATION,20,852,2,30-99
12778,DIST  EDUCATION OFFICE,TARN TARAN 143117,EDUCATION,20,851,1,20-24
12779,DIST  EDUCATION OFFICE,TARN TARAN 143117,EDUCATION,20,852,1,30-99
12780,DIST  EDUCATION OFFICE,TARN TARAN 143401,EDUCATION,20,852,1,10-14
12781,DIST  EDUCATION OFFICE,TARN TARAN 143401,EDUCATION,20,852,1,10-14
12782,DIST  EDUCATION OFFICE,TARN TARAN 143401,EDUCATION,20,852,1,20-24
12783,TARLOCHANSINGH AND COMPANY,143117,BRICK KLIN,6,239,2,20-24
12784,SAHIBZADA AJIT SINGH PUBLIC SCHOOL,010 143115,EDUCATION,20,852,2,10-14
12785,GOVT  SENIOR SECONDARY SCHOOL,EKAL GADDA 143115,EDUCATION,20,852,1,25-29
12786,PUNJAB STATE POWER CORPORATION,SUB DIVISION NAGOKE 143117,POWER HOUSE,7,351,1,30-99
12787,GOVT  SEC  SCHOOL,KANG 143406,EDUCATION,20,852,1,20-24
12788,SHRI GURU GOBIND SINGH PUBLIC SCHOOL,335 143406,EDUCATION,20,852,2,10-14
12789,CIVIL SURGEON OFFICE,TARN TARAN 143401,HOSPITAL,21,861,1,30-99
12790,GURU AMARDAS SEN  SEC  SCHOOL,BHOLAIPUR DOGRA 143401,EDUCATION,20,852,2,30-99
12791,S B B S SCHOOL,RASUALPUR KHURD 143411,EDUCATION,20,852,2,10-14
12792,DIST  EDUCATION OFFICE,TARN TARAN 143401,EDUCATION,20,852,1,10-14
12793,AKAL ACADEMY,RASUALPUR KHURD 143411,EDUCATION,20,851,2,10-14
12794,HARJOT PUBLIC SCHOOL,RASUALPUR KHURD 143411,EDUCATION,20,851,2,10-14
12795,DIST  EDUCATION OFFICE,TARN TARAN 143401,EDUCATION,20,852,1,15-19
12796,LAHARI PUBLIC SCHOOL,1085 143411,EDUCATION,20,851,2,15-19
12797,AGNIHOTRI HOSPITAL,143411,HEALTH FACITLY,21,861,2,10-14
12798,GURMEJ SINGH PUBLIC MAMORIAL SCHOOL,143401,EDUCATION,20,852,2,10-14
12799,NARINDER SINGH BABA SEDANA SCHOOL,518 143401,EDUCATION,20,851,2,10-14
12800,B V N MODEL SCHOOL,NUSHERA PANNUA 143409,EDUCATION,20,852,2,15-19
12801,OXFORD PUBLIC SEN  SEC  SCHOOL,143409,EDUCATION,20,852,2,25-29
12802,NATIONAL PUBLIC SCHOOL,143409,EDUCATION,20,852,2,30-99
12803,S S S S HARI SINGH SEN  SEC  SCHOOL,143415,EDUCATION,20,852,2,20-24
12804,DIST  EDUCATION OFFICE,TARN TARAN 143401,EDUCATION,20,852,1,10-14
12805,DIST  EDUCATION OFFICE,TARN TARN 143401,EDUCATION,20,852,1,20-24
12806,DIST  EDUCATION OFFICE,TARN TARAN 143401,EDUCATION,20,852,1,10-14
12807,DIST  EDUCATION OFFICE,TARN TARAN 143401,EDUCATION,20,851,1,20-24
12808,V S B IMPORT HOUSE,AMRITSAR ROAD 143303,WHOLE SALE HOUSE,11,462,2,10-14
12809,RAGUNATH AGRO INDUSTRIES,BHIKHIWIND PUHLA ROAD 143303,PEDDY MAINUFATURE,6,106,3,30-99
12810,D A V COLLEGE MANAGING COMMITTE,NEW DELHI CHITAR GUPT ROAD 110055,EDUCATION,20,852,2,100-199
12811,DIST  EDUCATION OFFICE,TARN TARAN 143401,EDUCATION,20,852,1,15-19
12812,ADRASH PUBLIC SCHOOL,BHIKHIWIND 223 1 KHEM KARAN 143303,EDUCATION,20,851,2,15-19
12813,GURUKUL COLLEGE,BHIKHIWIND 168 1 143303,EDUCATION,20,853,2,20-24
12814,EVERGREEN SECONDARY SCHOOL,BHIKHIWIND AMRITSAR ROAD 143303,EDUCATION,20,852,2,20-24
12815,DIST  EDUCATION OFFICE,TARN TARAN 143401,EDUCATION,20,852,1,15-19
12816,DIST  EDUCATION OFFICE,TARN TARAN 143401,EDUCATION,20,852,1,10-14
12817,DIST  EDUCATION OFFICE,TARN TARAN 143401,EDUCATION,20,852,1,20-24
12818,DIST  EDUCATION OFFICE,TARN TARAN 143401,EDUCATION,20,851,1,10-14
12819,CIVIL SURGEON OFFICE,TARN TARAN 143401,HEALTH FACILITY,21,861,1,30-99
12820,DIST  EDUCATION OFFICE,TARN TARAN 143401,EDUCATION,20,851,1,10-14
12821,SHAHID BABA DEEP SINGH HIGH SCHOOL,SUR SINGH 76 143303,EDUCATION,20,852,2,10-14
12822,DIST  EDUCATION OFFICE,TARN TARAN 143401,EDUCATION,20,852,1,15-19
12823,DIST  EDUCATION OFFICE,TARN TARAN 143401,EDUCATION,20,852,1,20-24
12824,SHRI GURU HARKRISHAN SCHOOL,SUR SINGH 143303,EDUCATION,20,851,2,30-99
12825,GREEN PLYWOOD LIMITED,SUR SINGH 143302,PLY BOARD MANUFICTURE,6,162,2,10-14
12826,GOVT  ADRASH SEN  SEC  SCHOOL,BALER KHURD 143303,EDUCATION,20,852,1,25-29
12827,SHAHEED BABA DEEP SINGH PUBLIC SCHOOL,1 143303,EDUCATION,20,851,2,25-29
12828,SANDHU GILL BRICKS,KHALRA ROAD 143303,BRICK KLIN,6,239,3,20-24
12829,DIST  EDUCATION OFFICE,TARN TARAN 143401,EDUCATION,20,852,1,10-14
12830,SAHEED BABA DEEP SINGH PUBLIC SCHOOL,647 KHALRA ROAD 143303,EDUCATION,20,852,2,30-99
12831,SAHEED BABA DEEP SINGH GROUP OF,COLLEGE 655 143303,EDUCATION,20,853,2,30-99
12832,KISHAN CHAND LASHMAN DAS AND COMPAN,Y 662 KHALRA ROAD 143303,BRICK KLIN,6,239,3,100-199
12833,SACRED HEART CONVENT SCHOOL,MARI GORH SINGH 143303,EDUCATION,20,852,3,30-99
12834,GURU NANAK DEV UNIVERSITY,AMRITSAR 143001,EDUCATION,20,853,1,25-29
12835,DISTT  EDUCATION OFFICE,TARN TARAN 143401,EDUCATION,20,852,1,10-14
12836,DISTT  EDUCATION OFFICE,TARN TARAN 143401,EDUCATION,20,851,1,15-19
12837,DISTT  EDUCATION OFFICE,TARN TARAN 143401,EDUCATION,20,851,1,10-14
12838,DISTT  EDUCATION OFFICE,TARN TARAN 143401,EDUCATION,20,852,1,10-14
12839,JANTA PUBLIC SCHOOL,049 143304,EDUCATION,20,851,2,15-19
12840,DIST  EDUCATION OFFICE,TARN TARAN 143401,EDUCATION,20,852,1,15-19
12841,MAHARAJA RANJIT SINGH PUBLIC SCHOOL,140 143304,EDUCATION,20,851,2,20-24
12842,DISTT  EDUCATION OFFICE,TARN TARAN 143401,EDUCATION,20,852,1,15-19
12843,MARKET COMMIETY,TARN TARAN 143401,CONTOL CMMIETY,19,821,1,20-24
12844,DIST  EDUCATION OFFICE,TARN TARAN 143401,EDUCATION,20,852,1,15-19
12845,CIVIL SURGEON OFFICE,TARN TARAN 143419,HEALTH SURVICES,21,861,1,100-199
12846,PATVARKHANA,424 OPP  GOVT  HOSPITIAL 143419,PATVARKHANA,19,821,1,25-29
12847,BIJLI GHAR,143401,POWER HOUSE,7,351,1,100-199
12848,PUNJAB NATIONAL BANK,BIKA JI RAMA PALACE NEW DELHI 110062,BANKING,16,641,1,10-14
12849,SANT SOLJIER PUBLIC SCHOOL,LAKHNA 143419,EDUCATION,20,851,2,10-14
12850,BALWANT SINGH MOMERIAL SCHOOL,LAKHNA 143419,EDUCATION,20,851,2,10-14
12851,SANT BABA KARTAR SINGH SEN SEC SCHO,OL 143419,EDUCATION,20,852,2,30-99
12852,DIST  EDUCATION OFFICE,TARN TARAN 143401,EDUCATION,20,852,1,10-14
12853,DASHMESH SEN  SEC  SCHOOL,143418,EDUCATION,20,852,2,30-99
12854,CIVIL SURGEON OFFICE,TARN TARAN 143401,HEALTH FACILITY,21,861,1,10-14
12855,DIST  EDUCATION OFFICE,TARN TARAN 143401,EDUCATION,20,852,1,25-29
12856,PUNJAB GURSEWAK BRICK INDUSTRY,DASUWAL 143416,BRICK KLIN,6,239,2,30-99
12857,SRI HARKRISHAN B K O,DASUWAL 160 143416,BRICK KLIN OWNER,6,239,2,100-199
12858,SHRI  HARI SINGH NALVA PUBLIC SCHOOL,POONIA 190 143416,EDUCATION,20,851,2,10-14
12859,SANT KHASLA PUBLIC SCHOOL,069 143416,EDUCATION,20,851,2,10-14
12860,PUNJAB RAJ POWER CORP  LIM ,BHIHKIWIND DIVISION 143113,POWER HOUSE,7,351,1,20-24
12861,SANT FARID HIGH SCHOOL,TOOT 143416,EDUCATION,20,852,2,10-14
12862,WALIA BRICKS,MANAKPURA 248 143304,BRICK KLIN,6,239,2,25-29
12863,SHRI GURU NANAK PUBLIC SCHOOL,BOPARAI 143416,EDUCATION,20,851,2,10-14
12864,BABA SUKHA SINGH MEHTAB SINGH HIGH SCHOOL,BOPARAI 143416,EDUCATION,20,852,2,10-14
12865,DIST  EDUCATION OFFICE,TARN TARAN 143401,EDUCATION,20,852,1,20-24
12866,BRICK UDYOG SANSTI,143416,BRICK KLIN,6,239,2,30-99
12867,DISTT  EDUCATION OFFICE,TARN TARAN 143401,EDUCAION,20,851,1,10-14
12868,DIST  EDUCATION OFFICE,TARN TARAN 143401,EDUCATION,20,852,1,20-24
12869,BABA BRICK COMPANY,143416,BRICK KLIN,6,239,2,30-99
12870,DUBLI BRICK COMPANY,143416,BRICK KLIN,6,239,2,30-99
12871,ADARSH PUBLIC SCHOOL,SANGWA 73 JODH SINGH WALA 143416,EDUCATION,20,851,2,10-14
12872,S G I RESORTS,257 HARIKE ROAD 143416,MARRIEGE PLACE,14,561,2,20-24
12873,MOHINDER PLACE,422 HARIKE KHALDA ROAD 143416,PARTY HALL,14,561,2,20-24
12874,PUNJAB PLACE,423 HARIKE KHALDA ROAD 143416,PARTY HALL,14,561,2,15-19
12875,SACRED HEART CONVERT SCHOOL,THAKRPURA 67 143416,EDUCATION,20,852,2,30-99
12876,DIST  EDUCATION OFFICE,TARN TARAN 143401,EDUCATION,20,852,1,15-19
12877,DIST  EDUCATION OFFICE,TARN TARAN 143401,EDUCATION,20,851,1,10-14
12878,MAHA SHIV SHAKTI SCHOOL OF NURSING,KHEM KARAN ROAD 143416,NURSING EDUCATION,20,853,3,30-99
12879,MORNING STAR PUBLIC SCHOOL,NADOHAR CHONK 143416,EDUCATION,20,851,3,20-24
12880,DIST  EDUCATION OFFICE,TARN TARAN 143401,EDUCATION,20,852,1,15-19
12881,DIST  EDUCATION OFFICE,TARN TARAN 143401,EDUCATION,20,852,1,15-19
12882,CIVIL SURGEON OFFICE,TARN TARAN 143401,HEALTH FACILITY,21,861,1,30-99
12883,SHAHID CHANCHAL SINGH SEC  SCHOOL,LOKHA 143415,EDUCATION,20,852,1,15-19
12884,RANA SUGER LIMITED,LOHKA 680 3 143415,LIQURE FACTORY,6,110,2,>=500
12885,DIST  EDUCATION OFFICE,TARN TARAN 143401,EDUCATION,20,852,1,15-19
12886,DIST  EDUCATION OFFICE,TARN TARAN 143401,EDUCATION,20,852,1,10-14
12887,SHAHEED ACADEMY,BHAGUPUR 143416,EDUCATION,20,851,2,15-19
12888,HARGUN PUBLIC SCHOOL,SABHRA 143416,EDUCATION,20,851,2,15-19
12889,SARDAR SHAM SINGH SEC  SCHOOL,143417,EDUCATION,20,852,2,15-19
12890,DIST  EDUCATION OFFICE,TARN TARAN 143401,EDUCATION,20,852,1,15-19
12891,DIST  EDUCATION OFFICE,TARN TARAN 143401,EDUCATION,20,851,1,15-19
12892,DIST  EDUCATION OFFICE,TARN TARN 143401,EDUCATION,20,851,1,10-14
12893,D S P BRICK KLIN,346 143410,BRICK KLIN,6,239,2,200-499
12894,GURU NANAK DEV BRICK KLIN,319 143410,BRICK KLIN,6,239,3,30-99
12895,DIST  EDUCATION OFFICE,TARN TARAN 143401,EDUCATION,20,852,1,15-19
12896,CIVIL SURGEON OFFICE,TARN TARAN 143401,HEALTH FACILTY,21,861,1,10-14
12897,DIST  EDUCATION OFFICE,TARN TARAN 143401,EDUCATION,20,851,1,10-14
12898,DIST  EDUCATION OFFICE,TARN TARAN 143401,EDUCATION,20,852,1,15-19
12899,SANT SINGH SUKHA SINGH SCHOOL,143412,EDUCATION,20,852,2,30-99
12900,DIST  EDUCATION OFFICE,TARN TARAN 143401,EDUCATION,20,852,1,15-19
12901,CIVIL SURGEON OFFICE,TARN TARAN 143401,HEALTH FACILTY,21,861,1,10-14
12902,DIST  EDUCATION OFFICE,TARN TARAN 143401,EDUCATION,20,852,1,25-29
12903,DIST  EDUCATION OFFICE,TARN TARAN 143401,EDUCATION,20,851,1,10-14
12904,SHRI GURU HARGOBIND MODREN SEN  SEC,  SCHOOL   HARIKE PATTAN 143412,EDUCATION,20,852,2,25-29
12905,DASHMESH PUBLIC SCHOOL,HARIKE PATTAN 143412,EDUCATION,20,851,2,10-14
12906,KHALSA PUBLIC SCHOOL,HARIKE 143412,EDUCATION,20,851,2,10-14
12907,DIST  EDUCATION OFFICE,TARN TARAN 143401,EDUCATION,20,852,1,10-14
12908,POWER HOUSE,326 143416,POWER HOUSE,7,351,1,100-199
12909,PUNJAB ROADWAY,CHANDIGARH 160017,WORKSHOP,13,492,1,30-99
12910,SHAHID BHAGAT SINGH POLYTECHNICAL,COLLEGE 73 KANDIALA ROAD 143416,EDUCATION,20,853,2,100-199
12911,H D F C BANK,MUMABAI 452001,BANKING,16,641,4,15-19
12912,MORNING STAR SEN  SEC  SCHOOL,KHEMKARAN ROAD 143416,EDUCATION,20,852,2,30-99
12913,SHAHEED BABA DEEP SINGH SEN  SEC SCHOOL,PATTI 961 TARN TARAN ROAD 143416,EDUCATION,20,852,2,30-99
12914,SHRI GURU HARKRISHAN PUBLIC SENIOR,SEC  SCHOOL PATTI 143416,EDUCATION,20,852,2,100-199
12915,CHEEMA HOSPITIAL,292 143416,HEALTH SERVICES,21,861,2,15-19
12916,DIST  EDUCATION OFFICE,TARN TARAN 143401,EDUCATION,20,852,1,30-99
12917,ORIENTAL BANK,GURGAON 141401,BANKING,16,641,1,10-14
12918,POST OFFICE,PATTI 510 143416,POST OFFICE,13,531,1,10-14
12919,CENTRAL CONVENT SCHOOL,146416,EDUCATION,20,852,2,30-99
12920,DIST  EDUCATION OFFICE,TARN TARAN 143401,EDUCATION,20,852,1,30-99
12921,CIVIL SURGEON OFFICE,TARN TARAN 143401,HEALTH FACILTY,21,861,1,30-99
12922,GOVT  COLLEGE PATTI,715 SARHALI ROAD 143416,EDUCATION,20,853,1,25-29
12923,SHRI MHAVIR JAIN MODEL HIGH SCHOOL,PATTI MAIN BAZAAR 143416,EDUCATION,20,852,2,30-99
12924,SHRI GANDU MAL ARYIA GIRLS SEN  SEC,  SCHOOL PATTI 143416,EDUCATION,20,852,5,20-24
12925,AXIS BANK,PATTI 814 AMRITSAR 143416,BANKING,16,641,4,15-19
12926,DASHMESH PUBLIC SCHOOL,339 VISHAL COLONY 143416,EDUCATION,20,852,2,20-24
12927,D A V  SEN  SEC  SCHOOL,PATTI 61 LAHORE ROAD 143416,EDUCATION,20,852,1,10-14
12928,DEPT  OF AGRICULTURE PUNJAB,CHANDIGARH 160022,AGRICULTURE OFFICE,19,821,1,20-24
12929,PUNJAB STATE POWER CORP ,PATIALA MALL ROAD 147001,POWER CORPORATION,7,351,1,30-99
12930,PUNJAB SCHOOL EDUCATION BOARD,CHANDIGARH 160022,EDUCATION OFFICE,19,821,1,10-14
12931,PUNJAB NATIONAL BANK,NEW DELHI 7 BIKA JI KAMA PLACE 110093,BANKING,16,641,1,15-19
12932,STATE BANK OF PATIALA,PATIALA MALL ROAD 147001,BANKING,16,641,1,15-19
12933,PREM NATH AND COMPANY,MOHLLA KATTRA 143407,METER MANUFACTURE,6,231,2,25-29
12934,CIVIL SURGEON OFFICE,TARN TARAN 143407,HEALTH,21,861,1,15-19
12935,DIST  EDUCATION OFFICE,TARN TARAN 143401,EDUCATION,20,851,1,10-14
12936,PARKESH PLACE,FATEHABAD 143407,PARTY FARM,14,551,2,15-19
12937,SHRI GURU AMARDAS PUBLIC SCHOOL,FATEHABAD 143407,EDUCATION,20,851,2,20-24
12938,DIST  EDUCATION OFFICE,TARN TARAN 143401,EDUCATION,20,852,1,25-29
12939,S P RESORT,MAIN ROAD 143407,PARTY HALL,14,551,2,20-24
12940,PUNJAB STATE CORPORATION,CHOLA SAHIB ROAD 143407,POWER SUPPLY,7,351,1,30-99
12941,KARTAR SINGH BRICK FIELD,TARN TARAN ROAD 143407,BRICK KLIN OWNER,6,239,2,30-99
12942,P B K BRICKS UDJOY,TARN TARAN ROAD 143407,BRICK KLIN ONWER,6,239,2,100-199
12943,S L PUBLIC SCHOOL,NEAR POLICE STATION 143407,EDUCATION,20,851,2,20-24
12944,FRIENDS BRICK KLIN,143407,BRICK KLIN OWNER,6,239,2,30-99
12945,BABA BIR SINGH PUBLIC SCHOOL,BHALE DHAIE WALA 143301,EDUCATION,20,851,2,10-14
12946,SHRI GURU HARGOBIN SINGH PUBLIC SCH,OOL 143411,EDUCATION,20,852,2,30-99
12947,DIST  EDUCATION OFFICE,TARN TARAN 143411,EDUCATION,20,852,1,15-19
12948,GYAN JOT PUBLIC SCHOOL,JAMARAI 143411,EDUCATION,20,851,2,10-14
12949,SHRI GURU HARGOBIND SINGH CONVET,SCHOOL 143411,EDUCATION,20,852,2,25-29
12950,SANT BABA TARA SINGH SEN  SEC  SCHO,OL 280 18 143409,EDUCATION,20,852,2,20-24
12951,DIST  EDUCATION OFFICE,TARN TARAN 143401,EDUCATION,20,852,1,15-19
12952,SHRI GURU ARJAN DEV PUBLIC SCHOOL,CHOLA SAHIB 143408,EDUCATION,20,852,2,30-99
12953,DASMESH VIDIA NIKETAN PUBLIC SCHOOL,CHOLA SAHIB RUDIWALA ROAD 143408,EDUCATION,20,852,2,10-14
12954,REPUBLIC MODREN S S SCHOOL,CHOLA SAHIB 822 143408,EDUCATION,20,852,2,25-29
12955,DIST  EDUCATION OFFICE,TARN TARAN 143401,EDUCATION,20,852,1,10-14
12956,MARKFED GODOWN,CHOHLA SAHIB 143408,MARKFED GODOWN,13,521,1,30-99
12957,RAJINDER KUMAR AND COMPANY,CHOLA SAHIB GANDIWIND MOD 143408,BRICK KLIN,6,239,2,30-99
12958,DIST  EDUCATION OFFICE,TARN TARAN 143401,EDUCATION,20,852,1,10-14
12959,SHRI GURU HARKRISHAN PUBLIC SCHOOL,611 143410,EDUCATION,20,852,2,30-99
12960,DESHMESH WORKS,627 143410,AGRICULTURE TOOL MANUFACTURE,6,259,2,10-14
12961,SANDHU BRICKS,634 143410,BRICK KLIN,6,239,2,30-99
12962,NEW DESHMESH WORKS,656 143410,AGRICULTURE TOOL MANUFACURE,6,259,2,10-14
12963,DIST  EDUCATION OFFICE,TARN TARAN 143401,EDUCATION,20,852,1,10-14
12964,SHRI GURU GOBIND SINGH KHALSA SEN SEC  SCHOOL,827 G T ROAD 141421,EDUCATION,20,852,2,20-24
12965,SHRI GURU GOBIND SINGH KHALSA COLLGE,833 G T ROAD 141421,EDUCATION,20,853,3,100-199
12966,SHRI GURU GOBIND SINGH KHALSA,834 G T ROAD 141421,EDUCATION,20,853,3,30-99
12967,ITI,835 G T ROAD 141421,TECHNICAL EDUCATION,20,853,1,30-99
12968,KUBER BRICKS UDJOG SAMITI,143410,BRICK KLIN,6,239,2,100-199
12969,BABA DEEP SINGH JI BRICKS COMPANY,143410,BRIK KLIN,6,239,2,30-99
12970,DIST  EDUCATION OFFICE,TARN TARAN 143401,EDUCATION,20,852,1,10-14
12971,DIST  EDUCATION OFFICE,TARN TARAN 143401,EDUCATION,20,852,1,10-14
12972,DIST  EDUCATION OFFICE,TARN TARAN 143401,EDUCATION,20,852,1,15-19
12973,DIST  EDUCATION OFFICE,TARN TARAN 143401,HEALTH FACILITY,21,861,1,15-19
12974,SUKHRAJ SINGH EGG TRAI FACTORY,812 FOCAL POINT 143401,EGG TRAI MANUFACTURE,6,170,2,10-14
12975,PRITPAL SINGH,817 FOCAL POINT 143401,EGG TRAI MANUFACTURE,6,170,2,10-14
12976,KULWANT SINGH,815 FOCAL POINT 143401,EGG TRAI MANUFACTURE,6,170,2,10-14
12977,KAWALJIT TEXTILE,903 FOCAL POINT 143401,MANUFACUTURE OF LINNEN,6,131,2,200-499
12978,BAJAJ SHOW ROOM,JANDIALA ROAD 943 143401,BAJAJ MOTORCYCLE SALES,10,454,2,10-14
12979,STATE BANK OF PATIALA,MALL ROAD PATIALA 147001,BANKING,16,641,1,10-14
12980,PUNJAB AND SIND BANK,NEW DELHI RAJINDRA PLACE 110001,BANKING,16,641,1,10-14
12981,CHIEF KHALSA DIWAN CHARITABLE SOIETY,AMRITSAR G T ROAD 141421,OLD AGE HOME,21,873,5,15-19
12982,CHIEF KHALSA DIWAN CHARITABLESCOCIETY,AMRITSAR 141421,HEALTH FACILITY,21,861,5,10-14
12983,CHIEF KHALSA DIWAN CHARITABLESOCIETY,AMRITSAR G T ROAD 141421,EDUCATION,20,852,2,100-199
12984,AULAKH HOSPITIAL,324 2 143401,HEALTHY FACILITY,21,861,2,15-19
12985,P N K MODREN SCHOOL,426 1 MASTER CLONEY 143401,EDUCATION,20,852,2,15-19
12986,S D GIRLS HIGH SCHOOL,TARN TARAN 570 1 RAILWAY ROAD 143401,EDUCATION,20,852,2,15-19
12987,ARAYA MODEL SCHOOL,TARN TARAN 604 SARHALI ROAD 143401,EDUCATION,20,852,2,15-19
12988,DIST  EDUCATION OFFICE,TARN TARAN 143401,EDUCATION,20,852,1,30-99
12989,DIOCESE OF AMRITSAR,AMRITSAR 26 R B PRAKASH CHAND ROAD POLICE,HEALTH FACILITY,21,861,3,10-14
12990,DIST  TREASURY OFFICE,TARN TARAN NEAR SESSION COURT 143401,TREASURY OFFICE,19,821,1,10-14
12991,CO OPERATIVE BANK LTD ,TARN TARAN SARHALI ROAD 143401,BANKING,16,641,1,30-99
12992,GURU NANAK DEV SUPER SPECIALITY,HOSPITAL TARN TARAN GOINDWAL RAOD 143401,HEALTH FACILITY,21,861,2,30-99
12993,PUNJAB CHILDREN ACADEMY,TARN TARAN RAILWAY ROAD 143401,EDUCATION,20,852,2,30-99
12994,LIFE INSURANCE CO ,TARN TARAN 143401,INSURANCE CO ,16,651,2,30-99
12995,SEWA DEVI S D COLLEGE,015 143401,EDUCATION,20,853,5,30-99
12996,JASBIR SINGH,143401,SALES OF ELECTRONIC,12,475,2,15-19
12997,GREEN FIELD SCHOOL,058 143401,EDUCATION,20,851,5,10-14
12998,KULDEEP SINGH,103 SARHALI ROAD 143401,ENGINIRING WORKS,6,331,2,20-24
12999,RAGUBIR SINGH,139 143401,ENGINIRING WORKS,6,331,2,15-19
13000,HOLI ASLS NURSURY SCHOOL,1495 143401,EDUCATION,20,851,1,20-24
13001,JAGROOP KAUR,1454 JODHPUR ROAD 143401,BOARDING SCHOOL,20,851,2,10-14
13002,SANT FRANSIS SCHOOL,1497 JODHPUR ROAD 143401,EDUCATION,20,852,3,30-99
13003,KALYAN HOEOPATHIC MEDICAL COLLEGE,AND HOSPITIAL 18 PREM NAGAR 143401,HEALTH EDUCATION AND FACILITY,20,853,1,30-99
13004,STATE BANK OF INDIA,CARPORATE CENTER MUMBAE,BANKING,16,641,1,20-24
13005,PUNJAB AND SIND BANK,DELHI,BANKING,16,641,1,10-14
13006,SARV HITKARI VIDYA MANDIR SCHOOL,RAILWAY ROAD 143401,EDUCATION,20,851,2,10-14
13007,S  MEHAR SINGH MEMORIAL PUBLIC SCHO,OL TARN TARAN 143401,EDUCATION,20,852,2,15-19
13008,GUPTA NURSING HOME,GOINDWAL ROAD 143401,HEALTH FACILITY,21,861,2,10-14
13009,CUPID SCHOOL,242 JANDIALA ROAD 143401,EDUCATION,20,851,2,20-24
13010,CANARA BANK,BANGLORE J  C ROAD 560001,BANKING,16,641,1,10-14
13011,H D F C LIFE,MUMBAI RAMAN HOUSE CHARUH GATE 400020,INSURANCE,16,641,4,10-14
13012,HDFC BANK LTD ,MUMBAI 26A NRANA PROPERTIES 400013,BANKING,16,641,4,10-14
13013,DIST  EDUCATION OFFICE,TARN TARAN 143401,EDUCATION,20,852,5,30-99
13014,GURU NANAK DEV UNIVERSITY,AMRITSAR 143001,EDUCATION,20,852,1,30-99
13015,ORIENTAL BANK OF COMMARCE,REGIONAL OFFICE AMRITSAR RANJIT AVENUE 143001,BANKING,16,641,9,10-14
13016,BANK OF INDIA,MAIN BRANCH HALL BAZAR AMRITSAR 143001,BANKING,16,641,9,10-14
13017,ESAY DAY,GURGAON 2ND FLOOR GOLD CORSE ROAD,RETAIL OUTLET,12,471,3,20-24
13018,CIVIL HOSPITAL,TARN TARAN 35 143401,HEALTH FACILITY,21,861,1,30-99
13019,UNITED IDIA INSURANCE COMPANY PVT ,LTD  47 AMRITSAR ROAD 143401,INSURACE,16,652,1,10-14
13020,GURU NANAK PUBLIC SCHOOL,TARN TARAN 002 BYEPASS CHOCK 143401,EDUCATION,20,852,2,15-19
13021,SHRI GOBIND MODEL SCHOOL,KAJIKOT ROAD 143401,EDUCATION,20,851,2,15-19
13022,PUNJAB NATIONAL BANK,266 AMRITSAR ROAD 143401,BANKING,16,641,1,20-24
13023,RAM LAL PARTAP SINGH,198 AMRITSAR ROAD 143401,PETROL PUMP,12,473,2,10-14
13024,JANAK DI HATTI,563 TEHSIL BAZAR 143401,CLOTH SALES,12,477,2,10-14
13025,KAWALTI SWEETS,696 TEHSIL BAZAR 143401,SWEET SHOP,12,477,2,10-14
13026,PARDHAN SWEETS,831 TEHSIL BAZAR 143401,SWEETS SHOP,12,477,2,10-14
13027,ARORA SWEETS,832 TEHSIL BAZAR 143401,SWEETS SHOP,12,477,2,15-19
13028,JOSHI DI HATTI,TARN TARAN SUPER BAZAR 143401,COLTH SHOWROOM,12,477,2,25-29
13029,ARYA GIRLS HIGH SCHOOL,ADDA BAZAR 143401,EDUCATION,20,852,6,25-29
13030,SHROMANI GURUDWARA PARBANDHAK COMME,TIEE AMRITSAR 143006,RELIGIOUS FACILITIES,23,949,7,200-499
13031,EDUCATION DEPT   COLLEGE ,CHANDIGARH,EDUCATION,20,853,1,30-99
13032,RAJIV AGG ,947 NORDI ROAD 143401,RICE MANUFACTURE,6,106,2,10-14
13033,SANT SINGH SUKHA SINGH SEN  SEC ,SCHOOL AMRITSAR THE MALL 143001,EDUCATION,20,852,1,30-99
13034,HARSUKHMAN HOSPITAL  NURSING HOME ,TARN TARAN CHABBAL ROAD 143401,HEALTH FACILITY,21,861,2,10-14
13035,SHRI GURU ARJUN DEV KHALSA SEN  SEC,  SCHOOL   TARN TARAN NOOR DI ROOD 143401,EDUCATION,20,852,2,25-29
13036,SHRI GURU ARJUN DEV PUBLIC SCHOOL,TARN TARAN NOOR DI ROAD 143401,EDUCATION,20,852,5,20-24
13037,ICICI BANK,TARN TARAN SARHALI ROAD 143401,BANKING,16,641,2,10-14
13038,S G P C,AMRITSAR 143001,EUCATION,20,852,2,30-99
13039,S G P C,AMRITSAR 143001,RELIGIOUS,23,949,7,20-24
13040,SARSWATI S D PUBLIC SCHOOL,415 SARHALI ROAD 143401,EDUCATION,20,852,2,30-99
13041,S D SEN  SEC  SCHOOL,414 SARHALI ROAD 143401,EDUCATION,20,852,2,25-29
13042,BHATIA BRICKS SUPPLY CO ,455 143301,BRICK KLIN,6,239,2,30-99
13043,SAHEAD BHAGAT SINGH PUBLIC SCHOOL,MANNAN 143301,EDUCATION,20,852,2,10-14
13044,DIST  EDUCATION OFFICE,TARN TARAN 143401,EDUCATION,20,851,1,10-14
13045,DIST  EDUCATION OFFICE,143401,EDUCATION,20,852,1,20-24
13046,BHAI GURDAS ACCADEMY,143401,EDUCATION,20,852,1,30-99
13047,AVTAR BRICK KLIN,143401,BRICK KLIN,6,239,2,200-499
13048,DUNAR FOODS LTD,143401,RICE MILL,6,106,1,100-199
13049,DIST  EDUCATION OFFICE,TARN TARAN 143401,EDUCATION,20,852,1,10-14
13050,DIST  EDUCATION OFFICE,TARN TARAN 143401,EDUCATION,20,852,1,20-24
13051,VISHAL FOUNDRY AND ENG  WORKS,308 G T ROAD 143401,MANUFACTURING,6,282,4,25-29
13052,GILL AGRO INDUSTRY,309 G T ROAD 143401,MANUFACURING OF AGRI  TOOLS,6,259,4,15-19
13053,DIST  EDUCATION OFFICE,TARN TARAN 143401,EDUCATION,20,852,1,15-19
13054,SHRI GURU HARKRISHAN KHALSA HIGH,SCHOOL PANDORI REHMANA 143401,EDUCATION,20,852,2,10-14
13055,DIST  EDUCATION OFFICE,TARN TARAN 143401,EDUCATION,20,851,1,10-14
13056,DIST  EDUCATION OFFICE,TARN TARAN 143401,EDUCATION,20,852,1,10-14
13057,DIST  EDUCATION OFFICE,TARN TARAN 143401,EDUCATION,20,852,1,20-24
13058,J R S D A V PUBLIC SCHOOL,CHABHAL KALAN 488 143302,EDUCATION,20,852,2,20-24
13059,DIST  EDUCATION OFFICE,TARN TARAN 143401,EDUCATION,20,852,1,20-24
13060,P S P C L,PATIALA,POWER SUPPLY,7,351,1,100-199
13061,CIRCLE HEAD OFFICE,MALL ROAD AMRITSAR 143301,BANKING,16,641,1,15-19
13062,STATE BANK OF INDIA,MUMBAI,BANKING,16,641,1,10-14
13063,DIST  EDUCATION OFFICE,TARN TARAN 143401,EDUCATION,20,851,1,10-14
13064,DIST  EDUCATION OFFICE,TARN TARAN 143401,EDUCATION,20,852,1,25-29
13065,DIST  EDUCATION OFFICE,TARN TARAN 143401,EDUCATION,20,852,1,10-14
13066,GURU NANK DEV ACADMY,620 CHABHAL ROAD 143401,EDUCATION,20,852,2,30-99
13067,PYARA SINGH JASPAL SINGH RICE MIL,THARU ROAD 143401,RICE MANUFACTURE,6,106,2,10-14
13068,HARBHAJAN SINGH,147 143401,FACTORY,6,170,2,10-14
13069,DASS MEMORIAL PUBLIC SCHOOL,189 143401,EDUCATION,20,852,2,10-14
13070,DASHMESH RICE MILL,204 143401,RICE MANUFACTURE,6,106,2,15-19
13071,ASHOK KUMAR RICE MILL,203 143401,RICE MANUFACTURE,6,106,2,20-24
13072,TANEJA RICE MILL,206 143401,RICE MANUFACTURE,6,106,2,15-19
13073,GUPTA RICE MILL,207 143401,RICE MANUFACTURE,6,106,2,20-24
13074,DASHMESH AGRO EXPORT,208 143401,RICE MANUFACTURE,6,106,2,30-99
13075,AGGARWAL FOOD,209 143401,RICE MANUFACTURE,6,106,2,15-19
13076,DIST  EDUCATION OFFICE,TARN TARAN 143401,EDUCATION,20,852,1,15-19
13077,DIST  EDUCATION OFFICE,TARN TARAN 143401,EDUCATION,20,852,1,25-29
13078,DIST  EDUCATION OFFICE,TARN TARAN 143401,EDUCATION,20,851,1,10-14
13079,GURU HAR RAI PUBLIC SCHOOL,BATH ROAD 143401,EDUCATION,20,851,2,10-14
13080,DIST  EDUCATION OFFICE,TARN TARAN 143401,EDUCATION,20,851,1,10-14
13081,DIST  EDUCATION OFFICE,TARN TARAN 143401,EDUCATION,20,852,1,10-14
13082,SANT RITA HGH SCHOOL,408 143301,EDUCATION,20,852,9,20-24
13083,DIST  EDUCATION OFFICE,TRAN TARAN 143401,EDUCATION,20,852,1,10-14
13084,AKAL ACADMY,TEJA SINGH WALA 143302,EDUCATION,20,852,5,30-99
13085,DIST  EDUCATION OFFICE,TARN TARAN 143401,EDUCATION,20,852,1,10-14
13086,DIST  EDUCATION OFFICE,TARN TARAN 143401,EDUCATION,20,851,1,15-19
13087,DULAT RAM RAMESH KUMAR,12 1 143401,RICE MANUFACTURE,6,106,3,30-99
13088,MAJHA COLLEGE,ALLADINPUR 143401,EDUCATION,20,852,2,30-99
13089,MPS SCHOOL,ALADINPUR 143401,EDUCATION,20,852,2,30-99
13090,DAULT RAM RAMESH KUMAR,143401,MANUFACTURING OF RICE,6,106,3,20-24
13091,CAPITAL AGRO EXPORT,BACHRHE 143401,MANUFACTURING OF RICE,6,106,4,30-99
13092,SHRI GURU GOBIND SINGH PUBLIC SCHOO,L 448 143401,EDUCATION,20,852,2,10-14
13093,BABA BIR SINGH PUBLIC SCHOOL,522 143401,EDUCATION,20,852,2,15-19
13094,AJIT SINGH AND SONS,550 1 143401,BRICK KLIN,6,239,2,25-29
13095,DIST  EDUCATION OFFICE,TARN TARAN 143401,EDUCATION,20,852,1,10-14
13096,BHAI LADHA JI KHASLA ACADEMY,MOORPUR 143415,EDUCATION,20,852,3,30-99
13097,DIST  EDUCATION OFFICE,TARN TARAN 143401,EDUCATION,20,852,1,15-19
13098,F C I,CHABBAL 304 4 143301,STORAGE UNIT,13,521,1,10-14
13099,STATE BANK OF PATIALA,PATIALA,BANKING,16,641,1,10-14
13100,SANDHU FEUL AND TRACTOR AGENCY,TARN TARAN AMRITSAR ROAD 143401,PETROL PULL AND TRACTOR SALES,12,473,2,15-19
13101,SANDHU MOTORS,TARN TARAN AMRITSAR ROAD 143401,REPAIR AND SPARE OF HEAVY VECHICALS,10,453,2,20-24
13102,DIST  EDUCATION OFFICE,TARN TARAN 143401,EDUCATION,20,852,1,10-14
13103,MAMTA NIKATAN CONVET SCHOOL,TARN TARAN 143401,EDUCATION,20,852,2,30-99
13104,KALGIDHAR PUBLIC SCHOOL,KAKA KNDIALA 143401,EDUCATION,20,852,2,20-24
13105,DIST  EDUCATION OFFICE,TARN TARAN 143401,EDUACTION,20,851,1,10-14
13106,HOWARD LANE SENIOR SCHOOL,AMRITSAR ROAD 143301,EDUCATION,20,852,2,15-19
13107,MEHAK FOOD LIMITED COMPANY,91 2 143301,MILK PRODUCTION,6,105,2,25-29
13108,PALWINDER SINGH AND COMPANY,143302,AGGENT,11,461,2,10-14
13109,MRS KANCHAN BABA DEEP SINGH PUNBLIC SCHOOL,143302,EDUCATION,20,851,2,20-24
13110,HARPAL SINGH,143302,POLITRY FARM,2,14,2,15-19
13111,SRI HAR GOBIND PUBLIC MODREN HIGH SCHOOL,143105,EDUCATION,20,852,2,10-14
13112,SATNAAM SINGH POLATRY FARM,143305,POLATRY FARM,2,14,2,15-19
13113,BALKAR SINGH DAIRY,143302,DAIRY,2,14,2,10-14
13114,DIDAR SINGH BABA SAHIB DATTA PUBLIC SCHOOL,143302,EDUCATION,20,851,2,10-14
13115,BALJIT SINGH BRICK KLIN OWNER,193 MAIN ROAD KHADUR SAHIB 143406,BRICK KLIN,6,239,2,20-24
13116,GURU AMAR DAS SEN  SEC  SCHOOL,SHI GOINDWAL SAHIB 110 MANDIR WAKI GALI 143422,EDUCATION,20,852,2,20-24
13117,GURUDWARA BAULI SAHIB,143422,RELIGIOUS PLACE,23,949,7,100-199
13118,KARTAR ROLAR FALOUR MILL,143422,FALOUR MILL,6,106,2,10-14
13119,B H E L,SRI GOINDWAL SAHIB 143422,INDUSTRIAL GATE VOLVE MANUFACTURE,6,281,2,200-499
13120,TOYAL ENERGY LTD ,SRI GOINDWAL SAHIB 143422,TREAD MANUFACTURE,6,131,2,30-99
13121,AMARPURI PUBLIC SCHOOL,SRI GOINDWAL SAHIB 154 143422,SCHOOL,20,852,2,25-29
13122,PINGALWADA,SRI GOINDWAL SAHIB 143422,WELFARE SOCIETY,21,873,5,30-99
13123,REGAL LABORTRY,SRI GOINDWAL SAHIB 143422,LABORTRY,21,869,2,15-19
13124,ADRASH INSITUTE,SRI GOINDWAL SAHIB 143422,EDUCATION,20,851,2,25-29
13125,AZAD HOSPITAL,143422,HEALTH,21,861,2,10-14
13126,JANTA PUBLIC SCHOOL,PINDIAN 143118,EDUCATION,20,852,2,15-19
13127,RIVER DALE PUBLIC SEN  SEC  SCHOOL,BHAROWAL 143401,EDUCATION,20,852,2,15-19
13128,MATA SAHIN KAUR GIRLS COLLEGE,BHAROWAL 143401,EDUCATION,20,853,2,20-24
13129,NISHAN E  SIKHI CHARITABLE TRUST,KHADUR SAHIB 143117,EDUCATION,20,852,2,20-24
13130,SHRI GURU  ANGAND DEV CHARITABLE TRUST,KHADUR SAHIB 143117,HEALTH,21,861,2,15-19
13131,GHRI GURU ANGAD DEV COLLEGE,KHADUR SAHIB 143117,EDUCATION,20,853,2,20-24
13132,BABA GURMUKH SINGH BABA UTAM SINGHSEN  SEC  SCHOOL,KHADUR SAHIB 143117,EDUCATION,20,852,2,30-99
13133,TARLOCHANSINGH AND COMPANY,143117,BRICK KLIN,6,239,2,20-24
13134,SAHIBZADA AJIT SINGH PUBLIC SCHOOL,010 143115,EDUCATION,20,852,2,10-14
13135,SHRI GURU GOBIND SINGH PUBLIC SCHOOL,335 143406,EDUCATION,20,852,2,10-14
13136,GURU AMARDAS SEN  SEC  SCHOOL,BHOLAIPUR DOGRA 143401,EDUCATION,20,852,2,30-99
13137,S B B S SCHOOL,RASUALPUR KHURD 143411,EDUCATION,20,852,2,10-14
13138,AKAL ACADEMY,RASUALPUR KHURD 143411,EDUCATION,20,851,2,10-14
13139,HARJOT PUBLIC SCHOOL,RASUALPUR KHURD 143411,EDUCATION,20,851,2,10-14
13140,LAHARI PUBLIC SCHOOL,1085 143411,EDUCATION,20,851,2,15-19
13141,AGNIHOTRI HOSPITAL,143411,HEALTH FACITLY,21,861,2,10-14
13142,GURMEJ SINGH PUBLIC MAMORIAL SCHOOL,143401,EDUCATION,20,852,2,10-14
13143,NARINDER SINGH BABA SEDANA SCHOOL,518 143401,EDUCATION,20,851,2,10-14
13144,B V N MODEL SCHOOL,NUSHERA PANNUA 143409,EDUCATION,20,852,2,15-19
13145,OXFORD PUBLIC SEN  SEC  SCHOOL,143409,EDUCATION,20,852,2,25-29
13146,NATIONAL PUBLIC SCHOOL,143409,EDUCATION,20,852,2,30-99
13147,S S S S HARI SINGH SEN  SEC  SCHOOL,143415,EDUCATION,20,852,2,20-24
13148,V S B IMPORT HOUSE,AMRITSAR ROAD 143303,WHOLE SALE HOUSE,11,462,2,10-14
13149,RAGUNATH AGRO INDUSTRIES,BHIKHIWIND PUHLA ROAD 143303,PEDDY MAINUFATURE,6,106,3,30-99
13150,ADRASH PUBLIC SCHOOL,BHIKHIWIND 223 1 KHEM KARAN 143303,EDUCATION,20,851,2,15-19
13151,GURUKUL COLLEGE,BHIKHIWIND 168 1 143303,EDUCATION,20,853,2,20-24
13152,EVERGREEN SECONDARY SCHOOL,BHIKHIWIND AMRITSAR ROAD 143303,EDUCATION,20,852,2,20-24
13153,SHAHID BABA DEEP SINGH HIGH SCHOOL,SUR SINGH 76 143303,EDUCATION,20,852,2,10-14
13154,SHRI GURU HARKRISHAN SCHOOL,SUR SINGH 143303,EDUCATION,20,851,2,30-99
13155,GREEN PLYWOOD LIMITED,SUR SINGH 143302,PLY BOARD MANUFICTURE,6,162,2,10-14
13156,GOVT  ADRASH SEN  SEC  SCHOOL,BALER KHURD 143303,EDUCATION,20,852,1,25-29
13157,SHAHEED BABA DEEP SINGH PUBLIC SCHOOL,1 143303,EDUCATION,20,851,2,25-29
13158,SANDHU GILL BRICKS,KHALRA ROAD 143303,BRICK KLIN,6,239,3,20-24
13159,SAHEED BABA DEEP SINGH PUBLIC SCHOOL,647 KHALRA ROAD 143303,EDUCATION,20,852,2,30-99
13160,SAHEED BABA DEEP SINGH GROUP OF,COLLEGE 655 143303,EDUCATION,20,853,2,30-99
13161,KISHAN CHAND LASHMAN DAS AND COMPAN,Y 662 KHALRA ROAD 143303,BRICK KLIN,6,239,3,100-199
13162,SACRED HEART CONVENT SCHOOL,MARI GORH SINGH 143303,EDUCATION,20,852,3,30-99
13163,JANTA PUBLIC SCHOOL,049 143304,EDUCATION,20,851,2,15-19
13164,MAHARAJA RANJIT SINGH PUBLIC SCHOOL,140 143304,EDUCATION,20,851,2,20-24
13165,PATVARKHANA,424 OPP  GOVT  HOSPITIAL 143419,PATVARKHANA,19,821,1,25-29
13166,SANT SOLJIER PUBLIC SCHOOL,LAKHNA 143419,EDUCATION,20,851,2,10-14
13167,BALWANT SINGH MOMERIAL SCHOOL,LAKHNA 143419,EDUCATION,20,851,2,10-14
13168,SANT BABA KARTAR SINGH SEN SEC SCHO,OL 143419,EDUCATION,20,852,2,30-99
13169,DASHMESH SEN  SEC  SCHOOL,143418,EDUCATION,20,852,2,30-99
13170,PUNJAB GURSEWAK BRICK INDUSTRY,DASUWAL 143416,BRICK KLIN,6,239,2,30-99
13171,SRI HARKRISHAN B K O,DASUWAL 160 143416,BRICK KLIN OWNER,6,239,2,100-199
13172,SHRI  HARI SINGH NALVA PUBLIC SCHOOL,POONIA 190 143416,EDUCATION,20,851,2,10-14
13173,SANT KHASLA PUBLIC SCHOOL,069 143416,EDUCATION,20,851,2,10-14
13174,SANT FARID HIGH SCHOOL,TOOT 143416,EDUCATION,20,852,2,10-14
13175,WALIA BRICKS,MANAKPURA 248 143304,BRICK KLIN,6,239,2,25-29
13176,SHRI GURU NANAK PUBLIC SCHOOL,BOPARAI 143416,EDUCATION,20,851,2,10-14
13177,BABA SUKHA SINGH MEHTAB SINGH HIGH SCHOOL,BOPARAI 143416,EDUCATION,20,852,2,10-14
13178,BRICK UDYOG SANSTI,143416,BRICK KLIN,6,239,2,30-99
13179,BABA BRICK COMPANY,143416,BRICK KLIN,6,239,2,30-99
13180,DUBLI BRICK COMPANY,143416,BRICK KLIN,6,239,2,30-99
13181,ADARSH PUBLIC SCHOOL,SANGWA 73 JODH SINGH WALA 143416,EDUCATION,20,851,2,10-14
13182,S G I RESORTS,257 HARIKE ROAD 143416,MARRIEGE PLACE,14,561,2,20-24
13183,MOHINDER PLACE,422 HARIKE KHALDA ROAD 143416,PARTY HALL,14,561,2,20-24
13184,PUNJAB PLACE,423 HARIKE KHALDA ROAD 143416,PARTY HALL,14,561,2,15-19
13185,SACRED HEART CONVERT SCHOOL,THAKRPURA 67 143416,EDUCATION,20,852,2,30-99
13186,MAHA SHIV SHAKTI SCHOOL OF NURSING,KHEM KARAN ROAD 143416,NURSING EDUCATION,20,853,3,30-99
13187,MORNING STAR PUBLIC SCHOOL,NADOHAR CHONK 143416,EDUCATION,20,851,3,20-24
13188,SHAHID CHANCHAL SINGH SEC  SCHOOL,LOKHA 143415,EDUCATION,20,852,1,15-19
13189,RANA SUGER LIMITED,LOHKA 680 3 143415,LIQURE FACTORY,6,110,2,>=500
13190,SHAHEED ACADEMY,BHAGUPUR 143416,EDUCATION,20,851,2,15-19
13191,HARGUN PUBLIC SCHOOL,SABHRA 143416,EDUCATION,20,851,2,15-19
13192,SARDAR SHAM SINGH SEC  SCHOOL,143417,EDUCATION,20,852,2,15-19
13193,D S P BRICK KLIN,346 143410,BRICK KLIN,6,239,2,200-499
13194,GURU NANAK DEV BRICK KLIN,319 143410,BRICK KLIN,6,239,3,30-99
13195,SANT SINGH SUKHA SINGH SCHOOL,143412,EDUCATION,20,852,2,30-99
13196,SHRI GURU HARGOBIND MODREN SEN  SEC,  SCHOOL   HARIKE PATTAN 143412,EDUCATION,20,852,2,25-29
13197,DASHMESH PUBLIC SCHOOL,HARIKE PATTAN 143412,EDUCATION,20,851,2,10-14
13198,KHALSA PUBLIC SCHOOL,HARIKE 143412,EDUCATION,20,851,2,10-14
13199,POWER HOUSE,326 143416,POWER HOUSE,7,351,1,100-199
13200,SHAHID BHAGAT SINGH POLYTECHNICAL,COLLEGE 73 KANDIALA ROAD 143416,EDUCATION,20,853,2,100-199
13201,MORNING STAR SEN  SEC  SCHOOL,KHEMKARAN ROAD 143416,EDUCATION,20,852,2,30-99
13202,SHAHEED BABA DEEP SINGH SEN  SEC SCHOOL,PATTI 961 TARN TARAN ROAD 143416,EDUCATION,20,852,2,30-99
13203,SHRI GURU HARKRISHAN PUBLIC SENIOR,SEC  SCHOOL PATTI 143416,EDUCATION,20,852,2,100-199
13204,CHEEMA HOSPITIAL,292 143416,HEALTH SERVICES,21,861,2,15-19
13205,POST OFFICE,PATTI 510 143416,POST OFFICE,13,531,1,10-14
13206,CENTRAL CONVENT SCHOOL,146416,EDUCATION,20,852,2,30-99
13207,GOVT  COLLEGE PATTI,715 SARHALI ROAD 143416,EDUCATION,20,853,1,25-29
13208,SHRI MHAVIR JAIN MODEL HIGH SCHOOL,PATTI MAIN BAZAAR 143416,EDUCATION,20,852,2,30-99
13209,SHRI GANDU MAL ARYIA GIRLS SEN  SEC,  SCHOOL PATTI 143416,EDUCATION,20,852,5,20-24
13210,AXIS BANK,PATTI 814 AMRITSAR 143416,BANKING,16,641,4,15-19
13211,DASHMESH PUBLIC SCHOOL,339 VISHAL COLONY 143416,EDUCATION,20,852,2,20-24
13212,D A V  SEN  SEC  SCHOOL,PATTI 61 LAHORE ROAD 143416,EDUCATION,20,852,1,10-14
13213,PREM NATH AND COMPANY,MOHLLA KATTRA 143407,METER MANUFACTURE,6,231,2,25-29
13214,PARKESH PLACE,FATEHABAD 143407,PARTY FARM,14,551,2,15-19
13215,SHRI GURU AMARDAS PUBLIC SCHOOL,FATEHABAD 143407,EDUCATION,20,851,2,20-24
13216,S P RESORT,MAIN ROAD 143407,PARTY HALL,14,551,2,20-24
13217,PUNJAB STATE CORPORATION,CHOLA SAHIB ROAD 143407,POWER SUPPLY,7,351,1,30-99
13218,KARTAR SINGH BRICK FIELD,TARN TARAN ROAD 143407,BRICK KLIN OWNER,6,239,2,30-99
13219,P B K BRICKS UDJOY,TARN TARAN ROAD 143407,BRICK KLIN ONWER,6,239,2,100-199
13220,S L PUBLIC SCHOOL,NEAR POLICE STATION 143407,EDUCATION,20,851,2,20-24
13221,FRIENDS BRICK KLIN,143407,BRICK KLIN OWNER,6,239,2,30-99
13222,BABA BIR SINGH PUBLIC SCHOOL,BHALE DHAIE WALA 143301,EDUCATION,20,851,2,10-14
13223,SHRI GURU HARGOBIN SINGH PUBLIC SCH,OOL 143411,EDUCATION,20,852,2,30-99
13224,GYAN JOT PUBLIC SCHOOL,JAMARAI 143411,EDUCATION,20,851,2,10-14
13225,SHRI GURU HARGOBIND SINGH CONVET,SCHOOL 143411,EDUCATION,20,852,2,25-29
13226,SANT BABA TARA SINGH SEN  SEC  SCHO,OL 280 18 143409,EDUCATION,20,852,2,20-24
13227,SHRI GURU ARJAN DEV PUBLIC SCHOOL,CHOLA SAHIB 143408,EDUCATION,20,852,2,30-99
13228,DASMESH VIDIA NIKETAN PUBLIC SCHOOL,CHOLA SAHIB RUDIWALA ROAD 143408,EDUCATION,20,852,2,10-14
13229,REPUBLIC MODREN S S SCHOOL,CHOLA SAHIB 822 143408,EDUCATION,20,852,2,25-29
13230,MARKFED GODOWN,CHOHLA SAHIB 143408,MARKFED GODOWN,13,521,1,30-99
13231,RAJINDER KUMAR AND COMPANY,CHOLA SAHIB GANDIWIND MOD 143408,BRICK KLIN,6,239,2,30-99
13232,SHRI GURU HARKRISHAN PUBLIC SCHOOL,611 143410,EDUCATION,20,852,2,30-99
13233,DESHMESH WORKS,627 143410,AGRICULTURE TOOL MANUFACTURE,6,259,2,10-14
13234,SANDHU BRICKS,634 143410,BRICK KLIN,6,239,2,30-99
13235,NEW DESHMESH WORKS,656 143410,AGRICULTURE TOOL MANUFACURE,6,259,2,10-14
13236,SHRI GURU GOBIND SINGH KHALSA SEN SEC  SCHOOL,827 G T ROAD 141421,EDUCATION,20,852,2,20-24
13237,SHRI GURU GOBIND SINGH KHALSA COLLGE,833 G T ROAD 141421,EDUCATION,20,853,3,100-199
13238,SHRI GURU GOBIND SINGH KHALSA,834 G T ROAD 141421,EDUCATION,20,853,3,30-99
13239,ITI,835 G T ROAD 141421,TECHNICAL EDUCATION,20,853,1,30-99
13240,KUBER BRICKS UDJOG SAMITI,143410,BRICK KLIN,6,239,2,100-199
13241,BABA DEEP SINGH JI BRICKS COMPANY,143410,BRIK KLIN,6,239,2,30-99
13242,SUKHRAJ SINGH EGG TRAI FACTORY,812 FOCAL POINT 143401,EGG TRAI MANUFACTURE,6,170,2,10-14
13243,PRITPAL SINGH,817 FOCAL POINT 143401,EGG TRAI MANUFACTURE,6,170,2,10-14
13244,KULWANT SINGH,815 FOCAL POINT 143401,EGG TRAI MANUFACTURE,6,170,2,10-14
13245,KAWALJIT TEXTILE,903 FOCAL POINT 143401,MANUFACUTURE OF LINNEN,6,131,2,200-499
13246,BAJAJ SHOW ROOM,JANDIALA ROAD 943 143401,BAJAJ MOTORCYCLE SALES,10,454,2,10-14
13247,AULAKH HOSPITIAL,324 2 143401,HEALTHY FACILITY,21,861,2,15-19
13248,P N K MODREN SCHOOL,426 1 MASTER CLONEY 143401,EDUCATION,20,852,2,15-19
13249,S D GIRLS HIGH SCHOOL,TARN TARAN 570 1 RAILWAY ROAD 143401,EDUCATION,20,852,2,15-19
13250,ARAYA MODEL SCHOOL,TARN TARAN 604 SARHALI ROAD 143401,EDUCATION,20,852,2,15-19
13251,DIST  TREASURY OFFICE,TARN TARAN NEAR SESSION COURT 143401,TREASURY OFFICE,19,821,1,10-14
13252,CO OPERATIVE BANK LTD ,TARN TARAN SARHALI ROAD 143401,BANKING,16,641,1,30-99
13253,GURU NANAK DEV SUPER SPECIALITY,HOSPITAL TARN TARAN GOINDWAL RAOD 143401,HEALTH FACILITY,21,861,2,30-99
13254,PUNJAB CHILDREN ACADEMY,TARN TARAN RAILWAY ROAD 143401,EDUCATION,20,852,2,30-99
13255,LIFE INSURANCE CO ,TARN TARAN 143401,INSURANCE CO ,16,651,2,30-99
13256,SEWA DEVI S D COLLEGE,015 143401,EDUCATION,20,853,5,30-99
13257,JASBIR SINGH,143401,SALES OF ELECTRONIC,12,475,2,15-19
13258,GREEN FIELD SCHOOL,058 143401,EDUCATION,20,851,5,10-14
13259,KULDEEP SINGH,103 SARHALI ROAD 143401,ENGINIRING WORKS,6,331,2,20-24
13260,RAGUBIR SINGH,139 143401,ENGINIRING WORKS,6,331,2,15-19
13261,HOLI ASLS NURSURY SCHOOL,1495 143401,EDUCATION,20,851,1,20-24
13262,JAGROOP KAUR,1454 JODHPUR ROAD 143401,BOARDING SCHOOL,20,851,2,10-14
13263,SANT FRANSIS SCHOOL,1497 JODHPUR ROAD 143401,EDUCATION,20,852,3,30-99
13264,KALYAN HOEOPATHIC MEDICAL COLLEGE,AND HOSPITIAL 18 PREM NAGAR 143401,HEALTH EDUCATION AND FACILITY,20,853,1,30-99
13265,SARV HITKARI VIDYA MANDIR SCHOOL,RAILWAY ROAD 143401,EDUCATION,20,851,2,10-14
13266,S  MEHAR SINGH MEMORIAL PUBLIC SCHO,OL TARN TARAN 143401,EDUCATION,20,852,2,15-19
13267,GUPTA NURSING HOME,GOINDWAL ROAD 143401,HEALTH FACILITY,21,861,2,10-14
13268,CUPID SCHOOL,242 JANDIALA ROAD 143401,EDUCATION,20,851,2,20-24
13269,CIVIL HOSPITAL,TARN TARAN 35 143401,HEALTH FACILITY,21,861,1,30-99
13270,UNITED IDIA INSURANCE COMPANY PVT ,LTD  47 AMRITSAR ROAD 143401,INSURACE,16,652,1,10-14
13271,GURU NANAK PUBLIC SCHOOL,TARN TARAN 002 BYEPASS CHOCK 143401,EDUCATION,20,852,2,15-19
13272,SHRI GOBIND MODEL SCHOOL,KAJIKOT ROAD 143401,EDUCATION,20,851,2,15-19
13273,PUNJAB NATIONAL BANK,266 AMRITSAR ROAD 143401,BANKING,16,641,1,20-24
13274,RAM LAL PARTAP SINGH,198 AMRITSAR ROAD 143401,PETROL PUMP,12,473,2,10-14
13275,JANAK DI HATTI,563 TEHSIL BAZAR 143401,CLOTH SALES,12,477,2,10-14
13276,KAWALTI SWEETS,696 TEHSIL BAZAR 143401,SWEET SHOP,12,477,2,10-14
13277,PARDHAN SWEETS,831 TEHSIL BAZAR 143401,SWEETS SHOP,12,477,2,10-14
13278,ARORA SWEETS,832 TEHSIL BAZAR 143401,SWEETS SHOP,12,477,2,15-19
13279,JOSHI DI HATTI,TARN TARAN SUPER BAZAR 143401,COLTH SHOWROOM,12,477,2,25-29
13280,ARYA GIRLS HIGH SCHOOL,ADDA BAZAR 143401,EDUCATION,20,852,6,25-29
13281,RAJIV AGG ,947 NORDI ROAD 143401,RICE MANUFACTURE,6,106,2,10-14
13282,HARSUKHMAN HOSPITAL  NURSING HOME ,TARN TARAN CHABBAL ROAD 143401,HEALTH FACILITY,21,861,2,10-14
13283,SHRI GURU ARJUN DEV KHALSA SEN  SEC,  SCHOOL   TARN TARAN NOOR DI ROOD 143401,EDUCATION,20,852,2,25-29
13284,SHRI GURU ARJUN DEV PUBLIC SCHOOL,TARN TARAN NOOR DI ROAD 143401,EDUCATION,20,852,5,20-24
13285,ICICI BANK,TARN TARAN SARHALI ROAD 143401,BANKING,16,641,2,10-14
13286,SARSWATI S D PUBLIC SCHOOL,415 SARHALI ROAD 143401,EDUCATION,20,852,2,30-99
13287,S D SEN  SEC  SCHOOL,414 SARHALI ROAD 143401,EDUCATION,20,852,2,25-29
13288,BHATIA BRICKS SUPPLY CO ,455 143301,BRICK KLIN,6,239,2,30-99
13289,SAHEAD BHAGAT SINGH PUBLIC SCHOOL,MANNAN 143301,EDUCATION,20,852,2,10-14
13290,BHAI GURDAS ACCADEMY,143401,EDUCATION,20,852,1,30-99
13291,AVTAR BRICK KLIN,143401,BRICK KLIN,6,239,2,200-499
13292,DUNAR FOODS LTD,143401,RICE MILL,6,106,1,100-199
13293,VISHAL FOUNDRY AND ENG  WORKS,308 G T ROAD 143401,MANUFACTURING,6,282,4,25-29
13294,GILL AGRO INDUSTRY,309 G T ROAD 143401,MANUFACURING OF AGRI  TOOLS,6,259,4,15-19
13295,SHRI GURU HARKRISHAN KHALSA HIGH,SCHOOL PANDORI REHMANA 143401,EDUCATION,20,852,2,10-14
13296,J R S D A V PUBLIC SCHOOL,CHABHAL KALAN 488 143302,EDUCATION,20,852,2,20-24
13297,GURU NANK DEV ACADMY,620 CHABHAL ROAD 143401,EDUCATION,20,852,2,30-99
13298,PYARA SINGH JASPAL SINGH RICE MIL,THARU ROAD 143401,RICE MANUFACTURE,6,106,2,10-14
13299,HARBHAJAN SINGH,147 143401,FACTORY,6,170,2,10-14
13300,DASS MEMORIAL PUBLIC SCHOOL,189 143401,EDUCATION,20,852,2,10-14
13301,DASHMESH RICE MILL,204 143401,RICE MANUFACTURE,6,106,2,15-19
13302,ASHOK KUMAR RICE MILL,203 143401,RICE MANUFACTURE,6,106,2,20-24
13303,TANEJA RICE MILL,206 143401,RICE MANUFACTURE,6,106,2,15-19
13304,GUPTA RICE MILL,207 143401,RICE MANUFACTURE,6,106,2,20-24
13305,DASHMESH AGRO EXPORT,208 143401,RICE MANUFACTURE,6,106,2,30-99
13306,AGGARWAL FOOD,209 143401,RICE MANUFACTURE,6,106,2,15-19
13307,GURU HAR RAI PUBLIC SCHOOL,BATH ROAD 143401,EDUCATION,20,851,2,10-14
13308,SANT RITA HGH SCHOOL,408 143301,EDUCATION,20,852,9,20-24
13309,AKAL ACADMY,TEJA SINGH WALA 143302,EDUCATION,20,852,5,30-99
13310,DULAT RAM RAMESH KUMAR,12 1 143401,RICE MANUFACTURE,6,106,3,30-99
13311,MAJHA COLLEGE,ALLADINPUR 143401,EDUCATION,20,852,2,30-99
13312,MPS SCHOOL,ALADINPUR 143401,EDUCATION,20,852,2,30-99
13313,DAULT RAM RAMESH KUMAR,143401,MANUFACTURING OF RICE,6,106,3,20-24
13314,CAPITAL AGRO EXPORT,BACHRHE 143401,MANUFACTURING OF RICE,6,106,4,30-99
13315,SHRI GURU GOBIND SINGH PUBLIC SCHOO,L 448 143401,EDUCATION,20,852,2,10-14
13316,BABA BIR SINGH PUBLIC SCHOOL,522 143401,EDUCATION,20,852,2,15-19
13317,AJIT SINGH AND SONS,550 1 143401,BRICK KLIN,6,239,2,25-29
13318,BHAI LADHA JI KHASLA ACADEMY,MOORPUR 143415,EDUCATION,20,852,3,30-99
13319,F C I,CHABBAL 304 4 143301,STORAGE UNIT,13,521,1,10-14
13320,SANDHU FEUL AND TRACTOR AGENCY,TARN TARAN AMRITSAR ROAD 143401,PETROL PULL AND TRACTOR SALES,12,473,2,15-19
13321,SANDHU MOTORS,TARN TARAN AMRITSAR ROAD 143401,REPAIR AND SPARE OF HEAVY VECHICALS,10,453,2,20-24
13322,MAMTA NIKATAN CONVET SCHOOL,TARN TARAN 143401,EDUCATION,20,852,2,30-99
13323,KALGIDHAR PUBLIC SCHOOL,KAKA KNDIALA 143401,EDUCATION,20,852,2,20-24
13324,ITI,143401,EDUCATION,20,853,1,15-19
