"IO Sector	MCA subclass	Ministry	Broad sector class (NIC)"
"Paddy	01111'	Ministry of Agriculture and Farmers Welfare	01'"
"Wheat	01111'	Ministry of Agriculture and Farmers Welfare	01'"
"Jowar	01112'	Ministry of Agriculture and Farmers Welfare	01'"
"Bajra	01112'	Ministry of Agriculture and Farmers Welfare	01'"
"Maize	01112'	Ministry of Agriculture and Farmers Welfare	01'"
"Gram	01114'	Ministry of Agriculture and Farmers Welfare	01'"
"Pulses	01114'	Ministry of Agriculture and Farmers Welfare	01'"
"Sugarcane	01118'	Ministry of Agriculture and Farmers Welfare	01'"
"Groundnut	01116'	Ministry of Agriculture and Farmers Welfare	01'"
"Coconut	01261'	Ministry of Agriculture and Farmers Welfare	01'"
"Other oilseeds	01119'	Ministry of Agriculture and Farmers Welfare	01'"
"Jute	01162'	Ministry of Agriculture and Farmers Welfare	01'"
"Cotton	01161'	Ministry of Agriculture and Farmers Welfare	01'"
"Tea agro	01271'	Ministry of Agriculture and Farmers Welfare	01'"
"Coffee	01272'	Ministry of Agriculture and Farmers Welfare	01'"
"Rubber	02302'	NC	Ministry of Agriculture and Farmers Welfare	02'"
"Tobacco	01150'	Ministry of Agriculture and Farmers Welfare	01'"
"Fruits 	NC	Ministry of Agriculture and Farmers Welfare	01'"
"Vegetables	NC	Ministry of Agriculture and Farmers Welfare	01'"
"Other crops	NC	Ministry of Agriculture and Farmers Welfare	01'"
"Milk and milk products	01142:10501:10502:10503:46302:01412	Ministry of Agriculture and Farmers Welfare	105:75"
"Animal services(agricultural)	NC	Ministry of Agriculture and Farmers Welfare	01':75"
"Poultry & Eggs	01462':01463'	Ministry of Agriculture and Farmers Welfare	01':75"
"Other liv.st. produ.	NC	Ministry of Agriculture and Farmers Welfare	75"
"Forestry and logging	02401'	Ministry of Environment:Forest and Climate Change	02'"
"Fishing	03121:03113:03111	Ministry of Agriculture and Farmers Welfare	03'"
"Coal and lignite	05101:05102:05103:05109:05202:05203:05209	Ministry of Coal	05'"
"Natural gas	06201:06202	Ministry of Petroleum and Natural Gas	06'"
"Crude petroleum	06101:06102	Ministry of Petroleum and Natural Gas	06'"
"Iron ore	07100'	Ministry of Mines	07'"
"Manganese ore	07293'	Ministry of Mines	07'"
"Bauxite	07292'	Ministry of Mines	07'"
"Copper ore	07291'	Ministry of Mines	07'"
"Other metallic minerals	NC	Ministry of Mines	08'"
"Lime stone	08107'	Ministry of Mines	08'"
"Mica	08993'	Ministry of Mines	08'"
"Other non metallic minerals	23999	Ministry of Mines	"
"Sugar	10729	Ministry of Consumer Affairs:Food and Public Distribution	10"
"Khandsari and boora	10726:10727		10"
"Hydrogenated oil(vanaspati)	10401	Ministry of Food Processing Industries	10"
"Edible oils other than vanaspati	10403	Ministry of Consumer Affairs:Food and Public Distribution	10"
"Tea and coffee processing	10791	10792	Ministry of Commerce and Industry	10"
"Miscellaneous food products	NC	Ministry of Food Processing Industries	10"
"Beverages	11011:11049:	Ministry of Food Processing Industries	11"
"Tobacco products	12009	Ministry of Commerce and Industry	12"
"Khadi and cotton textiles(handlooms)	NC	Ministry of Textiles	13"
"Cotton textiles	NC	Ministry of Textiles	13"
"Woolen textiles	13133:13932	Ministry of Textiles	13"
"Silk textiles	13933:13132:13933	Ministry of Textiles	13"
"Art silk and synthetic fiber textiles	NC	Ministry of Textiles	13"
"Jute hemp and mesta textiles	13935:13135	Ministry of Textiles	13"
"Carpet weaving	13931:13932:13933:13934:13935	Ministry of Textiles	13"
"Readymade garments 	47711	Ministry of Textiles	47"
"Miscellaneous textile products	NC	Ministry of Textiles	13"
"Furniture and fixtures-wooden	31001:31002:31009	Ministry of Commerce and Industry	31"
"Wood and wood products	16299	Ministry of Commerce and Industry	16"
"Paper paper prods. & newsprint	17099:18111	Ministry of Heavy Industries and Public Enterprises	17:18"
"Printing and publishing 	18111-18115:18129	Ministry of Human Resource Development	18:58"
"Leather footwear	15201	Ministry of Commerce and Industry	15"
"Leather and leather products	NC	Ministry of Commerce and Industry	14"
"Rubber  products	22199	Ministry of Commerce and Industry	22"
"Plastic products	22201:	Ministry of Commerce and Industry	22"
"Petroleum products	19209	Ministry of Commerce and Industry	19"
"Coal tar products	23999	Ministry of Commerce and Industry	23"
"Inorganic heavy chemicals	20119	Ministry of Chemicals and Fertilizers	20"
"Organic heavy chemicals	20119:20112:20121:20122:20229	Ministry of Chemicals and Fertilizers	20"
"Fertilizers	20121	Ministry of Chemicals and Fertilizers	20"
"Pesticides	20299	Ministry of Chemicals and Fertilizers	20"
"Paints varnishes and lacquers	20221	Ministry of Chemicals and Fertilizers	20"
"Drugs and medicines	21001	Ministry of Chemicals and Fertilizers	21"
"Soaps cosmetics  & glycerin	20231:20237	Ministry of Chemicals and Fertilizers	20"
"Synthetic fibers  resin	NC	Ministry of Chemicals and Fertilizers	13"
"Other chemicals	NC	Ministry of Chemicals and Fertilizers	20"
"Structural clay products	23929	Ministry of Chemicals and Fertilizers	23"
"Cement	23941:23942:23943:23949	Ministry of Heavy Industries and Public Enterprises	23"
"Other non-metallic mineral prods.	23999		23"
"Iron steel and ferro alloys	24104	Ministry of Steel	24"
"Iron and steel casting & forging	25910:24319	Ministry of Steel	25"
"Iron and steel foundries	NC	Ministry of Steel	2431"
"Non-ferrous basic metals	24209:07299	Ministry of Mines	24"
"Hand tools and hardware	25932:25933		25"
"Miscellaneous metal products	NC	Ministry of Railways	25"
"Tractors and agri. implements	28211	Ministry of Heavy Industries and Public Enterprises	28"
"Industrial machinery(F & T)	NC	Ministry of Heavy Industries and Public Enterprises	28"
"Industrial machinery(others)	33200	Ministry of Heavy Industries and Public Enterprises	28"
"Machine tools	28221:28229	Ministry of Heavy Industries and Public Enterprises	28"
"Other non-electrical machinery	NC	Ministry of Heavy Industries and Public Enterprises	28"
"Electrical industrial Machinery	27900:28199	Ministry of Heavy Industries and Public Enterprises	27:28"
"Electrical wires & cables	27320	Ministry of Heavy Industries and Public Enterprises	27"
"Batteries	27201	Ministry of Power:Ministry of Heavy Industries and Public Enterprises	27"
"Electrical appliances	27900	Ministry of Communications and Information Technology	27:95"
"Communication equipments	26303:26305:26309	Ministry of Communications and Information Technology	26:04"
"Other electrical Machinery	27900	Ministry of Heavy Industries and Public Enterprises	27"
"Electronic equipments(incl.TV)	26401:26409	Ministry of Communications and Information Technology	26:04"
"Ships and boats	30111	Ministry of Shipping	30"
"Rail equipments	30201:30202:30203:30304:30205:30206	Ministry of Railways	30"
"Motor vehicles	29109	Ministry of Heavy Industries and Public Enterprises	29:45:34"
"Motor cycles and scooters	30911	Ministry of Heavy Industries and Public Enterprises	30"
"Bicycles and cycle-rickshaw	30921	Ministry of Heavy Industries and Public Enterprises	30"
"Other transport equipments	30999	Ministry of Heavy Industries and Public Enterprises	30"
"Watches and clocks	26521:26529	Ministry of Heavy Industries and Public Enterprises	26"
"Medical precision & optical instru.s	26600:32503:32509:33132	Ministry of Heavy Industries and Public Enterprises	26:32:33"
"Jems & jewelry	32111:32120	NC	32"
"Aircraft & spacecraft	30305:30304	Ministry of Heavy Industries and Public Enterprises	30"
"Miscellaneous manufacturing	NC	NC	32:92"
"Construction	41001:42101:42102:42103:42202:42203:42204:42205:42209:42901:42902:42903:42904	Ministry of Housing and Urban Poverty Alleviation	41:42:70"
"Electricity	27104	NC	27:35:40"
"Water supply	3600	Ministry of Power	36"
"Railway transport services	52212	NC	Ministry of Railways	52"
"Land tpt including via pipeline	52219:49229	Ministry of Road Transport and Highways	52"
"Water transport	50113:50119:50120:50213:50219:50220	Ministry of Shipping	50"
"Air transport	51201	Ministry of Civil Aviation	51"
"Supporting and aux. tpt activities	NC	Ministry of Road Transport and Highways	49"
"Storage and warehousing	52101:52102:52109	Ministry of Consumer Affairs:Food and Public Distribution	52"
"Communication	61202:61209:61301:61309:61900:61101:61103:61104	Ministry of Communications and Information Technology	61"
"Trade	46:47	Ministry of Commerce and Industry	46:47:76"
"Hotels and restaurants	55101:56101:56102:56301	Ministry of Tourism	55:56"
"Banking	64110:64191	Ministry of Finance	64:65:67"
"Insurance	65020:65110:65120	Ministry of Finance	65:66"
"Ownership of dwellings	NC	Ministry of Housing and Urban Poverty Alleviation	NC"
"Education and research	85101:85102:85103:85104:85109:85211:85212:85213:85301:85302:85303:85304:85305:85306:85307:85499:85500:84122:72100:72200	Ministry of Human Resource Development	85:84:72:91:80"
"Medical and health	86201:86904:84121:86909:86100	Ministry of Health and Family Welfare	86"
"Business services	74901:82990:84130:94110	Ministry of Commerce and Industry	74:82:84:94:69"
"Computer & related activities	95111:26201: 26202: 26203: 26204: 26205:26405:43212 	Ministry of Communications and Information Technology	95:26:43:62:63"
"Legal services	69100	Ministry of Law and Justice	69"
"Real estate activities	68100:68200	Ministry of Housing and Urban Poverty Alleviation	68"
"Renting of machinery & equipment	77301:77302 	77303:77304:77305:77306:77307:77308:77309 	NC	77"
"Online commerce social and personal services	46901:47912	Ministry of Commerce and Industry	46:47"
"Other services	NC		60:90:93:59:37:99:92"
"Public administration	82110	Ministry of Personnel:Public Grievances and Pensions	82:84"
