S.No.,Name of the Establishment,Address,Major Activity Description,Broad Activit y Code,NIC,Owner ship Code,"Emplo yment Class Interva
l"
1230,Siddarth Bidi Kharkhana Tumsar,8 1    441912,Manufacture of tobacco products,6,120,6,100-199
1231,MSEDCL  WARTHI,133  SUBHASH WARD 441904,Electric power generation  transmission and distribution,7,351,1,10-14
1232,MANAWATA HIGH SCHOOL THANA,21  THANA  441906,Secondary Education,20,852,4,10-14
1233,PRINTING PRESS SHAHAPUR,36 2  SHAHAPUR  441904,Printing and service activities related to printing,6,181,2,10-14
1234,MANOHAR BHAI PATEL ENGINEERING COLLEAGE  SHAHAPUR,97  SHAHAPUR  441904,Higher education,20,853,1,30-99
1235,PRIMARY HEALTH CENTRE SHAHAPUR,261  SHAHAPUR  441904,HOSPITAL,21,861,1,10-14
1236,ST PITAR SCHOOL  BELA,211  NATIONAL HIGHWAY NO  6  441904,Secondary Education,20,852,4,30-99
1237,MAHARSHI VIDYA MANDIR BELA,109  NATIONAL HIGHWAY NO  6  441904,Secondary Education,20,852,4,30-99
1238,GRAHAK TAKRAR NIWARAN KENDRA  GRAMIN   BHANDARA,82  GANESHPUR  441904,Electric power generation  transmission and distribution,7,351,4,10-14
1239,G N T CONVENT  BHANDARA,1  GANESHPUR  441904,Primary education,20,851,4,10-14
1240,VIJAY ELECTRICALS LTD  BHANDARA,21  GUJATRAT ICOLONY VIDYA NAGAR  BHANDARA  441904,Electric power generation  transmission and distribution,7,351,2,10-14
1241,LOKMAT KARYALAY BHANDARA,289  SAI MANDIR ROAD 441904,Publishing News,15,581,2,15-19
1242,BHUVIKASH BANK BRANCH OFFICE BHANDARA,34 20  SHIWAJI STEDIAM 441904,Bank,16,641,1,10-14
1243,THE BHANDARA URBON CO OP  BANK BHANDARA,12 1  BHANDARA  441904,Bank,16,641,1,10-14
1244,R M PATEL COLLEGE BHANDARA,96  SIVIL LINE  441904,Higher education,20,853,4,20-24
1245,J M PATEL COLLEGE  BHANDARA,108  CIVIL LINE  441904,Higher education,20,853,4,100-199
1246,VIDYUT UPKENDRA,4  Bhandara  M Cl  441904,Electric power generation  transmission and distribution,7,351,1,10-14
1247,EROS MOTERS BHANDARA,17 1  MAIN ROAD BHANDARA  441904,Sale  maintenance and repair of motorcycles,10,454,2,10-14
1248,POST OFFICE BHANDARA,1  BADA BAZAR  441904,POST SERVICE,13,531,1,30-99
1249,JAYMAL TVS MOTERS  BHANDARA,75  BHANDARA  441904,Sale  maintenance and repair of motorcycles,10,454,2,20-24
1250,INDUSTRIAL TECHNIAL EDUCATION  BOYS ,6  WARTHI ROAD 441904,Other education,20,854,1,30-99
1251,RELIANCE OFFICE BHANDARA,102  BHANDARA  441904,Activities of call centres,19,822,4,10-14
1252,MALTI TAI UMATHE,145 1  BHANDARA 441904,Higher education,20,853,4,25-29
1253,MSEB SOUTH BLOCK BHANDARA URBAN,15 1  GURJAR PETROL PUMP BHANDARA 441904,Electric power generation  transmission and distribution,7,351,2,10-14
1254,MARUTI SUZUKI AUTO MOTIVE PVT  LTD ,16  NAGPUR ROAD 441904,Sale  maintenance and repair of motorcycles,10,454,2,30-99
1255,SYNDICATE BANK BRANCH BHANDARA,128 1  BHANDARA 441904,Bank,16,641,1,10-14
1256,INDUSTRIAL TECHNICAL EDUCATION  GIRLS ,7  BHANDARA  441904,Other education,20,854,1,20-24
1257,BASIC FINANCE COMPANY BHANDARA,16 1  BHANDARA  441904,FINANCE,16,643,2,10-14
1258,CENTRAL BANK OF INDIA  BRANCH OFFICE BHANDARA,27 1  BADA BAZAR 441904,BANKING,16,641,1,10-14
1259,SHRIRAM SITY FINANCE BHANDARA,BHANDARA  441904,FINANCE COMPANY,16,643,4,30-99
1260,BHARAT SANCHAR NIGAM LTD  BHANDARA,37  BUS STAND ROAD  BHANDARA  441904,TELEPHONE SERVICE,15,611,1,30-99
1261,DAILY DESHONNATI OFFICE  BHANDARA,297  SAI MANDIR ROAD 441904,Publishing News,15,581,2,10-14
1262,THE BHANDARA CENTRAL DISTRICT CO  OPERATIVE BANK BHANDARA BANK UNIT ,B26  J M PATEL COLLEGE ROAD  441904,Bank,16,641,1,20-24
1263,THE URBAN CO OP  BANK LTD   SAKOLI,38  BAZAR ROAD  441802,Monetary intermediation,16,641,1,10-14
1264,The Urban Bhandara Bank Branch Pauni,Bazar Chowk Pauni 441910,Bank,16,641,1,10-14
14990,Mamta Vidyalaya Chikhala,139    441907,Secondary Education,20,852,4,10-14
14991,Rastramata Indira Gandhi High School Chikhala,150    441907,Secondary Education,20,852,4,10-14
14992,Subhashchandra Bose Sub district hospital tumsar,41    441912,Hospital activities,21,861,1,30-99
14993,Shivaji D ed College Tumsar,38 1  Sant Jagnade nagar 441912,Higher education,20,853,4,10-14
14994,Gopikisan Agrawal College Tumsar,43  Devhadi Road  441912,Higher education,20,853,4,30-99
14995,M s Khalil Ahmad Brothers Bidi Company Tumsar,69    441912,Manufacture of tobacco products,6,120,3,200-499
14996,Saint Jaun Mission English Medium Minority High School Tumsar,38    441912,Secondary education,20,852,4,10-14
14997,Nagarparishad makde Vidyalaya Tumsar,49    441912,Secondary education,20,852,1,15-19
14998,Electricity Office Tumsar,8  Subhash Chowk 441912,Electric power generation  transmission and distribution,7,351,1,15-19
14999,Santosh Rice Mill Tumsar,120  Shivajinagar  441912,rice mill,6,106,2,15-19
15000,Vidarbha Tobacco Pvt Ltd  Tumsar,131    441912,Manufacture of tobacco products,6,120,4,>=500
15001,Bhandara Dist Co op Bank tumsar,84    441912,credit society,16,643,6,10-14
15002,Nagarparishad Kasturba Kanya High School Tumsar,431  Bosnagar  441912,Secondary education,20,852,1,20-24
15003,Fishery office tumsar,13  Malviyanagar  441912,Fish farming,4,32,4,30-99
15004,Vidyut Vitran Karyalaya Tumsar,44    441912,Electric power generation  transmission and distribution,7,351,1,15-19
15005,Shagun Convent Tumsar,160    441912,Primary education,20,851,4,15-19
15006,Shantabai karemore ITI Tumsar,165  Durga Colony 441912,Higher education,20,853,4,10-14
15007,The Pragati Mahila Urban Credit Co op Society Tumsar,322  Bosnagar  441912,credit society,16,643,4,10-14
15008,Friends group co op credit society tumsar,123 22  Bosnagar  441912,credit society,16,643,4,10-14
15009,State Bank of India Tumsar,41 4  Bajajnagar  441912,Bank,16,641,1,25-29
15010,Jankalyan Co op Credit Society Tumsar,52 2  Rajendranagar 441912,credit society,16,643,4,15-19
15011,Bank of India Tumsar,95 1  Rajendranagar 441912,Bank,16,641,1,10-14
15012,Vidyut Pareshan karyalaya co   Asst Engineer  sub div tumsar,13 1    441912,Electric power generation  transmission and distribution,7,351,1,15-19
15013,Sahyog Co op credit society Tumsar,71  Bosnagar  441912,credit society,16,643,4,10-14
15014,Smt Janki madhav Dumbhare Mukbadhir Vidyalaya Tumsar,88 1    441912,Primary education,20,851,4,10-14
15015,Central bank of India tumsar,82 2  Bajajnagar  441912,Bank,16,641,1,10-14
15016,Vishal High School Tumsar,116    441912,Secondary education,20,852,4,10-14
15017,Lord lady School Tumsar,136  Pipara Road  441912,Primary education,20,851,4,10-14
15018,The Bhandara Urban Co op Bank Tumsar,61  Bajajnagar  441912,bank,16,641,6,10-14
15019,LIC of India Branch Tumsar,8 12  Bajajnagar  441912,insurance,16,651,1,30-99
15020,Ferro Alloyes Corporation Ltd  Tumsar,46 2  Ramkrishnanagar 441912,Manufacture of basic iron and steel,6,241,4,30-99
15021,Indutai Memorial High School Tumsar,45    441912,Secondary education,20,852,4,30-99
15022,Govt  Technical School Tumsar,134  Sant Jagnade nagar 441912,Other education,20,854,1,20-24
15023,Sai Central School Tumsar,64 1  Govardhannagar 441912,Secondary education,20,852,4,15-19
15024,Bus Stand Tumsar,118    441912,Other land transport,13,492,1,200-499
15025,Kids Hospital Tumsar,21 2  Ramkrishnanagar 441912,Hospital activities,21,861,2,10-14
15026,Kochar Nursing Home Tumsar,20 3  Makdenagar  441912,Hospital activities,21,861,2,25-29
15027,S N Mor College Tumsar,65    441912,Higher education,20,853,4,30-99
15028,Nagarparishad Nehru Vidyalaya Tumsar,50    441912,Secondary education,20,852,1,25-29
15029,S G B Mahila College Tumsar,61    441912,Higher education,20,853,4,15-19
15030,Rashrtiya School Tumsar,39  Sant Jagnade nagar 441912,Secondary education,20,852,1,25-29
15031,CHANDRA JAGAT CONVENT WARTHI,WARTHI  441904,EDUCATION,20,851,2,15-19
15032,LATE PARVATABAI MADANKAR ART AND COMMERCE COLLEGE  VARTHI,HANUMAN WARD  PACHGAON ROAD 441904,EDUCATION,20,853,4,15-19
15033,Monetary intermediation,57 1  SUBHASH WARD 441904,Monetary intermediation,16,641,1,10-14
15034,SUNFLAG STEEL COMPANY  WARTHI,WARTHI  441905,Manufacture of basic iron and steel,6,241,1,>=500
15035,NANAJI JOSHI VIDYALAYA SHAHAPUR,37  SHAHAPUR  537069,Higher education,20,853,1,30-99
15036,Structural metal products,122  BELA  441904,Manufacture of structural metal products  tanks ,6,251,2,10-14
15037,MAHENDRA SCIENCE JR COLLEGE BELA,95  BELA  441904,Higher education,20,853,4,10-14
15038,JAIN DAIRY  BELA,23  DAWADIPAR ROAD 441904,Manufacture of dairy products,6,105,2,15-19
15039,DELUX TYRE RETENDERS,124  MAIN ROAD BELA 441904,Sale of motor vehicle parts and accessories,10,453,2,15-19
15040,MISSION HIGHSCHOOL  BHANDARA,12  GANESHPUR  441904,Secondary Education,20,852,2,10-14
15041,RAYAL PUBLIC SCHOOL,51  VIDYA NAGAR BHANDARA  441904,Secondary Education,20,852,4,15-19
15042,THE URBAN CO OP  BANK BHANDARA,3 2  GANDHI CHAUK 441904,Bank,16,641,1,30-99
15043,JESIS CONVENT SCHOOL  BHANDARA,110 1  JMPC ROAD 441904,Primary education,20,851,4,30-99
15044,NAGAR PARISHAD GANDHI HIGH SCHOOL BHANDARA,112 2  JMPC ROAD 441904,Secondary education,20,852,4,30-99
15045,NISHA VIDYALAY BHANDARA,46  AMBEDKAR WARD BHANDARA  441904,Secondary education,20,852,4,10-14
15046,BHANDARA DISTRICT PANCHAYAT SAMITI AND ZILHA PARISHAD KARMACHARI CO OPERATIVE SOCITY,262  BHANDARA  441904,credit society,16,643,6,10-14
15047,GOVT  COLLEGE OF EDUCATION BHANDARA,3  BHANDARA  441904,Higher education,20,853,1,20-24
15048,MAHILA BASIC SCHOOL  BHANDARA,72  BHANDARA  441904,Secondary education,20,852,1,20-24
15049,BHUVIKASH BANK EMPLOYEES CO OPERATIVE CREDIT SOCITY BHANDARA,34 17  INFRONT OF SHIVAJI STEDIAM 441904,Bank,16,641,1,25-29
15050,LIC OFFICE BHANDARA,77  NEAR OF NH6 441904,insurance,16,651,1,30-99
15051,SUNRISE CONVENT SCHOOL,10  BHANDARA  441904,Primary education,20,851,4,10-14
15052,M M PATEL ADHYAPAK VIDYALAYA BHANDARA,12 2  RAJIV GANDHI CHAUK  441904,Other education,20,854,4,10-14
15053,MANSARAM PADOLE JR  COLLEGE BHANDARA,1 25  BHANDARA  441904,Secondary education,20,852,4,10-14
15054,STATE BANK OF INDIA  BHANDARA,3 1  KESHAVAN BHAVAN 441904,Bank,16,641,1,30-99
15055,NATRAJ METAL,228  TAKIYA WARD BHANDARA  441904,Manufacture of other fabricated metal products,6,259,2,15-19
15056,MINES EYE INTERNATIONAL SCHOOL,220  BHANDARA  441904,Secondary education,20,852,4,25-29
15057,ASHEMIRA MAHILA VANYODYOG,212 1  BHANDARA 441904,Manufacture of knitted and crocheted apparel,6,143,2,10-14
15058,TALUKA AGREE DEPARTMENT,113  NH6  441904,Forestry service activities,3,24,1,15-19
15059,BHANDARA PARAMEDICAL COLLEGE  BHANDARA,9 2  BHANDARA  441904,Higher education,20,853,4,10-14
15060,SAINT PUAL CONVENT SCHOOL  BHANDARA,3  NH6  441904,Primary education,20,851,4,20-24
15061,JIJAMATA VIDYALAYA  BHANDARA,40 1  BHANDARA  441904,Secondary education,20,852,4,10-14
15062,BHANDARA DISTRICT PRIMARY TEACHER CO  OPERATIVE SOCITY  BHANDARA,58  BHANDARA  441904,credit society,16,643,6,20-24
15063,BALAJI METAL WORKS  BHANDARA,1  WARTHI ROAD  BHANDARA  441904,Manufacture of basic precious and other non  ferrous metals,6,242,2,10-14
15064,MAHILA SAMAJ MADHYAMIK VIDYALAYA,2  WARTHI ROAD BHANDARA  441904,Primary education,20,851,4,10-14
15065,NUTAN MAHARASHTRA VIDYALAYA,94 1  KHAT ROAD  BHANDARA  441904,Secondary education,20,852,4,30-99
15066,SIDHARTHA BIDI PRODUCTION SOCITY BHANDARA,26  BHANDARA  441904,BIDI FACTORY,6,120,2,30-99
15067,SWASTIK METAL KARKHANA,BHANDARA  441904,Casting of iron and steel,6,243,2,10-14
15068,EMPLOYEES CONSUMER SOCITY,215  BHANDARA  441904,credit society,16,643,6,10-14
15069,KOTHARI METALS  BHANDARA,5  WARTHI ROAD 441904,Manufacture of basic iron and steel,6,241,2,10-14
15070,RENUKA INDUSTRIES,12  BHANDARA  441904,Casting of iron and steel,6,243,2,10-14
15071,KUSUMANAND METAL WORKS  BHANDARA,2  WARTHI ROAD  BHANDARA  441904,Manufacture of basic precious and other non  ferrous metals,6,242,2,15-19
15072,ATHAWALE SAMAJKARYA VIDYALA  BHANDARA,3  WARTHI ROAD 441904,Higher education,20,853,4,15-19
15073,LAKSHMI CLOTH SOTRES  BHANDARA,54  GANDHI CHAUK 441904,Retail sale of other household equipment,12,475,2,10-14
15074,BRASS WORKSHOP BHANDARA,160  WARTHI ROAD  BHANDARA  441904,Manufacture of basic precious and other non  ferrous metals,6,242,2,10-14
15075,BAWANKAR PATHOLOGY BHANDARA,28  TUKDOJI PUTALA 441904,Other human health activities,21,869,2,10-14
15076,DAYA CLOTH STORE  BHANDARA,142  MAIN ROAD BHANDARA  441904,Retail sale of other household equipment,12,475,2,10-14
15077,SAIRAM I T I SANSTHA  BHANDARA,86  BHANDARA  441904,Other education,20,854,2,10-14
15078,WENKATESHWAR METAL WORKS,16 1  BHANDARA  441904,Casting of iron and steel,6,243,2,10-14
15079,SHEF MAHABACHAT GAT,121 2  SATKAR NAGAR 441904,Activities of other membership organizations,23,949,2,30-99
15080,DUGDHA UTPADAN SAHAKARI SANGH MARYA  BHANDARA,14 1  BHANDARA  441904,MILK PRODUCTION AND SELLING,6,105,6,30-99
15081,BHARAT SANCHAR NIGAM LTD,12  BHANDARA  441904,BSNL,15,612,1,25-29
15082,SAIRAJ AUTOMOBILE BHANDARA,144  HOSPITAL ROAD 441904,TWO WHEELER SELL,10,454,2,15-19
15083,BANK OF MAHARASHTRA  BRANCH BHANDARA,138 5  MAIN ROAD BHANDARA  441904,Bank,16,641,1,15-19
15084,URDU PRIMARY SCHOOL  BHANDARA,25  BHANDARA  441904,Primary education,20,851,1,15-19
15085,GOVIND METAL WORKS  BHANDARA,21  WARTHI ROAD  BHANDARA  441904,Manufacture of basic precious and other non  ferrous metals,6,242,2,10-14
15086,MAHAVIR METAL WORKS,19  WARTHI ROAD  BHANDARA  441904,Manufacture of basic precious and other non  ferrous metals,6,242,2,20-24
15087,NUTAN KANYA SCHOOL AND KANISHTHA MAHAVIDYALAYA  BHANDARA,109  BAJRANG CHAUK 441904,Higher education,20,853,2,30-99
15088,SAI PLAZA HOTEL  BHANDARA,33 1  IN FRONT OF RAJASTHANI MANGAL KARYALAYA  441904,Restaurants,14,561,2,10-14
15089,PRAKASH HIGHSCHOOL  BHANDARA,29  IN FRONT OF RAJSTHANI MANGAL KARYALAYA  441904,Secondary education,20,852,4,20-24
15090,GENERAL HOSPITAL  BHANDARA,144  BHANDARA  441904,HEALTH SERVICE,21,861,1,200-499
15091,SHALVAN KOCHING CLASSES,125 1  RAJIV GANDHI CHAUK  441904,Other education,20,854,2,25-29
15092,SANT SHIWARAM SCHOOL  BHANDARA,107  BHANDARA  441904,Higher education,20,853,2,30-99
15093,VAINGANGA NAGARI SAHAKRI PATSANSTHA,14  GANDHI CHAUK ROAD  441904,credit society,16,643,4,10-14
15094,SHRI GANESH SCHOOL BHANDARA,5  BHANDARA  441904,EDUCTION MIDDLE SCHOOL,20,852,4,10-14
15095,KIRANA AGENCY  BRUJLAL SANGHANI ,8  BHANDARA  441904,Wholesale of agricultural raw materials and live animals,11,462,2,10-14
15096,INDUSTRIAL DEVELOPMENT BANK OF INDIA  BHANDARA,27  LAL BAHADUR SHASTRI ROAD  441904,INDUSTRIAL DEVELOPMENT  BANK,16,641,1,10-14
15097,MEGHARE HOSPITAL,29  TUMSAR ROAD 441904,HEALTH SERVICE Â Â Â Â Â Â  Â  ,21,861,2,10-14
15098,JAKATDAR MAHAVIDYALAYA BHANDARA,68  LAL BAHADURSHASTRI WARD  441904,Higher education,20,853,1,20-24
15099,SPRING DALE SCHOOL,48  KHAT ROAD  441904,Secondary education,20,852,4,30-99
15100,BAJARANG WELDING SHOP,64  MAIN ROAD  441904,WELDING WORK SHOP,6,251,2,10-14
15101,NATIONAL SCHOOL  BHANDARA,72  BHANDARA  441904,Secondary education,20,852,2,20-24
15102,NAKADE NURSING HOME  BHANDARA,22  BHANDARA  441904,Medical and dental practice activities,21,862,2,15-19
15103,BHANDARA GAS AGENCY  BHANDARA,125  GANDHI CHAUK BHANDARA  441904,GAS SERVICE,7,352,2,15-19
15104,SURAJ MASALA COMPANY  BHANDARA,80  BHANDARA  441904,Manufacture of papads  appalam and similar food products,6,107,1,20-24
15105,PACKAGE INDUSTRIES  BHANDARA,87 1  BHANDARA  441904,Manufacture of pulp  paper and paperboard,6,170,3,15-19
15106,UJWALA MAHILA CREDIT SOCITY,10  JALARAM COMPLEX 441904,credit society,16,643,1,15-19
15107,THE LOARDS PUBLIC SCHOOL BHANDARA,81 2  IN FRONT OF SBI  MENDHA ROAD  441904,Primary education,20,851,1,15-19
15108,TUKARAM MARATHI MULANCHE VASTIGRUH  BHANDARA,110 2  KHAT ROAD 441904,Other accommodation,14,559,1,10-14
15109,SHUBHAM METAL INDUSTRIES,78  BHANDARA  441904,Manufacture of other fabricated metal products,6,259,1,10-14
15110,shahajad khan transport service  BHANDARA,25  BHANDARA  441904,Other land transport,13,492,2,10-14
15111,PARMESHWAR VIDYALAYA BHANDARA,28  KHAT ROAD  441904,Other education,20,854,4,15-19
15112,SAHAYOG HOSPITAL  MULT SPECIALITY ,22  MUSLIM LIBRARY CHAUK  441904,HOSPITAL  Â Â Â Â Â Â  Â Â Â Â  ,21,861,2,15-19
15113,GOVERNMENT SCHOOL  BHANDARA,27  DHASTRI CHAUK 441904,Secondary education,20,852,1,15-19
15114,LAL BAHADUR SHASTRI VIDYALAYA BHANDARA,18  LALA BAHADUR SHASTRI WARD  441904,Higher education,20,853,1,30-99
15115,THE BHANDARA CENTRAL DISTRICT CO  OPERATIVE LTD  BANK BHANDARA,B 26  J M PATEL COLLEGE ROAD  441904,Bank,16,641,1,30-99
15116,Z P HIGH SCHOOL SAKOLI,108  SAKOLI  441802,EDUCATION,20,852,1,10-14
15117,SHYAMRAO BAPU ART AND COMMERCE COLLEGE SAKOLI,145  SAKOLI  441802,EDUCATION,20,853,1,10-14
15118,KALABAI KANYA MIDDLE AND UPPER MIDDLE SCHOOL  SAKOLI U,92  SAKOLI  441802,EDUCATION,20,853,1,15-19
15119,M B PATEL COLLEGE SAKOLI,136  SAKOLI  441802,EDUCATION,20,853,2,30-99
15120,N P K MIDDLE SCHOOL  SAKOLI,144  SAKOLI  441802,EDUCATION,20,852,1,20-24
15121,N P K NCVC JR  COLLEGE SAKOLI,148  SAKOLI  441802,EDUCATION,20,853,1,10-14
15122,POST OFFICE SAKOLI,54  NH6  SAKOLI  441802,POST SERVISE,13,531,1,10-14
15123,N P K JR  COLLEGE SAKOLI,149  SAKOLI  441802,Higher education,20,853,1,10-14
15124,KRUSHNAMURARI KATAKWAR HIGH SCHOOL AND JR  COLLEGE SAKOLI,116  SAKOLI  441802,Higher education,20,853,1,15-19
15125,LIC OFFICE  SAKOLI,79 2  KALIDAS BHANVAN  441802,Insurance,16,651,1,10-14
15126,THE BHANDARA DISTRICT CENTRAL CO  OP  BANK SAKOLI,78  SAKOLI  441802,Monetary intermediation,16,641,1,10-14
15127,MONA AGRO INDUSTRIES SAKOLI,05  SAKOLI  441802,Manufacture of other food products,6,107,2,10-14
15128,SUBDISTRICT HOSPITAL SAKOLI,49  NH6  SAKOLI  441802,Hospital activities,21,861,1,30-99
15129,MSEB OFFICE SAKOLI,52 2  BAZAR LINE 441802,Electric power generation  transmission and distribution,7,351,4,15-19
15130,SBI SAKOLI,77  SAKOLI  441802,Monetary intermediation,16,641,1,20-24
15131,SBI BRANCH SAKOLI,43 7  SAKOLI  441802,Monetary intermediation,16,641,1,10-14
15132,MSRTC BUS STAND AND DEPO  SUBDIVISIONSAKOLI,78 1  SAKOLI  441802,Other land transport,13,492,1,200-499
15133,MSEB OFFICE SAKOLI,99 1  SAKOLI  441802,Electric power generation  transmission and distribution,7,351,1,30-99
15134,BSNL OFFICE SAKOLI,80  SAKOLI  441802,Wired telecommunications activities,15,611,1,10-14
15135,RANI LAKSHMIBAI KANYA VIDYALAY LAKHANI,SAMARTHA NAGAR 441804,Secondary Education,20,852,1,25-29
15136,GANDHI VIDYALAYA LAKHANI,159  NH6  441804,Secondary Education,20,852,1,30-99
15137,SAMARTHA MAHAVIDYALAYA LAKHANI,162  SAMARTHA NAGAR 441804,Higher education,20,853,2,30-99
15138,SAMARTHA KANISHTHA MAHAVIDYALAYA LAKHANI,180  SAMARTHA NAGAR 441804,Secondary Education,20,852,1,10-14
15139,SAMARATHA PRIMARY SCHOOL LAKHANI,113  SAMARTHA NAGAR 441804,Primary education,20,851,1,10-14
15140,Ashirwad mahila Bachat gat,119  Shukrawari ward no 17 Pauni  441910,Selfhelp group,21,889,5,10-14
15141,KUMKUM  MAHILA BACHAT GAT  PAWANI,46  RAMPURI WARD 12 441903,Activities of other membership organizations,23,949,5,10-14
15142,ADISHAKTI MAHILA BACHAT GAT  PAWANI,136  RAMPURI WARD 13 441903,Mahila Bachat Gat,23,949,5,10-14
15143,AMBIKA MAHILA BACHAT GAT  PAWANI,64 1  GANESH WARD 15 441903,Activities of other membership organizations,23,949,5,10-14
15144,GURUTWA MAHILA BACHAT GAT  PAWANI,134 2  BASTATWARI WARD 14  441903,Activities of other membership organizations,23,949,5,10-14
15145,ARTI MAHILA BACHAT GAT  PAWANI,26  BELGHATA  441903,Activities of other membership organizations,23,949,5,10-14
15146,Sitabai Mahila bachat gat,123  Mangalwari ward no 17 Pauni  441910,Selfhelp group,21,889,5,10-14
15147,GAURI MAHILA BACHAT GAT  PAWANI,52  WARD NO  13  441903,Activities of other membership organizations,23,949,5,10-14
15148,SONIYA MAHILA BACHAT GAT  PAWANI,100 2  GANESH WARD 15  441903,Activities of other membership organizations,23,949,5,15-19
15149,MAULI MAHILA BACHAT GAT  PAWANI,64 2  GANESH WARD 15 441903,Activities of other membership organizations,23,949,5,10-14
15150,Kalyani mahila bachat gat,11  Shukrawari ward no 17 Pauni  441910,Selfhelp group,21,889,5,10-14
15151,RIDHI SIDHI MAHILA BACHAT GAT  PAWANI,86  SHUKRAWARI WARD 17  441910,Activities of other membership organizations,23,949,5,10-14
15152,Bank,Pauni  M Cl   441910,Bank,16,641,1,15-19
15153,PADAMA MAHILA BACHAT GAT,72  PADAMA WARD 14 441910,Activities of other membership organizations,23,949,5,10-14
15154,Anusaya mahila bachat gat,48  Shaniwari ward no 6  Pauni  441910,selfhelp group,21,889,5,10-14
15155,PANCHSHIL MAHILA BACHAT GAT  PAWANI,SHUKRAWARI WARD 17  441910,Activities of other membership organizations,23,949,5,10-14
15156,SHILPA MAHILA BACHAT GAT,129 1  BASTATWARI WARD 14  441903,Activities of other membership organizations,23,949,5,10-14
15157,Dyanankur mahila bachat gat,7 2   Mangalwari ward no 17  441910,Selfhelp group,21,889,5,10-14
15158,VAIBHAV LAKSHMI MAHILA BACHAT GAT  PAWANI,RAMPURI WARD 12 441903,Activities of other membership organizations,23,949,5,10-14
15159,GAYATRI MAHILA BACHAT GAT  PAWANI,73 1  RAMPURI WARD 12  441903,Activities of other membership organizations,23,949,5,10-14
15160,GRISHMA MAHILA BACHAT GAT  PAWANI,NETAJI WARD 8  441903,Activities of other membership organizations,23,949,5,10-14
15161,MAHALAKSHMI MAHILA BACHAT GAT  PAWANI,NETAJI WARD 8  441903,Shelf Help Group,21,889,5,10-14
15162,MAHAMAYA MAHILABACHAT GAT  PAWANI,56 1  SHUKRAWARI WARD  441903,Shelf Help Group,21,889,5,15-19
15163,VAISHNAVI MAHILA BACHAT GAT  PAWANI,85 1  SHUKRAWARI WARD 16  441910,Activities of other membership organizations,23,949,5,10-14
15164,NAVDURGA MAHILA BACHAT GAT  PAWANI,116 3  NETAJI WARD 8 441903,Shelf Help Group,21,889,5,10-14
15165,GRUHLAKSHMI MAHILABACHAT GAT  PAWANI,144  RAMPURI WARD 13 4419103,Activities of other membership organizations,23,949,5,10-14
15166,VISHAKHA MAHILA BACHAT GAT  PAWANI,136  BELGHATA WARD 3 441903,Activities of other membership organizations,23,949,5,15-19
15167,VAISHNAVI MAHILA BACHAT GAT  PAWANI,64 1  BELGHATA WARD 441903,Mahila Bachat Gat,23,949,3,10-14
15168,Yogeshwari mahila Bachat gat,81  Rampuri ward no 12 Pauni  441910,Selfhelp group,21,889,5,10-14
15169,NAVADURGA MAHILA BACHAT GAT  PAWANI,18 2  SHUKRAWARI WARD 16  441910,Activities of other membership organizations,23,949,3,10-14
15170,SUKESHINI MAHILA BACHAT GAT  PAWANI,50 2  BASTATWARI WARD 14  441903,Activities of other membership organizations,23,949,5,15-19
15171,Veerangana mahila bachat gat,10  Tadeshwar ward no 1 441910,selfhelp group,21,889,5,10-14
15172,PRACHI MAHILA BACHAT GAT,30  RAMPURI WARD 14 441903,Activities of other membership organizations,23,949,5,10-14
15173,Chandika mahila bachat gat,113 2   Bajrang ward no 6 Pauni  441910,selfhelp group,21,889,5,15-19
15174,Laxmi mahila bachat gat,28 3   Padma ward no 12 Pauni  441910,Selfhelp group,21,889,5,10-14
15175,anandi mahila bachat gat,14 1   NETAJI WARD NO  8 PAUNI  441910,SAVING,23,949,5,10-14
15176,SATYA SAI BABA MAHILA BACHAT GAT  PAWANI,60 4  BELGHATA WARD 3  441903,Activities of other membership organizations,23,949,5,10-14
15177,SADHANA MAHILA BACHAT GAT  PAWANI,95  BELGHATA WARD 3 441903,Activities of other membership organizations,23,949,5,10-14
15178,RUPALI MAHILA BACHAT GAT  PAWANI,87 1  VITTHAL GUJARI WARD  441903,Activities of other membership organizations,23,949,3,10-14
15179,NUTAN MAHILA BACHAT GAT  PAWANI,02  BELGHATA WARD 3 441903,Activities of other membership organizations,23,949,5,10-14
15180,DHANASHRI MAHILA BACHAT GAT  PAWANI,57 3  BELGHATA WARD 3  441903,Activities of other membership organizations,23,949,5,10-14
15181,BAGYALAKSHMI MAHILA BACHAT GAT  PAWANI,57 2  BELGHATA WARD 3  441903,Activities of other membership organizations,23,949,5,10-14
15182,SANT VIRDAS MAHILABACHAT GAT  PAWANI,7  BAJARANG WARD 441903,Activities of other membership organizations,23,949,5,10-14
15183,THIMAI MAHILA BACHAT GAT  PAWANI,111  GAUTAM NAGAR 441903,Activities of other membership organizations,23,949,5,10-14
15184,SRUHTI MAHILA BACHAT GAT,69  NETAJI WARD NO  8 PAUNI  441910,SAVING,23,949,5,10-14
15185,RAHELA MAHILA BACHAT GAT  PAWANI,82  GAUTAM NAGAR 441903,Shelf Help Group,21,889,5,10-14
15186,YASHASHRI MAHILA BACHAT GAT  PAWANI,45  BHAI TALAO WARD 441903,Activities of other membership organizations,23,949,5,10-14
15187,Ambedaker Mahila Bachat Gat,19 1   Shaniwari ward no 5 Pauni  441910,selfhelp group,21,889,5,10-14
15188,Nalanda mahila bachat gat,71 2   Shaniwari ward no 6 Pauni  441910,selfhelp group,21,889,5,10-14
15189,Akansha Mahila Bachat Gat,122  Ghodeghat ward no 3 Pauni  441910,selfhelp group,21,889,5,15-19
15190,Ekata mahila bachat gat,35  Somawari ward no 7 Pauni  441910,Selfhelp group,21,889,5,15-19
15191,Pragati Mahila Bachat Gat,37  Somwari ward no 7 Pauni  441910,Selfhelp group,21,889,5,10-14
15192,Mahatma Phule Mahila Bachat Gat,Somwari ward no 7 Pauni  441910,Selfhelp group,21,889,5,10-14
15193,anandi mahila bachat gat,BHANDARA  441910,SAVING,23,949,5,10-14
15194,Ramabai Mahila Bachat Gat,36  Somwari ward no 7 Pawani  441910,Selfhelp group,21,889,5,10-14
15195,Dyaneshwari Mahila Bachat Gat,34 2   Ghodeghat ward no 3 Pauni  441910,selfhelp group,21,889,5,10-14
15196,Ahilya Mahila Bachat Gat,53  Ghodeghat ward no 3 Pauni  441910,selfhelp group,21,889,5,10-14
15197,Saraswati mahila bachat gat,19 3   Bajrang ward no 6 Pauni  441910,selfhelp group,21,889,5,10-14
15198,RAINBOW ENGLISH SCHOOL  PAWANI,07  BHAI TALAO WARD 441903,Secondary education,20,852,4,15-19
15199,Janhavi mahila bachat gat,5 2   Bajrang ward no 6 pauni  441910,selfhelp group,21,889,5,10-14
15200,SASHAKTA MAHILA BACHAT GAT  PAWANI,71  SOMAWARI WARD 7 441903,Activities of other membership organizations,23,949,4,15-19
15201,SURBHI MAHILA BACHAT GAT  PAWANI,72  SOMAWARI WARD 7 441903,Activities of other membership organizations,23,949,4,15-19
15202,Ma chandika jute bhandar,69 1   Bajarang ward pauni  441910,MAKING OF JUTE SACS ,6,139,2,15-19
15203,YUGANTAR MAHILA BACHAT GAT  PAWANI,96  SOMAWARI WARD 7 441903,Shelf Help Group,21,889,5,15-19
15204,VIKASH HIGH SCHOOL   Jr  COLLEGE  PAWANI,50  PAWANI  441910,Secondary education,20,852,1,30-99
15205,BHARATI MAHILA BACHAT GAT,60 2   WARD NO  5 441910,SAVING,23,949,5,10-14
15206,Jijamata eahila bachat gat,88  Vitthal gujari ward no 2 Pauni  441910,Activities of other membership organizations,23,949,5,10-14
15207,Sakshi mahila bachat gat,128  Vitthal gujari ward no 2 pauni  441910,Mahila Bachat Gat,23,949,5,10-14
15208,SATWI MAHILA BACHAT GAT  PAWANI,69  SOMAWARI WARD 7 441910,Activities of other membership organizations,23,949,4,10-14
15209,Aman mahila bachat gat,123  Gautamnagar ward no 1 pauni  441910,selfhelp group,21,889,5,10-14
15210,PORNIMA MAHILA BACHAT GAT,40  BHANDARA  441910,SAVING,23,949,5,10-14
15211,SHAHAYOG MAHILA BACHAT GAT  PAWANI,103  SOMAWARI WARD 7  441903,Activities of other membership organizations,23,949,5,10-14
15212,Durga mahila bachat gat,43  Vitthal gujari ward no 2 Pauni  441910,Activities of other membership organizations,23,949,5,15-19
15213,Bhumeshwari mahila bachat gat,77 2   Bajarang ward no 5 Pauni  441910,selfhelp group,21,889,5,10-14
15214,SANKALP MAHILA BACHAT GAT,65  SOMAWARI WARD 7 441903,Activities of other membership organizations,23,949,5,10-14
15215,PRIYANKA MAHILA BACHAT GAT,64 3  PAWANI  441903,Activities of other membership organizations,23,949,5,10-14
15216,Rukhamini Mahila bachat gat,45  Bajrang ward no 5 Pauni  441910,selfhelp group,21,889,5,10-14
15217,DESHONNATI MAHILA BACHAT GAT,13  WAGRESHWARI WARD PAUNI  441910,SAVING,23,949,3,10-14
15218,Rakhi Mahila Bachat Gat,40 2   Ghodeghat ward no 3Pauni  441910,self help group,21,889,5,10-14
15219,Priyadarshini Mahila Bachat gat,21  Ghodeghat ward no 3 Pauni  441910,Activities of other membership organizations,23,949,5,10-14
15220,Prabudhha Mahila Bachat Gat,139 2   Shaniwari ward no 5 Pauni  441910,selfhelp group,21,889,5,10-14
15221,Sansodhan mahila bachat gat,72  Shaniwari ward no 5 Pauni  441910,selfhelp group,21,889,5,10-14
15222,SRUHTI MAHILA BACHAT GAT,14  WAGRESHWARI WARD PAUNI  441910,SAVING,23,949,3,10-14
15223,SAMRUDHI MAHILA BACHAT GAT,34 2   WAGRESHWARI WARD PAUNI  441910,SAVING,23,949,3,10-14
15224,OM MAHILA BACHAT GAT,63 3   WAGRESHWARI WARD PAUNI  441910,SAVING,23,949,5,10-14
15225,SHAKTI MAHILA BACHAT GAT,69  GHODEGHAT WARD NO 3  441910,SAVING,23,949,5,10-14
15226,AKANSHA MAHILA BACHAT GAT,40 3   WAGRESHWARI WARD PAUNI  441910,SAVING,23,949,5,10-14
15227,SHARDA MAHILA BACHAT GAT,29 1   GHODEGHAT WARD NO 3  441910,SAVING,23,949,5,10-14
15228,ANJALI MAHILA BACHAT GAT,82 2   GHODEGHAT WARD NO 3  441910,SAVING,23,949,3,10-14
15229,VISHWAKANYA MAHILA BACHAT GAT,1 1   GHODEGHAT WARD NO 3  441910,SAVING,23,949,5,10-14
15230,Ujwala Mahila Bachat Gat,19  Pauni  M Cl   Pauni Bhandara  441910,selfhelp group,21,889,5,10-14
15231,JAY SHIVSHAKTI MAHIULA BACHAT GAT  PAWANI,65  PAWANI  441903,Activities of other membership organizations,23,949,5,10-14
15232,INDIRA MAHILA BACHAT GAT  PAWANI,135 3  PAWANI  441903,Shelf Help Group,21,889,3,15-19
15233,YASHODHARA MAHILA BACHAT GAT  PAWANI,128 2  PAWANI  441903,Activities of other membership organizations,23,949,3,10-14
15234,RAUNAK MAHILA BACHAT GAT  PAWANI,137  PAWANI  441903,Activities of other membership organizations,23,949,3,10-14
15235,KIRAN MAHILA BACHAT GAT  PAWANI,11  PAWANI  441903,Activities of other membership organizations,23,949,3,10-14
15236,DARSHANA MAHILA BACHAT GAT  PAWANI,123 1  GAUTAM NAGAR 441903,Shelf Help Group,21,889,5,15-19
15237,Prerana Mahila Bachat Gat,73  Pauni  441910,Selfhelp group,21,889,5,10-14
15238,Sanskriti Mahila Bachat Gat,79 2   Pauni  441910,Selfhelp group,21,889,5,10-14
15239,Ma Santoshi Mahila Bachat Gat,78 2   Pauni  441910,Selfhelp group,21,889,5,10-14
15240,Mahakali mahila bachat gat,75 3   Pauni  441910,Selfhelp group,21,889,5,10-14
15241,Gautami Mahila bachat gat,72 1   Pauni  441910,Selfhelp group,21,889,5,10-14
15242,Savitribai mahila bachat gat,64 2   Pauni  441910,Selfhelp group,21,889,5,10-14
15243,Sujata mahila bachat gat,38  Pauni  441910,Selfhelp group,21,889,5,10-14
15244,Amrapali mahila bachat gat,35 1   Pauni  441910,Selfhelp group,21,889,5,10-14
15245,KHUSHI MAHILA BACHAT GAT  PAWANI,96  WARD NO  13  441903,Activities of other membership organizations,23,949,5,10-14
15246,LATE HARISHCHANDRA PATIL SAWARBANDHE COLLEGE PAWANI,65 5  PAWANI  441910,Higher education,20,853,4,15-19
15247,Shitala mahila bachat gat,8 1  Pauni  M Cl   Pauni Bhandara  441910,Activities of other membership organizations,23,949,5,10-14
15248,VAINGANGA SCHOOL AMD JR  COLLEGE PAWANI,1  PAWANI  441910,Secondary education,20,852,1,30-99
15249,Maharshi Mahila Bachat Gat,30 Pauni  M Cl   Pauni Bhandara  441910,selfhelp group,21,889,5,10-14
15250,MSEB OFFICE  PAWANI,62  PAWANI  441910,Electric power generation  transmission and distribution,7,351,4,15-19
15251,KISAN SAHAKARI DUGDHA WYAVSAYIK SANSTHA  PAWANI,52 1  PAWANI  441910,MILK PRODUCTION AND SELLING,6,105,1,10-14
15252,ASHRAY MAHILA BACHAT GAT  PAWANI,179 1  GAUTAM NAGAR 441903,Activities of other membership organizations,23,949,5,10-14
15253,PAWAN CONVENT  PAWANI,52 2  BHAI TALAO WARD 441903,Primary education,20,851,4,20-24
15254,RANGE FOREST OFFICE  PAWANI,94 2  PAWANI  441903,operation of forest tree nurseries ,3,21,1,15-19
15255,DR  AMBEDAKAR HIGH SCHOOL  PAWANI,148  NAGAR PARISHAD ROAD  441910,EDUCATION,20,852,4,10-14
15256,VAIBHAO NAGARI CO  OP  CREDIT SSOCITY MARYA  PAWANI,77 1  OLD BUS STAND 441903,credit society,16,643,6,10-14
15257,RURAL HOSPITAL  PAWANI,93 1  PAWANI  441903,Hospital activities,21,861,1,30-99
15258,Bambleshwari mahila bachat gat,43 2   Shukrawari ward no 6 Pauni  441910,selfhelp group,21,889,5,10-14
15259,Savitribai Phule Kanya Vidyalaya,7 Pauni  M Cl   Pauni Bhandara  441910,Education,20,852,1,10-14
15260,NAGAR PALIKA VIDYALAYA PAWANI,156  GAUTAM NAGAR 441903,Secondary education,20,852,1,30-99
56568,Swami Engineering Workshop Madgi,69   Madagi  dewhadi   Tumsar  Nagpur  441913,Manufacture of structural metal products  tanks ,6,251,2,25-29
56569,Nirmal Sai Udyog madgi,41 2   Subhash Ward 441913,Manufacture of structural metal products  tanks ,6,251,2,15-19
56570,HINDUSTHAN COMPOSIT LIMITED  MIDC GADEGAON,C 10 1  GADEGAON  MIDC AREA  441904,Manufacture of parts and accessories for motor vehicles,6,293,2,200-499
56571,PRAKASH VIDYALAYA KARDHA,43 1   MAIN ROAD KARDHA  441904,Higher education,20,853,4,25-29
56572,MULBHUT SUVIDHA KENDRA  JILHA RESHIM KARYALAY JAMNI,15   JAMNI  441904,Manufacture of other textiles,6,139,6,10-14
56573,ASHOKA HIGH WAYS  WIRSHI,06  NH6   Wirshi  Sakoli  Bhandara  441802,Construction of roads,9,421,2,30-99
56574,ASHOK LELYAND LTD  GADEGAON,1  MIDC INDUSTRIAL ARIA   Gadegaon  Lakhani  Bhandara 441804,Manufacture of bodies for motor vehicles,6,292,3,>=500
56575,Trading Company,Kinhala   Lakhandur  Bhandara  441803,Wholesale on a fee or contract basis,11,461,1,20-24
56576,BANK OF INDIA BRANCH LAKHANDUR,146 2   LAKHANDUR 441803,Monetary intermediation,16,641,1,10-14
56577,THE MOTHER TERASA HANDICAP TRAINING AND REHABILATION CENTRE ANTARGAON,ANTARGAON LAKH    Lakhandur  Bhandara 441803,Higher education,20,853,4,10-14
62269,Late Yashvantrao Kukde High School Mandhal,67   mandhan  tumsar 441913,Secondary Education,20,852,4,15-19
62270,Mahatma Jyotiba Phule High School,70    Madgi  tumsar nagpur  441913,Secondary Education,20,852,4,25-29
62271,Z P Primary School Madgi,49   Ambedkar Ward 441913,Primary education,20,851,1,10-14
62272,M S E B,56    Madgi  tumsar nagpur  441913,Electric power generation  transmission and distribution,7,351,1,20-24
62273,Laxmi Sales   Products,52    Madgi  tumsar nagpur   441913,Manufacture of basic precious and other non  ferrous metals,6,242,2,15-19
62274,Shailendra Brijnath Mourya Madg,64 1   Ambedkar Ward 441913,Manufacture of structural metal products  tanks ,6,251,2,15-19
62275,Sai Amrut Milk,50   Madgi tumsar  bhandara  441913,Manufacture of dairy products,6,105,2,10-14
62276,Clerian Drugs,161   Devhadi  tumsar  bhandara  441913,Manufacture of pharmaceuticals  medicinal chemical and botanical products,6,210,2,100-199
62277,Sachin Singhhi   Magnese Karkhana ,144   Devhadi  tumsar  bhandara  441913,Manufacture of basic precious and other non  ferrous metals,6,242,2,15-19
62278,Aswati Industries Devhadi,138   Devhadi  tumsar  bhandara  441913,Manufacture of structural metal products  tanks ,6,251,2,20-24
62279,Rahangadale Rice Mill,20 2   Hardoli  tumsar  bhandara  441915,Manufacture of grain mill products  starches and starch products,6,106,2,10-14
62280,Gram Vikas High School,56   Hardoli  tumsar  bhandara  441915,Secondary Education,20,852,4,30-99
62281,Vinoba Bhave Vidyalaya,109   Yerli  tumsar  bhandara  441912,Secondary Education,20,852,1,10-14
62282,G E S  Hostel,63   Yerli  tumsar  bhandara  441912,Other accommodation,14,559,4,10-14
62283,G E S  Ashramshala,62   Yerli  tumsar  bhandara  441912,Secondary Education,20,852,1,15-19
62284,Late Nirdhanrao Patil Ded  Bed College,45   mangali  tumsar  bhandara  441912,Higher education,20,853,4,10-14
62285,Maa Durga Rice Mill,109   Mangali De   tumsar  bhandara  441912,Manufacture of grain mill products  starches and starch products,6,106,4,10-14
62286,Keshav Rice Mill,07   Mangli  tumsar  bhandara  441912,Manufacture of grain mill products  starches and starch products,6,106,2,10-14
62287,Tara Industries,40   Mangli  tumsar  bhandara  441912,Manufacture of grain mill products  starches and starch products,6,106,2,15-19
62288,Jagdamba Rice Mill,06   Mangali  tumsar  bhandara  441912,Manufacture of grain mill products  starches and starch products,6,106,2,10-14
62289,Priti Rice Mill,13   Mangli   tumsar  bhandara  441912,Manufacture of grain mill products  starches and starch products,6,106,2,15-19
62290,Sarswati High School,9   Khapa  tumsar  bhandara  441915,Secondary Education,20,852,4,10-14
62291,Shivshankar Modern Rice Mill,39   Mangali  tumsar  bhandara  441912,Manufacture of grain mill products  starches and starch products,6,106,2,15-19
62292,Shri Mineral   Chemical Company,68    Chicholi  tumsar  bhandara  441912,Manufacture of other chemical products,6,202,2,15-19
62293,Babuji Adiswasi Hostel,1 2   Ambagad  tumsar  bhandara  441912,Other accommodation,14,559,4,10-14
62294,Babuji Adiwasi Ashramshala,1 1   Ambagad tumsar  bhandara   441912,Primary education,20,851,4,10-14
62295,R T Vidyalaya,206   Lohara  tumsar  bhandara  441914,Secondary Education,20,852,4,20-24
62296,Adarsh Vidyalaya   Jr College,107   machhera  tumsar  bhandara  441915,Secondary Education,20,852,4,30-99
62297,Rural Hospital,91   Sihora  tumsar  bhandara  441915,Hospital activities,21,861,1,10-14
62298,Maharashtra High School   Jr College,92 1    Sihora  tumsar  bhandara  441915,Higher education,20,853,4,30-99
62299,Arts College,383 2   Sihora  tumsar  bhandara  441915,Higher education,20,853,4,10-14
62300,Pandit Dindayal Upadhyay,65    Dongarla  tumsar  bhandara  441912,Secondary Education,20,852,4,10-14
62301,Z P High School,127   Chulhad  tumsar  bhandara  441915,Secondary Education,20,852,1,10-14
62302,Pragati Scheduled Caste Resi School,66   Bapera  tumsar  bhandara  441915,Primary education,20,851,4,25-29
62303,Late Sevakram Pardhi Memorial High School,150    Temni  tumsar  bhandara  441915,Secondary Education,20,852,4,10-14
62304,Adiwasi Ashramshala,109    Chandpur  tumsar  bhandara  441915,Primary education,20,851,4,25-29
62305,Vivekanand Polytechnic College,22    Sitasawangi  tumsar  bhandara  441907,Other education,20,854,4,30-99
62306,Jay Bajrang Matsyapalan sahakari sanstha,1 2   Garkabhonga  tumsar  bhandara  441912,Fishing,4,31,4,25-29
62307,Arun Gopichand Gaupale,44 2    Asalpani  tumsar  bhandara  441912,Support activities to agriculture,1,16,2,10-14
62308,Arvind Vidyalaya,124    Bagheda  tumsar  bhandara  441912,Secondary Education,20,852,4,20-24
62309,Z P Primary School,3    Bagheda  tumsar  bhandara  441912,Primary education,20,851,1,10-14
62310,S S Enterprises,6    Sundartola  tumsar  bhandara  441912,Manufacture of structural metal products  tanks ,6,251,3,30-99
62311,Sarswati Kanya Vidyalaya,159 4   Nakadongari  tumsar  bhandara  441907,Secondary Education,20,852,4,10-14
62312,Range Forest Office,4    Nakadongari  tumsar  bhandara  441907,other forestry activities,3,21,1,30-99
62313,Shirinbai Netrawala School,169   Madgi  tumsar  bhandara  441913,Secondary Education,20,852,4,30-99
62314,Bhartiya Niwasi Central School,146 2   Nakadongari  tumsar  bhandara  441907,Primary education,20,851,4,10-14
62315,Shri Gurudeo High School,15   Ashti  tumsar  bhandara  441913,Secondary Education,20,852,4,20-24
62316,Z P NUTAN VIDYALAYA MUNDHARI,MUNDHARI  441905,Secondary Education,20,852,1,15-19
62317,PRIMARY HEALTH CENTRE  KARADI,KARDI  441912,Medical and dental practice activities,21,862,1,25-29
62318,M S E DISTRIBUTION COMPANY,GANDHI WARD  KARDI 441912,Electric power generation  transmission and distribution,7,351,1,10-14
62319,Z P HIGH SCHOOL  KARDI,KARDI  441912,EDUCATION,20,852,1,25-29
62320,GAJANANRAO RAMBHAD VIDYALAYA NARSINHATOLA,DEWADA BK  441913,EDUCATION,20,852,2,10-14
62321,VAINGANGA SUGAR AND POWER LTD ,NARSINHATOLA  141913,Manufacture of other food products,6,107,4,100-199
62322,MARSE INDUSTRIES  NERI,SATONA ROAD  NERI 441905,INDUSTRIAL WORK,6,282,2,30-99
62323,Z P JR  COLLEGE  KHAMARI,KHAMARI  441905,EDUCATION,20,853,1,10-14
62324,PRE MIDDLE SCHOOL  KHAMARI,KHAMARI  441905,EDUCATION,20,852,1,10-14
62325,Z P PRE MIDDLE SCHOOL  ROHANA,105   MAIN CHAUK  ROHANA  441905,Secondary Education,20,852,1,10-14
62326,SHRIRAM HIGH SCHOOL  BETALA,BETALA  441910,Secondary Education,20,852,1,10-14
62327,PRIMARY SCHOOL  BETALA,BETALA  441910,Primary education,20,851,1,10-14
62328,SAW MILL  LHUT SAWARI,khutsawari  441909,WOODEN WORK,6,161,2,10-14
62329,RAMRATAN DAMAHE  RICE MILL,khutsawari  441909,Manufacture of grain mill products  starches and starch products,6,106,2,10-14
62330,ASHOK SWWALAKHE RICE MILL,KHUT SAWARI  441909,Manufacture of grain mill products  starches and starch products,6,106,2,20-24
62331,FATAMA MATHARSA SCHOOL  MOHADI,WADEGAON  441909,Primary education,20,851,4,10-14
62332,SUNFLAG SCHOOL  EKLARI,EKLARI  441905,Secondary Education,20,852,1,30-99
62333,INDUSTRIAL TRAINING INSTITUTE  MOHADI,WADEGAON  441909,Higher education,20,853,1,15-19
62334,RURAL HOSPITAL  MOHADI,MOHADI  441909,Hospital activities,21,861,1,25-29
62335,NARMADABAI THAWAKAR  COLLEGE AND CONVENT  MOHADI,69   BAY PASS ROAD  MOHADI  441909,Higher education,20,853,4,15-19
62336,SUDAMA SCHOOL,BAY PASS ROAD  MOHADI  441909,Secondary Education,20,852,4,30-99
62337,SAVITRIBAI FULE ASHRAMSHALA  KARDI,KARDI  441912,Higher education,20,853,7,25-29
62338,Z P SCHOOL  MOHADI,MOHADI  441909,Secondary Education,20,852,1,30-99
62339,SHANTI INDUSTRIES  MOHADI,MOHADI  441909,Manufacture of structural metal products  tanks ,6,251,2,30-99
62340,N J PATEL COLLEGE  MOHADI,MOHADI  441909,Higher education,20,853,4,20-24
62341,Z P JR  COLLEGE  ANDHALGAON,ANDHALGAON  441914,Higher education,20,853,1,30-99
62342,QUATA WORKSHOP,1   ANDHALGAON 441914,Spinning  weaving and finishing of textiles,6,131,2,10-14
62343,BANK OF INDIA BRANCH ANDHALGAON,ANDHALGAON  441914,Monetary intermediation,16,641,1,10-14
62344,NAVAPRABHAT KANYA MAHAVIDYALAYA KANDRI,KANDRI  441914,Secondary Education,20,852,1,20-24
62345,Z P PRE MIDDLE SCHOOL  KANDRI,KANDRI  441914,Secondary Education,20,852,1,10-14
62346,SANT GAJANAN MAHARAJ EDUCATION COLLEGE KANDRI,KANDRI  441914,Higher education,20,853,2,15-19
62347,Z P HIGHSCHOOL AND JR  COLLEGE JAMB,JAMB  441914,Higher education,20,853,1,15-19
62348,PRIMARY HEALTH CENTRE,116 8    PAHELA  bhandara  441924,Hospital activities,21,861,1,15-19
62349,GANDHI VIDHYALAYA PAHELA,115   PAHELA  441924,Secondary Education,20,852,4,30-99
62350,R B BHURA  MAROTI CONCRIT ,192  DAWADIPAR BAZAR 441924,Construction of buildings,9,410,2,15-19
62351,ADARSH VIDYALAY DAWADIPAR BAZAR,73   DAWADIPAR BAZAR 441904,Secondary Education,20,852,4,15-19
62352,CHAITANY VIDYALALA MANEGAON,02   MANEGAON  441904,Higher education,20,853,4,25-29
62353,MAHARASTRA STATE SEED CORPORATION  MIDC GADEGAON,C 10 2   MIDC ARIA 441904,SEEDS PRODUCTION,1,16,4,25-29
62354,SESHYI FOODS PVT  LTD  MIDC GADEGAON,C 10 3   MIDC ARIA 441904,Manufacture of grain mill products  starches and starch products,6,106,2,30-99
62355,VEDHA INDUSTRIES  MIDC GADEGAON,A 3   MIDC ARIA  441904,Manufacture of products of wood  cork  straw,6,162,4,10-14
62356,GANPATI COMPLEX BHANDARA,3RD FLOOR   MAIN ROAD BHANDARA 441904,Manufacture of products of wood  cork  straw,6,162,2,20-24
62357,FASTECH INDUSTRIES MIDC GADEGAON,A 4   MIDC ARIA  441904,Manufacture of other fabricated metal products ,6,259,2,10-14
62358,AJAY BRIDE BAR MIDC GADEGAON,C 11   MIDC ARIA  441904,Casting of metals,6,243,2,30-99
62359,SHRI SAI INDUSTRIES  MIDC GADEGAON,B 2   MIDC AREA  441904,Casting of metals,6,243,2,15-19
62360,PRIYANKA INDUSTRIES  MIDC GADEGAON,B 11   MIDC AREA 441904,Manufacture of special  purpose machinery,6,282,2,20-24
62361,VIJAY KUMAR BARAI  MIDC GADEGAON,C 13   MIDC AREA 441904,Manufacture of special  purpose machinery,6,282,2,20-24
62362,PRIMARY HEALTH CENTRE  DHARGAON,107   DHARGAON 441904,EDUCATION,21,861,1,10-14
62363,Z P HIGH SCHOOL DHARGAON,116   DHARGAON 441804,Secondary Education,20,852,1,10-14
62364,SHEP MAHABCHAT GAT,5 2    SATKAR NAGAR 441904,Other education,23,949,5,10-14
62365,DAMBER COMPANY,163   BHILEWADA 441924,Construction of utility projects,9,422,2,25-29
62366,ELAIT ELECTRICAL PVT  LTD ,120   BHILEWADA 441924,Retail sale of other household equipment,12,475,3,30-99
62367,SHRI SHARASCHANDRA PAWAR TANTRANIKETAN,121 2    BHILEWADA 441924,Higher education,20,853,1,30-99
62368,J J HIGH SCHOOL AND J J ARTS COLLEGE  BHILEWADA,114   BHILEWADA 441924,Secondary Education,20,852,4,10-14
62369,BHARAT RICE MILL BHILEWADA,57 1    BHILEWADA 441924,Manufacture of grain mill products  starches and starch products,6,106,2,20-24
62370,PRASHANT VIDYALAYA,58   MATORA  441924,Higher education,20,853,4,15-19
62371,BUTI VIDYALAYA KHAMARI,9   KHAMARI  441924,Secondary Education,20,852,4,10-14
62372,INDIRA HIGHSCHOOL  KOKA,318   KOKA JANGAL 441905,Secondary Education,20,852,4,15-19
62373,NIRIKSHAN V BAL SUDHAR GRUH,133   BHILEWADA 441924,Other education,20,854,4,10-14
62374,MADHUKAR PANDAV COLLEGE OF ENGINEERING,121 1    BHILEWADA 441924,Higher education,20,853,1,30-99
62375,VANVAIBHAO ADIWASHI PRIMARY AND HIGH SCHOOL JR  COLLEGE KOKA,110   KOKA JANGAL 441905,Secondary Education,20,852,4,25-29
62376,KASTURBA GANDHI VIDYALAYA BELGAON,52   BELAGAON  441905,Higher education,20,853,4,20-24
62377,M S NAREN AGRO INFLIMENTS AMBADI,9   MAIN ROAD AMBADI 441924,Manufacture of special  purpose machinery,6,282,2,15-19
62378,VITTHAL PRASHAD DUBE KANISHTHA MAHAVIDYALAYA GUNTHARA,7   GUNTHARA  441904,Secondary Education,20,852,4,25-29
62379,VINOD VIDYALAYA AND KANISHTHA MAHAVIDYALAYA SILLI,21   MAIN ROAD SILLI 441904,Secondary Education,20,852,4,30-99
62380,Z P  UPPER PRIMARY SCHOOL SILLI,20 1    MAIN ROAD SILLI 441904,Primary education,20,851,1,10-14
62381,VINOD VIDYALAY TEKEPAR,92   MAIN ROAD  441804,Higher education,20,853,1,20-24
62382,ABHIJIT ASHOK PVT  LTD  TOLL PANJA OFFICE,154   GIROLA  441904,Construction of roads,9,421,2,30-99
62383,ELECTRICITY DISTRIBUTION COMPANY OFFICE,156   GIROLA  441904,Electric power generation  transmission and distribution,7,351,1,15-19
62384,ELECTRICITY DISTRIBUTION COMPANY OFFICE,155   GIROLA  441904,Electric power generation  transmission and distribution,7,351,1,20-24
62385,SHAMKALA AGRO MILL KARDHA,120   KARDHA  441904,Manufacture of grain mill products  starches and starch products,6,106,2,25-29
62386,INDIAN POLTRY FARM,34   SIRASGHAT ROAD KARDHA  441904,POULTRY Farming activity,2,14,2,15-19
62387,PAVARI KAYNITE MINES  MIDC GADEGAON,A 18 19   MIDC AREA 441904,Quarrying of stone  sand and clay,5,81,2,15-19
62388,JKSF CONVENT,79   MAIN ROAD KARDHA  441904,Primary education,20,851,4,10-14
62389,PODDAR CONVENT SCHOOL KARDHA,113   KARDHA  441904,Secondary Education,20,852,2,30-99
62390,NAVAPRABHAT SHIKSHAN SHANSTHA KHAMARI,31 1   KARDI  PALORA ROAD  441904,Higher education,20,853,4,10-14
62391,MAROTRAO KAWALE VIDYALAYA  MANEGAON,77 1  MANEGAON BAZAR  441924,Higher education,20,853,4,10-14
62392,PLASTIC BAG COMPANY  PALGAON,2   PALGAON  441804,Manufacture of plastics products,6,222,3,25-29
62393,RISHATH METAL PROCESS JAMNI,GATE NO  27 1   JAMNI 441904,Manufacture of other fabricated metal products ,6,259,2,15-19
62394,KISAN DUGDHA VYAVSAY SANGH MARYA  BHANDARA,69   JAMANI  441904,Manufacture of dairy products,6,105,6,100-199
62395,SHRI SAI METAL COMPANY  SHIRSI,43   SHIRSI  441904,Manufacture of other fabricated metal products ,6,259,2,30-99
62396,DAMBAR PLANT PANDHARABODI,124   MAIN ROAD PANDHARABODI  441906,Manufacture of motor vehicles,6,291,2,10-14
62397,GRAM VIKASH HIGHSCHOOL  KONDHI,81   KONDHI  441906,Secondary Education,20,852,4,30-99
62398,ANUSUCHITJATI AND NAVBAUDHA SHASHAKIYA MULINCHI NIVASHI SHALA,103 1   RAJEDAHEGAON 441906,Secondary Education,20,852,1,15-19
62399,SAIRAM HIGHSCHOOL PARSODI,163   PARSODI  441906,Secondary Education,20,852,4,10-14
62400,M P P  INDUSTRIES LIMITED  MAREGAON,81   MAREGAON  441906,Manufacture of basic precious and other non  ferrous metals,6,242,3,200-499
62401,PRIMARY HEALTH CENTRE MOHADURA,78 3   MAIN ROAD MOHADURA  441906,Hospital activities,21,861,1,10-14
62402,INDIRA GANDHI HIGHSCHOOL AND KANISHTHA MAHAVIDYALAY MOHADURA,76 1   MAIN ROAD MOHADURA  441906,Secondary Education,20,852,4,30-99
62403,VIKASH HIGHSCHOOL AND JR  ART SCIENCE MAHAVIDYAL KHARBI,11   KHARBI NAKA 441906,Higher education,20,853,4,30-99
62404,Z P HIGHSCHOOL AND JR  COLLEGE  SANGADI,28   SANGADI  441802,Secondary Education,20,852,1,30-99
62405,FOREST OFFICE SANGADI,159   SANGADI  441802,other forestry activities,3,21,1,20-24
62406,PANDIT JAWAHARLAL NEHARU VIDYALAYA AND JR  COLLEGE SANGADI,SANGADI  441802,Secondary Education,20,852,1,30-99
62407,BHASKAR KAPGATE,106 1   KATANGADHARA 441802,Retail sale of automotive fuel,12,473,2,10-14
62408,TILAK VIDYALAYA KHANDALA,116   KHANDALA  441802,Secondary Education,20,852,1,15-19
62409,PRIMARY HEALTH CENTRE  GONDUMARI,64 2   GONDUMARI 441802,Medical and dental practice activities,21,862,1,10-14
62410,LALBAHADURSHASTRI VIDYALAYA GONDUMARI,10 1   GONDUMARI 441806,Secondary Education,20,852,1,30-99
62411,SHYAMANAND HIGH SCHOOL  MAHALGAON,50 1   MAHALGAON 441806,Secondary Education,20,852,1,10-14
62412,MAHAVITARAN BRANCH WADAD,19   WADAD  441802,Electric power generation  transmission and distribution,7,351,1,15-19
62413,NAMRATA VIDYALAYA UMARI,45   UMARI  441802,Secondary Education,20,852,1,30-99
62414,Z  P  UPPER PRIMARY SCHOOL,117   LAWARI  441802,Primary education,20,851,1,10-14
62415,SWAOLAMBI APANGA INDUSTRIAL RESIDENCIAL WORKSCHOOL SENDURWAFA,120   SENDURWAFA 441802,Other education,20,854,1,10-14
62416,RAHANGDALE COLLEGE OF EDUCATION  SENDURWAFA,314   SENDURWAFA 441802,Higher education,20,853,1,15-19
62417,LAKSHMIBAI ADHYAPAK VIDYALAYA  SENDURWAFA,200   SENDURWAFA 441802,Higher education,20,853,1,10-14
62418,GOVT  POLITECHNIQUE SAKOLI,92   SENDURWAFA 441802,Secondary Education,20,852,1,30-99
62419,B J MUNGULMARE ELECTREICAL CONTRACTOR SENDURWAFA,SENDURWAFA  441802,Electric power generation  transmission and distribution,7,351,2,20-24
62420,VAINGANGA SUGAR AND POWER LTD  SENDURWAFA,111 1   SENDURWAFA 441802,Manufacture of other food products,6,107,6,15-19
62421,LAKSHMI NARAYAN HIGHSCHOOL  SENDURWAFA,315   SENDURWAFA 441802,Secondary Education,20,852,1,30-99
62422,NAGZIRA HOSTEL  SENDURWAFA,98   SENDURWAFA 441802,Other accommodation,14,559,1,10-14
62423,Z  P  SCHOOL  SENDURWAFA,10 1   SENDURWAFA 441802,Primary education,20,851,1,10-14
62424,INDUSTRIAL TRAINING INSTITUTE SENDURWAFA,99   SENDURWAFA 441802,Secondary Education,20,852,1,15-19
62425,NEW KATHIYAWAD DHABA  WIRSHI,2   NH6  441802,Restaurants and mobile food service activities,14,561,2,15-19
62426,PRIMARY HEALTH CENTRE  WIRSHI,1   WIRSHI  441802,Medical and dental practice activities,21,862,1,15-19
62427,Z  P  PRIMARY SCHOOL  KUMBHALI,25   KUMBHALI  441802,Primary education,20,851,1,10-14
62428,BAJIRAO KARANJEKAR COLLEGE AND FHARMACY MAHAVIDYALAYA  SAKOLI,185   NAGZIRA ROAD  JAMNAPUR  441802,Higher education,20,853,1,30-99
62429,NAVJIVAN ENGLISH CONVENT SCHOOL  JAMNAPUR,385   NAGZIRA ROAD 441802,Primary education,20,851,1,20-24
62430,G E S HIGH SCHOOL  VIRSHI,60   VIRSHI  441802,Secondary Education,20,852,1,15-19
62431,Z P PRIMARY SCHOOL UMARI,173   UMARI  441802,Primary education,20,851,1,10-14
62432,PARESH HIGHSCHOOL  KINHI,52   KINHI  441802,EDUCATION,20,852,2,20-24
62433,GOVT  PRIMARY SCHOOL  PINDKEPAR,39   PINDKEPAR  441802,Primary education,20,851,1,10-14
62434,SARVANGIN HIGH SCHOOL  PINDKEPAR,13   PINDKEPAR  441802,EDUCATION,20,852,1,25-29
62435,MARTANDRAO PATIL VIDYALAYA  JAMBHALI,159   JAMBHALI  441802,EDUCATION,20,852,1,30-99
62436,Z  P  PRIMARRY SCHOOL  BODARA,71   BODARA  441802,EDUCATION,20,851,1,10-14
62437,RAMAJI VIDYALAYA BODARA,103   BODARA  441802,EDUCATION,20,852,1,15-19
62438,KAMAI KARANJEKAR MIDDLE AND UPPER MIDDLE SCHOOL YEKODI,1   YEKODI  441802,Secondary Education,20,852,4,15-19
62439,NIRDHAN PATIL WAGHAYE COLLEGEPARASTOLA,1   PARASTOLA  441802,EDUCATION,20,853,1,20-24
62440,TIRUPATI VIDYALAYA  WADEGAON,73   WADEGAON  441802,EDUCATION,20,852,5,10-14
62441,PRIMARY HEALTH CENTRE  SANGADI,138   GAJANAN MAHARAJ CHAUK 441802,Medical and dental practice activities,21,862,1,25-29
62442,NASHIKRAO VIDYALAYA  SATALWADA,SATALWADA  441802,EDUCATION,20,852,1,10-14
62443,HARI OM RICE MILL  SATALWADA,115 1   SATALWADA 441802,Manufacture of grain mill products  starches and starch products,6,106,1,10-14
62444,PRIMARY HEALTH CENTRE  KHAMBA,151   KHAMBA  441802,Medical and dental practice activities,21,862,1,10-14
62445,MAHATMA GANDHI HIGHSCHOOL  BAMPEWADA,40   BAMPEWADA 441802,EDUCATION,20,852,1,15-19
62446,GOVT  ASHRAM SCHOOLPALASPANI,4 1   PALASPANI  441802,EDUCATION,20,852,1,10-14
62447,WASANTRAO NAIK VIDYALAYA CHANDORI,69   CHANDORI  441802,Secondary Education,20,852,4,15-19
62448,NAMDEORAO HIGH SCHOOL  GHANOD,19   GHANOD  441802,EDUCATION,20,852,1,10-14
62449,ADIWASHI ASHRAM SCHOOL  JAMBHALI,10   JHAMBHALI  441802,EDUCATION,20,851,1,20-24
62450,RAWAJI FATE VIDYALAYA  KHARASHI,122  KHARASHI LOHARA 441809,EDUCATION,20,853,2,30-99
62451,Z P HIGH SCHOOL PALANDUR,23   PALANDUR  441809,EDUCATION,20,852,1,15-19
62452,GOVIND HIGH SCHOOL  PALANDUR CHAU ,126   PALANDUR  441809,EDUCATION,20,852,2,30-99
62453,SHRI SANTAJI ART AND SCIENCE COLLEGE PALANDUR,149   PALANDUR  441809,EDUCATION,20,853,2,15-19
62454,GOVIND JR  COLLEGE PALANDUR CHAU ,119   PALANDUR  441809,EDUCATION,20,853,2,10-14
62455,ANANDABAI VIDYALAYA KITALI,110   KITALI  441903,EDUCATION,20,851,2,10-14
62456,Z P PRIMARY SCHOOL MURMADI TUPKAR,151   MURMADI  441809,Primary education,20,851,1,10-14
62457,SANT TUKARAM VIDYALAYA KANERI,89 1   KANERI  441809,EDUCATION,20,852,1,15-19
62458,SHUKRACHARYA VIDYALAYA MIRHEGAON,271   AMBEDAKAR CHAUK  441809,Primary education,20,851,1,10-14
62459,NAVCHAITANYA VIDYALAYA SHIVANI MO,132   SHIVANI  441809,Secondary Education,20,852,4,20-24
62460,Z P JR  COLLEGE LAKHANI,80   MAIN ROAD POHARA  441809,Secondary Education,20,852,1,15-19
62461,SHRIRAM FATE HIGHSCHOOL  POHARA,44   PALANDUR ROAD 441809,Secondary Education,20,852,2,10-14
62462,PRIMARY HEALTH CENTRE PIMPALGAON,81   MAIN ROAD  441804,Hospital activities,21,861,1,10-14
62463,SHIDHARTH BIDI UTPADAK AUDYOGIK SAHAKARI SANSTHA MARYA  LAKHANI,41   PIMPALGAON 441804,Manufacture of tobacco products,6,120,2,30-99
62464,Z P HIGH SCHOOL  PIMPALGAON,65   NH6  441804,Secondary Education,20,852,1,15-19
62465,ADIWASHI SHIV VIDYALAYA AND BABURAO MADAVI KANISHTHA MAHAVIDYALAYA RAJEGAON,7   RAJEGAON  441804,Secondary Education,20,852,2,20-24
62466,RICE MILL MORGAON,36   PATEL GALLI WARD 441804,Manufacture of grain mill products  starches and starch products,6,106,2,10-14
62467,JIJAMATA MIDDLE SCHOOL MORGAON RAJEGAON,23   NEAR HANUMAN MANDIR  441804,Secondary Education,20,852,2,10-14
62468,SNEHA KANYA VIDYALAYA PIMPALGAON,276   PIMPALGAON 441804,Secondary Education,20,852,1,10-14
62469,DHARMDAS KOCHE,48   MUNDIPAR  441804,Manufacture of non  metallic mineral products,6,239,2,15-19
62470,SHASTRI RAGHORTE  DHANLA,102   DHANLA  441804,Construction of buildings,9,410,2,10-14
62471,PRIMARY HEALTH CENTRE,79   MAIN ROAD POHARA  441809,Hospital activities,21,861,1,25-29
62472,SAINIKI VIDYALAY  KESALWADA,1   KESALWADA  441804,Secondary Education,20,852,4,30-99
62473,ITI GADEGAON  LAKHANI,85 2   GADEGAON 441804,ITI,20,852,1,20-24
62474,N P W COLLEGE LAKHANI,172   GADEGAON 441804,Secondary Education,20,852,2,30-99
62475,UNIVERSE CONVENT GADEGAON  LAKHANI,96   GADEGAON  441804,Primary education,20,851,1,30-99
62476,ANAND HIGH SCHOOL GADEGAON,113   GADEGAON 441804,Secondary Education,20,852,2,10-14
62477,R S O  GADEGAON,169   GADEGAON 441804,Sale of motor vehicle parts and accessories,10,453,2,20-24
62478,SHIDHARTHA MAHAVIDYALAYA SAWARI,75   KHEDEPAR ROAD 441804,Higher education,20,853,2,15-19
62479,BHARAT GAS AGENCY LAKHANI,3   KHEDEPAR ROAD 441804,Manufacture of gas  distribution of gaseous fuels,7,352,2,25-29
62480,VIDHARBHA ARTS AND COMMERCE COLLEGE LAKHANI,42 6   INFRONT OF POLICE STATION 441804,Higher education,20,853,1,15-19
62481,POLICE STATION PALANDUR,12   PALANDUR  441809,Security systems service activities,19,802,1,30-99
62482,DATTATRAY RICE MILL  LAKHANI,1   KHEDEPAR ROAD 441804,Manufacture of grain mill products  starches and starch products,6,106,2,30-99
62483,JR  ENGINEER  MSEDCL SECTION OFFICE LAKHANI URBAN,1471   LAKHANI  441804,Electric power generation  transmission and distribution,7,351,1,10-14
62484,THE ASSISTANT ENGINEER OSM SDM MSEDCL  LAKHANI,9 2   LAKHANI  441804,Electric power generation  transmission and distribution,7,351,1,10-14
62485,JR  ENGINEER MSEDCL LAKHANI,9 3   LAKHANI  441804,Electric power generation  transmission and distribution,7,351,1,10-14
62486,Z P KENDRIYE UPPER PRIMARY SCHOOL,33   LAKHORI  441804,Primary education,20,851,1,10-14
62487,PRIMARY HEALTH CENTRE  SALEBHATA,89   DNYANESHWAR NAGAR  441804,Hospital activities,21,861,1,15-19
62488,ANJALI CENTRAL ASHRAM SCHOOL  SALEBHATA,100   BAZAR CHAUK 441804,Secondary Education,20,852,1,10-14
62489,NPW COLLEGE SALEBHATA,14   BAZAR CHAUK 441804,Secondary Education,20,852,2,10-14
62490,DNYASHWAR VIDYALAYA  SALEBHATA,90   DNYANESHWAR NAGAR  441804,Secondary Education,20,852,2,30-99
62491,DIPAK VIDYALAYA RENGEPAR KOTHA,22   SOMALWADA ROAD 441804,Secondary Education,20,852,1,10-14
62492,TIRUPATI VIDYALAYA KESALWADA,85   NEAR HANUMAN MANDIR  441804,Secondary Education,20,852,2,10-14
62493,Primary Health Centre,67   Bhuyar  pauni  bhandara  441910,Medical and dental practice activities,21,862,1,15-19
62494,Vidya Agri Development High School,112   Bhuyar  pauni  bhandara  441910,Secondary Education,20,852,4,15-19
62495,Shri Gurudeo Adiwasi Hostel,40    Amgaon Adarsh  pauni  bhandara  441910,Other accommodation,14,559,4,10-14
62496,Ahri Gurudeo Adiwasi Ashramshala,69   Amgaon Adarsh  pauni  bhandara  441910,Secondary Education,20,852,4,15-19
62497,Shri Ramaji Talmale,99   Garadapar  pauni  bhandara  441910,Warehousing and storage,13,521,2,15-19
62498,Z P  Primary School,101   Garadapar  pauni  bhandara  441910,Primary education,20,851,1,20-24
62499,Gandhi Vidyalaya,120   Walni  pauni  bhandara  441910,Secondary Education,20,852,4,20-24
62500,Sant Tukaram High School,4    Bramhi  pauni  bhandara  441908,Secondary Education,20,852,4,10-14
62501,Santaji Junior College,Asgaon  pauni  bhandara 441910,Higher education,20,853,4,15-19
62502,Purti Power   Suger Ltd Office Asgaon,213 4   Near New Bus Stand  441910,Manufacture of other food products,6,107,3,10-14
62503,Z P Junior College,45    Asgaon  pauni  bhandara  441910,Secondary Education,20,852,1,30-99
62504,Nikhil Engineering Works,149    Old Bus Stand 441910,Manufacture of other fabricated metal products ,6,259,2,10-14
62505,M S E T C L  Office,82    Asgaon  pauni  bhandara  441910,Electric power generation  transmission and distribution,7,351,1,15-19
62506,Sarswati Primary School,23 1    Asgaon  pauni  bhandara  441910,Primary education,20,851,4,15-19
62507,Rajubai Bhendarkar Girls High School   Jr Coll ,19    Asgaon  pauni  bhandara  441910,Secondary Education,20,852,4,20-24
62508,Shri Mohan Panchbhai Yenoda,76 2   Lakhandur Road 441910,Other land transport,13,492,2,10-14
62509,Motiramji Rice Mill Yenoda,77 5   Lakhandur Road 441910,Manufacture of grain mill products  starches and starch products,6,106,2,10-14
62510,Vitthal Panchbhai Rice Mill Yenoda,76 1   Lakhandur Road 441910,Manufacture of grain mill products  starches and starch products,6,106,2,10-14
62511,Cold Storage,31   Ruyad  pauni  bhandara  441910,Beverage serving activities,14,563,6,10-14
62512,Raghute High School,27    Palora Chauras  pauni  bhandara  441908,Secondary Education,20,852,4,10-14
62513,Janata High School,4   Kurza  pauni  bhandara 441903,Secondary Education,20,852,4,10-14
62514,Gandhi Vidyalaya,3 1    Kondha  pauni  bhandara  441908,Secondary Education,20,852,4,30-99
62515,Ganesh Vidyalaya,94   Bhendala  pauni  bhandara  441910,Secondary Education,20,852,4,15-19
62516,Vilas Vidyalaya,1   Bhavad   pauni  bhandara  441908,Secondary Education,20,852,4,10-14
62517,Dr Arun Motghare College,112   Kosara   pauni  bhandara  441908,Higher education,20,853,4,25-29
62518,Dr Arun Motghare B ed College,79   Kosara   pauni  bhandara  441908,Higher education,20,853,4,30-99
62519,Jagrut Vidyalaya   Jr College,50   Kosra   pauni  bhandara  441908,Secondary Education,20,852,4,15-19
62520,Abhay Vidyalaya,91   Akot   pauni  bhandara  441908,Secondary Education,20,852,4,10-14
62521,Primary Health Centre,1   Asgaon   pauni  bhandara  441910,Hospital activities,21,861,1,15-19
62522,Z P  Upper Primary School,38 1   Mangli Chau   pauni  bhandara  441910,Primary education,20,851,1,10-14
62523,Gandhi Vidyalaya,141   Virli Khandar   pauni  bhandara  441903,Secondary Education,20,852,4,10-14
62524,Indira Gandhi High School,3   Chichal   pauni  bhandara  441903,Secondary Education,20,852,4,10-14
62525,Navjivan Vidyalaya,55 1   Nishti   pauni  bhandara  441910,Secondary Education,20,852,4,10-14
62526,Baba Khantal Madhyamik Ashramshala,42 2    Gose Buz   pauni  bhandara  441903,Secondary Education,20,852,4,10-14
62527,Vinod High School,73 1    Gose Buz    pauni  bhandara  441908,Secondary Education,20,852,4,30-99
62528,Gose Khurd Rehabilitation Office No 7,78 2   subordi  pauni  bhandara  441903,Office administrative and support activities,19,821,1,10-14
62529,Rural Hospital,17   Adyal   pauni  bhandara  441903,Hospital activities,21,861,1,25-29
62530,Ashok Moharkar College,1 1   Adyal   pauni  bhandara  441903,Higher education,20,853,4,25-29
62531,Sujata Kanya Vidyalaya,99 1    Adyal   pauni  bhandara  441903,Secondary Education,20,852,4,10-14
62532,Vivekanand Vidyabhavan,70   Adyal   pauni  bhandara  441903,Secondary Education,20,852,4,25-29
62533,Adyal Vidyalaya,25 1   Adyal   pauni  bhandara  441903,Secondary Education,20,852,4,30-99
62534,Shibaka Tobacco Product,38   Adyal   pauni  bhandara  441903,Manufacture of tobacco products,6,120,2,20-24
62535,Police Station Adyal,30 25   Adyal   pauni  bhandara  441903,Security systems service activities,19,802,1,30-99
62536,Prakash Vidyalaya,20   Adyal   pauni  bhandara  441903,Secondary Education,20,852,4,30-99
62537,Adiwasi Shiv Vidyalaya,46 Minsi   Ward No 2 441924,Secondary Education,20,852,4,15-19
62538,Bharatratna Hutatma Indira Gandhi Vidyalaya,143   Nerla   pauni  bhandara  441903,Secondary Education,20,852,4,10-14
62539,LOKMANYA VIDYALAYA SONI,SONI  441803,Secondary Education,20,852,4,20-24
62540,Z P  PRIMARY SCHOOLCHAPRAL,53   CHPRAL  441803,Primary education,20,851,1,10-14
62541,ASHIRWAD RICE MILL  ASOLA,39   ASOLA  441803,Manufacture of grain mill products  starches and starch products,6,107,2,15-19
62542,SUGAR FACTORY LAKHANDUR,157   KINHALA  441803,Manufacture of other food products,6,107,3,100-199
62543,RADHEYA VIDYALAYA PIMPALGAON,40   PIMPALGAON KO  441803,EDUCATION,20,852,4,15-19
62544,PATIL PUBLIC SCHOOL  LAKHANDUR,1   LAKHANDUR  441803,Secondary Education,20,852,4,10-14
62545,DR  BABASAHEB AMBEDKAR VIDYALAYA LAKHANDUR,115   LAKHANDUR 441803,Secondary Education,20,852,4,30-99
62546,VIDYAVIHAR CONVENT  LAKHANDUR,216   LAKHANDUR 441803,Primary education,20,851,4,15-19
62547,SIDHARTHA KANISHTHA MAHAVIDYALAYA,35   LAKHANDUR  441803,Higher education,20,853,4,15-19
62548,M B PATEL MAHAVIDYALAYA  LAKHANDUR,3   LAKHANDUR  441803,Higher education,20,853,4,15-19
62549,PRASHANT VIDYALAYA TATHA KANISHTHA MAHAVIDYALAYA BHAGADI,101   BHAGADI  441803,Higher education,20,853,2,20-24
62550,Z P KENDRIYA SCHOOL BHAGADI,84   BHAGADI  441803,Secondary Education,20,852,1,10-14
62551,ADARSHA HIGH SCHOOL  PARDI,112   PARDI  441805,Secondary Education,20,852,1,10-14
62552,DR  BABASAHEB AMBEDKAR VIDYALAYA CHICHAL,114   CHICHAL  441805,Secondary Education,20,852,1,10-14
62553,LAKSHMI RICE MILL,014   CHICHAL  441805,Manufacture of grain mill products  starches and starch products,6,106,1,10-14
62554,SAIBABA RICE MILL,160   CHICHAL  441805,Manufacture of grain mill products  starches and starch products,6,106,1,10-14
62555,MAHATMA GANDHI VIDYALAYA CHICHAL,9   CHICHAL  441805,Higher education,20,853,1,10-14
62556,Z P HIGH SCHOOLBARVA,51   Barvha  441805,EDUCATION,20,852,1,10-14
62557,GONDIA PUBLIC SCHOOL  LAKHANDUR,7 6   LAKHANDUR 441803,Secondary Education,20,852,4,20-24
62558,MAHATMA JOTIBA FULE VIDYALAYA CHICHAL,122   CHICHAL  441805,Higher education,20,853,1,15-19
62559,PRIMARY HEALTH CENTRE BARWHA,1   GANDHI CHAUK 441805,Medical and dental practice activities,21,862,1,10-14
62560,ITI KINHALA,153   KINHALA  441803,Secondary Education,20,852,1,30-99
62561,Z P  PRIMARY SCHOOL JAITPUR,64   JAITPUR  441805,Primary education,20,851,1,10-14
62562,PRIMARY HEALTH CENTRE,215   KUDEGAON  441803,HOSPITAL,21,861,1,10-14
62563,Z P HIGH SCHOOL KUDEGAON,94   KUDEGAON  441803,Secondary Education,20,852,1,15-19
62564,SHIVAJI VIDYALAYA,83   DOKE SARANDI 441802,Secondary Education,20,852,4,20-24
62565,MATOSHRI BALAJABAI BURDE COLLEGE  ASOLA,72   ASOLA  441803,D  ED  COLLEGE,20,853,2,10-14
62566,SHIVAJI VIDYALAYA ITAN,42   ITAN  441810,Secondary Education,20,852,4,25-29
62567,MSEB,7   WIRLI  441803,KV POWER HOUSE,7,351,1,15-19
62568,ANAND NIWASHI MATIMANDA SCHOOL  VIRLI,VIRLI BK   441910,Secondary Education,20,852,4,15-19
62569,Z P HIGH SCHOOL SARANDI,3   BAZAR CHAUK 441908,Secondary Education,20,852,1,15-19
62570,GANGARAM JR  COLLEGE MASAL,12   MASAL  441908,EDUCATION,20,852,4,10-14
62571,SUBODH VIDYALAYA MASAL,13   MASAL  441908,EDUCATION,20,852,4,25-29
62572,VIDYANAND HIGH SCHOOL,23   TAI BK  441805,Secondary Education,20,852,4,10-14
