S.No.,Name of the Establishment,Address,Major Activity Description,Broad Activit y Code,NIC,Owner ship Code,"Emplo yment Class Interva
l"
10162,S T STAND KANKAVALI,KANKAVALI  416702,ROAD TRANSPORT PAASANGER,13,522,1,200-499
10163,post office kankavali,achara road  416602,post office,13,531,1,25-29
10164,ABHUDAYA BANK KANKAVALI BRANCH,GOA HIGHWAY ROAD 416602,BANKING ACTIVITY,16,641,6,10-14
10165,LIC HEADOFFICE,YOGKSHEM  NARIMAN POINT  400021,LIFE INSURANCE,16,651,1,30-99
10166,baBANK OF MAHARASHTRA  HO ,1501 LOKMANGAL SHIVAJINAGAR  PUNE 411005,BANKING ACTIVITIES,16,641,1,10-14
10167,LOKMAT KARYALAY  KANKAVALI,HIGHWAY ROAD 416602,publishing newspaper,15,581,4,10-14
10168,SINDHUDURG JILHA MADHYVARTI BANK KANKAVALI,BAJARPETH  416602,BANKING ACTIVITY,16,641,6,30-99
10169,BANK OF INDIA  KANKAVALI BRANCH,HIGHWAY ROAD 416602,BANKING ACTIVITY,16,641,1,10-14
10170,STATE BANK OF INDIA KANKAVALI BRANCH,HIGH WAY ROAD 416600,BANKING ACTIVITY,16,641,1,30-99
10171,SARSWAT BANK KANKAVALI,BAJARPETH  416602,banking activity,16,641,6,10-14
10172,RANE PUBLICATION PVT  LTD  PRAHAR ,KANKAVALI  416602,publication of newspapaer,15,581,3,30-99
10173,state transport office kankavali,kankavali  416602,STATE ROAD TRANSPORT OFFICE,13,522,1,100-199
10174,STATE  TRANSPORT WORKSHOP  KANKAVALI,NEAR ANANAT HOTEL KANKAVALI  416602,ST BUSES REPAIRING,10,452,1,100-199
10175,MAHARASHTRA STATE ELECTRICITY DISTRIBUTION COM  LTD,52 1  KANKAVALI  416602,DISTRIBUTION OF ELECTRICITY,7,351,1,20-24
10176,CMM TRADING PVT LTD GODOWN ,36  BIIJALI NAGAR  KANKAVALI  416602,GODOWN AND WEARHOUSING,13,521,4,15-19
10177,mahavitaran karyalay kankavali,near vithal bhavan  kankavali  416602,DISTRIBUTION OF ELECTRICITY,7,351,1,15-19
10178,kankavali railway station,KANAKNAGAR  KANKAVALI  416602,railway transport,13,522,1,20-24
10179,UNION BANK OF INDIA  HO,239 BACKBAY RECLAMATION NARIMAN POINT  400021,BANKING ACTIVITIES,16,641,7,10-14
10180,Shriram Housing Finance Limited,Level 3  Wockhardt Towers  Kankavli  NP  400051,PROVIDING FINANCE,16,649,4,25-29
10181,SARSWAT BANL  HEAD OFFICE,PRABHADEVI MUMBAI 400051,BANKING ACTIVITIES,16,641,6,10-14
10182,ICICI BANK KANKAVALI,CHINTAMANI APARTMENT  416602,BANKING ACTIVITY,16,641,4,10-14
10183,ASST ENGG MAHARASHTRA ELECTRICITY DISTRIBUTION CO LTD,MALVAN KASAL ROAD 416606,ELECTRICITY DISTRIBUTION,7,351,1,20-24
10184,MSRTC BUS STAND MALVAN,761  MALVAN KASAL ROAD  416606,BUS STAND   TRANSPORTATION,13,522,1,100-199
10185,MSRTC BUS WORKSHOP MALVAN,761  MALVAN KASAL ROAD  416606,REAPIR   MAINTANCE OF ST BUS,10,452,1,20-24
10186,SINDHUDURG DISTRICT CENTRAL CO OP BANK,MALWAN  416606,CO OP BANKING,16,641,6,15-19
10187,SARASWAT BANK,SOMWAR PETH  416606,CO OP BANKING,16,641,6,10-14
10188,LIFE INSURANCE CORPORATION,JIVANSINDHU  MALWAN 416606,LIFE INSURANCE,16,651,1,20-24
10189,HEAD POST OFFICE MALWAN,BAJARPETH  416606,POSTAL SERVICE,13,531,1,30-99
10190,VENGURLA FRUIT REASARCH CENTER,Vengurla  M Cl     416516,AGRICULTURE REASERCH,18,721,1,30-99
10191,Regional Fruit Research Station  Vengurla,VENGURLA  416516,AGRICULTURE RESEARCH,18,721,1,30-99
10192,ASST ENGG MAHARASHTRA STATE ELECTRICITY DISTRIBUTION LTD ,CAMP VENGURLA 416516,ELECTRICITY DISTRIBUTION,7,351,4,15-19
10193,SINDHUDURG JILLA DISTRICT CENTRAL CO OP BANK,HUBLE GALLI VENGURLA  416516,BANKING,16,641,6,15-19
10194,AMRUTA CASHEW INDUSTRIES,RAMGHAT ROAD VENGURLA  416516,CASHEW FACTORY,6,107,2,100-199
10195,STATE BANK OF INDIA,MANIK CHAWK  Vengurla  M Cl   416516,BANKING,16,641,1,20-24
10196,VENGURLA BUS STAND,VENGURLA  416516,TRANSPORT,13,492,1,200-499
10197,INDUSTRIAL TRAINING INSTITUTE,VENGURLA  416516,EDUCATION,20,853,1,10-14
10198,BANK OF INDIA,BAI NATH PAI ROAD VENGURLA  416516,BANKING,16,641,1,10-14
10199,POST OFFICE VENGURLA,DABHOLI ROAD VENGURLA  416516,post office,13,531,1,15-19
10200,DIVISIONAL MANAGER,MSRTC KANKAVALI 416516,BUS STAND,13,522,1,200-499
10201,BANK OF MAHARASHTRA,LOKMANGALAM SHIVAJINAGAR PUNE 411005,BANKING,16,641,1,10-14
10202,DEPUTY DIRECTOR HEALTH SERVICES KOLHAPUR REGION KOLHAPUR,KASABA BAWADA KOLHAPUR  416012,MEDICAL FACILITY,21,861,1,20-24
10203,STATE BANK OF INDIA,MUMBAI  416516,BANKING,16,641,1,30-99
10204,SUPERITENDENT OF POST,OROS SINDHUDURGNAGARI 416812,POSTAL SERVICES,13,531,1,20-24
10205,LIC OF INDIA,YOGEKSHAM JIVAN BEEMA MARG MUMBAI 400021,LIFE INSURANCE SERVICE,16,651,1,10-14
10206,M S SAHYADRI MECH  PVT  LTD ,52 53  UDYAMNAGAR MIDC MAJGAON  416541,MANUFACTURING ALLUMINIUM FAN BLADE,6,275,2,15-19
10207,BANK OF INDIA,UBHA BAJAR SAWANTWADI  416510,BANKING,16,641,1,10-14
10208,H D F C BANK,NEAR POST OFFICE SAWANTWADI  416510,BANKING,16,641,4,10-14
10209,POST OFFICE SAWANTWADI,HARI HARESHWAR COMPLEX SAWANTWADI  416510,POSTAL SERVICE,13,531,1,30-99
10210,BANK OF MAHARASHTRA,GAVALI TITHA SAWANTWADI  416510,BANKING,16,641,1,10-14
10211,LOKMANYA MULTIPURPOSE CO OP SOCIETY,Sawantwadi  M Cl  416510,CO OP BANKING,16,641,6,10-14
10212,TARUN BHARAT NEWSPAPER,SAWANTWADI  416510,NEWSPAPER PUBLISHING,15,581,4,20-24
10213,INDUSTRIAL TRAINING INSTITUTE,BAHERCHAWADA SAWANTWADI  416510,EDUCATION,20,853,1,30-99
10214,BIRLA SUNLIFE INSURANCE SAWANTWADI BRANCH,NARAYAN NEVGI COMPLEX SAWANTWADI  416510,LIFE INSURANCE AGENCY,16,651,4,10-14
10215,STATE BANK OF INDIA SAWANTWADI BRANCH,SAWANTWADI  416510,BANKING,16,641,1,30-99
10216,SINDHUDURG DISTRCIT CENTRAL CO OP BANK,GANDHI CHAWK SAWANTWADI  416510,co op bank,16,641,6,20-24
10217,STATE TRANSPORT BUS STAND,B310  SAWANTWADI 416510,BUS STAND,13,522,1,200-499
53648,LAXMI CHITRA MANDIR,Kalmath  CT     416602,PICTURE THETARE,22,900,2,25-29
53649,DEVRAM PATEL COLOUR SHOP,Kalmath  CT     416602,COLOUR SELL,12,475,2,10-14
53650,PETROL PUMP SHREEKANT RANE ,2 135  MKG ROAD  KANKAVALI  416602,SELLING FUEL PETROL PUMP ,12,473,2,20-24
53651,DR B J SHELKE HOSPITAL,485 A B  ASHIYA ROAD  KAN KAVALI  416602,HOSPITAL,21,861,2,20-24
53652,PUDHARI PULICATION PVT  LTD ,80 1  KANKAVALI  416602,PUBLICATION OF NEWSPAPER,15,581,4,15-19
53653,HOTEL SAHYADRI,78 1  KANKAVALI  416602,RESTAURANT WITHOUT BAR,14,561,2,10-14
53654,HOTEL NEW KAMAL LUNCH HOME,KANKAVALI  416602,RESTAUTRANT WITHOUT BAR,14,561,2,10-14
53655,SAWANT HOTEL,KANKAVALI  416602,RESTURANT WITHOUT BAR,14,561,2,10-14
53656,high tech computers,bajar peth  416602,computer education,20,852,2,10-14
53657,FLOUR MILL,BAJAR PETH  416602,FLOUR MILL,6,106,2,15-19
53658,MALU GARMENT,BAJARPETH  416602,RETAIL REDYMADE CLOTHS SALE,12,477,2,15-19
53659,BALKRISHNA PUWAIN BACKERY,BAJARPETH  416602,MANUFACTURING BAKERY PRODUCT,6,107,2,10-14
53660,HOTEL MANJUNATH,HIGHWAY ROAD 416602,RESTURANT WITHOUT BAR,14,561,2,10-14
53661,HOTEL ANANAT,64 1  KANKAVALI  416602,RESTAURANT WITHOU BAR,14,561,2,10-14
53662,M S NAIK ENTERPRISES,59  KANKAVALI  416602,RETAIL SALE OF HARDWARE MATERIAL,12,475,2,10-14
53663,NAWARE HOSPITAL,4192  BKG ROAD  416602,hospital,21,861,2,10-14
53664,PATANKAR LODGE,IN FRONT OF PRANT OFFICE  416602,HOTEL AND LODGING,14,551,2,10-14
53665,M S PALAV CHARTERD ACCOUNTANT OFFICE,159  NEAR UBALE MEDICAL  KANKAVALI 416602,CHARTERED ACCOUNTANT OFFICE,18,692,2,10-14
53666,POKALE HOSPITAL,NATH PAI NAGAR 416602,HOSPITAL,21,861,2,25-29
53667,HIGH TECH COMPUTER CLASSESS,BAJARPETH  416602,COMPUTER CLASSES,20,854,2,10-14
53668,sai palace hotel,736  kanaknagar  416602,LODGING AND BOARDING,14,551,2,20-24
53669,BELWALKAR JWELLERS,BAJARPETH  416602,SELLING READYMADE JWELLERY,12,477,2,10-14
53670,NAGVEKAR HOSPITAL,51  BAZARPETH  416602,HOSPITAL ACTIVITY,21,861,2,20-24
53671,SHETKARI KHARIDI VIKRI SANGH,341 3  BAZARPETH 416602,CEREALS SELLING CO  OPERATIVE  BASISI,12,471,6,20-24
53672,GODOWN,34 1  BAZARPETH 416602,WEARHOUSING ACTIVITY,13,521,1,15-19
53673,MAHESH SHANKARDA HOTEL,512 3  IN FRONT OF PRANT OFFICE  KANKAVALI  416602,RESTURANT WITHOUT BAR,14,561,2,10-14
53674,SANJIVANEE HOSPITAL,Kankavli  NP     416002,HOSPITAL ACTIVITY,21,861,2,20-24
53675,VIDYAMANDIR HIGH SCHOOL,29  BAZAR PETH  416602,HIGHER SECONDARY SEDUCATION,20,852,4,30-99
53676,KANKAVALI COLLEGE  KANKAVALI,30  416602  416602,HIGHER EDUCATION,20,853,1,100-199
53677,HER HIGHNESS,BAJARPETH  416602,RETAIL CLOTH SALE,12,477,2,10-14
53678,LEO SECURITY   FACILITY SERVICES,KAMAT COMPLEX 416602,PROVIDING SECURITY SERVICES,19,782,2,15-19
53679,ORBIT DIGITAL PRINTING,BAJARPETH LAXMIDUTT COMPLEX 416602,DIGITAL PRINTING,6,181,2,10-14
53680,SHREE GANESH MUDRANALAY,HIGHWAY ROAD 416602,PRINTING PRESS,6,222,2,10-14
53681,NITIN SHETYE HOSPITAL,GOA HIGHWAY ROAD 416602,HOSPITAL,21,861,2,10-14
53682,NIKHIL LUNCH HOME,GOA HIGHWAY ROAD 416602,RESTAURANT WITHIOUT BAR,14,561,2,10-14
53683,ZP primary school,84  kambale galli  416602,primary school education,20,852,2,15-19
53684,AMIT MANGAL KARYALAY,37  GANPATI SANA 416602,RENTING HALL FOR COMMERCIAL PURPOSE,17,681,2,10-14
53685,S  M  HIGH SCHOOL KANKAVALI,MUMBAI GOA HIGHWAY  416602,SECONDARY EDUCATION SCHOOL,20,852,1,30-99
53686,MALVAN TALUKA KHAREDI VIKRI SANGH,449  SOMWAR PETH 416606,RETAIL TRADE,12,471,6,30-99
53687,SOUTH KOKAN CASHEW FACTORY,WAYRI    416606,PROCESSING CASHEWNUT,6,107,2,20-24
53688,BOMBAY TEXTILES,1875  SOMWAR PETH 416606,TEXTILES   CLOTHING SELLING,12,477,2,20-24
53689,MALVANI BAZAR,SOMWAR PETH  416606,REATAIL SELL,12,471,6,30-99
53690,BHANDARI HIGHSCHOOL,1964    416606,SECONDARY EDUCATION,20,852,7,30-99
53691,HOTEL SAGAR KINARA,SOMWAR PETH  416606,RESTAURANT   LODDGING,14,551,3,30-99
53692,TAMANKAR FISHING CENTER,445  SOMWAR PETH 416606,FISHING,4,31,2,10-14
53693,JAY GANESH TEMPLE TRUST,MEDHA MALVAN 416606,TEMPLE   RELIGIOUS SERVICE,23,949,7,10-14
53694,ROSARY ENGLISH SCHOOL,1635 C  KACHERI ROAD 416606,PRIMARY   SECONDARY EDUCATION,20,852,4,20-24
53695,ZANTY CASHEW INDUSTRIES,2232  DHURIWADA MALWAN  416606,CASHEW PROCESS PRODUCTION,6,107,4,100-199
53696,HOTEL SAYBA,2201  DHURIWADA MALWAN  416606,BAR   RESTURANT,14,563,2,10-14
53697,S K PATIL COLLEGE,2270  DHURIWADA MALWAN  416606,HIGHER EDUCATION,20,853,4,20-24
53698,A S D TOPIWALA SCHOOL   COLLEGE,2260 A  FONKADA PIMPAL  416606,EDUCATION,20,853,7,30-99
53699,VENGURLA HIGHSCHOOL,CAMP VENGURLA 416516,EDUCATION,20,852,4,30-99
53700,MAHILA KATHYA KAMGAR AUDYOGIK CO OP LTD,162 163  VENGURLA 416516,TO MAKE GOODS FROM COIR,6,162,6,25-29
53701,HOTEL GAJALI,VENGURLA BANDAR ROAD  VENGURLA 416516,HOTEL,14,561,2,10-14
53702,SAGAR SARITA RESORT,VENGURLA BANDAR ROAD  VENGURLA 416516,HOTEL,14,561,2,10-14
53703,GAS SERVICE OFFICE,135 8  BANDAR ROAD 416516,GAS AGENCY,12,477,2,10-14
53704,HOTEL MAIBOLI,NEAR ANANDI ARCITECH  VENGURLA 416516,HOTEL,14,561,2,10-14
53705,SANJEEVANI HOSPITAL,VENGURLA  416516,HEALTH SERVICE,21,862,2,20-24
53706,FUEL PETROL PUMP,B K ROAD  BHATTWADI 416516,PETROLPUMP,12,473,2,15-19
53707,KOKAN KINARA HOTEL,B K ROAD  VENGURLA 416516,HOTEL,14,561,2,15-19
53708,NARMADA CASHEW FACTORY,BHATTWADI VENGURLA  416516,CASHEWNUT PROCESS,6,107,2,100-199
53709,BAI KHARDEKAR MAHAVIDYALAYA,B K ROAD  VENGURLA 416516,EDUCATION,20,853,4,25-29
53710,DR BABASAHEB KHRDEKAR COLLAGE,B K ROAD  VENGURLA 416516,EDUCATION,20,853,4,25-29
53711,MOTHER TERESA HIGHSCHOOL VENGURLA,VENGURLA  416516,EDUCATION,20,852,7,20-24
53712,HOMEPATHIC COLLAGE,BHATTWADI  416516,MEDICAL EDUCATIO,20,853,4,30-99
53713,VARSAKAR CASHEW FACTORY,259  BHATTWADI  416516,CASHEWNUT PROSSESING,6,107,2,30-99
53714,PATKAR HIGHSCHOOL VENGURLA,VENGURLA  416516,EDUCATIONAL,20,851,4,30-99
53715,HOMEOPATHIC MEDICAL HOSPITAL,B K ROAD  VENGURLA 416516,HEALTH SERVICE,21,862,4,15-19
53716,KHARDEKAR MAHAVIDYALAYA,B K ROAD  VENGURLA 416516,EDUCATION,20,853,4,15-19
53717,SAMRTH CLASSES,36 29  KUDAL  416520,OTHER EDUCATION,20,854,2,10-14
53718,SHANTADURGA HOSPITAL,28 Jan  KUDAL  416520,MEDICAL FACILITY,21,861,2,10-14
53719,AALVE FARASANA PRODUCTS,LAXMIWADI KUDAL 416520,FOOD PRODUCT,6,107,2,15-19
53720,NADKARNI MARBLE FACTORY,KUDAL  416520,MANUFACTURING CERAMICS,6,239,2,10-14
53721,SANJIV DATTARAM BELVALKAR,MIDC KUDAL  416520,RESTAURANT,14,561,2,10-14
53722,RAMESH SOMA CHAVAN,B 35  MIDC KUDAL 416520,PLASTIC MATERIAL PRODUCTION,6,329,2,10-14
53723,KOUSUR NOORKHAN OCURATE ENGGNEERING,MIDC KUDAL  416520,CASHEW NUT PRODUCTION,6,107,2,10-14
53724,VRS ENGGIN ,KUDAL  416520,MANUFACTURING OF SPARE PARTS,6,259,2,15-19
53725,SUMEDH LABORATORY,GANESHNAGAR KUDAL  416520,MEDICAL FACILITY,21,869,2,15-19
53726,PARULEKAR HOSPITAL,GANESHNAGAR KUDAL  416520,MEDICAL FACILITY,21,861,2,15-19
53727,DR G S  KULKARNI SHRI  RENUKA MATERNITY   NURSING,THEATER ROAD KUDAL  416520,MEDICAL FACILITY,21,861,2,15-19
53728,KUDAL HIGHSCHOOL,KUDAL  416520,SECONDARY EDUCATION,20,852,4,30-99
53729,HOTEL ABHIMANYU,ABHINAVNAGAR 416520,BREAKFAST   LUNCH FACILITY,14,561,2,15-19
53730,KMSP BOARD ENGLISH MEDIUM PRIMARY SCHOOL,KUDAL  416520,PRIMARY EDUCATION,20,852,4,25-29
53731,CHANDRADARSHAN PROPERTIES PVT  LTD  KUDAL,1858  CITY ROAD NEAR SRM COLLEGE  416520,PETROL PUMP,12,473,2,15-19
53732,YOGESH GOVIND NAVAAGUL HOSPITAL,2820  HINDU COLONY KUDAL  416520,MEDICAL FACILITY,21,861,2,10-14
53733,DR SANJIV AAKAREKAR HOSPITAL,3334  HINDU COLONY KUDAL  416520,MEDICAL FACILITY,21,861,2,10-14
53734,KUDAL KHAREDI VIKRI SANGH,GAS 2379 2077  HINDU COLONY KUDAL  416520,GAS AGENCY,12,477,6,25-29
53735,JAYSINH AMARSINH RAVRANE HOSPITAL,2 615  HINDU COLONY KUDAL  416520,MEDICAL FACILITY,21,861,2,20-24
53736,SANJAY GANESH NIGUDKAR HOSPITAL,2489  HINDU COLONY KUDAL  416520,MEDICAL FACILITY,21,861,2,10-14
53737,KUDAL KHAREDI VIKRI SANGH,Kudal  CT     416520,WAREHOUSE,13,521,6,10-14
53738,SHRI LAXMI NARAYAN PETROLEUM,AKG ROAD KUDAL 416516,PETROL PUMP,12,473,2,30-99
53739,RAJAN SURESH NAIK,304414  UDYAMNAGAR KUDAL  416520,HOTEL,14,561,2,15-19
53740,JAGRUTI MOTORS,KUDAL  416516,CAR SALES,10,451,2,30-99
53741,FUTURISTICS MOTOR DEALERS PVT LTD,KUDAL  416516,CAR SALES,10,451,2,30-99
53742,MANJUNATH HOTEL,KUDAL NEAR STAND 416520,BREAKFAST   LUNCH FACILITY,14,561,2,10-14
53743,PUSPA HOTEL,Kudal  CT     416520,BREAKFAST   LUNCH FACILITY,14,561,2,10-14
53744,SUYASH HOSPITAL,KUDAL  416520,MEDICAL FACILITY,21,861,2,10-14
53745,SANT RAWOOL MAHARAJ MAHAVIDYALAYA,KUDAL  416516,HIGHER SECONDARY EDUCATION,20,853,4,30-99
53746,NIHAL PLASTICS,UDYAMNAGAR MIDC  MAJGAON  416541,MANUFACTURING PLASTIC PRODUCTS,6,222,2,25-29
53747,OMKAR PRODUCTS,1098  UDYAMNAGAR MIDC  MAJGAON  416541,MANUFACTURING FOOD ITEMS,6,103,2,10-14
53748,HIDUSTAN POLYMERS,113  UDYAMNAGAR MIDC  MAJGAON  416541,MANUFACTURING PLASTIC INDUSTRIAL PARTS,6,222,3,20-24
53749,S R STEEL INDUSTRIES,112 117  UDYAMNAGAR MIDC  MAJGAON  416541,MANUFACTURING STEEL FURNITURE,6,310,3,10-14
53750,GOLDEN AGRO PRODUCTS,UDYAMNAGAR MIDC  MAJGAON  416541,MANUFACTRING CASHEWSHELL OIL,6,104,2,15-19
53751,DESAI SOAPS AND DITERGANTS,UDYAMNAGAR MIDC  MAJGAON  416541,MANUFACTURING WASHING SOAP,6,202,2,15-19
53752,SONA SOAPS AND DITERGANTS,UDYAMNAGAR MIDC  MAJGAON  416541,MANUFACTURING WASHING SOAP,6,202,2,15-19
53753,GOA EXPORT CASHEW INDUSTRIES,118 125  UDYAMNAGAR MIDC  MAJGAON  416541,PROCESSING CASHEWNUTS,6,107,2,30-99
53754,LALITA AGRO PROCESSORS,MAJGAON SAWANTWADI  416541,PROCESSING CASHEWNUTS,6,107,2,15-19
53755,BHAISAHEB SAWANT MADHYAMIK VIDYALAY,BHATWADI MAJAGAON 416541,SECONDARY EDUCATION,20,852,4,15-19
53756,KHEMRAJ MEMORIAL ENGLISH SCHOOL,KATTA CORNOR BANDA  416511,SECONDARY   HIGHER SECONDARY EDUCATION,20,852,4,30-99
53757,AJIT NAS AUTO COMPANY,Banda  CT     416511,MOTOR GARAJE,10,454,2,10-14
53758,SWAMI SAMARTH SAWMILL,BANDA  416511,SAW MILL,6,181,2,10-14
53759,GOGATE WALKE COLLEGE,BANDA  416511,DEGREE LEVEL EDUCATION,20,853,4,20-24
53760,CREATIVE MANUFACTURING SOLUTION INDIA PVT LTD,GANESHNAGAR BANDA  416511,MANUFACTURING EARTHMOVER VEHICLES,6,291,2,30-99
53761,TARA HOTEL,GANDHI CHAWK SAWANTWADI  416510,LODDGING   HOTEL,14,551,2,15-19
53762,SAINIK NAGARI PATSANSTHA,BHOGTE PLAZA GAVALI TITHA SAWANTWADI  416510,FINANCIAL CO OP SOCIETY,16,641,6,30-99
53763,MAHINDRA FINANACE,B 596 HARIHARESHWAR COMPLEX  416510,FINANCE FIRM,16,643,4,10-14
53764,KALSURKAR MARATHI SCHOOL,SALAIWADA SAWANTWADI  416510,EDUCATION,20,853,1,10-14
53765,YASHRAJ MATIERNITY   NURSING HOME,E 388  BANDA NAKA 416510,NURSING HOME,21,861,2,10-14
53766,KALSURKAR HIGHSCHOOL MARATHI MEDIUM,SALAIWADA SAWANTWADI  416510,SECONDARY EDUCATION,20,853,1,10-14
53767,KALSURKAR HIGHSCHOOL,SALAIWADA SAWANTWADI  416510,MIDDAL EDUCATION,20,852,1,15-19
53768,SHREE PANCHAM KHEMRAJ COLLAGE,SAWANTWADI  416510,HIGHER EDUCATION,20,853,1,30-99
53769,BHAISAHEB SAWANT AIYURVEDIC COLLEGE,SAWANTWADI  416510,HIGHER EDUCATION IN MEDICAL FIELD,20,853,4,30-99
53770,GOVT RURAL HOSPITAL SAWANTWADI,SAWANTWADI  416510,HOSPITAL   MEDICAL FACILITY,21,861,1,30-99
53771,SANJEEVANI CHILD HOSPITAL,SAWANTWADI  416510,CHILD SPECIALITY HOSPITAL,21,861,2,20-24
53772,SHIVAM HOSPITAL,C 44 Y  DATT NAGAR BAHIRCHAWADA  416510,HOSPITAL,21,861,2,10-14
53773,TOPIWALA SMARAK TECHINAL SCHOOL,358 A  GARAD NAKA SAWANTWADI  416510,TECHNICAL EDUCATION,20,853,1,20-24
53774,CENTRAL GOVERNMENT HOSTEL,E 32  SAWANTWADI 416510,HOSTEL,14,559,3,10-14
53775,HOTEL MANGO 2,SAWANTWADI  416510,RESTORANT   LODDGING,14,551,2,15-19
53776,GOVERNMENT GODOWN,SAWANTWADI  416510,STORAGE GODOWN,13,521,1,10-14
53777,MANGO HOTEL,SAWANTWADI  416510,HOTEL,14,551,2,30-99
53778,RPD JUNIOUR COLLAGE,SAWANTWADI  416510,HIGHER EDUCATION,20,853,4,30-99
53779,BHARAT MATA HOTEL,SAWANTWADI  416510,HOTEL,14,551,2,10-14
53780,AASTHA COMPUTER,G 708 13  NEAR ST STAND SAWANTWADI 416510,COMPUTER LABORATARY   TRAINING INSTITUTE,20,854,2,15-19
53781,SAWANTWADI URBAN CO OP BANK,UBHA BAJAR SAWANTWADI  416510,URBAN CO OP BANKING,16,641,6,20-24
53782,CATHELIC URBAN CO OP SOCIETY,GANDHI CHAWK SAWANTWADI  416510,CO OP FINANCIAL INSTITUTE,16,641,6,20-24
53783,ATAL PRATISHTHAN BALWADI,13B MATHEWADA SAWANTWADI  416510,PRE PRIMARY EDUCATION,20,851,4,10-14
53784,BHAKTI HOSPITAL,SARVODAYA NAGAR SAWANTWADI  416510,HOSPITAL,21,861,2,10-14
53785,SHREE SAI HOSPITAL,BELGAUM ROAD SAWANTWADI  416510,HOSPITAL,21,861,2,10-14
53786,MAHALAXMI KHANAVAL,SAWANTWADI  416510,HOTEL,14,561,2,25-29
53787,V S KHANDEKAR COLLAGE,BHATTWADI SAWANTWADI  416510,EDUCATION,20,852,1,10-14
53788,SWARUP HOSPITAL,BAHERCHWADA 416510,HOSPITAL,21,861,2,10-14
53789,CENTRAL ENGLISH SCHOOL,BAHERCHA WADA SAWANTWADI  416510,MIDDALE EDUCATION,20,852,4,20-24
53790,CENTRAL URDU HIGHSCHOOL SAWANTWADI,BAHERCHA WADA SAWANTWADI  416510,MIDDAL EDUCATION,20,852,4,10-14
59475,MTDC GREEN VALLY FORT VIEW REASTAURANT,C90   BANDARBHAG 416806,LODDGING   HOTEL,14,551,3,10-14
59476,MSRTC WORKSHOP VIJAYDURG,VIJAYDURG  Devgad  Sindhudurg  416806,BUS REPAIR   MAINTENCE,10,453,1,10-14
59477,DEVGAD AGRO FOOD P LTD,Saundale  Devgad  Sindhudurg  416804,CANNING FACTORY,1,16,3,20-24
59478,PRIMARY HEALTH CENTER,Padel  Devgad  Sindhudurg  416804,PRIMARY HEALTH CENTER,21,861,2,10-14
59479,MAHARASHTRA STATE ELECRICITY DISTRIBUTION CO LTD,WADE    Devgad  Sindhudurg  416805,ELECTRICITY DISTRIBUTION,7,351,1,10-14
59480,PRIMARY HEALTH CENTER,Mond  Devgad  Sindhudurg  416623,PRIMARY HEALTH CENTER,21,861,1,20-24
59481,MAHARASHTRA ELECTRICITY DISTRIBUTION CO LTD ILAYE,76 2    Elaye  Devgad  Sindhudurg  416612,ELECTRICITY DISTRIBUTION,7,351,1,10-14
59482,MAHARASHTRA ELECTRICITY DISTRIBUTION CO LTD,176   Wareri  Devgad  Sindhudurg  416611,ELECTRICITY DISTRIBUTION,7,351,1,15-19
59483,MSRTC WORKSHOP,62   Jamsande   Devgad  Sindhudurg  416613,ST REPAIR   MAINTANINCE,10,451,1,30-99
59484,MSRTC BUS STAND,63    Jamsande  Devgad  Sindhudurg  416613,BUS STAND,13,522,1,200-499
59485,SINDHUDURG DISTRICT CENTRAL CO OP BANK DEVGAD,Jamsande   Devgad  Sindhudurg  416612,CO OP BANKING,16,641,6,20-24
59486,STATE BANK OF INDIA DEVGAD BRANCH,Jamsande  Devgad  Sindhudurg  416612,BANKING,16,641,1,25-29
59487,RURAL HOSPITAL DEVGAD,202    Jamsande  Devgad  Sindhudurg  416613,HOSPITAL,21,861,1,15-19
59488,POST OFFICE DEVGAD,Devgad  Sindhudurg 416613,POSTAL SERVICE,13,531,1,10-14
59489,INDUSTRIAL TRAINING INSTITUTE,767   Jamsande  Devgad  Sindhudurg  416612,INDUSTRIAL TRAINING INSTITUTE,20,852,1,15-19
59490,MAHARASHTRA STATE ELECTRICITY DISTRIBUTION LTD,Shirgaon  Devgad  Sindhudurg  416610,ELECTRICITY DISTRIBUTION,7,351,4,10-14
59491,PRIMARY HEALTH CENTER SHIRGAON,Shirgaon  Devgad  Sindhudurg  416610,PRIMARY HEALTH CENTER,21,861,1,15-19
59492,PRIMARY HEALTH CENTER MITHBAV,185    Mithbaon  Devgad  Sindhudurg  416615,PRIMARY HEALTH CENTER,21,861,1,20-24
59493,PRIMARY HEALTH CENTER ILAYE,Elaye  Devgad  Sindhudurg  416612,PRIMARY HEALTH CENTER,21,861,1,20-24
59494,PRIMARY HEALTH CENTER,PHANASGAON  416811,PRIMARY HEALTH CENTER,21,861,1,15-19
59495,YASHWANT RAO HIGHSCHOOL,BURANWADI   Achirne  Vaibhavvadi  Sindhudurg 416810,SECONDARY EDUCATION,20,852,4,15-19
59496,VIKAS HIGHSCHOOL SADURE ARULE,103   ARULE  416810,SECONDARY SCHOOL,20,852,4,10-14
59497,PRIMARY HEALTH CENTER VAIBHAVWADI,Vabhave  Vaibhavvadi  Sindhudurg  416810,PRIMARY HEALTH CENTER,21,861,1,10-14
59498,MADHYAMIK VIDYALAYA KARUL,223   KHADAKWADI 416810,SECONDARY EDUCATION,20,852,4,15-19
59499,SHREE MADHAVRAO PAWAR VIDYALAYA KOKISARE,4   KOKISARE  416810,SECONADARY EDUCATION,20,852,4,20-24
59500,ACHIRNE SILICA SAND MINERALS,SIDHACHIWADI  416810,SILICA MINNING,5,89,2,30-99
59501,PRIMARY HEALTH CENTER UMBARDE,UMBARDE  416810,PRIMARY HEALTH CENTER,21,861,1,10-14
59502,MOHANRAO MURARI HEALTH CENTER,KANEDI   Shivjinagar  Kankavli  Sindhudurg 416609,PRIMARY HEALTH CENTER,21,861,1,15-19
59503,KALSULI ENGLISH SCHOOL   JUN COLLEGE,Upanagar  Kankavli  Sindhudurg  416620,SECONDARY   HIGHER SECONDARY EDUCATION,20,852,4,25-29
59504,PRIMARY HEALTH CENTER KALSULI,Lingeshwar Nagar  Kankavli  Sindhudurg 416620,PRIMARY HEALTH CENTER,21,861,1,10-14
59505,IDEAL SCHOOL VARVADE,1 125   MUSLIMWADI 416602,SECONDARY EDUCATION,20,852,4,30-99
59506,PRIMARY HEALTH CENTER,691   VARVADE  416602,PRIMARY HEALTH CENTER,21,861,1,15-19
59507,ANIMAL HUSBANDARY HOSPITAL JANVALI,WAKADWADI   Janavali  Kankavli  Sindhudurg 416602,ANIMAL MEDICAL CHECK,18,750,1,10-14
59508,GREEN VALLY ENGLISH MEDIUM SCHOOL,Phondaghat  Kankavli  Sindhudurg  416601,SECONDARY EDUCATION,20,852,4,20-24
59509,MAHARASHTRA ELECTRICITY DISTRIBUTION CO LTD,BIJALINAGAR  416601,ELECTRICITY DISTRIBUTION,7,351,1,15-19
59510,JAGRUTI MOTORS,HUMBRAT   Janavali  Kankavli  Sindhudurg 416602,SELL OF NEW CARS,10,451,2,20-24
59511,CHIRAG SYNDICATE PVT LTD,179   Phondaghat  Kankavli  Sindhudurg 416601,SILIKA SAND WASHING PROCESS,5,81,4,30-99
59512,BAFNA MOTORS PVT LTD,R U COMPLEX   B K G ROAD JANVALI  416602,SELL OF NEW CARS,10,451,2,30-99
59513,MADHAMIK SCHOOL KASARDE,743   Uttargavthan  Kankavli  Sindhudurg 416801,SECONDARY EDUCATION,20,852,4,25-29
59514,PRIMARY HEALTH CENTER KASARDE,Uttargavthan  Kankavli  Sindhudurg  416801,PRIMARY HEALTH CENTER,21,861,1,20-24
59515,WAMANRAO MAHADIK HIGHSCHOOL   COLLEGE TALERE,334   B K G ROAD 416801,SECONDARY   HIGHER SECONDARY EDUCATION,20,852,4,10-14
59516,PRIMARY HEALTH CENTER KHAREPATAN,37   Kharepatan  Kankavli  Sindhudurg  416703,PRIMARY HEALTH CENTER,21,861,1,10-14
59517,RURAL HOSPITAL PENDUR KATTA,KATTA  MALVAN  416604,HOSPITAL,21,861,1,15-19
59518,MSESDL BRANCH OFFICE KATTA,781   KATTA MALVAN 416604,DISTRIBUTION OF ELECTRICITY TO CONSUMERS,7,351,1,10-14
59519,ANUPAM CASHEW FACTORY  WAIRY,WAIRY  MALVAN  416606,PROCESSING CASHEWNUTS,6,107,2,30-99
59520,PRIMARY HEALTH CENTRE CHOWKE,763   MANDKHOLWADI  CHOWKE  MALVAN 416605,HOSPITAL,21,861,1,30-99
59521,SHREE DANGI LADU KARKHANA,KHAMBADWADI  HEDUL  MALVAN  416603,MANUFACTURING SWEET PRODUCT,6,107,2,15-19
59522,PRIMARY HEALTH CENTRE  HIWALE,21   HIWALE  416603,PRIMARY HEALTH CENTRE HOSPITAL,21,861,1,10-14
59523,KRUSHI VIDNYAN KENDRA,DHANGARWADI  KIRLOS  416616,RESEACH ON AGRICULTURAL ACTIVITIS,18,721,4,15-19
59524,MSEDCL OFFICE  VILLAGE ACHARA,ACHARA  416614,ELCTRICITY DISTRIBUTION TO CONSUMERS,7,351,1,10-14
59525,PRIMARY HEALTH CENTERE,VARCHI WADI ACHARA 416614,HOSPITAL,21,861,1,10-14
59526,RATA IRON OVER   MINERALS PVT LTD,Bombadojichiwadi  Vengurla  Sindhudurg 416517,MINNING MINERALS,5,71,4,20-24
59527,SUBDISTRICT HOSPITAL SHIRODA,2   Shiroda   Vengurla  Sindhudurg  416518,HOSPITAL,21,861,1,25-29
59528,PRIMARY HEALTH CENTER TULAS,1427   TULAS KHATARWADI  416516,PRIMARY HEALTH CENTER,21,861,1,10-14
59529,PRIMARY HEALTH CENTER ADELI,707   DABHADI  416516,PRIMARY HEALTH CENTER,21,861,1,10-14
59530,PRIMARY HEALTH CENTER PARULE,Ravadas  Vengurla  Sindhudurg  416606,PRIMARY HEALTH CENTER,21,861,1,30-99
59531,AMRUTA CASHEW VENGURLA,VENGURLA  416516,CASHEW NUT PRODUCTS,6,107,2,20-24
59532,TRIBAL FOOD PRODUCTS,BORIVALI  W  M  MUMBAI  400092,CASHEW NUT PRODUCTS,6,107,3,20-24
59533,S S  PLASTIC,MANORAMA NAGAR  THANE  400601,Manufacture of plastics products,6,222,2,10-14
59534,NERUR GRAMSEVA MANDAL,490   MUMBAI  416525,SECONDARY EDUCATION,20,852,7,10-14
59535,DISTRICT HEALTH OFFICER,ZP  OROS  TAL KUDAL 416812,MEDICAL FACILITY,21,861,1,10-14
59536,BANK OF INDIA,BANDRA KURLA COMPLEX  mumbai 400056,BANKING,16,641,1,10-14
59537,DR B S KONKAN KRISHI VIDYAPEETH,DAPOLI  415712,HIGHER EDUCATION,20,853,1,30-99
59538,HELPERS OF THE HANDICAP,815   More  Kudal  Sindhudurg  416519,HANDICAP HELP CENTER,21,889,7,30-99
59539,ANIMAL BREEDING CENTER NILELI,Nileli  Kudal  Sindhudurg 416519,ANIMAL BREEDING,2,14,4,20-24
59540,PRIMARY HEALTH CENTER HIRLOK,136   Hirlok  Kudal  Sindhudurg  416520,PRIMARY HEALTH CENTER,21,861,1,10-14
59541,DIGAS MADHYMIK VIDYALAY,DIGAS KUDAL  416521,SECONDARY EDUCATION,20,852,4,10-14
59542,MSEDCL OFFICE KADAWAL,180 2   KADAWAL KUDAL  416521,ELECTRICITY DISTRIBUTION,7,351,1,10-14
59543,PRIMARY HEALTH CENTRE KADAWAL,43 1   KADAWAL KUDAL 416521,HOSPITAL,21,861,1,10-14
59544,PRIMARY HEALTH CENTRE  PANDUR,MAYEKAR WADI PANDUR KUDAL  416812,HOSPITAL,21,861,1,15-19
59545,MANAV SADHAN VIKAS SANSTHA SCHOOL OF NURSING,ANAV KUDAL  416812,NURSING COLLEGE,20,853,4,15-19
59546,NEW ENGLISH SCHOOL OROS BK ,OROS BUDRUK  416812,SECONDARY EDUCATION,20,852,4,15-19
59547,MSEDCL JR ENGG OFFICE,OROS SINDHUDURGNAGARI OROS  416812,ELECTRICITY DISTRIBUTION,7,351,1,10-14
59548,STATE BANK OF INDIA,OROS SINDHUDURGNAGARI OROS  416812,BANK,16,641,1,20-24
59549,ARUN SAMBHAJI POYAREKAR,JAIN STHANAK   LAL BAG MUMBAI  400012,SECONDARY EDUCATION,20,852,4,10-14
59550,DISTRICT VOCATIONAL TRAINING INSTITUTE,OROS BUDRUK  416812,SECONDARY EDUCATION,20,853,1,15-19
59551,BANK OF INDIA ORAS BRANCH,BKG ROAD  OROS  KUDAL  416812,BANK,16,641,1,10-14
59552,MSEDCL DEPUTY ENGG OFFICE,OROS SINDHUDURGNAGARI OROS  416812,ELECTRICITY DISTRIBUTION,7,351,1,15-19
59553,DON BOSCO HIGHSCHOOL,OROS SINDHUDURGNAGARI 416812,SECONDARY EDUCATION,20,852,4,30-99
59554,SINDHUDURG JILHA MADHYVARTI BANK SINDHUDURGNAGARI BRANCH,OROS SINDHUDURGNAGARI OROS  416812,BANK,16,641,6,10-14
59555,CIVIL HOSPITAL,SINDHUDURGNAGARI RANBAMBULI  416812,HOSPITAL,21,861,1,200-499
59556,SOUTH KOKAN INDUSTRIES,121   SIMTEWADI  RANBAMBULI  416812,PROCESSING CASHEWNUT,6,107,2,30-99
59557,SINDHUDURG RAILWAY STATION,SIMTEWADI  SIMTEWADI  RANBAMBULI  416812,RAILWAY STATION OFFICE,13,522,1,15-19
59558,AUDYOGIK PRASHIKSHAN SANSTHA,SINDHUDURGNAGARI RANBAMBULI  416812,PROVIDING TECHNICAL EDUCATION,20,854,1,25-29
59559,PRIMARY HEALTH CENTRE  KASAL,KASAL  416603,HOSPITAL,21,861,1,15-19
59560,INSTITUTE OF NURSING COLLEGE,GAORAI  KUDAL  416534,NURSING COLLEGE,20,853,4,25-29
59561,MAHATMA GANDI VIDYAMANDIR HIGHSCHOOL,SATARDA SAWANTWADI  416514,SECONDARY EDUCATION,20,852,4,10-14
59562,NEW ENGLISH SCHOOL  MADURA,MADURA SAWANTWADI 416514,SECONDARY EDUCATION,20,852,4,25-29
59563,MADHYAMIK VIDYALAY DEGAVE,DEGVE  S WADI  416511,SECONDARY EDUCATION,20,852,4,10-14
59564,DAYASAGAR CHATRALAYA,RONAPAL  416514,HOSTEL FOR STUDENTS,14,559,4,10-14
59565,RAJA SHIVAJI VIDYALAYA  VILWADE,323   VILWADE  416511,SECONDARY EDUCATION,20,852,4,10-14
59566,MAULI MATIMAND NIVASI VIDYALAY  AROS,452   DANDELI SAWANTWADI  416514,OTHER RESIDENTIAL CARE ACTIVITIES SCHOOL,20,853,9,10-14
59567,VIDYAVIHAR ENGLISH SCHOOL AND JUNIOR COLLEGE,DANDELI SAWANTWADI 416514,HIGHER SECONDARY EDUCATION,20,852,4,15-19
59568,MALWAD PANCHKROSHI HIGHSCHOOL  MALEWAD,164   MALEWAD SAWANTWDI  416510,SECONDARY EDUCATION,20,852,4,10-14
59569,BOWLEKAR CASHEW FACTORY,240   MALEWAD SAWANTWDI  416510,PROCESSING CASHEWNUTS,6,107,2,30-99
59570,PRIMARY HEALTH CENTRE MALEWAD,JAKATNAKA MALEWAD SAWANTWADI  416510,HOSPITAL,21,861,1,10-14
59571,KAI BABURAO PATYEKAR MADHYMIK VIDYALAYA DANOLI,SATULI SAWANTWADI 416510,SECONDARY EDUCATION,20,852,4,10-14
59572,M s JOGLEKAR GLOVE INDUSTRIES,1 350   DHAWADLI MADKHOL  416510,MANUFACTRING HANDGLOVES,6,221,2,20-24
59573,BIODYE INDIA PVT LTD,1 101   BEBYWADI  MADKHOL  416510,COLOUR AND DYING OF CLOTH,6,131,3,10-14
59574,KRUSHI TANTRA NIKETAN VIDYALAY,349   PADLOS  416514,DEGREE LEVEL EDUCATION IN AGRICULTURE,20,853,4,15-19
59575,J Y EDUCATION SOCIETY AMBOLI PUBLIC SCHOOL,MULCHANDWADI 416532,SECONDARY EDUCATION,20,852,4,30-99
59576,GREEN VALLY RESORT,BAJARWADI  416532,LODGING AND BOARDING RESORT,14,551,4,30-99
59577,PRIMARY HEALTH CENTRE SANGELI,SANGELI SAWANTWADI 416531,HOSPITAL,21,861,1,10-14
59578,RAILWAY STATION SAWANTWADI,184 1   KUMBHARLI 416510,RAILWAY STATION OFFICE,13,491,1,30-99
59579,VARUN BREVERAGIS LTD,469   BHOMWADI  416510,COLD DRINK GODOWN,14,563,3,10-14
59580,LAVNDE TRADEING COMPANY,381   MATANE  416512,CAHSEWNUT PRODUCTION,6,107,2,20-24
59581,GLOBAL COKE LTD,VAZARE  416512,MANUFACTURING COK FROM COAL,5,51,2,30-99
59582,SHAIKH CASHEW FACTORY,456   GAVTHANWADI 416512,CASHEW NUT PRODUCTION,6,107,2,30-99
59583,PRIMARY HEALTH CENTER SATELI,SATELI BHEDSHI  416512,PRIMARY HEALTH CENTER,21,861,1,20-24
59584,MAHALAXMI VIDUAT PVT LTD,KONALKATTA  416549,ELECTRICITY PRODUCTION,7,351,4,30-99
59585,PRIMARY HEALTH CENTER MORGAON,MORGAON  416512,PRIMARY HEALTH CENTER,21,861,1,15-19
71742,DHAVALI MIDDALE SCHOOL,131   dhalavali  devgad  sindhudurg  416613,SECONDARY EDUCATION,20,852,4,10-14
71743,SHANTARAM VISHNU KULKARNI MADHYAMIK VIDYAMANDIR,mond  devgad  sindhudurg 416623,SECONDARY EDUCATION,20,852,4,20-24
71744,MANGO RESEARCH CENTER,girye  devgad  sindhudurg 416806,MANGO RESEARCH CENTER,18,721,1,15-19
71745,BHAUSAHEB LOKEGAONKAR HIGHSCHOOL,GIRYE  416806,SECONDARY EDUCATION,20,852,4,10-14
71746,DURGAMATA MAHILA SAVYA SAHYATA BACHAT GAT,222   vijaydurg  devgad  sindhudurg  416806,MAKING FOOD PRODUCTS,6,103,5,10-14
71747,EKMAIV MAHILA BACHAT GAT,vijaydurg  devgad  sindhudurg  416806,MAKING FOOD PRODUCT,6,103,5,10-14
71748,MANGO RESEARCH CENTER,rameshwar  devgad  sindhudurg  416806,MANGO RESEARCH CENTER,18,721,1,10-14
71749,AADARSH VIDYAMANDIR,girye  devgad  sindhudurg 416806,SECONDARY EDUCATION,20,852,1,15-19
71750,SHREE RAM MADHYAMIK VIDYAMANDIR,patel  devgad  sindhudurg 416804,SECONADARY EDUCATION,20,852,4,30-99
71751,ANANT KRUSHNA KELKAR HIGHSCHOOL,wade  devgad  sindhudurg 416805,SECONDARY EDUCATION,20,852,4,20-24
71752,DR SHREEDHAR LELE HIGHSCHOOL,mutat  devgad  sindhudurg 416803,SECONDARY EDUCATION,20,852,4,15-19
71753,NINA AGROTECH PVT LTD,undil devgad  sindhudurg 416811,AGRO FARMING   PRODUCTION,1,16,4,20-24
71754,MILIND ANANT SOMALE CASHEW FACTORY,389   somlewade devgad  sindhudurg  416811,CASHEW PROCESSING   CASHEWNUT PRODUCTION,6,107,2,30-99
71755,SHREE BHAGVATI HIGHSCHOOL,845   munage devgad  sindhudurg  416630,SECONDARY EDUCATION,20,852,1,20-24
71756,SHREE RAMESHWAR HIGHSCHOOL,198   mithabaon devgad  sindhudurg  416615,SECONDARY EDUCATION,20,852,1,15-19
71757,S B RANE HIGHSCHOOL,190   GIRWALWADI 416630,PRIMARY   SECONDARY EDUCATION,20,852,4,10-14
71758,BHAVAIDEVI MAHILA BACHAT GAT,26 7   KHALCHWADA 416630,MAKING FOOD PRODUCT,6,107,5,10-14
71759,LAXMI MAHILA BACHAT GAT,7   KHALCHI PARABWADI  416630,MAKING FOOD PRODUCT,6,107,5,10-14
71760,PRERNA MAHILA BACHAT GAT,11   GHADIWADI  416630,MAKING WADAPAV AND SELL,14,561,2,10-14
71761,KULDAIVAT MAHILA BACHAT GAT,12   GHADIWADI  416630,MAKING VADAPAV   SELLING,14,561,2,15-19
71762,MAHALAXMI MAHILA BACHAT GAT,110 1   KUPALWADI 416630,MAKING FOOD PRODUCT,6,107,5,10-14
71763,PRAFULL CASHEW INDUSTRIES,127   BRAMANWADI 416630,CASHEW PROCESS INDUSTRY,6,107,2,15-19
71764,KRANTI MAHILA BACHAT GAT,9   bagamala  devgad  sindhudurg  416613,FLOOR MILLING,6,106,5,10-14
71765,TRIMURTI MAHILA BACHAT GAT,10   bagamala  devgad  sindhudurg  416613,FLOOR MILLING KULITH,6,106,5,10-14
71766,MAHALAXMI MAHILA BACHATGAT,katvan  devgad  sindhudurg  416612,MAKING SPICES,6,107,5,10-14
71767,SANSKARTI MAHILA BACHAT GAT,katvan  devgad  sindhudurg  416612,POSHAN AHAR,14,561,5,10-14
71768,SECONDARY SCHOOL,KUNKESHWAR  devgad  sindhudurg  416612,SECONDARY EDUCATION,20,852,4,10-14
71769,S H KELKAR MAHAVIDYALAYA DEVGAD,jamsande  devgad  sindhudurg  416612,HIGHER EDUCATION,20,853,4,30-99
71770,MANDESHWAR BACHAT GAT,VELWADI  416612,MAKING FOOD PRODUCT PICKELS,6,107,5,10-14
71771,PRAPTI SELF HELP GROUP,KAVLEWADI  416612,MANUFACTURE OTHER FOOD PRODUCT EX KULITH PITH,6,107,5,10-14
71772,SHREE APTESHWAR SELF HAVING GROUP,VELWADI  416612,SAVING GROUP MAKING FOOD PRODUCT,6,107,5,10-14
71773,MANDESHWAR SELF HELP GROUP,VELWADI  416612,MAKING FOOD PRODUCT PICKEL,6,107,5,10-14
71774,selling LPG GAS ,jamsande  Devgad  Sindhudurg  416612,SELLING LPG,12,473,6,10-14
71775,DEVGAD MANGO PRODUCTION INST,73 2   jamsande  Devgad  Sindhudurg  416612,AGRICULTURE ALLIED ACTIVITY MANGO ORCHID,1,16,4,10-14
71776,UMA PAWAR HIGHSCHOOL,023   SATPAYRI  416612,ENGLISH MEDIUM SECONDARY EDUCATION,20,852,4,15-19
71777,PARIJAT HOTEL,145   jamsande  Devgad  Sindhudurg  416613,LODDGING   LUNCH FACILITY,14,563,2,10-14
71778,MADHAV KOYANDE,566   jamsande  Devgad  Sindhudurg  416613,FISHING,4,31,2,10-14
71779,HOTEL PRAPANCH,60 2    jamsande  Devgad  Sindhudurg  416612,REASTAURANT FOOD FACILITY,14,561,2,10-14
71780,SHETH M G HIGHSCHOOL,74 1   jamsande  Devgad  Sindhudurg  416612,SECONDARY EDUCATION,20,852,4,30-99
71781,KULKARNI SHOPEE,75 19   jamsande  Devgad  Sindhudurg 416612,MEDICAL AND STATIONARY GENERAL STORE,12,471,2,10-14
71782,DEVGAD URBAN CO OP BANK LTD,802   NEAR DIVANI COURT  416613,CO OP URBAN BANKING,16,641,6,30-99
71783,BORFALKAR HOSPITAL,jamsande  Devgad  Sindhudurg  416612,HOSPITAL,21,861,2,20-24
71784,SANTOSHI LUNCH HOME,155   FRONT OF BUS STAND  416613,FOOD FACILITY LUNCH HOME,14,561,2,10-14
71785,DURGADEVI SELF HELP GROUP,TARAMUMBRI  416612,POULTERY,2,14,5,10-14
71786,VITTHAL RUKMAI SELF HELP GROUP,TARAMUMBRI  416613,POSHAN AHAR,14,562,5,10-14
71787,MILIND PAWAR PRIMARY SCHOOL,74 7   jamsande  Devgad  Sindhudurg  416612,PRIMARY EDUCATION,20,851,4,10-14
71788,TULJABHAVANI SELF HELP GROUP,BELWADI  416612,POSHAN AHAR,14,562,5,10-14
71789,VITTHAL RUKMAI SELF HELP GROUP,143 2   jamsande  Devgad  Sindhudurg 416612,CASHEW PROCESS,6,107,5,10-14
71790,FISH FACTORY DEVGAD KILLA,devgad  sindhudurg 416613,FISH EXPORT,4,31,2,30-99
71791,TARAMUMBRI CO OP FISHING SOCIETY,428   DEVGAD  416613,BUILDING FISHING BOAT,6,301,4,20-24
71792,DEVGAD FISHMAN CO OP SOCIETY LTD,devgad  sindhudurg 416613,FISHING,4,31,6,15-19
71793,S M G JAMKHANDE HIGHSCHOLL,jamsande  Devgad  Sindhudurg  416612,SECONDARY EDUCATION,20,852,4,20-24
71794,SHREE BHAGWATI BACHAT GAT,kotkamte  devgad  sindhudurg  416611,CASEWNUT PRODUCTION   SELL,6,107,5,10-14
71795,RUKHMAI HOSPITAL,524   jamsande  Devgad  Sindhudurg  416612,HOSPITAL,21,861,2,10-14
71796,NATHURAM BAPU PADELKAR,kotkamte  devgad  sindhudurg  416611,AGRICULTURE ALLIED ACTIVITY MANGO ORCHIDS,1,16,2,10-14
71797,RASIKA HARKUL PRIMARY SCHOOL,jamsande  Devgad  Sindhudurg  416612,PRIMARY EDUCATION,20,851,5,10-14
71798,MENTALLY CHALENGED CHILDREN SCHOOL,LINGDALWADI  416611,EDUCATION,20,853,4,20-24
71799,RAJENDRA KHAJANWADKAR,LINGDALWADI  416611,AGRI ALLIED ACTIVITY MANGO ORCHIDS,1,16,2,20-24
71800,MAHAPURUSH BACHAT GAT,135   katvan  devgad  sindhudurg  416612,FAIR PRICE SHOP,12,472,5,10-14
71801,SANDVE HIGHSCHOOL   ARTS JUNIOR COLLEGE,sandve  devgad  sindhudurg  416616,SECONDARY   HIGHER SECONDARY EDUCATION,20,852,4,15-19
71802,MADHYAMIK VIDYAMANDIR KUVALE,kuvale  devgad  sindhudurg  416610,SECONDARY EDUCATION,20,852,4,10-14
71803,MAHILA GRUHUDOGYA MAHILA BACHAT GAT,110 2   KUPALWADI 416630,MAKING FOOD PRODUCT,6,107,5,10-14
71804,AKANSHA CASHEW AGRO PVT LTD,744   salashi  devgad  sindhudurg  416610,CASHEWNUT PRODUCTION,6,107,3,30-99
71805,MANDESHWAR SELF SEVING HELP GROUP,VELWADI  416612,MAKING FOOD PRODUCT PICKES,6,107,5,10-14
71806,OMKAR BACHAT GAT,KAVLEWADI  416612,SAVING GROUP MAKING FOOD PRODUCTS,6,107,5,10-14
71807,SHIRGAON HIGHSCHOOL   JUNIOR COLLEGE,shirgaon  devgad  sindhudurg  416610,secondary   higher secondary education,20,852,4,30-99
71808,SHREE DATTAKRUPA BACHAT GAT,KAVLEWADI  416612,AGRICULTURE ALLIED ACTIVITY,1,16,5,10-14
71809,BHAVANI RUCHI PRODUCTS,12 2   shirgaon  devgad  sindhudurg  416801,PRODUCTION OF JUICE,6,110,3,10-14
71810,CHANDRAKANT KRUSHNA TAMBE MINNING,Kinjawade  devgad  sindhudurg  416611,STONE MINNING,5,81,2,10-14
71811,ASHOK MASURKAR MINNING,KINJAWADE  416811,STONE MINNING,5,81,2,15-19
71812,AADARSH VIDYAMANDIR,124 1   Kinjawade  devgad  sindhudurg 416611,SECONDARY EDUCATION,20,852,7,10-14
71813,PRERNA CASHEW FACTORY SHIRGAON,dhoptewadi  devgad  sindhudurg  416610,CASHEWNUT PRODUCTION,6,107,3,15-19
71814,MIDDALE HIGHSCHOOL KOLOSHI,HADPID  devgad  sindhudurg  416610,SECONDARY EDUCATION,20,852,7,10-14
71815,SANJAY VISHNU MORE MANGO JUICE PRODUCTION,1918   shevare  devgad  sindhudurg  416610,MANGO PRODUCTION   MANGO PULP MAKING,6,110,3,30-99
71816,DEVGAD TALUKA MANGO PRODUCTION CO OP SOCIETY,dabhole devgad  sindhudurg  416612,FRIUT PROCESS PROJECT,6,103,6,30-99
71817,PANCHKROSHI SHIKSHAN SANSTHA HIGHSCHOOL,198   vitthaladevi  devgad  sindhudurg  416811,SECONDARY EDUCATION,20,852,4,25-29
71818,A S S P M D PHARMACY COLLEGE,SANGULWADI  416810,HIGHER EDUCATION IN PHARMACY,20,853,4,25-29
71819,KRUSHI MAHAVIDHALAYA,189   SANGULWADI 416810,AGRICULTURE COLLEGE,20,853,4,30-99
71820,A S SP D T Ed COLLEGE,SANGULWADI  416810,D T EDUCATION COLLEGE,20,853,4,10-14
71821,ARJUN RAVRANE HIGHSCHOOL   COLLEGE,VABHAVE  416810,SECONDARY   HIGHER EDUCATION,20,853,4,30-99
71822,ANANDIBAI RAVRANE COLLEGE,VABHAVE  416810,HIGHER EDUCATION,20,853,4,25-29
71823,A S S MADHYAMIK VIDYALAYA,204   Nadhavade  vaibhavwadi  sindhudurg 416810,SECONDARY EDUCATION,20,852,4,10-14
71824,SINDHU DAIRY FARM,1232   Nadhavade  vaibhavwadi  sindhudurg 416810,MILK COLLECTION CENTER,2,14,6,15-19
71825,MADYAMIK VIDYALAYA UMBARDE,UMBARDE  416810,SECONDARY EDUCATION,20,852,4,10-14
71826,CHATRAPATI SHIVAJI VIDYALAYA NERLE,NERLE  416704,SECONDRY EDUCATIONAL INST,20,852,4,15-19
71827,NARDAVE ENGLISH SCHOOL,nardave  kankavli  sindhudurg  416609,SECONDARY EDUCATION,20,852,4,10-14
71828,SHANKAR MAHADEV VIDYALAY,SHALEWADI  416609,SECONDARY EDUCATION,20,852,4,10-14
71829,KUMBHAWADE SCHOOL HOSTEL,SHALEWADI  416609,HOSTEL,14,559,4,30-99
71830,MARATHI HIGHSCHOOL NATAL,KUDTARKARWADI 416609,SECONDARY EDUCATION,20,852,4,15-19
71831,SHIVDAV HIGHSCHOOL,501   PATELWADI 416620,SECONDARY EDUCATION,20,852,4,10-14
71832,MADHAMIK VIDYAMAINDIR,shivajinagar  kankavli  sindhudurg  416609,SECONDARY EDUCATION,20,852,4,30-99
71833,L G SAMANT SCHOOL,harkul bk  kankavli  sindhudurg  416602,SECONDARY EDUCATION,20,852,4,15-19
71834,SSPM COLLEGE,201 2   harkul bk  kankavli  sindhudurg 416602,HIGHER EDUCATION,20,853,4,25-29
71835,S S P M ENGGINERING COLLEGE,201 1   harkul bk  kankavli  sindhudurg 416602,HIGHER EDUCATION,20,853,4,100-199
71836,SAURCOOL HOTEL,1133   BHARADWADI 416603,REASTAURANT COASTAL FOOD,14,561,3,15-19
71837,MAHILA BHAVAN,osargaon  kankavli  sindhudurg  416603,MAKING PICKELS   OTHER FOOR PRODUCT,6,103,6,30-99
71838,URSULA MARATHI SCHOOL,varavade  kankavli  sindhudurg  416602,SECONDARY EDUCATION,20,852,4,30-99
71839,NEELAM COUNTRYSIDE,janavali  kankavali  sindhudurg  416602,LODDING   HOTEL,14,551,2,30-99
71840,SHREE SIDHI AGENCIES,janavali  kankavali  sindhudurg  416602,PETROL PUMP,12,473,2,10-14
71841,SARANG HIGHTECH INFASTRUCTURE PVT LTD,karul  kankavli  sindhudurg 416601,CONSTRUCTION,9,410,4,20-24
71842,BRAMMANESHWAR EDUCATION BOARD,Dakshin Bajar Peth  kankavali  sindhudurg 416602,SECONDARY EDUCATION,20,852,4,30-99
71843,NEW ENGLISH SCHOOL,VIDYANAGAR  416601,SECONDARY EDUCATION,20,852,4,30-99
71844,DARSHAN CAHEW CO OP PROCESSING,322   damare  kankavali  sindhudurg  416601,CASHEWNUT MANUFACTURE,6,107,2,30-99
71845,BAI NATH PAI PRABHODINI KARUL,karul  kankavli  sindhudurg 416601,SECONDARY EDUCATION,20,852,4,10-14
71846,CHANDRAKANT FOOD PRODUCT,1024   MARUTIWADI 416601,MANUFACTURE OF PICKLE,6,103,2,20-24
71847,VIDYAMANDIR HIGHSCHOOL LORE WAGHERI,BAMBARWADI  416601,SECONDARY EDUCATION,20,852,4,10-14
71848,SARWASWATI HIGHSCHOOL,249   Asalade  kankavli  sindhudurg  416602,SECONDARY EDUCATION,20,852,4,15-19
71849,SINDHUDURG EDUCATION SOCIETY ADHYAPAK MAHAVIDYALAYA,678   BOBHATEWADI 416601,HIGHER EDUCATION,20,853,4,25-29
71850,MAHDYAMIK VIDYALAYA,404   wargaon  kankavli  sindhudurg  416801,SECONDARY EDUCATION,20,852,4,10-14
71851,SHARMILA HOTEL,osargaon  kankavli  sindhudurg  416603,LODDING   HOTEL,14,551,2,15-19
71852,M K M URDU HIGHSCHOOL,harkul bk  kankavli  sindhudurg  416602,SECONDARY EDUCATION,20,852,4,10-14
71853,PUBLIC WORK DEPT,kharepatan  kankavali  sindhudurg  416703,CONSTRUCTION,9,421,1,25-29
71854,SUYOG CASHEW FACTORY,142 1    BHAIRIWADI 416703,CASHEWNUT MANUFACTURE,6,107,2,15-19
71855,KALBHAIRAV MANDIR DEVSTHAN,GURAVWADI  416703,RELIGIOUS SERVICE,23,949,7,10-14
71856,MAHAKALI FARSAN,207   kharepatan  kankavali  sindhudurg 416703,PRODUCTION OF FARSAN,6,107,3,20-24
71857,RAMESHWAR PRASADIK MANDAL,RAMESHWAR NAGAR 416703,RELIGIOUS SERVICE,23,949,7,10-14
71858,KALBHAIRAV MANDIR DEVSTHAN,BHAIRIWADI  416703,RELIGIOUS SERVICE,23,949,7,10-14
71859,KAPILESHWAR MANDIR,BHAIRIWADI  416703,RELIGIOUS SERVICE,23,949,7,20-24
71860,KEDARESHWAR MANDIR TRUST,GURAVWADI  416703,RELIGIOUS SERVICE,23,949,7,10-14
71861,SHETH N M SCHOOL,96   RAUTWADI  416703,SECONDARY EDUCATION,20,852,4,30-99
71862,SANMATI MAHILA CO OP SOCIETY,239   shivajipeth  kankavli  sindhudurg  416703,CO OP BANKING,16,641,6,10-14
71863,KHAREPATAN GAT VIKAS CO OP SOCIETY,241   SHIVAJI PETH 416703,CO OP BANKING,16,641,6,20-24
71864,BHALCHANDRA MAHARAJ URBAN CO OP SOCIETY,244   SHIVAJI PETH 416703,CO OP BANKING,16,641,6,20-24
71865,JAMA MASJID KHAREPATAN,95   BANDARWADI 416703,RELIGIOUS SERVICE,23,949,7,10-14
71866,NEW ENGLISH SCHOOL  PENDUR,PENDUR  MALVAN 416604,SECONDARY EDUCATION,20,852,4,10-14
71867,WAWRADKAR HIGHSCHOOL AND SENIOR COLLEGE  KATTA,4   KATTA  MALVAN 416604,DEGREE LEVEL EDUCATION,20,853,4,15-19
71868,WARADKAR HIGHSCHOOL AND JR  COLLEGE  KATTA,964   KATTA  MALVAN 416604,higher secondory education,20,852,4,20-24
71869,WARADKAR HIGHSCHOOL AND ENGLISH MIDIUM  KATTA,KATTA  MALVAN  416604,SECONDARY EDUCATION,20,852,4,10-14
71870,PAWASKAR CASHEW FACTORY,621   SUKLWAD  MALVAN  416534,PROCESSING CASHEW NUTS,6,107,2,30-99
71871,RAJESH BANDEKAR CASHEW FACTORY,SUKALWAD  MALVAN 416534,PROCESSING CASHEWNUTS,6,107,2,20-24
71872,SARTANDEL RAPAN SANGH,DEVBAG   MALVAN 416606,COASTAL FISHING,4,31,6,20-24
71873,LAXMI VISHNU CASHEW FACTORY,WAIRY BHUTNATH  MALVAN  416606,PROCESSING CASHEWNUTS,6,107,2,30-99
71874,CHOWKE HIGHSCHOOL,CHOWKE  MALVAN 416605,SECONDARY EDUCATION,20,852,4,15-19
71875,PRASAD FOOD INDUSTRIES,CHOWKE  MALVAN 416605,PROCESSING FOODS,6,103,2,15-19
71876,PURVA MAHILA BACHAT GAT,ANANDVHAL  MALVAN 416606,MANUFACTURING FOOD ITEAMS,6,107,5,10-14
71877,GOVT  POLYTECHNIC COLLEGE MALVAN,kumbharmath  malvan  sindhudurg  416606,TECHNICLAL EDUCATION,20,853,1,30-99
71878,R P BAGVE HIGH SCHOOL  MASURE,MARDE  MALVAN 416608,SECONDARY EDUCATION,20,852,4,10-14
71879,NARVEKAR CASHEW FACTORY,403   MASADE  AMBEKARWADI  416608,processing cashewnuts,6,107,2,10-14
71880,SAMYANTAK SANSTHA,163   DHAMAPUR  MALVAN  416605,PROVIDING NON  FORMAL EDUCATION,20,854,2,10-14
71881,VARDAM HIGH SCHOOL  POIP,POIP  MALVAN  416608,SECONDARY SCHOOL EDUCATION,20,852,1,15-19
71882,SECONDARY SCHOOL ASRONDI,ASRONDI  MALWAN 416602,PROVIDING SECONDARY EDUCATION,20,852,4,10-14
71883,PRAGAT VIDYA MANDIR  RAMGAD,9   RAMGAD  MALVAN 416616,secondary high school,20,852,4,15-19
71884,JANTA VIDYAMANDIR HIGH SCHOOL  TRIMBAK,BAGADEWADI  MALVAN 422213,SECONDARY HIGH SCHOOL,20,852,4,10-14
71885,BHAKTI CASHEWS,1028   KOLAMB  MALWAN  416606,PROCESSING CASHEWNUTS,6,107,2,15-19
71886,OZAR VIDYAMANDIR KANDALG AON,KANDALGOAN  416606,SECONDARY EDUCATION,20,852,1,10-14
71887,SHREE DEV RAMESHWAR DEVSTHAN TRUST KANDALGAON,KANDALGAON  MALVAN 416606,PROVIDING RELEGIOUS SERVICE,23,949,7,25-29
71888,ZANTYE CASHEW,1007   SAIMANDIR ROAD  GAONKARWADA 416626,PROCESSING CASHEWNUTS,6,107,2,10-14
71889,DYANDEEP SECONDARY HIGH SCHOOL  WAYANGANI,WAYANGANI  MALVAN 416614,SECONDARY HIGH SCHOOL,20,852,4,10-14
71890,SHRAMIK FOODS,1995   sadewadi  malwan  sindudurg  416614,MANUFACTURING PICKELS,6,103,2,15-19
71891,NEW ENGLISH SCHOOL ACHARA,ACHARA  MALVAN 416614,SECONDARY EDUCATION,20,852,4,15-19
71892,ENGLISH MEDIUM SCHOOL ACHARA,VARCHI WADI ACHARA MALAWAN  416614,SECONDARY EDUCATION,20,852,4,15-19
71893,SHREYAS KCAHEW FACTORY,VILLAGE CHINDER 416614,PROCESSING CASHEW NUTS,6,107,2,25-29
71894,PEDNEKAR CASHEW FACTORY  ACHARA,VARCHI WADI  416614,CASHEWNUT PROCESSING,6,107,2,10-14
71895,PRASAD COLD DRINK AND TEA HOUSE,ACHARA  PARWADI 416614,RESTURANT,14,561,2,10-14
71896,SANDIP GOGATE KAJU WORKSHOP   ACHARA,dongarwadi  malwan  sindhudurg  416614,PROCESSSING CAHSEWNUTS,6,107,2,10-14
71897,NEW INDIA MINNING CORP PVT LTD,bombadojichiwadi  vengurla  sindhudurg 416517,MINNING MINERALS,5,71,4,30-99
71898,REDKAR HOSPITAL   RESEARCH CENTER REDI,bombadojichiwadi  vengurla  sindhudurg 416517,MEDICAL FACILITY,21,861,2,20-24
71899,SUJATA RESOURCES PVT LTD,bombadojichiwadi  vengurla  sindhudurg 416517,MINNING MINERALS,5,71,4,30-99
71900,DIPAK NAIK TAX CONSULTANT,73 1    KHASBAGWADI 416518,TAX CONSULTANT,18,692,2,10-14
71901,BAVDEKAR HIGHSCHOOL,shiroda  vengurla  sindhudurg  416518,SECONDARY EDUCATION,20,852,4,10-14
71902,ARAWALI MEDICAL   RESEARCH CENTER,69   arawali  vengurla  sindhudurg  416518,MEDICAL FACILITY,21,861,4,10-14
71903,SHREE SARASWATI VIDYALAYA ARAWALI TANK,tank  vengurla  sindhudurg 416518,SECONDARY EDUCATION,20,852,4,10-14
71904,ASOLI HIGHSCHOOL,784   asoli  vengurla  sindhudurg  416518,SECONDARY EDUCATION,20,852,4,10-14
71905,NEW ENGLISH SCHOOL,MATOND  vengurla  sindhudurg  416529,SECONDARY EDUCATION,20,852,4,10-14
71906,AMBAI CASHEW FACTORY,575   PAL GONDAWANE 416516,CASHEWNUT PRODUCTION,6,107,2,10-14
71907,ACHUT CASHEW FACTORY,6   TULAS KHATARWADI 416516,CASHEWNUT PRODUCTION,6,107,2,100-199
71908,ANSUR PAL HIGHSCHOOL,ansur  vangurla  sindhudurg  416516,SECONDARY EDUCATION,20,852,4,10-14
71909,NEW ENGLISH SCHOOL UBHADANDA,294   vagheswar  vengurla  sindhudurg 416516,SECONDARY EDUCATION,20,852,4,10-14
71910,MANSISHWAR PETROLPUMP,2680   ubhadanda  vengurla  sindhudurg 416516,PETROL PUMP,12,473,2,10-14
71911,BOWLEKAR CASHEW FACTORY,BHATTWADI  416516,cashewnut production,6,107,2,30-99
71912,SANJIVANI CASHEW FACTORY,415   MATH  416516,CASHEWNUT PRODUCTION,6,107,2,15-19
71913,GAYATRI CASHEW UNIT,BHOWARWADI  416516,CASHEWNUT PRODUCTION,6,107,2,10-14
71914,KUBAL CASHEW FACTORY,BHANDARWADI  416516,CASHEWNUT PRODUCTION,6,107,2,10-14
71915,NIDHI CASHEW UNIT,bhandarwada  vengurla  sindhudurg  416516,CASHEWNUT PRODUCTION,6,107,3,30-99
71916,SHREERAM CASHEW FACTORY,1262   bhandarwada  vengurla  sindhudurg 416516,CASHEWNUT PRODUCTION,6,107,3,10-14
71917,MAHARASHTRA TILES   CLAY INDUST,267 B   KUTWAD  416516,CAUL KHARKHANA,6,239,2,30-99
71918,SAINT FRANSIS XAVIER ENGLISH MEDIUM SCHOOL,105   AAJGAON SHIRODA  416518,SECONDARY EDUCATION,20,852,4,15-19
71919,SAI CASHEW FACTORY,971   JAMBHARMALA 416516,CASHEWNUT PRODUCTION,6,107,2,10-14
71920,SAMARTH CASHEW UNIT,1196   BHATTWADI 416516,CASHEWNUT PRODUCTION,6,107,2,10-14
71921,THAKUR CASHEW FACTORY,sataye  vengurla  sindhudurg  416516,CASHEWNUT PRODUCTION,6,107,2,10-14
71922,SHREE DEVI SATERI HIGHSCHOOL,187   PALKARWADI 416516,SECONDARY EDUCATION,20,852,4,20-24
71923,SURYAKANTA MAHILA UODUGIK CO SOCIETY,palkarwadi  vengurla  sindhudurg  416516,FOOD PROCESSING,6,107,6,10-14
71924,ANAND MADHUKAR GAVDE,VARCHI MALAI  416522,MINING JAMBHA KHADAK,5,99,2,15-19
71925,GOD KRUSHNA THE GREAT,93 C   medha  vengurla  sindhudurg  416522,FISHING,4,31,2,10-14
71926,ASHOK SAMRAT SAMANT,449   medha  vengurla  sindhudurg  416522,FISHING,4,31,2,15-19
71927,ANNASAHEB DESAI SECONDARY HIGHSCHOOL,ravadas    416606,SECONDARY EDUCATION,20,852,4,15-19
71928,MAHAVIDYALAYA   MADHYAMIK VIDYALAYA,PAAT  416522,SECONDARY EDUCATION,20,852,4,30-99
71929,YASH CASHEW OIL COMPANY,NERUR MANKADEVI 416525,MANUFACTURING GENERAL PURPOSE MACHINERY,6,281,2,10-14
71930,DALVI   SONS,G 10   NERUR MANKADEVI  416525,Manufacture of medical and dental instrum,6,325,2,10-14
71931,PURSHOTTAM INDUSTRIES,MIDC KUDAL  416525,MANUFACTURING CEMENT,6,239,3,30-99
71932,CABLE INDIA LTD ,MIDC KUDAL  416525,Manufacture of wiring and wiring devices,6,273,2,15-19
71933,SHRI AQUA PURIFIER,PLOT NO  D 6   MIDC KUDAL  416520,WATER SUPPLY,8,360,2,20-24
71934,POOJA PRAKASH PARAB,MIDC KUDAL  416525,Manufacture of medical and dental instrum,6,325,3,20-24
71935,L R  ENTERPRISES,G 43 1   MIDC KUDAL 416525,INSTALLATION MACHINERY,6,332,2,15-19
71936,UNITED CASHEW INDUSTRIES,MIDC KUDAL  416520,CASHEW NUT PRODUCTS,6,107,3,30-99
71937,SHRI YASHWANT D  WALUJ,MIDC KUDAL  416550,MANUFACTURE OF NON METALIC MINERAL PRODUC,6,239,2,10-14
71938,CARTINI  INDIA LTD ,MIDC KUDAL  416520,METAL WORKING SERVICES,6,259,3,30-99
71939,SHRIPAD MODKAR,MIDC KUDAL  416525,MANUFACTURING BEVERAGES,6,110,2,15-19
71940,N A M T  MADHYAMIK VIDYALAYA,MUDYCHA KOND  416520,SECONDARY EDUCATION,20,852,4,10-14
71941,HINDUSTAN COCO COLA DEPO,476   AKERI  416510,WARE HOUSE   STORAGE,13,521,2,15-19
71942,SHAKILA JADDI,9   ZARAP  416520,OTHER MEMBERSHIP ORGNISATION,23,949,5,10-14
71943,JIVANDAN HANDICAP SCHOOL,58   ZARAP  416520,RESIDENTIAL CARE ACTIVITIES MENTALLY CHAL,21,872,1,20-24
71944,MAYUR CASHEW INDUSTRIES,PARABWADI  416520,CASHEW NUT PRODUCTS,6,107,2,10-14
71945,LAXMI NARAYAN VIDYALAYA BAMBAVANE,BIBAVANE  416520,SECONDARY EDUCATION,20,852,4,10-14
71946,GAYATRI INDUSTRIES,MIDC KUDAL  416528,MANUFACTURING CERAMICS,6,239,2,10-14
71947,JAGANATH ROFFING TILES PVT  LTD ,PINGULI  416528,MANUFACTURING ROFFING TILES,6,239,4,30-99
71948,M S MULRAJ TRIKAMADAS,X53   MIDC PINGULI 416528,SALE OF MOTOR VEHICLE,10,454,2,25-29
71949,SHANTALINGAPPA SHERNAPPA PATIL,MIDC PINGULI  416528,MANUFACTURE OF NON METALIC MINERAL PRODUC,6,239,3,25-29
71950,M S MAHARASHTRA CEMENT PIPE INDUSTRIES,PLOT NO  50   MIDC PINGULI  416528,MANUFACTURING CEMENT,6,239,3,15-19
71951,LINGESHWAR VIDYALAYA   KANISHTA MAHAVIDYALAYA,TALSULI  416520,SECONDARY EDUCATION,20,852,1,30-99
71952,PRASHIKSHAN KARYSHALA HORTICULTURE COLLEGE,MULADE  416520,HIGHER EDUCATION,20,853,1,30-99
71953,T V S SHOWROOM,1   sangirde  kuda  sindhudurg  416520,SELL OF TWO WHEELERS,10,454,2,15-19
71954,SHANTADURGA CASHEW FACTORY,666   pawashi  kudal  sindhudurg  416520,CASHEWNUT MANUFACTURE,6,107,2,30-99
71955,SIDHACHA GANPATI SELF HELP GROUP,BAVKARWADI  416520,POSHAN AHAR,6,107,5,10-14
71956,RAMESHWAR FOOD PRODUCT,190   Bambuli Tarf Haveli  kudal  sindhudurg  416520,MANUFACTURE OF FOOD PRODUCT,6,107,2,15-19
71957,RAMESHWAR VIDYALAY,170   bav  kudal  sindhudurg  416520,SECONDARY EDUCATION,20,852,4,10-14
71958,SHIVRAJ MARATHA SECONDARY   HIGHER SECONDARY SCHOOL,6   jambharmala  kudal  sindhudurg  416519,SECONDARY EDUCATION,20,852,4,30-99
71959,THARMEL INSTRUMENT INDIAPVT LTD,125   namasgaon  kudal  sindhudurg  416519,MANUFACTURE OF PROCESS CONTROL   TEMPRETU,6,281,4,100-199
71960,VASUDEV SARASWATI VIDYALAY,namasgaon  kudal  sindhudurg  416519,SECONDARY EDUCATION,20,852,4,30-99
71961,DHURI ARTS   COMMERCE MANGAON,namasgaon  kudal  sindhudurg  416519,HIGHER EDUCATION,20,853,4,15-19
71962,WADOS HIGHSCHOOL,wados  kudal  sindhudurg 416519,SECONDARY EDUCATION,20,852,4,10-14
71963,NEW ENGLISH SCHOOL HALDICHE,NERUR  kudal  sindhudurg  416519,SECONDARY EDUCATION,20,852,4,15-19
71964,VELNKANI BACHAT GAT,keravade k  narur  kudal  sindhudurg  416520,SELF HELP GROUP,21,889,5,10-14
71965,SHIVAJI HIGHSCHOOL,22   HIRLOK  416520,SECONDARY EDUCATION,20,852,4,20-24
71966,B B  SAWANT ADHYAPAK VIDYALAY,DIGAS KUDAL  416521,D ED COLLEGE,20,853,4,10-14
71967,AWALEGAON HIGHSCHOOL AND JR  COLLEGE,79   AWALEGAON KUDAL  416521,HIGER SECONDARY EDUCATION,20,852,4,15-19
71968,PANGRAD NIRUKHE SHIKSHAN PRASARKA MANDAL HIGH SCHOOL,PANGRAD KUDAL 416521,SECONDARY EDUCATION,20,852,4,10-14
71969,MUSTAFA SAIFULLA KHAN,PINGULI  416528,RETAIL SALE OF OTHER HOUSE HOLD EQUIPMENT,12,475,2,10-14
71970,SAHYADRI MADHYAMIK VIDYALAY,142   BHADGAO BUDRUK  416521,SECONDARY EDUCATION,20,852,4,15-19
71971,NEW SHIVAJI HIGHSCHOOL JAMBHAVADE,BHUTVAD  416632,SECONDARY EDUCATION,20,852,4,30-99
71972,KOKAN KAJU PVT LTD,1126   BHOGALEWADI BAMBARDE  416520,PROCESSING CASHEWNUT,6,107,3,30-99
71973,SHIVAJI ENGLISH SCHOOL AND JR COLLEGE,PANDUR TITHA PANDUR  416812,HIGHER SECONDARY EDUCATION,20,852,4,30-99
71974,SHREE PUSHPSEN COLLEGE OF D FARMACY,DIGAS WADI HUMARMALA  416812,DIPLOMA EDUCATION IN FARMACY,20,853,4,15-19
71975,RATNA ENTERPRISES,109   MALWADI  416520,MAKING FOOD PRODUCTS,6,107,3,10-14
71976,SAW MILL SADASHIV AALVE,210   ZARAP  416520,SAW MILL,6,161,2,10-14
71977,GANGAI HOTEL,JAITAPKAR COLONY  OROS  416812,RESTURANT,14,561,2,10-14
71978,HOTEL KOKAN RATNA,JAITAPKAR COLONY OROS  416812,RESTURANT WITH BAR,14,563,2,20-24
71979,INDIA CASHEW FACTORY,G 42   MIDC KUDAL 416525,CASHEW NUT PRODUCTS,6,107,2,30-99
71980,SINDHUDURG SAHAKARI KRUSHI GRAMIN VIKAS BANK,OROS  416812,BANK,16,641,6,15-19
71981,AGRICULTURE COLLEGE,1263   JAITAPKAR COLONY  OROS  416812,EDUCATION OF AGRICULTURE,20,854,4,10-14
71982,ELVEST TECHNOLOGIESH PVT LTD ,B 2712   MIDC KUDAL 416550,METAL WORKING SERVICES,6,259,2,15-19
71983,SINDHUDURG KRUSHI UTPAN BAJAR SAMITI,OROS SINDHUDURGNAGARI OROS  416812,WHOLESALE SALE OF AGRICULTURE PRODUCT,11,461,1,15-19
71984,MODERN RUBBAR COMPANY,MIDC KUDAL  416525,Manufacture of rubber products,6,221,2,30-99
71985,MADHYMIK VIDYALAY POKHARAN,539   TEMBWADI  416520,SECONDARY EDUCATION,20,852,4,10-14
71986,SHREE BHAGAVATI DEVI MADHYMIK VIDYALAY AMBRAD,AMBRAD  416628,SECONDARY EDUCATION,20,852,4,10-14
71987,NEW ENGLISH SCHOOL AND JR COLLEGE,709   KUMBHARWADI 416603,HIGHER SECONDARY EDUCATION,20,852,4,30-99
71988,CHANDRADEEP FACTORY,164   KASAL  416603,MFG  PICKLES,6,107,2,30-99
71989,YASHASWI MAHILA BACHAT GAT,GHOGALEWADI  SATARDA  418514,RETAIL SALE OF CASHEW KERNELS,12,472,5,10-14
71990,SAHYADRI KAJU MADYARK NIRMITI,279   PEDVE  SAWANTWADI  416511,PROCESSING CASHEWNUTS,6,107,6,100-199
71991,DEEPJYOT ENGLISH MEDIUM SCHOOL,DEGVE  SAWANTWADI 416511,SECONDARY EDUCATION,20,851,4,20-24
71992,SHANTI CONSTRUCTION COMPANY,146   PATILWADI  NIGUDE  416514,CONSTRUCTION OF HOUSES,9,410,2,25-29
71993,ARAONDA HIGHSCHOOL  ARONDA,541   REDKARWADI  ARONDA  416513,SECONDARY EDUCATION,20,852,4,15-19
71994,NANOSKAR AAURVEDIC MEDICINE FACTORY,118   NANOS SAWANTWADI  416518,MANUFACTURING AAYRVEDIC MEDICINE,6,210,2,10-14
71995,AROS PANCHKROSHI VIDYA VIKAS HIGHSCHOOL,31   AROS SAWANTWADI  416514,SECONDARY EDUCATION,20,852,4,15-19
71996,SIDDHESHWAR CASHEW PRODUCT,1794   TALWADE SAWANTWADI  416529,PROCESSING CASHEWNUTS,6,107,2,30-99
71997,JANATA VIDYALAY AND JUNIOR COLLEGE,606   TALWADE SAWANTWADI  416529,HIGHER SECONDARY EDUCATION,20,852,4,20-24
71998,NARAYAN MALVANKAR COMPANY,1173   KUMBHARVADA 416529,MANUFACTURING CATECHU,6,107,2,10-14
71999,AJGAONKAR DASHAWATARI MANDAL,40   AJGAON SAWANTWADI  416518,PROVIDING ENTERTAINMENT,22,900,2,15-19
72000,KULSWAMI CASHEW FACTORY,MAULI TEMBWADI TALAWANE  416513,PROCESSING CASHEWNUTS,6,107,2,10-14
72001,YOGESHWAR CASHEW FACTORY,55 2   KESARI  SAWANTWADI  416510,PROCESSING CASHEWNUTS,6,107,2,15-19
72002,M S VIRNODKAR CASHEW INDUSTRIES,KARIWADE  416510,PROCESSING CASHEWNUTS,6,107,2,30-99
72003,DANDEKAR MAHILA BACHAT GAT,1032   HARIJANWADI KARIWADE  416510,MANUFACTURING BAMBU PRODUCTS,6,162,5,10-14
72004,SOUTH KOKAN DISTALLARIES,INULI  SAWANTWADI 416510,MANUFACTURING COUNTRY LIQUOR,6,110,4,30-99
72005,KALIKADEVI MAHILA BACHAT GAT,1032   HARIJANWADI KARIWADE  416510,MANUFACTURING BAMBU PRODUCTS,6,162,5,10-14
72006,SAVITRI MAHILA BACHAT GAT,1032   HARIJANWADI KARIWADE  416510,MANUFACTURING BAMBU PRODUCTS,6,162,5,10-14
72007,VANASHREE FARM,DHAWADKI MADKHOL 416510,AGRICULTURE ALLIED ACTIVITIES,1,16,2,15-19
72008,MADHYMIC VIDYALAY MADKHOL,MADKHOL SAWANTWADI  416510,SECONDARY EDUCATION,20,852,4,10-14
72009,KALMBIST ENGLISH SCHOOL,197   KALAMBIST  416531,SECONDARY EDUCATION,20,852,4,10-14
72010,SAINIK SCHOOL AMBOLI,BAJARWADI  416532,SECONDARY EDUCATION,20,852,4,30-99
72011,PANCHKROSHI SHIKSHAN PRASARAK MANDAL AMBOLI UNION ENGLISH SCHOOL,JAKATWADI  416532,PRIMARY EDUCATION,20,851,4,15-19
72012,MADHYMIC VIDYALAY SANGELI,SANGELI SAWANTWADI 416531,SECONDARY EDUCATION,20,852,4,15-19
72013,TATA MOTORS,KUMBHARALI  SAWANTWADI  416510,SALE OF MOTORCAR,10,452,2,30-99
72014,KOLGAON MADHYMIK VIDYALAY,KOLGAON  SAWANTWADI  416510,SECONDARY EDUCATION,20,852,4,10-14
72015,NEMALE PANCHKROSHI MADHYAMIK VIDYALAY  NE ALE,NEMALE  SAWANTWADI 416510,SECONDARY EDUCATION,20,852,4,20-24
72016,NEMALE SAHAKARI KAUL KARKHANA,421a   GAONKAR  KUMBHARWADI  416510,MANUFACTURING BRICKS AND TILES OF CLAY,6,243,6,30-99
72017,NISARG AROGYA KIRAN,01   KITWADI  416512,AYURVEDIC MEDICINE   HEALTH TREATMENT,21,862,2,10-14
72018,JANKI CASHEWNUT FACTORY,342   SATELKARWADI 416512,CASHEWNUT PRODUCTION,6,107,2,15-19
72019,PIKULE HIGHSCHOOL,PIKULE  416512,SECONDARY EDUCATION,20,852,4,10-14
72020,LAVNDE TRAINING COMPANY,193   ambadgaon  dodamarg  sindhudurg 416512,CASHEW PROCESS   CASHEWNUT PRODUCTION,6,107,2,25-29
72021,KASAI DODAMARG SHIKSHAN PRASARAK MANDALS HIGHSCHOOL ZAREBAMBAR,192   zare 2  N V    dodamarg  sindhudurg 416512,SECONADARY EDUCATION,20,852,4,10-14
72022,NEW ENGLISH SCHOOL   ARTS COMMARCE COLLEGE BHEDSHI,BHEDSHI  416512,SECONDARY   HIGHER SECONDARY EDUCATION,20,852,4,25-29
72023,S R NAIK HIGHSCHOOL KONALKATTA,373   KONALKATTA  Dodamarg  Sindhudurg 416512,SECONDARY EDUCATION,20,852,4,15-19
72024,MADHYAMIK VIDYALAYA,447   SONAWAL  416544,SECONDARY EDUCATION,20,852,4,10-14
72025,NUTAN HIGHSCHOOL,65   NUTANWADI  416511,SECONDARY EDUCATION,20,852,4,10-14
72026,JANKI CASHEWNUT FACTORY,249   BHATTWADI 416511,CASHEWNUT PRODUCTION,6,107,2,15-19
72027,SAMAN SEVA HIGHSCHOOL,63   KOLZAR  416511,SECONDARY EDUCATION,20,852,4,15-19
