S.No.,Name of the Establishment,Address,Major Activity Description,Broad Activit y Code,NIC,Owner ship Code,"Emplo yment Class Interva
l"
1425,State Bank of India Brabch Ner,186  In front of Bus Stand 445102,bank,16,641,1,10-14
1426,Nagar Parishad Higher Primary Scholl No 4 Nababpur,90  Juni Wasti  445102,Primary Education,20,851,1,10-14
1427,Yavatmal Mahila Co  operative Bank Branch Ner,167 7   Bus Stand REoad 445102,bank,16,641,4,10-14
1428,Yavatmal District Central Co operative Bank Branch Ner,166 1   Main Road  445102,bank,16,641,4,15-19
1429,M S R T C Deport Ner,120  Bus Station  445102,Other land transport,13,492,4,200-499
1430,Nagar Parishad Higher Primary School No 2 Ner,02  Marwadi Chowk 445102,Primary Education,20,851,1,10-14
1431,Shri Shivaji High School Ner,86  Amaravati Road 445102,Secondary education,20,852,4,30-99
1432,M S E B Sub Station Ner,88  Amaravati Road 445102,Electric power generation  transmission and distribution,7,351,4,30-99
1433,The Yavatmal Urban Co  operative Bank Branch Ner,46 9   Amaravati Road 445102,BANK,16,641,6,10-14
1434,Pusad Urban Co operative Bank Branch Ner,19 4   Main Road  445102,BANK,16,641,6,10-14
1435,Navrang Paper Mill  Waghapur,172    445001,Paper Factory,6,170,2,15-19
1436,Rajlaxmi Credit Society Lohara,07    445002,Bank Service,16,649,4,10-14
1437,Sai Honda Point Lohara,30  Lohara Road  445002,Motor Cycle sales,10,454,2,30-99
1438,Z P Central U P Marathi School Lohara,60  Darwha Road  445002,Primary Education,20,851,1,25-29
1439,Shri Sai Education Mahavidyalaya Lohara,189  Bodad  445002,Higher Education,20,853,4,20-24
1440,Tera Cap Lohara,95  Lohara  445001,Manufacture of paper and paper products,6,170,2,10-14
1441,Sai Honda Point,30  Lohara Road  445001,Sale  maintenance and repair of motorcycles,10,454,2,30-99
1442,Rajlaxmi Society Lohara,7    445001,Other financial service activities ,16,649,4,10-14
1443,Shri Sai Shikshan Mahavidyalaya Bodad Lohara,189  Lohara  445001,Higher education,20,853,4,20-24
1444,I Q A R P Industries Lohara,98  Lohara  445001,Manufacture of plastics products,6,222,2,15-19
1445,Hari Om Product Lohara,114    445001,Manufacture of other food products,6,107,2,10-14
1446,Z P U P School,60  Lohara  CT   Yavatmal 445001,Primary education,20,851,1,25-29
1447,Unnati Motors Lohara,129    445001,Maintenance and repair of motor vehicles,10,452,2,10-14
1448,Z P  Ex Govt   Madhyamic School Umarsara Yavatmal,05  Godhani Road  445001,Secondary Education,20,852,1,30-99
1449,Mahila Cooperative Bank Wadgaon Road,20  Arni Road  445002,Bank,16,641,4,10-14
1450,Yavatmal Urban Coop Bank Wadgaon Road,135  Arni Road  445002,Bank,16,641,3,10-14
1451,Yavatmal District Central Coop Bank Wadgaon Road,115  Om Society  445002,Bank,16,641,3,10-14
1452,Maharashtra Vidut Vitaran Company,146  Waghadi Wadgaon Road  445001,Electric power generation  transmission and distribution,7,351,1,20-24
1453,M S E D C  Waghadi Wadgaon Road,146  Arni Road  445002,Electric power generation  transmission and distribution,7,351,1,20-24
1454,Allahabad Bank Yavatmal,66  SBI Chowk  445001,BANK,16,641,1,10-14
1455,Akola Urban Bank Branch Yavtmal,135  Datta Chowk Road 445001,bank,16,641,4,10-14
1456,Bank of India  Yavatmal,158  Datta Chowk  445001,bank,16,641,9,10-14
1457,Deshonnati Office Yavtmal,167  Datta Chowk Road 445001,Publishing News,15,581,9,25-29
1458,Life Insurance Corporation of India Br No 2 Yavatmal,99  Ruikarwadi Church Road  445001,insurance,16,651,1,30-99
1459,School of Scollarce Yavatmal,17 5   Wanjari Fail  445001,Secondary Education,20,852,4,15-19
1460,Rajani Gas Appliances Yavatmal,63 8   Arni Road  445001,Gas Agency,12,477,2,20-24
1461,Post Office Yavatmal,63 5   Zilla Parishad 445001,Tapal Seva,13,531,1,10-14
1462,St Alloyasence Primary School Yavatmal,S B I Chowk  445001,Primary Education,20,851,4,30-99
1463,Bharat Sanchar Nigam Ltd Yavatmal,18  Dhamangaon Road 445001,Telecommunications activities,15,611,1,30-99
1464,Aryurvedic Hospital Nagari Centre No 1  Yavatmal,18 4   Patipura  445001,Hospital activities,21,861,1,15-19
1465,Government D Ed College Yavatmal,46 2   Godhani Road 445001,Other education,20,854,1,20-24
1466,Vice Nirdeshak Akashwani Yavatmal,49  Godhani Road  445001,RADIO TELECOM CENTRE,15,601,1,20-24
1467,Vidarbha Konkan Gramin Bank Field Office Yavatmal,94  Shivaji Nagar  445001,bank,16,641,4,10-14
1468,Maharashtra State Electricity Distribution Co Ltd Division Yavatmal,91 1   Arni Road  445001,Office administrative and support activities,19,821,1,>=500
1469,State Bank of India Branch  Datta Chowk Yavatmal,6 2   Mainde Chowk 445001,bank,16,641,1,15-19
1470,Daily Sakal Office Yavatmal,60 3   Swarswat Chowk 445001,Publishing News,15,581,9,15-19
1471,Shriram City Finance Yavatmal,12 10   Tiwari Chowk 445001,Other financial service activities,16,649,3,30-99
1472,Buldhana Urban Bank Yavatmal,1 8   Date Coolege Road 445001,bank,16,641,6,15-19
1473,Central Bank of India Yavtmal,119 3   Datta Chowk 445001,bank,16,641,1,15-19
1474,Akola Janata Bank  Yavatmal,99 5   Datta Chowk 445001,BANK,16,641,4,10-14
1475,I D B I Bank Yavatmal,95 10   Datta Chowk 445001,bANK,16,641,1,15-19
1476,District Silk Office Yavtmal,74 2   Swarswat Chowk 445001,office work,18,701,1,10-14
1477,The Yavatmal Urban Co  operative Bank Yavatmal,73 17   Datta Chowk 445001,bANK,16,641,4,30-99
1478,Kohinoor Institute  T EP Ltd   Yavatmal,28  Bhaji Market Road 445001,Other education,20,854,4,10-14
1479,Andhra Bank  Yavatmal,28  Balaji Chowk  445001,bank,16,641,1,10-14
1480,Birla Sun Life  Yavatmal,107 38   N P Building 445001,insurance,16,651,3,10-14
1481,Mahila Urban Bank Branch Yavatmal,25  Tanga Chowk  445001,bank,16,641,1,10-14
1482,Bank of Baroda  Yavatmal,35  Balaji Chowk  445001,bank,16,641,1,10-14
1483,Shriram Commercial Vehicle Finanace  Yavatmal,72  State Bank Chowk 445001,Other financial service activities,16,649,4,30-99
1484,Shri Shivaji Higher Secondary School Yavatmal,56  Giri Nagar  445001,Secondary Education,20,852,4,30-99
1485,H D F C Life  Yavatmal,68  S B I Chowk  445001,insurance,16,651,4,15-19
1486,Life Insurance Corporation Branch No 1 Yavatmal,01  LIC Chowk  445001,insurance,16,651,1,30-99
1487,Nagar Parishad Primary School No 14 Yavatmal,06  Sharada Chowk 445001,Primary Education,20,851,1,10-14
1488,State Bank of India Yavatmal,113  Dhamangaon Road 445001,bank,16,641,1,30-99
1489,Government Girls Residence Polytechnic  Yavatmal,56  Dhamangaon Road 445001,Higher Education,20,851,1,30-99
1490,Government Polytechnic  Yavatmal,47  Dhamangaon Road 445001,Higher Education,20,853,1,100-199
1491,Industrial Training Institute Yavatmal,46 1   Dhamangaon Road 445001,Other Education,20,854,1,30-99
1492,Head Post Office  Yavatmal,63  Dhamangaon Road 445001,Post Services,13,531,1,30-99
1493,M S ELECTRICITY DIDTRIBUTION DARWHA DIST YAVATMAL,143 4   GOLIBAR CHOWK  445202,Electric power generation  transmission and distribution,7,351,1,15-19
1494,Yavatmal District Cooperative Bank Ltd  Darwha,136  SBI Line  445202,bank,16,641,6,15-19
1495,N P MARATHI P SCHOOL NO 2 DARWHA,30 1   NATUWADI 445202,Primary education,20,851,1,20-24
1496,yavatmal urban bank br darwha golibar chowk,41  golibar chowk  444202,bank,16,641,6,10-14
1497,Shivaji Madhyamic Vidyalaya Darwha,1  Near Post Office 444202,Higher Education,20,853,4,30-99
1498,Nagar Parishad Marathi School No 2 Digras,21 1   Sambhaji Nagar 445203,Primary Education,20,851,1,10-14
1499,Shri Bapuraoji Butale Vidyalaya Digras,169    445203,Secondary Education,20,852,4,10-14
1500,State Bank of India Digras,65  Tahsil Road  445203,bank,16,641,9,15-19
1501,Life Insurance Corporation of India Digras,03  Ghantibaba Santhan 445203,Life Insurance,16,651,1,25-29
1502,M S E D C Rural Area Digras,159  Near Ghantibaba Temple  445203,Electricity Supply,7,351,1,10-14
1503,M S E D C City Office Digras,158  Behind Ghantibaba Temple  445203,Electric power generation  transmission and distribution,7,351,1,10-14
1504,Yavtmal Distt Central Coop Bank Digras,30 1   Gurudeo Nagar 445203,BANK,16,641,1,10-14
1505,Post Office  Yavatmal,61    445203,Tapal Seva,13,531,1,10-14
1506,B B Arts and N B Commerce College Digras,95    445203,Higher Education,20,853,4,30-99
1507,Buldhana Urban Coop Bank Branch Digras,15    445203,bank,16,641,4,10-14
1508,Mohanabai Kanya School  Digras,58 1     445203,Secondary Education,20,852,4,30-99
1509,Dinbai Vidyalaya Digras,59 1     445203,Secondary Education,20,852,4,30-99
1510,Nagar Parishad Urdu School No 2 Digras,71  Gawali Pura  445203,Primary Education,20,851,1,10-14
1511,Z P UPPER PRIMARY SCHOOL SHRIRAMPUR,138    445204,Primary education,20,851,1,10-14
1512,Z P Upper Primary School Shrirampur,138  Main Road  445204,Primary Education,20,851,1,10-14
1513,Yavatmal District Examining Coop  Society Pusad,60 1   Shivaji Ward 445204,Management consultancy activities,18,702,4,10-14
1514,Yavatmal District Central Coop  Branch Pusad,39 8   Shivaji Ward 445204,BANK,16,641,4,15-19
1515,H D F C Bank Pusad,34  Karla Road  445204,Bank,16,641,1,15-19
1516,Shriram City Finance Pusad,17    445204,Finance Company,16,641,4,15-19
1517,M S R T C  Pusad Depot,225  Main Road  445204,Other land transport,13,492,1,200-499
1518,Post Office  Pusad,202    445204,Tapal Seva,13,531,1,30-99
1519,Sai Automobiles Pusad,62  Karla Road  445204,Sale of motor vehicles,10,451,2,20-24
1520,Union Bank of India Branch Pusad,220    445204,Bank,16,641,1,10-14
1521,Jr Eng MSEDC Office No 2 Pusad,68  Karla Road  445204,Electricity Supply,7,351,4,15-19
1522,Jr Eng M S E D C  Office No 1 Pusad,67  Karla Road  445204,Electricity Supply,7,351,4,15-19
1523,Punjab National Bank  Pusad,52  Nagina Chowk  445204,BANK,16,641,1,10-14
1524,The Akola Janata Coop Bank Ltd Pusad,65 2   Subhash Chowk 445204,BANK,16,641,4,10-14
1525,Vitthalrao Haibati Chavhan Nagar Parishad Marathi School Pusad,114    445204,Primary Education,20,851,1,15-19
1526,Navvidya Multipurpose Saustha Office Pusad,1231 1   Hanuman Nagar 445204,Other education,20,854,4,10-14
1527,Papalal Jaiswal N P High School Pusad,184    445204,Secondary Education,20,852,1,10-14
1528,Yaatmal Urban Coop Bank Pusad,329  Subhash Chowk 445204,BANK,16,641,4,10-14
1529,Nagar Parishad Urdu Primary School No 9 Pusad,88  Gadhivar  445204,Primary Education,20,851,1,10-14
1530,S N Naik Institute of Farmcy D Farm  Pusad,01 4     445204,Higher education,20,853,4,15-19
1531,Yavatmal District co Operative Bank Branch Umarkhed,173  Mahagaon Road 445206,bank,16,641,1,10-14
1532,Yavatmal District Central Cooperative Bank Branch Umarkhed,173  Mahagaon Road 445206,Bank,16,641,4,10-14
1533,State Bank of India Branch Umarkhed,150  Pusad Road  445206,Bank Service,16,641,1,25-29
1534,State Bank Of India,150  pusad Road  445206,bank,16,641,1,25-29
1535,Z P Ex Govt Boys School Umarkhed,42  Bor van  445206,Secondary Education,20,852,1,20-24
1536,Universe English Medium School Umarkhed,220    445206,Primary Education,20,851,4,10-14
1537,Universal Engilish Medium School Umarkhed,220  pusad Road  445206,Primary education,20,851,4,10-14
1538,Mahatma Jyotiba Fule Vidyalaya Umarkhed,230    445206,Secondary Education,20,852,4,20-24
1539,Mahatma Juyotiba Fule Vidalaya Umarkhed,Umarkhed  M Cl     445206,Secondary education,20,852,4,20-24
1540,Z P Ex Govt Girls School Umarkhed,43  Borwan  445206,Secondary Education,20,852,1,15-19
1541,MSRTC Umarkhed Depot,89  Jawahar Ward  445206,Other land transport,13,492,1,200-499
1542,MSRTC Umarkhedn Depo,Jawhar Ward  445206,Other land transport,13,492,1,200-499
1543,Maulana Abdul Kalam Azad N P U P School No 2 Umarkhed,25    445206,Primary Education,20,851,1,10-14
1544,Maulana abdul Kalam Azad N P Urdu Pri sCHOOL No 2 Umarkhed,25  Tajpura Ward  445206,Primary education,20,851,1,10-14
1545,Dr Ekabal N P Urdu Upper Primary School Umarkhed,9 2   Jama Masjid Ward 445206,Primary Education,20,851,1,15-19
1546,Dr Iqubal N P Urdu Higer Primary Girls School,9 2   Jama m Road 445206,Primary education,20,851,1,15-19
1547,N P Urdu High School Umarkhed,05    445206,Secondary Education,20,852,1,15-19
1548,MSEDC Umarkhed,150  Mahagaon Road 445206,Ele Supply,7,351,1,30-99
1549,MSEB COMPANY UMARKHED,150  MAHAGAON ROAD 445206,Electric power generation  transmission and distribution,7,351,1,30-99
1550,Yavatmal District Central Bank Branch Ghatanji,96    445301,Bank service,16,641,1,10-14
1551,M C Upper Primary School No 5 Ghatanji,190    445301,Primary Education,20,851,1,10-14
1552,Nagar Parishad High Primary School Ghatanji,190    445301,Primary education,20,851,1,10-14
1553,Bank Of Maharashtra Branch Ghatanji,Ghatanji  M Cl     445301,Bank,16,641,1,10-14
1554,Bank of Maharashtra Branch Ghatanji,69    445301,Bank,16,641,1,10-14
1555,Jr Eng M S E D C  Gramin Ghatanji,08    445301,Electricity Supply,7,351,1,10-14
1556,Office Of Junior Executive Engineer,Ghatanji  M Cl     445301,Electric power generation  transmission and distribution,7,351,4,10-14
1557,N P Upper Primary School No 2 Ghatanji,46  Ghati  445301,Primary Education,20,851,1,10-14
1558,Nagar Parishad Primary School Ghatanji,46  Ghati  445301,Primary education,20,851,1,10-14
1559,Yavatmal Mahila Co operative Bank,Main Road  445301,Bank,16,641,2,10-14
1560,State Bank of India Branch Ghatanji,48  Main Road  445301,Bank Work,16,641,1,10-14
1561,The Yavatmal Urban Coop Bank  Branch Ghataji,47  Yavatmal Road 445301,Bank work,16,641,2,15-19
1562,State Bank Of India,48  Main Road Ghatanji 445301,Bank,16,641,1,10-14
1563,The Yavatmal Urban Co Operative Bank Branch Ghatanji,47  yavatmal road  445301,Bank,16,641,2,15-19
1564,M S R T C Pandharkawada,1 1     445302,transport service,13,492,1,200-499
1565,M S R T C Bus station Pandharkawada,1 1     445302,Other land transport,13,492,1,200-499
1566,Z P SCHOOL PANDHARKAWADA,Pandharkaoda  M Cl  445302,Secondary education,20,852,1,20-24
1567,Z P Secondary School Pandharkawada,235    445302,Secondary Education,20,852,1,20-24
1568,MSEDCLtd Pandharkawad a,32 14     445302,Electric power generation  transmission and distribution,7,351,4,20-24
1569,Yavatmal Mahila Coop Bank Branch Pandharkawada,26    445302,Bank,16,641,6,10-14
1570,Post Office  Pandharkawada,124  Main Line  445302,Tapal Seva,13,531,1,15-19
1571,Yavatmal Urban Bank  Pandharkawada,94  Main Line  445302,Bank,16,641,6,10-14
1572,Yavatmal District Central Coop Bank Branch Pandharkawada,15  Akhada Ward  445302,Bank Service,16,641,4,15-19
1573,Yavatmal District co operative Bank Branch Pandharkawada,15  Akhada Ward  445302,Bank,16,641,1,15-19
1574,State Bank of India Pandharkawada,06    445302,Bank service,16,641,1,20-24
1575,STATE BANK OF INDIA BRANCH PANDHARKAWADA,6  AKHADA WARD 445302,Bank,16,641,1,20-24
1576,RURAL HOSPITAL WANI,19 1   SHETKARI MANDIR ROAD  445304,Hospital activities,21,861,1,15-19
1577,Lions English Medium School  Wani,16  Nandepera Road 445304,Secondary education,20,852,4,20-24
1578,YAVATMAL URBAN BANK  CO OPERATIVE BANK,52 2   MAIN ROAD 445304,bank,16,641,4,20-24
1579,BANK OF MAHARASHTRA,52 1   MAIN ROAD 445304,bank,16,641,4,10-14
1580,State Bank of India,166 Wani  M Cl   Wani  M Cl   445304,bank,16,641,1,30-99
1581,IDBI  Bank Branch Wani,62    445304,bank,16,641,4,10-14
1582,H D F C BANK WANI,46 2   Main Road  445304,bank,16,641,1,15-19
1583,Central Bank of India,20 2   Near Azad Hotel Wani  445304,bank,16,641,1,10-14
1584,Manager Union Bank of India Branch Wani,7 1     445304,Bank Service,16,641,1,25-29
1585,Union Bank  Wani,7 1   Main Road  445304,bank,16,641,1,25-29
1586,Gharsansar Mahasel,76 2   Ane Road  445304,Retail sale of other goods in specialized stores,12,477,1,20-24
1587,Buldana Urban Bank Branch Wani,53 1   Main Road  445304,Bank Service,16,641,4,15-19
1588,Buldhana Urban Bank Branch Wani,Main Road  445304,bank,16,641,4,15-19
1589,Vidhrabh Kshetriya Gramin Bank,55  Main Road  445304,bank,16,641,4,25-29
1590,Sevan Stal Mall,54  Nandepera Road 445304,Retail sale of other goods in specialized stores,12,477,2,10-14
1591,Assistant Engineer Electricity co ltd,49 3   Nandepera Road 445304,Electric power generation  transmission and distribution,7,351,4,20-24
1592,Assitant Engineer Electricity Distrubution com ,49 2   Nandepera Road 445304,Electric power generation  transmission and distribution,7,351,4,15-19
1593,Eectricity Distribution co ,49 1   Nandepera Road 445304,Electric power generation  transmission and distribution,7,351,4,15-19
15895,Urban Co operative Credit Society Ner,09  Amaravati Road 445102,BANK,16,641,4,15-19
15896,Gautam V J N T Ashram School Ner Nababpur,103  Nababpur  445102,Other education,20,854,4,15-19
15897,Dr Zakir Hussain Urdu High School  Ner,193  Yavatmal Road 445102,Secondary education,20,852,4,20-24
15898,Illigant I F English Medium High School  Ner  Nababpur,01  Nababpur Road 445102,Secondary Education,20,852,4,30-99
15899,Shantiniketan Montesary School  Ner,Amaravati Road  445102,Primary education,20,851,4,10-14
15900,Jijamata Kanya Vidyalaya Ner,47  Amaravati Road 445102,Secondary education,20,852,4,10-14
15901,Ashtavinayak Urban Co  operative Society Ner,83  Main Road Cotton Market  445102,BANK,16,641,4,20-24
15902,Neharu Mahavidyalaya  Ner,42  Amaravati Road 445102,Higher Education,20,853,4,30-99
15903,Moulana Azad Urdu High School  Ner,01  Khidaki Pura  445102,Secondary education,20,852,4,10-14
15904,Gulerius English Yavatmal Gramin,123  Yavatmal city  445001,Secondary Education,20,852,2,10-14
15905,Bhausaheb Nandurkar Engineering College Waghapur,85 1     445001,Higher Education,20,853,1,100-199
15906,Gajanan Maharaj Primary School Waghapur,136    445001,Primary Education,20,851,4,15-19
15907,Gajanan Maharaj Primary School Waghapur,136    445001,Primary Education,20,851,4,15-19
15908,Vishwabharati Vidya Mandir  Waghapur,28    445001,Secondary Education,20,852,4,30-99
15909,Bhausaheb Nandurkar Engineering College  Waghapur,85 1     445001,Higher Education,20,853,4,100-199
15910,Mahavir Vidyamandir Waghapur,5 1     445001,Primary Education,20,851,4,15-19
15911,B N B C A  B C S  CA College  Waghapur,86 2     445001,Higher Education,20,853,4,20-24
15912,Vinay Automobiles Lohara,126  Darwha Road 445002,Two Wheeler Motor sales,10,454,2,30-99
15913,Sunrise School Lohara,127  Darwha Road 445002,Secondary Education,20,852,4,10-14
15914,D Ed College Lohara,183  MIDC  445002,D Ed Education,20,854,4,20-24
15915,Vidarbha Pipe Factory Lohara,177    445002,Cement Pipe Factory,6,329,2,100-199
15916,Nursing College Lohara,89    445002,Nursing Education,20,854,4,15-19
15917,Vinay Automobiles Lohara,126  Darwha Road 445001,Retail trade sales motor cycles,10,454,2,30-99
15918,Global Paking Lohara,169 1   Lohara  445001,Manufacture of paper and paper products,6,170,2,30-99
15919,Hribhau Rathod Ded College Lohara,139  Lohara  445001,Other education,20,854,4,10-14
15920,Revati Pride Hotel Lohara,29  Darwha Road  445001,Event catering and other food service activities,14,562,2,30-99
15921,Samarth Suzuki Showroom Lohara,125  Darwha Road 445002,Maintenance and repair of motor vehicles,10,452,2,20-24
15922,Raymond Fectory Lohara,74  Lohara  445002,Spinning  weaving and finishing of textiles,6,139,9,>=500
15923,Sagar Bekari Lohara,76  Lohara  445002,Manufacture of other food products,6,107,9,25-29
15924,Revati Pride Hotel  Lohara,29  Darwha Road  445002,Event catering and other food service activities,14,562,2,30-99
15925,Gayatri Gining Lohara,90    445001,Other manufacturing n e c ,6,329,2,200-499
15926,Sunrise  School Lohara,127  Lohara  445001,Secondary Education,20,852,4,10-14
15927,Narsing College Lohara,89  Lohara  445001,Other education,20,854,2,15-19
15928,Mac Motors Lohara,75  Lohara  445002,Sale of motor vehicles,10,451,9,15-19
15929,Anand Oil Mill Lohara,117    445001,Manufacture of other food products,6,107,2,10-14
15930,Global Packaging Lohara,169 1   Darwha Road 445002,Manufacture of paper and paper products,6,170,2,30-99
15931,Haribhau Rathod D Ed College  Lohara,0139    445002,Other education,20,854,4,10-14
15932,Vidarbha Pipe Factory,177  Lohara  445001,Other manufacturing n e c ,6,329,2,100-199
15933,Samarth Suzuki Show Room Lohara,125    445001,Maintenance and repair of motor vehicles,10,452,1,20-24
15934,Ded College MIDC,183  Lohara  445001,Other education,20,854,4,20-24
15935,Sukhakarta Hotel Lohara,172 4   Darwha Road 445002,Event catering and other food service activities,14,562,2,25-29
15936,Sukhkarta Hotel Lohara,177 4   Lohara  445001,Event catering and other food service activities,14,562,2,25-29
15937,Marotrao Wadafale Agriculture Mahavidyalaya Umarsara Yavatmal,200  Godhani Road 445001,Agriculture Education,20,853,4,15-19
15938,Central Vidyalaya Umarsara Yavatmal,30  Godhani Road  445001,CBSC Pattern Education,20,852,1,10-14
15939,Amolakchand Law College  Umarsara Yavatmal,36  Godhani Road  445001,Higher Education,20,853,4,10-14
15940,Technical Madhyamic School  Umarsara Yavatmal,Umarsara  CT     445001,Technical Education,20,853,1,30-99
15941,Jeevan Vikas Matimand Vidyalaya Wadgaon Road,110  Arni Road  445002,Secondary Education,20,852,4,15-19
15942,Jayant Varma Tractors Wadgaon Road,60  Darwha Road  445002,Tractor Sales,10,451,2,30-99
15943,Tata Motors Wadgaon Road,12  Arni Road  445002,Motor Car sales,10,451,2,100-199
15944,Tuljai Servo Petrol Pump Wadgaon Road,09  Arni Road  445002,Petrol Sales,12,473,2,10-14
15945,Jyoti Structuare Limited Wadgaon Road,140  Darwha Road 445002,Cement Pipe,6,329,2,20-24
15946,Unnati Motors Wadgaon Road,205  Darwha Road 445002,Motor Car Sales,10,451,2,15-19
15947,Deorao Patil High School Wadgaon Road,150    445002,Secondary Education,20,852,4,20-24
15948,Khadase Maavidyalaya Wadgaon Road,139  Arni Road  445002,Higher Education,20,853,4,15-19
15949,Shivraj Upper Primary School Wadgaon Road,250    445001,Primary Education,20,851,4,10-14
15950,Tuljai Sarvo Petrol Pump,09  Arni Road  445001,Petrol Pump,12,473,2,10-14
15951,Shivraj Ucch Primary School Wadgaon  Road,Wadgaon  CT     445001,Primary education,20,851,4,10-14
15952,Yavatmal Urban Co Operative Bank,Wadgaon Road  445001,Other financial service activities ,16,649,3,10-14
15953,Devrao Patil HIgh School,Wadgaon Road  445001,Secondary Education,20,852,4,20-24
15954,Mhila Co Operative Bank Ltd,Wadgaon Road  445001,Other financial service activities ,16,649,4,10-14
15955,Yavatmal District Center Co Operative Bank,115  Om Colony  445001,Other financial service activities ,16,649,3,10-14
15956,Unnati Motors,Darwha Road  445001,Sale of motor vehicles,10,451,2,15-19
15957,Tata Motors,Wadgaon Road  445001,Sale of motor vehicles,10,451,2,100-199
15958,Jyoti Structure Limited,Darwha Road  445001,Other manufacturing n e c ,6,329,2,20-24
15959,Jyant Warma Tractors,Darwha Road  445001,Sale of motor vehicles,10,451,2,30-99
15960,Khadse Mahavidyalaya,139  Arni Road  445001,Higher education,20,853,4,15-19
15961,Jeevan Vikas Matimand Viayalaya,Wadgaon  CT   Yavatmal 445001,Secondary Education,20,852,4,15-19
15962,Security Gate Office  Yavatmal Depot,71 5   Arni Road  445001,Private security activities,19,801,1,20-24
15963,Egineer Office Regional Workshop Yavatmal Depot,71 3   Arni Road  445001,Support activities for transportation,13,522,1,15-19
15964,Ã Â Â Ã Â Â Ã Â Â Regio nal Head Office MSRTC Yavatmal Deport Yavtamal,71 1   Arni Road  445001,Office administrative and support activities,19,821,1,100-199
15965,MSRTC Main Workshop Yavatmal,68  Arni Road  445001,Motor Vehicle Repairing,13,522,1,100-199
15966,Reliance Office Yavatmal,159  Datta Chowk Shop No 8  445001,information technologic,15,631,9,10-14
15967,MSRTC Workshop Yavatmal,15  Bus Stand  445001,Maintenance and repair of motor vehicles,10,452,1,30-99
15968,Shaha Hospital Yavatmal,25  Shivaji Garden Road 445001,Hospital activities,21,861,2,10-14
15969,Rai Bardana Centre  Yavatmal,01  Talav Fail Cotton Market Road  445001,Retail sale in non  specialized stores,12,471,2,10-14
15970,Ghar Sansar Sale  Yavatmal,1 17   Market Lane 445001,Retail sale of other goods in specialized stores,12,477,2,25-29
15971,Loknayak Bapuji Ane Mahila Mahavidyalaya Yavtma,124  Datta Chowk  445001,Higher Education,20,853,4,30-99
15972,Y C L T College Yavatmal,89  Mainde Chowk  445001,Primary education,20,851,4,20-24
15973,Y C L T College  Yavatmal,89  Mainde Nagar  445001,Higher Education,20,853,4,20-24
15974,Yavatmal Mahila Co  operative Bank Yavatmal,38 14   MaindeChowk 445001,BANK,16,641,4,10-14
15975,District Central Co  operative Bank Yavatmal,68 1   Near Police Station 445001,bank,16,641,4,30-99
15976,Y C L T Nursery  Yavatmal,92  Mainde Nagar  445001,Primary Education,20,851,4,10-14
15977,Vivekanand Vidyalaya Yavatmal,20  Shivaji Nagar  445001,Secondary Education,20,852,4,30-99
15978,Late Balasaheb Pande Nagari Cooperative Credit Society Ltd Yavatmal,17  Tilakwadi  445001,Other financial service activities,16,649,4,15-19
15979,Dr Fadaka Hospital Yavatmal,15  Shivaji Nagar  445001,Hospital activities,21,861,2,20-24
15980,D R Kotpalliwar Petrol Pump  Yavtmal,18  Arni Road  445001,Petrol Pump,12,473,2,15-19
15981,Singhaniya Convent  Yavatmal,004  Dhamangaon Road 445001,Primary Education,20,851,2,10-14
15982,Udappi Hotel  Yavatmal,86 4   Datta Chowk 445001,catering and other food service activities,14,562,2,10-14
15983,Dr M M Aurved Mahavidyalaya Yavtma,02  Shivaji Nagar  445001,Higher Education,20,853,4,30-99
15984,L K Aurved Hospital  Yavatmal,01  Shivaji Nagar  445001,Hospital activities,21,861,4,30-99
15985,MSRTC Bank Yavatmal,Bus Station  445001,bANK,16,641,1,10-14
15986,MSRTC Bus Stsation Yavatmal,01  Bas Stand Chowk 445001,Other land transport,13,492,1,200-499
15987,Chaitanya Restaurant Yavatmal,113  Bus Stand Chowk 445001,catering and other food service activities,14,562,2,10-14
15988,Ramabai Ambedkar Kanya School Yavatmal,89 3   Arni Road  445001,Secondary Education,20,852,4,15-19
15989,Dr Puranic Hospital Yavatmal,74 1   Shivaji Garden 445001,Hospital activities,21,861,2,10-14
15990,Rajluxmi Nagari Co  operative Credit Society Yavtmal,19  Mainde Chowk  445001,credit society,16,643,6,30-99
15991,P M Gandhi and Company Yavtmal,2 1   Tilakwadi  445001,Accounting  bookkeeping and auditing activities,18,692,2,10-14
15992,Chavhan Bal Hospital Yavatmal,26 3   Mainde Chowk 445001,Hospital activities,21,861,3,10-14
15993,Chavhan Bal Hospital Yavatmal,26 3   Mainde Chowk 445001,Hospital activities,21,861,3,10-14
15994,Mahila Cooperative Bank yavatmal,19  Mainde Chowk  445001,bank,16,641,4,30-99
15995,Satkar Dining  Yavatmal,116 1   Datta Chowk 445001,catering and other food service activities,14,562,2,10-14
15996,Parekh Opticals Yavatmal,95 12   Datta Chowk 445001,Manufacture of optical,6,267,2,10-14
15997,The Yavatmal Urban Co  operative Bank Yavatmal,93 3   Datta Chowk 445001,bANK,16,641,4,30-99
15998,Udappi Hotel Yavatmal,86 3   Datta Chowk 445001,catering and other food service activities,14,562,2,10-14
15999,Ramayan Hotel Yavatmal,76 2   Datta Chowk 445001,catering and other food service activities,14,562,2,25-29
16000,Ramayan Lodging Yavtmal,76 1   Datta Chowk 445001,accommodation activities,14,551,2,15-19
16001,Sanjivan Hospital  Yavatmal,Near Postal ground 445001,Hospital activities,21,861,7,200-499
16002,Deepak Agrawal Hospital Yavtmal,45  Samarthwadi  445001,Hospital activities,21,861,2,15-19
16003,Virendra Rathod Hospital Yavtmal,36 1   Samarthwadi 445001,Hospital activities,21,861,2,20-24
16004,Joshi Hospital Yavatmal,12 2   Shivaji Nagar 445001,Hospital activities,21,861,2,20-24
16005,New India Insurance Company Ltd  Yavtmal,72 8   Datta Chowk 445001,insurance,16,651,1,10-14
16006,M s  C B Mor  Gas Agency   Yavatmal,43  Jajoo Chowk  445001,Electric power generation  transmission and distribution,7,351,2,10-14
16007,Kariya Hospital Yavatmal,35 1   Jajoo Chowk 445001,Hospital activities,21,861,2,10-14
16008,Raj Sanmayaka  Yavatmal,22 1   BVhaji Market Road 445001,Retail sale of other goods in specialized stores,12,477,2,10-14
16009,Jajoo College  Yavatmal,114  Naringe Nagar 445001,Higher Education,20,853,4,30-99
16010,Vasantrao Naik Vidyalaya  Yavatmal,47  Dhamangaon Road 445001,Secondary Education,20,852,4,25-29
16011,Maharshi Vidyalaya  Yavatmal,Dhamangaon Road 445001,Secondary Education,20,852,4,30-99
16012,Chaitanya Nagari Cooperative Credit Society Yavatmal,1 2   Sankatmochan Road 445001,bank,16,641,4,10-14
16013,Date College  Yavatmal,149  Umarsara Road 445001,Higher Education,20,853,4,30-99
16014,Alhabib Hospital Yavtmal,13 1   Bhosa Road 445001,Hospital activities,21,861,2,15-19
16015,Om Serjikal Hospital Yavatmal,80  Bapat Chowk  445001,Hospital activities,21,861,2,10-14
16016,Prathamesh Pathology Laborty Yavatmal,77  Sankatmochan Road 445001,Other human health activities,21,869,2,10-14
16017,Dawale Hospital Yavatmal,69  Sankatmochan Road 445001,Hospital activities,21,861,2,10-14
16018,Raklaxmi Credit Society Yavatmal,38  Sankatmochan Road 445001,Other financial service activities,16,649,4,30-99
16019,Bhuyar Hospital Yavatmal,37 1   Sankatmochan Road  445001,Hospital activities,21,861,2,15-19
16020,Pote Hospital Yavatmal,8 3   Sankatmochan Road 445001,Hospital activities,21,861,2,30-99
16021,Aashirwad Maternity Home  Yavatmal,29  Date College Road 445001,Hospital activities,21,861,2,10-14
16022,Himalaya Bajaj  Yavatmal,39  Arni Road  445001,Sale  maintenance and repair of motorcycles,10,454,2,30-99
16023,Kamala Nursing Home Yavatmal,113  Singhaniya Nagar 445001,Hospital activities,21,861,2,10-14
16024,Belsare Hospital Yavatmal,01  Vaidya Nagar  445001,Hospital activities,21,861,2,10-14
16025,Subhash Service Centre Petrol Pump Yavatmal,01  Amaravati Road 445001,Petrol Pump,12,473,2,10-14
16026,Chintamani Travels Yavatmal,62 1   Darwha Road 445001,Other land transport,13,492,2,10-14
16027,Tawade Hospital Yavatmal,74 3   Tiwari Chowk 445001,Hospital activities,21,861,2,15-19
16028,Late Rupeshkumar Ingole College of Management Yavatmal,130 29   Godhani Road 445001,Higher education,20,853,4,10-14
16029,Boon English Medium School  Yavtmal,50  Pandharkawada Road 445001,Secondary Education,20,852,4,25-29
16030,Boon English Medium School Yavatmal,50  Pandharkawada Road 445001,Secondary Education,20,852,1,25-29
16031,Urdu High School  Yavatmal,63  Pandharkawada Road 445001,Secondary Education,20,852,4,25-29
16032,Abasaheb Parvekar Vidyalaya Yavatmal,79  Pandharkawada Road 445001,Secondary Education,20,852,4,10-14
16033,Jamil Malani R K Road Lines Yavatmal,63  Teli Pura kshoti Gujari 445001,Warehousing and storage,13,521,2,20-24
16034,Aadhar Udyojak Samuh Bachat Gat Office  Yavatmal,32  Patipura  445001,Other social work activities without accommodation,21,889,4,10-14
16035,Masjid  Yavatmal,74  Rajaram Nagar 445001,Other personal service activities,23,960,4,10-14
16036,Jijau Education Mahavidyalaya Yavatma,26  Vitthalwadi  445001,Other Education,20,854,4,20-24
16037,Late Dr P D Vidyaniketan Upper Primary School Yavatmal,70  Gedam Nagar  445001,Primary School,20,851,4,10-14
16038,State Bank of India  Main Branch Yavatmal,68  Dhamangaon Road 445001,BANK,16,641,1,30-99
16039,Baybal College  Yavatmal,93  Mainde Chowk  445001,Higher Education,20,853,4,15-19
16040,Late Dadasaheb Mandala Primary and Upper Pry Boys School Yavatmal,49 3   Church Road 445001,Primary Education,20,851,4,10-14
16041,Mangal Home Products  Yavatmal,15  Dhamangaon Road 445001,rice mill,6,106,2,10-14
16042,Outdoor Patient Department Yavatmal,44 2   Civil Line  445001,Hospital activities,21,861,1,>=500
16043,Distrioct Government Employees Credit Society Yavatmal,154    445001,Other financial service activities,16,649,4,10-14
16044,Englis Medium Primary School  Nathar   Yavatmal,56    445001,Primary Education,20,851,4,30-99
16045,Shri Vasantrao Naik Medical Mahavidyalaya Yavatma,44 1   Civil Line  445001,Higher Education,20,853,1,200-499
16046,Dr Nandurkar Vidyalaya  Yavatmal,06  Main Hospital Road 445001,Secondary Education,20,852,4,10-14
16047,Dr Babasahed Ambedkar English Medium School  Yavatmal,05  Ambika Nagar  445001,Primary Education,20,851,4,10-14
16048,Anglo Hindi High School Yavatmal,01  Godhani Road  445001,Secondary Education,20,852,3,30-99
16049,Agricultaure Production Market Committee  Yavatmal,154  Cotton Market 445001,Office administrative and support activities,19,821,1,15-19
16050,Z P  Ex Govt   Girls School  Yavatmal,280 4   Tanga Chowk 445001,Secondary School,20,852,1,30-99
16051,Loknayak Bapuji Ane Vidyalaya Yavtmal,125  Veer Wamanrao Chowk  445001,Secondary Education,20,852,4,30-99
16052,Babasaheb Muk Badhir School Deogiri Darwha,199    445202,Secondary Education,20,852,4,10-14
16053,Jijamata Kanya School Deogiri Darwha,295    445202,Secondary School,20,852,4,20-24
16054,Abhyasak English Medium School Deogiri Darwha,09    445202,Secondary  Education,20,852,2,15-19
16055,Shri Manikrao Thakare Ashramshala Deogiri Darwha,198    445202,Secondary Education,20,852,4,15-19
16056,Deputy District Hospital Deogiri Darwha,26    445202,Health Services,21,861,1,30-99
16057,Mungasaji Maharaj Senior Mahavidyalaya Deogiri Darwha,08    445202,Higher Education,20,853,4,25-29
16058,Dy Engineer Adan Project Deogiri Darwha,146    445202,Water stock and distribution,8,360,1,30-99
16059,Industrial Training Institute Deogiri Darwha,13    445202,Technical education,20,854,1,10-14
16060,Little Bird English Medium School Deogiri Darwha,54    445202,Secondary Education,20,852,2,30-99
16061,Mungsaji Maharaj Mahavidyalaya Deogiri Darwha,07    445202,Higher Education,20,853,4,20-24
16062,S T Workshop Deogiri Darwha,257    445202,S T Workshop,10,452,1,30-99
16063,Govind Patil BEd College Deogiri Darwha,197    445202,Other education,20,854,4,10-14
16064,STDepot Deogiri Darwha,Deogiri  CT     445202,Other land transport,13,492,1,200-499
16065,Z P URDU HIGH SCHOOL AND JUNIOR COLLEGE DARWHA,55  KARANJA ROAD 445202,Higher education,20,853,1,15-19
16066,Manohar Naik Urdu Mahavidlaya Darwha,54  Relway Station Road 445202,Higher education,20,853,4,20-24
16067,Bibi Fatema Urdu Girles High School Darwha,2 2   Bhurekha Nagar 445202,Secondary education,20,852,1,10-14
16068,Hajrat Ayasha Siddiki urdu Girls ded college Darwha,2  bhurekha Nager  445202,Other education,20,854,1,10-14
16069,Petrol Pump Purashottam   com  ,41 1   karanja road 445202,Petrol Sale,12,473,2,10-14
16070,Petrol Pump  Purushottam and Company  Darwha,41 1   Karanja Road 445202,Petrol Pump,12,473,2,10-14
16071,State Bank of India Darwha,32  Natuwadi  445202,Bank Service,16,641,1,20-24
16072,Umabai Kanikar Kanya School Darwha,31 4   S B I Road  445202,Secondary Education,20,852,4,30-99
16073,Late Viraji Bhimaji Gherawada High School Darwha,31 1   SBI Road  445202,Secondary Education,20,852,4,25-29
16074,Jadhao cotton Indistries old Digras Road Darwha,15  Old Digras  445202,Preparation and spinning of cotton fiber,6,131,2,20-24
16075,Rastriya Vidyalaya  Digras,Digras  M Cl     445203,Secondary Education,20,852,4,30-99
16076,Sarubai Patil English School Digras,11 11   Near Jain Temple 445203,Secondary Education,20,852,4,15-19
16077,Anjuman Urdu High School  Digras,24    445203,Secondary Education,20,852,2,25-29
16078,Damodhar Patic School Digras,083  Siddhi Vinayak Nagar 445203,Secondary Education,20,852,9,10-14
16079,Vidyaniketan English School Digras,158  Near Rest House 445203,CBSC pattern Secondary Education,20,852,4,30-99
16080,Ishwar deshmukh Institute of Pharmacy Digras,11  Darwha Road  Digras 445203,Pharmacy Education,20,853,4,20-24
16081,Gurukul Pre Primary English Medium School  Digra,77  Manora road  445203,Education,20,851,4,15-19
16082,M S  Ambika Agro Industries Digras,5  Manora Road  445203,Cotton Jinning,6,131,3,10-14
16083,A P M C Office Digras,89  Main Road  445203,office work,18,701,1,10-14
16084,Life Insurance Corporation Office Pusad,131    445204,Insurance Work,16,651,1,30-99
16085,Gulamnabi Azad Urdu and Junior College  Pusad,76 2     445204,Higher Education,20,853,4,30-99
16086,GulamnabiAzad Urdu college of Education Pusad,76 3     445204,Education of Training D Ed,20,854,4,15-19
16087,Gulamnabi Azad college of Education  Pusad,76 3     445204,Education Training,20,854,4,15-19
16088,Bharati Maind Nagari Cooperative Credit Society Ltd Pusad,91    445204,Bank,16,641,2,15-19
16089,Samagra Gram Vikas Saustha Pusad,147  Main Road  445204,Other financial service activities,16,649,4,10-14
16090,Life Line Critical Care Centre  Pusad,Main Road  445204,Medical Service,21,861,3,30-99
16091,Shri Shivaji Adhyapak Vidyalaya  Pusad,149  Main Road  445204,D Ed College,20,854,4,10-14
16092,Shri Shivaji Madhyamic Vidyalaya Pusad,147  Main Road  445204,Higher Education,20,853,4,30-99
16093,Bajaj Mens Wears Pusad,009  Subhash Chowk 445204,Retail sale of other goods in specialized stores,12,477,2,20-24
16094,Bhaurao Jogdande  Pusad,80  Ambedkar Ward 445204,Band Party,22,932,2,10-14
16095,Lokhit Vidyalaya  Pusad,21 1   Near Nagar Parishad  445204,Higher Education,20,853,2,30-99
16096,Bhavani Mens Call Cloth Centre Pusad,205    445204,Retail sale of other goods in specialized stores,12,477,2,10-14
16097,Radhani Collection  Pusad,132    445204,Retail sale of other goods in specialized stores,12,477,2,15-19
16098,Shriram Asegaokar Vidyalaya Pusad,168  Shriram Nagar 445204,Secondary Education,20,852,1,10-14
16099,Samarth English Medium School Pusad,123  New Pusad  445204,Secondary School,20,852,9,10-14
16100,Shriram Asegaokar Adhyapak Vidyalaya  Pusad,199  Shriram Nagar 445204,Secondary Education,20,852,4,10-14
16101,Navjivan Dnyanpth Englis Medium School  Pusad,109  Dubbewar Layout 445204,Secondary Education,20,852,9,30-99
16102,Rani Laxmibai Vidyalaya Pusad,111  445204  445204,Secondary Education,20,852,4,15-19
16103,Jyotirgamay School Pusad,212  Shivraj Park  445204,Secondary Education,20,852,4,30-99
16104,Dange Hospital Pusad,145  Main Road  445204,Medical Service  Â Â Â Â Â Â Â  ,21,861,2,10-14
16105,Rajesh Nemichand Chavhan Pusad,221  Main Road  445204,Medical Service,21,861,2,15-19
16106,Ankur Nursing Home Pusad,19  Apposite Bus Stand 445204,Medical Service,21,861,2,15-19
16107,Hajrat Umar Farukh School  Pusad,79    445204,Higher Education,20,853,4,30-99
16108,Al Hira English Medium School  Pusad,78 2     445204,Secondary Education,20,852,4,10-14
16109,Gulamnabi Azad Social Work Mahavidyalaya Pusad,76 4   Vasant Nagar 445204,Other education,20,854,4,30-99
16110,Pusad Urban Cooperative Bank Pusad,161    445204,Bank,16,641,6,30-99
16111,M P N English School Pusad,133    445204,Secondary Education,20,852,2,30-99
16112,Municipal Council Hindi High School Pusad,127    445204,Secondary Education,20,852,1,20-24
16113,B R C Office Pusad,070  Panchayat Samiti 445204,Other Education Work,20,854,1,15-19
16114,Z P Jijamata Madhyamic Girls School Pusad,69    445204,Secondary Education,20,852,1,25-29
16115,State Bank of India  Pusad,36  New Pusad  445204,Bank,16,641,1,30-99
16116,Wanare Steel Furniture  Pusad,101    445204,Retail sale of other goods in specialized stores,12,477,2,10-14
16117,Wanare Steel Centre Pusad,77  Nagina Ward  445204,Retail sale of other goods in specialized stores,12,477,2,10-14
16118,Wanare Steel Furniture Pusad,101    445204,Retail sale of other goods in specialized stores,12,477,2,10-14
16119,Pushpanjali Hospital Pusad,94 2     445204,Hospital activities,21,861,2,20-24
16120,Hirani Collections  Pusad,35    445204,Retail sale of other goods in specialized stores,12,477,2,30-99
16121,Ramdeo Baba Petrol Pump Pusad,47  Main Road  445204,Petrol Sales,12,473,2,20-24
16122,Mungasaji Madhyamic Vidyalaya Pusad,94    445204,Secondary Education,20,852,4,15-19
16123,Urdu High School and Junior College  Pusad,54  Mashid Ward  445204,Higher Education,20,852,1,20-24
16124,Ramesh Radios Pusad,07    445204,Electrical Parts sales,12,474,2,15-19
16125,Ramesh Radios Pusad,07    445204,Radio Repairs   Ele Part Sales,12,474,2,15-19
16126,Smt Shakuntalabai Deshmukh Upper Primary School Pusad,04    445204,Secondary Education,20,852,2,25-29
16127,Vasantrao Naik Vidyalaya Pusad,03    445204,Secondary Education,20,852,2,25-29
16128,Agriculture Product Price Committee Pusad,07  Shivaji Ward  445204,Agricultural Sale and purchase,1,16,1,15-19
16129,K D Vidyalaya   G M Junior Mahavidyalaya Pusad,189Ã Â Â  1   New Pusad  445204,Higher Education,20,853,4,30-99
16130,A P M C  Umarkhed,85  Pusad Road  445206,Wholesale of agricultural raw materials and live animals,11,462,9,15-19
16131,APMC Umarkhed,85  pusad road  445206,Wholesale of agricultural raw materials and live animals,11,462,9,15-19
16132,Rukhmai Hospital Umarkhed,98 1   Dhanaki Road 445206,Health Service,21,861,2,10-14
16133,Rukhmai Hospital Umarkhed,98 1   Dhanki Road 445206,Hospital activities,21,861,2,10-14
16134,Uttarwar Kutir Hospital Umarkhed,25  Pusad Road  445206,Health Service,21,861,1,15-19
16135,Uttarwar Kutir Hospital Umarkhed,25  pusad road  445206,Hospital activities,21,861,1,15-19
16136,Gurudeo Goroba Vidyamandir Umarkhed,70  Pusad Road  445206,Secondary Education,20,852,4,20-24
16137,Sakale Vidyalaya Umarkhed,65  Pusad Road  445206,Secondary education,20,852,4,25-29
16138,Sakale Vidyalaya Umarkhed,65  Pusad Road  445206,Secondary Education,20,852,4,25-29
16139,Z P  EXx Govt  Boyes School Umarkhed,42    445206,Secondary education,20,852,1,20-24
16140,Sun Rej English Medium School Umarkhed,35  Patil Nagar  445206,Primary Education,20,851,4,20-24
16141,SUNREJ ENGILISH MEDIUM SCHOOL UMERKHED,35  PATIL NAGAR 445206,Primary education,20,851,4,20-24
16142,Z P  EX Govt  Kanya Shala Umarkhed,43  Borban  445206,Secondary education,20,852,1,15-19
16143,Umarkhed Taluka Shetakari Coop Ginning and Presing Umarkhed,63 1   Sanjog Bhavan Road  445206,Cotton Ginning and Pressing,6,131,6,10-14
16144,Umarkhed Taluka shetkari co operative Gining  Pressing,63 1   Sanjog Bhavan Road Umarkhed  445206,Cotton Ginning and Pressing,6,131,6,10-14
16145,Devsarkae Petrolium Umarkhed,29  Nanded Road  445206,Petrol Sale,12,473,2,15-19
16146,Deosarkar Petrol Pump Umarkhed,29  Nanded Road  445206,Petrol   Diesel Sale,12,473,2,15-19
16147,NAGAR PARISHAD URDU HIGH SCHOOL UMERKHED,05  MAHAGAON ROAD 445206,Secondary education,20,852,1,15-19
16148,Tirupati Agro jining f actory,120    445301,Cotton Ginning and Pressing,6,131,2,30-99
16149,Tirupati Agro Ginning Factory Ghatanji,120    445301,Cotton Ginning and Pressing,6,131,2,30-99
16150,Yavatmal District Central Co operative Bank,96    445301,Bank,16,641,1,10-14
16151,Tirupati Cotton Mill Vasanatnagar Ghatanji,44  Anji Road  445301,Ginning and Pressing,6,131,3,30-99
16152,Tirupati Cotton Mill Vasant Nagar Aanji Road Ghatanji,44    445301,Cotton Ginning and Pressing,6,131,3,30-99
16153,Shri Samarth Vidyalaya Ghatanji,80 1     445301,Higher  Education,20,853,4,30-99
16154,Shri Samarth Vidalaya Ghatanji,80 1     445301,Higher education,20,853,4,30-99
16155,Gramin Hospital Ghatanji,190    445301,Health Service,21,861,1,30-99
16156,Goverment Hospital Ghatanji,Ghatanji  M Cl     445301,Hospital activities,21,861,1,30-99
16157,ÃfÂ Ã Â Ã Â Former Jining Pressing Factory MIDC Ghatanji,9 1   Gurudeo Ward 445301,Cotton Ginning and Pressing,6,131,2,25-29
16158,Farmer Ginning and Pressing Factory Ghatanji,9 1   Gurudeo Ward 445301,Cotton Ginning and Pressing,6,131,4,25-29
16159,Vikas Ganga Samajsevi Sanshtha Ghatanji,3 2     445301,Other social work activities without accommodation,21,889,4,20-24
16160,Vikas Ganga Social Welfare Society Ghatanji,3 2     445301,Other social work activities without accommodation,21,889,4,20-24
16161,Yavtmal Mahaila Coop Bank Ghatanji,1 2  Main Road  445301,Coop Bank,16,641,2,10-14
16162,Eduection Society Science Art Commerce Mahavidayala Ghatanj,61 1   Yavatmal Road 445301,Higher education,20,853,4,30-99
16163,Education Society Science and Gilani Arts Commerce Mahavidyalaya Ghatanji,61 1   Yavatmal Road 445301,Higher Education,20,853,4,30-99
16164,Eduection Society pree primary  primary Engilish Medium school Ghatanji,56 3   Yavatmal Road 445001,Primary education,20,851,4,30-99
16165,Education Society Pre Primary and Primary English Medium Middle School Ghatanji,56 3   Yavatmal Road 445301,Primary Education,20,851,4,30-99
16166,Shriram Bahuudesiya Eduection Society Engilish   Marathi Medium Bal sanshkar Kendra,108 1   Main Road Ghatanji  445301,Other education,20,854,4,15-19
16167,Shriram Multipurpose Education Society English   Marathi Medium Bal Sanskar Centre Ghatanji,108 1   Main Road  445301,Education,20,854,4,15-19
16168,Shriram Multiperpose Education Society English and Marathi Medium Bal Sanskar Centre Ghatanji,108 1   Main Road  445301,Education Work,20,854,4,15-19
16169,S P M Kanya School Ghatanji,266  Main Road  445301,Secondary Education,20,852,4,25-29
16170,S P M Kanya School Ghatanji,266  Main Road  445301,Secondary Education,20,852,4,25-29
16171,Education Society Higher Secondary School Ghatanji,57 1   Yavatmal Road 445301,Secondary Education,20,852,4,30-99
16172,Eduection Society High Middle School Ghatanji,57 1   Yavatmal Road 445301,Secondary education,20,852,4,30-99
16173,A P M C  Office Ghatanji,136 1     445301,office work,18,701,6,10-14
16174,Krishi Utapan Bazar Samiti Office,136 1     445301,office work,18,701,6,10-14
16175,Ashok Wine Bar Hotel,34    445302,Bar   Restaurant,14,563,2,15-19
16176,Ashoka Wine Bar Hotel Pandharkawada,34    445302,Bar   Restaurant,14,563,2,15-19
16177,Nilam Hotel,30    445302,Restaurants,14,561,2,15-19
16178,Neelam Hotel Pandharkawada,30    445302,Restaurants,14,561,2,15-19
16179,Trupti Restrant,10    445302,Restaurants,14,561,2,15-19
16180,Trupti Restaurant Pandharkawda,10    445302,Restaurants,14,561,2,15-19
16181,Vikas Hindi High School Pandharkawada,26  Sindhi Colony  445302,Secondary Education,20,852,4,30-99
16182,Sindhoor Saree Centre Pandharkawada,45  Main Line  445302,Retail sale of other goods in specialized stores,12,477,2,25-29
16183,Shivam Dresses Pandharkawada,24  Main Line  445302,Retail sale of other goods in specialized stores,12,477,2,15-19
16184,Surana Gining Factory Pandharkawada,32 1     445302,Cotton Ginning and Pressing,6,131,2,20-24
16185,Rashtriya Mahavidyalaya  Rajur Colory,01  Bus Stop Road 445304,Higher Education,20,853,4,25-29
16186,WCL Office  Rajur Colory,83    445304,Coal Mines,5,51,1,>=500
16187,Ishan Red Line  Tiwar  Rajur Colony,29  Monapur Road  445304,Mining and quarrying n e c ,5,89,2,30-99
16188,Jafiya Lime Rajur Colony,77  Monapur Road  445304,Business support service activities,19,829,2,25-29
16189,A T Mahavidalaya,wani  MCI   wani  yavatmal  445304,Higher education,20,853,4,30-99
16190,Nusabai Chopane Vidyalaya Wani,30    445304,Secondary Education,20,852,4,10-14
16191,Nusabai Chopane Vidalaya Wani,Wani  M Cl     445304,Secondary education,20,852,4,10-14
16192,Micron Eduection Society,02  Warora Road  445304,Primary education,20,851,2,25-29
16193,Lathiwala Petrol pump,52  Main Road  445304,Petrol Pump,12,473,2,10-14
16194,Lathiwala Petrol Pump Wani,52  Main Road  445304,Petrol and Diesel Sales,12,473,2,10-14
16195,BONI TELORS,45 34   AMBEDKAR CHOWK  445304,tailor work,6,141,1,10-14
16196,Cement Workshop Wani,60  MIDC  445304,Cement Factory,6,239,2,30-99
16197,PRASHANT MAHADEO SHETIWAR WANI,60  MIDC  445304,Cement Workshop,6,239,2,30-99
16198,D Ed College  Wani,49  MIDC Area  445304,Other Education,20,854,2,15-19
16199,SHUSHMA KHANGAN WANI,49 1   MIDC  445304,Other education,20,854,2,15-19
16200,Thomos Babu  Wani,43 3   MIDC  445304,Public School,20,852,2,30-99
16201,Madan Mohan Choube Wani,06  MIDC  445304,Coal Washari Workshop,5,51,2,30-99
16202,MADAN MOHAN CHOBE,6  MIDC  445304,Coal Wasari Workshop,5,51,2,30-99
16203,I T I  Wani Deepak Parasuram Patil,4 2   MIDC Area  445304,Other Education,20,854,2,30-99
16204,ITI COLLEGE,4 2   MIDC  445304,Other education,20,854,2,30-99
16205,Alpiya Scrap Centre Wani,79    445304,Other specialized wholesale,11,466,2,15-19
16206,ALPIA SCRAP CENTER,79    445304,Other specialized wholesale,11,466,2,15-19
16207,Handicraft Residential School Wani,05    445304,Other education,20,854,4,20-24
16208,HANDICAP RESIDANTCAL SCHOOL WANI,5    445304,Other education,20,854,1,20-24
16209,Ravindra Shamrao Nikhar Wani,61  Gandhi Chowk  445304,HP Gas Agency,12,477,2,10-14
16210,Ravindra Shyamrao Nikhar,61  Gandhi Chowk  445304,H P Gas Agency,12,477,2,10-14
16211,Manager Wani Urban Cooperative Bank Ltd Wani,57 3   Gandhi Chowk 445304,bank,16,641,4,10-14
16212,Wani Urban Co Operative Bank Gandhi Chowk,57 3   Gandhi Chowk 445304,bank,16,641,4,10-14
16213,Ashok Wadhwani wani,49  Main Road  445304,Retail sale in non  specialized stores,12,471,2,10-14
16214,Santosh Agrawal Wani,36  Main Road  445304,Retail sale in non  specialized stores,12,471,2,20-24
16215,Santosh Agrawal wani,36  Main Road  445304,Retail sale in non  specialized stores,12,471,2,20-24
16216,Life Carporate Wani,40 15   Main Road  445304,Other financial service activities,16,649,1,10-14
16217,Shinam Sari Center Wani,43 1   Main Road  445304,Retail sale in non  specialized stores,12,471,2,10-14
16218,Suvidha Cloth Centre Wani,41  Main Road  445304,Retail sale in non  specialized stores,12,471,2,20-24
16219,Suvidha Kapad Kendra Wani,41  Main Road  445304,Retail sale in non  specialized stores,12,471,2,20-24
16220,GO Dahsrath Agrawal,5 2   Main Road  445304,Retail sale in non  specialized stores,12,471,2,10-14
16221,Nirmala A  Khatri,68 1   Main Road  445304,Retail sale in non  specialized stores,12,471,2,15-19
16222,Lions Charitable trust Wani,151  Deshmukhwadi Wani 445304,Primary education,20,851,4,30-99
56825,Primary Health Centre  Manikwada,139  Manikwada   Ner  Yavatmal  445102,Health Services,21,861,1,15-19
56826,Zilla Parishad High School  Manikwada,81  Manikwada   Ner  Yavatmal  445102,Secondary Education,20,852,1,15-19
56827,Z P Upper Primary School Mangaladevi,191  Mangaladevi   Ner  Yavatmal  445111,Primary Education,20,851,1,15-19
56828,Dr Babasaheb Ambedkar Vidyalaya Watfali,99 1   Watfali   Ner  Yavatmal  445102,Higher Education,20,853,4,30-99
56829,Dadasaheb Gawai High School Satefal,01  Umarda Road   Ner  Yavatmal  445102,Secondarya Education,20,852,4,10-14
56830,Primary Health Centre  Shirasgaon,24  Shirasgaon   Ner  Yavatmal  445102,Health Services,21,861,1,15-19
56831,Secondary School  Chinchgaon,72  Chinchgaon   Ner  Yavatmal  445102,Secondary Education,20,852,4,10-14
56832,Z P Primary School Shirasgaon,90 1   Shirasgaon   Ner  Yavatmal  445102,Primary Education,20,851,1,10-14
56833,Goverment ITI College Babulgaon,3   Gimona Fata  445101,Higher education,20,853,1,15-19
56834,Government Industrial Training Institute Babhulgaon,03   Gimona Fata  445101,Vocational Education,20,853,1,15-19
56835,Shivshakti Arts and Commerce Mahavidyalaya Babhulgaon,04  Gimona Fata  Babulgaon  Yavatmal 445101,Higher Education,20,853,4,25-29
63233,Ramai Adiwasi Ashramshala ,79   Bangaon  ner  yavatmal  445102,Secondary Education,20,852,4,20-24
63234,Noor Urdu High School,65   Rani Amravati  Yavatmal  445001,Secondary Education,20,852,4,10-14
63235,Z P High School Rani Amravati,15   Rani Amravati  Yavatmal  445001,Secondary Education,20,852,1,10-14
63236,Goverment Z P School,117   Rani Amravati  Yavatmal  445001,Primary education,20,851,1,10-14
63237,Tathagat Vidyalaya,22   Malapur Res   babulgaon  yavatmal 445101,Secondary Education,20,852,4,20-24
63238,Handicap Residential Vidyalaya Babulgaon,81   babulgaon  yavatmal 445101,Secondary Education,20,852,4,10-14
63239,M SE D C Technical Deptt Babulgaon,119   babulgaon  yavatmal 445101,Electricity Supply Work,7,351,1,10-14
63240,M S E D C  Babhulgaon,120   babulgaon  yavatmal 445101,Electricity Work,7,351,1,20-24
63241,Pratap Vidyalaya Babhulgaon,126   babulgaon  yavatmal 445101,Secondary Education,20,852,4,30-99
63242,MSEB Techical Division Babulgaon,119   babulgaon  yavatmal 445101,Electric power generation  transmission and distribution,7,351,1,10-14
63243,Maharashtra Electricity Power Distubution Babulgaon,120   babulgaon  yavatmal 445101,Electric power generation  transmission and distribution,7,351,1,20-24
63244,Apang Nivasi Vidyalaya Babulgaon,81   babulgaon  yavatmal 445101,Secondary Education,20,852,4,10-14
63245,Pratap Eduection Society  Pratap Vidyalaya Babulgaon,126   babulgaon  yavatmal 445101,Secondary Education,20,852,4,30-99
63246,Z P hIGH SCHOOL RANI AMRAVATI,15  Amravati   Babulgaon  Yavatmal  445101,Secondary Education,20,852,1,10-14
63247,Noor Urdu High School,65   Rani Amravati  445001,Secondary Education,20,852,4,10-14
63248,NOOR URDU HIGH SCHOOL  RANI AMRAVATI  Yavatmal,babulgaon  yavatmal 445101,Secondary Education,20,852,4,10-14
63249,GOV Z P SCHOOL RANI AMRAVATI,117   babulgaon  yavatmal 445101,Primary education,20,851,1,10-14
63250,Z P HIGH SCHOOL RANI AMRAVATI,15   babulgaon  yavatmal 445101,Secondary Education,20,852,1,10-14
63251,Sant Gadgebaba vidyalaya,207  Watkhed Bk   Babulgaon  Yavatmal 445501,Secondary Education,20,852,4,10-14
63252,Sant GadgeBaba Vidyalaya Watkhed Bk ,207   Watkhed Bk  Babulgaon  445101,Secondary Education,20,852,4,10-14
63253,Primary Health Centre Gharefal,04   Gharfal  Babulgaon  Yavatmal  445101,Health Service,21,861,1,10-14
63254,Primary Health Center Gharfal,04  Gharfal   Babulgaon  Yavatmal  445101,Hospital activities,21,861,1,10-14
63255,Tathagat Vidyalaya Malapur,22   Malapur   Babulgaon  Yavatmal   445101,Secondary Education,20,852,4,20-24
63256,PCL SECONDARY  SVM HIGER SECONDARY SCHOOL DABHA,195    Dabha  Babulgaon  Yavatmal  445101,Higher education,20,853,4,30-99
63257,P C L Secondary and S V M Higher Secondary School Dabha,195   Dabha  Babulgaon  Yavatmal  445101,Higher Education,20,853,4,30-99
63258,Sangdaji Vidyalaya Shivpuri,80  Shivpuri   Kalamb  Yavatmal  445323,Secondary Education,20,852,4,20-24
63259,Santaji Vidyalaya Shivpuri,80  Shivpuri   Kalamb  Yavatmal  445323,Secondary Education,20,852,4,20-24
63260,Saneguruji High School Metikheda,05   Metikheda  Kalamb  Yavatmal  445323,Secondary Education,20,852,4,10-14
63261,Goverment Hostel Antargaon,118  Antargaon   Kalamb  Yavatmal  445323,Restaurants and mobile food service activities,14,561,1,10-14
63262,Goverment Hostel Antargaon,118  Antargaon   Kalamb  Yavatmal  445323,Restaurants and mobile food service activities,14,561,1,10-14
63263,Govermenr Madhyamik Ashram School Antargaon,117   Antargaon  Kalamb  Yavatmal  445323,Secondary Education,20,852,1,15-19
63264,Adarsh Vidyalaya Dongarkharda,02  Dongarkharda  Kalamb  Yavatmal  445323,Secondary Education,20,852,4,20-24
63265,Z P U Primary School Kalamb,Jodmoha  Kalamb Road 445005,Primary education,20,851,1,10-14
63266,Z P Upperpr Primary School Jodmoha,Jodmoha  Kalamb Road 445005,Primary education,20,851,1,10-14
63267,Gharfalkar Ded College Jodmoha,02   Kalamb Road  445005,Higher education,20,853,4,10-14
63268,Gharfalkar Ded College Jodmoha,02   Kalamb Road  445005,Higher education,20,853,4,10-14
63269,Sudam Vidyalaya Jodmoha,01   Kalamb Road  445402,Secondary Education,20,852,4,15-19
63270,Madhyamin  Ucch Madhamic Ashram Shala Sheli,31  Sheli   Kalamb  Yavatmal  445002,Secondary Education,20,852,4,25-29
63271,P M Ruikar Mahavidyalaya Nanza,80  Nanza   Kalamb  Yavatmal  445002,Higher education,20,853,4,10-14
63272,Govt Secoundary Ashram School Nanza,110  Nanza   Kalamb  Yavatmal  445002,Secondary Education,20,852,1,25-29
63273,Adarsh Visyalaya Dongarkharda,02   Dongarkharda  Kalamb  Yavatmal  445323,Secondary Education,20,852,4,20-24
63274,Zilla Parishad High School Pimpalgaon Ruikar,180  Pimpalgaon Ruikar  Kalamb  Yavatmal  445202,Secondary Education,20,852,1,10-14
63275,Chintamani High School and Junior College Kalamb,150   Chintamani Nagar 445401,Secondary Education,20,852,4,25-29
63276,Sanskar School Kalamb,Kalamb  Yavatmal  445401,Primary Education,20,851,2,15-19
63277,Zilla Parishad High School Pimpalgaon rui,Pimpalgaon rui   Kalamb  Yavatmal  445202,Secondary Education,20,852,1,10-14
63278,Jagadambha D Ed College Kalamb,140   Kalamb  Yavatmal 445401,D Ed ,20,853,4,20-24
63279,GOVT MADHYAMIC ASHRAM SCHOOL ANTARGAON,117  ANTARGAON  Kalamb  Yavatmal  445323,Secondary Education,20,852,1,15-19
63280,P M  Ruikar Mahavidyalaya Nanza,80   Nanza  Kalamb  Yavatmal  445401,Higher education,20,853,4,10-14
63281,Yavatmal Urban Cooperative Bank Kalamb,70   Kalamb  Yavatmal 445401,Bank,16,641,4,10-14
63282,Z P U P Boys Basic School Kalamb,90   Kalamb  Yavatmal 445401,Primary Education,20,851,1,10-14
63283,Government Madhyamic Ashramshala Nanza,110  Nanza   Kalamb  Yavatmal  445002,Secondary Education,20,852,1,25-29
63284,Sudam Vidyalaya Jodmoha,01   Kalamb Road  445002,Secondary Education,20,852,4,15-19
63285,Petrol Pump  praful Bhange  Kalamb,132   Near Tahsil  445401,Retail sale of automotive fuel,12,473,2,10-14
63286,Jeevandip Ashramshala Narasapur Kalamb,142   Narasapur  445401,Secondary Education,20,852,4,25-29
63287,Petrol Pump Kalamb,132   Nrst Tahsil Office 445001,Retail sale of automotive fuel,12,473,2,10-14
63288,Jagdambha Ded Vidyalaya Kalamb,140   Yavatmal Road 445401,Higher education,20,853,4,20-24
63289,Mdhyamik  Ucch Madhyamik Ashram School ,Sheli  Yavatmal  445001,Secondary Education,20,852,4,25-29
63290,Chintamani Junior College Kalamb,Chintamani Junior College Kalamb  445401,Primary Education,20,852,4,20-24
63291,Yavatmal Urban Co Op Bank  Kalamb,70   Kalamb  Yavatmal 445401,Other financial service activities ,16,649,1,10-14
63292,District co op Bank Branch Kalamb,21   Kalamb  Yavatmal 445401,Other financial service activities ,16,649,4,10-14
63293,Upper Primary Boys Besic School Kalamb,90   Kalamb  Yavatmal 445401,Primary education,20,851,1,10-14
63294,Sanshkar School Kalamb,108   Kalamb  Yavatmal 445401,Primary education,20,851,2,15-19
63295,Uppar Z P Primary Kanya School Kalmb,100   Kalamb  Yavatmal 445401,Primary education,20,851,1,10-14
63296,District Central Coop Bank Kalamb,21   Kalamb  Yavatmal 445401,Other financial service activities ,16,649,4,10-14
63297,Jivandieep Ashram School Narsapur,142   Kalamb  Yavatmal 445401,Secondary Education,20,852,4,25-29
63298,Dnyansagar Secondary Aashramshala Ashti,8 1    Bhavanpur  Kalamb  Yavatmal  445401,Secondary Education,20,852,4,10-14
63299,Dnyansagar Secondary Vidyalaya Ashti,40   Ashti  Kalamb  Yavatmal  445101,Secondary Education,20,852,4,10-14
63300,Saneguruji High School Metikheda,05  Metikheda   Kalamb  Yavatmal  445323,Secondary Education,20,852,4,10-14
63301,Shivashakti Junior Mahavidyalaya Kotha,97 2    Kotha  Kalamb  Yavatmal  445401,Higher Education,20,853,4,10-14
63302,Shivshakti Junior College Kotha,97 2   Kotha   Kalamb  Yavatmal  445401,Higher education,20,853,4,10-14
63303,Dnynsagar Madhyamic Vidyalaya Ashti,40  Ashti   Kalamb  Yavatmal  445401,Secondary Education,20,852,4,10-14
63304,Granted Primary Ashram School Ashti,3  Bhavanpur   Kalamb  Yavatmal  445401,Primary education,20,851,4,10-14
63305,Dhyansagar Secondary Ashram School Ashti,8 1   Bhavanpur   Kalamb  Yavatmal  445401,Secondary Education,20,852,4,10-14
63306,Granted Primary Ashramshala Ashti,03   Bhavanpur  Kalamb  Yavatmal  445401,Primary Education,20,851,4,10-14
63307,Z P Upper Primary Marathi School Mendhala,97  Mendhala   Kalamb  Yavatmal  445401,Primary Education,20,851,1,10-14
63308,Z P Upper Primary Kanya School Kalamb,100   Kalamb  Yavatmal 445401,Primary Education,20,851,1,10-14
63309,Z P U P Marathi School Mendhala,97  Mendhala   Kalamb  Yavatmal  445401,Primary education,20,851,1,10-14
63310,Subhashchandra Bose High School Wadgaon P S ,150  Wadgaon  P   Yavatmal  445001,Secondary Education,20,852,4,15-19
63311,Gramin Hospital Wadgaon P S ,15  Wadgaon  P   Yavatmal  445001,Health Services,21,861,1,10-14
63312,Mangalabai Naik Secondary Higher Secondary Ashramshala Dhanora,140  Dhanora   Yavatmal 445201,Secondary Education,20,852,4,15-19
63313,Chintabai Primary Ashramshala Dhanora,141 Dhanora   Yavatmal 445201,Secondary Education,20,852,4,15-19
63314,Post Basic Ashram Shala Chinchghat,220  Chinchghat  Yavatmal  445003,Primary Education,20,851,1,10-14
63315,Post Basic Ashram Shala Rudha,167  Chinchghat  Yavatmal  445003,Primary Education,20,851,1,10-14
63316,Late Chandrabhan Patil VJNT Primary Ashramshala Ramnagar,56 2   Ramnagar  Yavatmal  445001,Primary Education,20,851,4,10-14
63317,Shri Shivaji Urdu High School and Junior Science College Rui,25   Rui  Yavatmal  445001,Secondary Education,20,852,4,10-14
63318,Primary Health Centre  Belura,16  Belura   Yavatmal 445105,Health Services,21,861,1,10-14
63319,Sagar Sugar Industries Mangarul,05   Arni Road  Mangrul  Yavatmal  445001,Sugar Factory,1,16,2,100-199
63320,Z P Upper Primary School Mangarul,75  Mangarul   Yavatmal 445105,Primary Education,20,851,1,10-14
63321,Damer Plot Office Kinhi,149   Kinhi  Yavatmal 445001,Other manufacturing n e c ,6,329,2,10-14
63322,Vasantrao Naik Junior College,05   Highway Road 445001,Secondary Education,20,852,4,30-99
63323,Damber Plot Office Kinhi,147   Arni Road  445002,Gitti Khadan and Dambar Plant,5,89,2,10-14
63324,Z P Madhyamic Vidyalaya Belura,34  Belura   Yavatmal 445105,Secondary Education,20,852,1,10-14
63325,Rathod Gitti Khadan Kinhi,150   Kinhi  Yavatmal 445001,Gitti Khadan,5,81,2,10-14
63326,Suresh Wadhawani Construction Kinhi,148   Kinhi  Yavatmal 445001,Gitti Khadan Dambar Plant,5,89,2,10-14
63327,Wakhar Corporation Office Bhoyar,100  Bhoyar   Yavatmal 445001,Warehousing and storage,13,521,1,10-14
63328,Zilla parishad Upper Primary School Hiwari,05   Hiwari   Yavatmal 445001,Primary Education,20,851,1,10-14
63329,School of Scholarse Bhoyar,94  Bhoyar   Yavatmal 445001,Secondary Education,20,852,4,100-199
63330,Behare Bricks Industries,103   Bhoyar  Yavatamal 445001,Bricks Kharkhana,6,239,2,10-14
63331,Chiddalwar Gitti Crusher,104   Bhoyar  Yavatamal 445001,Gitti Crusher,6,239,2,30-99
63332,J J Oberai Gitti Crusher,78   Godhani  yavatmal 445001,Gitti Crusher,6,239,6,10-14
63333,Hot Mix Kharkhana,84   Godhani  yavatmal 445001,Hotmix Factory,5,89,2,10-14
63334,Gitti Khadan Godhani,63   Godhani  yavatmal 445001,Mining and quarrying n e c ,5,89,2,10-14
63335,Madhyamic Ashram School,200    Salod  yavatmal 445001,Secondary Education,20,852,4,20-24
63336,Rana Denim Sootgirani Bhari,83   Nagpur Road  445002,Spinning  weaving and finishing of textiles,6,131,2,100-199
63337,Late Chandrabhan Patil VJNT Primary AshsramShala Ramnagar,56 2   Ramnagar  Yavatmal  445001,Primary Education,20,851,4,10-14
63338,Sk  Rafiq Sk Ibrahim Apang Vidyalaya,120   Bhosa  Yavatamal 445001,Secondary Education,20,852,4,15-19
63339,Matimand Vidyalaya,125   Bhosa  Yavatamal 445001,Matimand Secondary Education,20,852,4,10-14
63340,Cresent English Medium School,160   Bhosa  Yavatamal 445001,Swecondary English Education,20,852,4,15-19
63341,Mahalaxmi Food Products Bhosa,63   Mahajan Layout 445001,Food Products,6,107,2,10-14
63342,Patel Dhamal Wadhawani College  Formacy  girija Nagar Yavatmal,94   Dhamangaon Road  Moha  445001,Higher Education,20,853,4,15-19
63343,Smt Nanakibai Wadhawani Science Mahavidyalaya  Girija Nagar  Yavatmal,95   Dhamangaon Road  Moha  445001,Higher Education,20,853,4,10-14
63344,Choupala Sagar Parawa,110   Pandharkawada Road  445302,Retail sale in non  specialized stores,12,471,2,20-24
63345,Mahila Bachat Gat Lasina,51 2    Main Road  445002,Non specialized wholesale trade,11,469,5,10-14
63346,Jangali Dhaba Lasina,160   Amaravati Road  Lasina  Yavatmal  445001,Event catering and other food service activities,14,562,3,10-14
63347,Narayan Confectional Factory Bhari,88   Nagpur Road Bhari  Yavatmal  445001,Manufacture of other food products,6,107,2,10-14
63348,Narayan Confectional Factory Bhari,88   Nagpur Road  Bhari  Yavatmal  445001,Manufacture of other food products,6,107,2,10-14
63349,Shri Mahalaxmi Mahila Bachat Gat Tekadi,63 2    Main Road  Tekadi  Yavatmal  445002,Non specialized wholesale trade,11,469,5,10-14
63350,Gitti Crusher Godhani,80   Godhani  yavatmal 445001,Mining and quarrying n e c ,5,89,6,10-14
63351,Z P U Primary Marathi School Mahagaon Kasaba,90  Mahagaon  Kasba   Darwha  Yavatmal  445105,Primary Education,20,851,1,10-14
63352,Chandrabhagabai Waghamare Girls School,05   chani  darwah  yavatmal  445201,Secondary School,20,852,4,10-14
63353,Vasant Naik Vidyalaya,24   ladkhed  darwha  yavatmal  445201,Secondary Education,20,852,4,15-19
63354,Allama Ekabal Urdu Madhymic Vidyalaya,23   ladkhed  darwha  yavatmal  445201,Secondary Education,20,852,4,10-14
63355,Vasant Vimukta Jati Ashram School Haru,96   haru  darwah  yavatmal  445201,Secondary Education,20,852,4,10-14
63356,Tagore Vidyalaya Bori Bk ,49   Yavatmal Road 445201,Secondary Education,20,852,4,10-14
63357,Mahatma Jyotiba Qule Junior Mahavidyalaya,166   Khopadi Bk   darwah  yavatmal  445201,Higher Education,20,853,4,15-19
63358,Z P Upper Primary School,170  Khopadi Bk   Darwha  Yavatmal  445202,Primary Education,20,851,1,10-14
63359,Higher Secondary School,07   Chikhali  Darwha  Yavatmal  445201,Secondary Education,20,852,4,20-24
63360,Z P Upper Primary Marathi School ,01  Bhandegaon   Darwha  Yavatmal  445202,Primary Education,20,851,1,10-14
63361,M  M  Vidyalaya ,200   Dehani  digras  yavatmal  445201,Secondary Education,20,852,4,20-24
63362,Schedule Caste Tribe Government Hostel,90   Isapur   Pusad Road  445203,Other accommodation,14,559,1,10-14
63363,Shama Naik Madhyamic Vidyalaya ,92   Sakara  digras  yavatmal  445203,Secondary Edication,20,852,4,10-14
63364,Abdul Rashid memorial Urdu sec School,352  Shambal Pimpr  Pusad  Yavatmal  445209,Higher education,20,853,4,10-14
63365,M S E B OFFICE,353  Shambal Pimpr  Pusad  Yavatmal  445209,Electric power generation  transmission and distribution,7,351,1,10-14
63366,M S E B Office,353  Shambal Pimpr  Pusad  Yavatmal  445209,Electric power generation  transmission and distribution,7,351,1,10-14
63367,Madhyamik Vidyalaya,91    Adgaon  pusad  yavatmal  445215,Secondary Education,20,852,4,10-14
63368,Babasaheb Naik Vidyalaya Parwa kh ,125 Parwa kh    Main Road  445204,Secondary Education,20,852,4,25-29
63369,Babasaheb Naik Vidyalaya Parwa Bk,125 Parwa Bk   Main Road 445204,Secondary Education,20,852,4,25-29
63370,Mungsaji primary  Higer sec Ashram School,01   Manikdoh   Pusad  Yavatmal  445204,Higher education,20,853,4,30-99
63371,Mungasaji Primary Secondary and Higher Secondary Ashramshala,01   Manikdoh  Pusad  Yavatmal  445204,Higher Education,20,853,4,30-99
63372,Z P U P School,1  Deokarla   Pusad  Yavatmal  445204,Primary Education,20,851,1,10-14
63373,Z P U P PRIMARY SCHOOL,01   DEVKALRA   Pusad  Yavatmal  445204,Primary education,20,851,1,10-14
63374,Jagadamba Vidyalaya,08    Shelu Bk   Pusad  Yavatmal  445215,Secondary Education,20,852,4,10-14
63375,N P HIRANI POLITECHNIC,08  KAKADDATI   Pusad  Yavatmal  445204,Higher education,20,853,4,100-199
63376,Late Thavara Naik Ashramshala,01  Hudi Kh    Pusad  Yavatmal  445204,Secondary Education,20,852,4,10-14
63377,Boys Hostel Kakaddati,09  Kakaddati   Pusad  Yavatmal  445204,Other accommodation,14,559,4,30-99
63378,N P Hirani Polytechnic,08   Kakaddati  Pusad  Yavatmal  445204,Higher Education,20,853,4,100-199
63379,Babasaheb Engineering College,09   Kakaddati  Pusad  Yavatmal  445204,Higher Education,20,853,4,200-499
63380,Boys Hostel,09   Kakaddati  Pusad  Yavatmal  445204,Hostel,14,559,4,30-99
63381,Anuprabha Hotel  Pandurang Kanhigi Chopade,121   Nagpur Road Itawa  Pusad  Yavatmal  445204,Event catering and other food service activities,14,562,2,10-14
63382,Anuprabha Hotel,121   Itawa  Pusad  Yavatmal  445204,Event catering and other food service activities,14,562,2,10-14
63383,Patel Garden Hotel,22   Itawa  Pusad  Yavatmal  445204,Event catering and other food service activities,14,562,2,10-14
63384,Anuprabha Hotel,121   Itawa  Pusad  Yavatmal  445204,Event catering and other food service activities,14,562,2,10-14
63385,Milk Techinical Mahavidyalaya,59  warud   Pusad  Yavatmal  445202,Other education,20,854,1,30-99
63386,Late Thawara Naik Ashramshala Hudi Kh ,01   Hudi Bk   Pusad  Yavatmal  445205,Secondary Education,20,852,4,10-14
63387,Babasaheb Engineering College,09   Kakaddati   Pusad  Yavatmal  445204,Higher education,20,853,4,200-499
63388,Jagdambha vidyalaya ,08  Shelu Bk   Pusad  Yavatmal  445204,Secondary Education,20,852,4,10-14
63389,IRRIGATION OFFICE,13   WARUD   Pusad  Yavatmal  445202,Water collection  treatment and supply,8,360,1,15-19
63390,Patel Garden Hotel,22  Itawa   Pusad  Yavatmal  445202,Event catering and other food service activities,14,562,2,10-14
63391,Ramu Naik Vidyalaya,57  Warud   Pusad  Yavatmal  445202,Secondary Education,20,852,4,15-19
63392,Irrigation Office,13   Warud  Pusad  Yavatmal  445204,Water Supply,8,360,1,15-19
63393,Ramu Naik Vidyalaya,57   Warud  Pusad  Yavatmal  445204,Secondary Education,20,852,4,15-19
63394,Milk Technical Mahavidyalaya,59   Warud  Pusad  Yavatmal  445204,Diary Tech Education,20,854,1,30-99
63395,Gunvantrao Deshmukh Madhyamic Vidyalaya,138   Kawadipur  Pusad  Yavatmal  445204,Secondary Education,20,852,4,25-29
63396,Dr Punjabrao Deshmukh B Ed College,133   Kawadipur  Pusad  Yavatmal  445204,B Ed  Education,20,854,4,15-19
63397,Madhyamik Vidayalaya,91  Adgaon   Pusad  Yavatmal  445215,Secondary Education,20,852,4,10-14
63398,Gunvantrao Deshmukh Madhyamic Vidyalaya,138   Kawadipur  Pusad  Yavatmal  445204,Secondary Education,20,852,4,25-29
63399,Dr Panjabrao Deshmukh Bed College,139   Kawadipur  Pusad  Yavatmal  445204,Other education,20,854,4,15-19
63400,Primary Health Center,134  Jamb Bazar   Pusad  Yavatmal  445204,Hospital activities,21,861,1,15-19
63401,M S E B OFFICE,175  JAMBBAZAR  Pusad  Yavatmal  445204,Electric power generation  transmission and distribution,7,351,1,10-14
63402,Abdul Rashid Memorial Urdu secondary High School,352   Shembal Pimpri 445209,Higer Eduection,20,853,4,10-14
63403,132 K V SUB STATION,185  JAMBBAZAR  Pusad  Yavatmal  445204,Electric power generation  transmission and distribution,7,351,1,10-14
63404,M S E D C  Office,175  Jamb Bazar   Main Road  Pusad  Yavatmal 445204,Electric power generation  transmission and distribution,7,351,1,10-14
63405,M S E D C  132 K V Substation,185 Jamb Bazar   Main Road  Pusad  Yavatmal 445204,Electric power generation  transmission and distribution,7,351,1,10-14
63406,Primary Health Centre,134  Jamb Bazar   Pusad  Yavatmal  445204,Health Centre,21,861,1,15-19
63407,Shri Shivaji Mahavidyalaya Jamb Bazar,143   Main Road  445204,Higher Education,20,853,4,25-29
63408,Ashramshala,33   Yeranda  Pusad  Yavatmal  445204,Primary Education,20,851,4,10-14
63409,Mahavidalaya Marsul,109  marsul   Pusad  Yavatmal  445204,Higher education,20,853,4,25-29
63410,Mahavidyalaya,Marsul  Pusad  Yavatmal 445206,Higher Education,20,853,4,25-29
63411,Ashramshala Yeranda,33   Yeranda  Pusad  Yavatmal  445204,Primary education,20,851,4,10-14
63412,Government Ashramshala,09  Korta   Umarkhed  Yavatmal  445207,Secondary Education,20,852,1,20-24
63413,Goverment Ashram School,09   Korta  Umarkhed  Yavatmal  445207,Secondary Education,20,852,1,20-24
63414,Shri shivajirao Moghe Vidayalaya,95   Kurali  Umarkhed  Yavatmal  445206,Secondary Education,20,852,4,15-19
63415,Shri Shivaji Vidyalaya,50    Chatari  Umarkhed  Yavatmal  445206,Higher Eduection,20,853,4,25-29
63416,Shri Shivaji Vidalaya,50  Chatari   Umarkhed  Yavatmal  445206,Higher education,20,853,4,25-29
63417,Z P HIGH PRIMARY SCHOOL,173   BRAHMANGAON  Umarkhed  Yavatmal 445207,Primary education,20,851,1,10-14
63418,Agricultuer Vidyalaya,80   Bramahangaon  Umarkhed  Yavatmal 445207,Higher education,20,853,4,10-14
63419,D Ed College ,81   Bramanhagaon  Umarkhed  Yavatmal 445207,Other education,20,854,4,10-14
63420,D ED College,81   Bramahagaon  Umarkhed  Yavatmal 445207,Other education,20,854,4,10-14
63421,Primary Health Centre,15  Dhanki   Umarkhed  Yavatmal  445207,Health Service,21,861,1,25-29
63422,Gyanjyoti English Medium School,65   Dhanki Umarkhed  Yavatmal  445207,Secondary Eduection,20,852,4,15-19
63423,Swami Pendse Vidyalaya,29   Dhanki  Umarkhed  Yavatmal  445207,Secondary Eduection,20,852,4,25-29
63424,Primary Health Center Dhanki,15   Dhanki  Umarkhed  Yavatmal  445207,Hospital activities,21,861,1,25-29
63425,Primary Health Center Dhanki,15   Dhanki  Umarkhed  Yavatmal  445207,Hospital activities,21,861,1,25-29
63426,DYANJYOTI ENGLISH MEDIUM SCHOOL DHANKI,65   Dhanki  Umarkhed  Yavatmal  445207,Secondary Education,20,852,4,15-19
63427,Kasturba Gandhi jr college Girls Dhanki,133 2   Dhanki  Umarkhed  Yavatmal 445207,Secondary Education,20,852,4,20-24
63428,Z P PRIMARY SCHOOL,59   PIRANJI  Umarkhed  Yavatmal  445207,Primary education,20,851,1,10-14
63429,Primary Health Center,06   VIDUL  Umarkhed  Yavatmal  445206,Hospital activities,21,861,1,10-14
63430,Z P HIGH SCHOOL,09   VIDUL  Umarkhed  Yavatmal  445206,Secondary Education,20,852,1,15-19
63431,Swami Pendse,29   Dhanki  Umarkhed  Yavatmal  445207,Secondary Education,20,852,4,25-29
63432,Z P Secondary Vidyalaya Vidul,09   Vidul   Umarkhed  Yavatmal  445206,Secondary Education,20,852,1,15-19
63433,Z P Madhyamic Vidyalaya,09    Vidul  Umarkhed  Yavatmal  445206,Secondary Education,20,852,1,15-19
63434,Z P Central Kanya School,92  Vidul   Umarkhed  Yavatmal  445206,Secondary Education,20,851,1,15-19
63435,Zilla Parishad Yavatmal,173   Bramahangaon  Umarkhed  Yavatmal 445207,Primary Education,20,851,1,10-14
63436,GYAN PRAKASH VIDYALAYA,183   SUKLI J   Umarkhed  Yavatmal 445206,Secondary Education,20,852,4,10-14
63437,Gyanprakash Vidyalaya,183   Sukali Jahagir  Umarkhed  Yavatmal 445206,Secondary Education,20,852,4,10-14
63438,Primary Health Centre,06  vidul   Umarkhed  Yavatmal  445206,Health Services,21,861,1,10-14
63439,Z P HIGH PRIMARY GIRLS SCHOOL,92    VIDUL  445206,Secondary Education,20,852,1,15-19
63440,Gopikabai Sitaram Gawande Mahavidyalaya,80   ambawan  umerkhed  yavatmal  445206,Higher Eduection,20,853,4,30-99
63441,I T I  Umarkhed,85   ambawan  umerkhed  yavatmal  445206,Technical Education,20,854,1,20-24
63442,T T I Umarkhed,85   ambawan  umerkhed  yavatmal  445206,Techincial Eduection,20,854,1,20-24
63443,Z P Primary School,59  Piranji   Main Road 445207,Primary Education,20,851,1,10-14
63444,G S  GAWANDE COLLEGE  UMERKHED,80   ambawan  umerkhed  yavatmal  445206,Higher education,20,853,4,30-99
63445,Ridhi Shidhi Indisturies,102   ambawan  umerkhed  yavatmal 445206,Manufacture of other food products,6,107,2,20-24
63446,RIDHI SIDHI INDISTRIES,102   ambawan  umerkhed  yavatmal 445206,Manufacture of other food products,6,107,2,20-24
63447,Kasturba Gandhi Jr Coollege Girls,133 2   Umarkhed  Yavatmal  445207,Secondary Eduection,20,852,4,20-24
63448,Z P U P SCHOOL,43   BELKHED  Umarkhed  Yavatmal 445206,Primary education,20,851,1,10-14
63449,Riddhi Siddhi Industries,102   ambawan  umerkhed  yavatmal 445206,Manufacture of other food products,6,107,2,20-24
63450,I T I UMERKHED,85   ambawan  umerkhed  yavatmal  445206,Other education,20,854,1,20-24
63451,DHYNDEEP VIDYALAYA,134   BELKHED  Umarkhed  Yavatmal 445206,Primary education,20,851,4,10-14
63452,Z P U Primary School,43  Belkhed   Umarkhed  Yavatmal  445206,Primary Education,20,851,1,10-14
63453,Dnyandeep Vidyalaya,134   BELKHED  Umarkhed  Yavatmal 445206,Secondary Education,20,852,4,10-14
63454,Vivekanand Vidyalaya,03   Palshi   Umarkhed  Yavatmal  445211,Secondary Eduection,20,852,4,10-14
63455,VIVEKANAND VIDALAYA,03    PALSHI   Umarkhed  Yavatmal  445211,Secondary Education,20,852,4,10-14
63456,Agriculture Vidyalaya,80   Brahmangaon  Umarkhed  Yavatmal 445207,Higher education,20,853,4,10-14
63457,SHIVAJI VIDALAYA,104    POPHALI  Umerkhed  Yavatmal 445206,Higher education,20,853,4,20-24
63458,Shivaji Vidyalaya,104    POPHALI    445211,Secondary Education,20,852,4,20-24
63459,Primary Health Centre Mulawa,01   Umarkhed Road 445211,Health Service,21,861,1,10-14
63460,Shri Shivaji College,235    Mulava  Umerkhed  Yavatmal  445211,Secondary Education,20,852,4,30-99
63461,Shri Shivaji Moghe Vidyalaya,95    Kurali  Umerkhed  Yavatmal  445230,Secondary Eduection,20,852,4,15-19
63462,ACCOUNT OFFICE SUGAR FACTORY VASANTNAGAR POPHALI,163   Pusad Road  445204,Accounting  bookkeeping and auditing activities,18,692,6,30-99
63463,Shri Shivaji Mahavidyalaya,235   Mulawa  Umerkhed  Yavatmal  445211,Secondary Education,20,852,4,30-99
63464,Renukabai Jadhao Andh Vidyalaya,124   Vasantnagar Pophali  Umerkhed  Yavatmal  445204,Secondary Education,20,852,4,20-24
63465,K D JADHAO MUK BADHIR VIDYALAYA,125   Vasantnagar Pophali  Umerkhed  Yavatmal  445204,Secondary Education,20,852,4,20-24
63466,Vasant co Operative Sugar Factor,165   Vasantnagar Pophali  Umerkhed  Yavatmal  445204,Support activities to agriculture,1,16,6,200-499
63467,Vasant Coop Sakhar Factory Accounts OffiCE,163   Vasantnagar Pophali  Umerkhed  Yavatmal  445204,Accounts Service,18,692,6,30-99
63468,Vasant Cooperative Sugar Factory,165   Vasantnagar Pophali  Umerkhed  Yavatmal  445204,Sugar Factory,1,16,6,200-499
63469,PRIMARY HEALTH CENTER,01   Mulawa  Umerkhed  Yavatmal  445211,Hospital activities,21,861,1,10-14
63470,Renukabai Jadhao Andh Vidyalaya,124   Vasantnagar Pophali  Umerkhed  Yavatmal  445204,Secondary Eduection,20,852,4,20-24
63471,K D Jadhao Mukbadhir Vidyalaya,125   Vasantnagar Pophali  Umerkhed  Yavatmal  445204,Secondary Eduection,20,852,4,20-24
63472,Saibaba Primary School,183   tembhi  mahagaon  Yavatmal  445205,Primary education,20,851,4,10-14
63473,Primary School,183   tembhi  mahagaon  Yavatmal  445205,Primary Education,20,851,4,10-14
63474,T G Deshmukh Madhyamic Vidyalaya,149    Amani Bk    mahagaon  Yavatmal 445205,Secondary Education,20,852,4,10-14
63475,Savitribai Phule vidlaya and jr college,68   Mahagaon  Yavatmal 445205,Higher education,20,853,1,10-14
63476,Zilla parishad Madhamikvidalaya,221   Mahagaon  Yavatmal  445205,Secondary Education,20,852,1,15-19
63477,Savitribai Fule Vidyalaya and Junior Vidyalaya,68   Mahagaon  Yavatmal 445205,Higher Education,20,853,4,10-14
63478,Renbow English Medium School,07   Sawana  Mahagaon  Yavatmal  445205,Primary Education,20,851,2,10-14
63479,Rainbow English Medium School,07   Sawano  Mahagaon  Yavatmal  445204,Primary education,20,851,2,10-14
63480,Z P U P School,21  Dahisawali  Mahagaon  Yavatmal 445204,Primary education,20,851,1,10-14
63481,Smt Anusayabai JE Patil H S ,002   Pohandul  Mahagaon  Yavatmal 445204,Secondary Education,20,852,4,10-14
63482,Primary Health Center,167 1    Pohandul  Mahagaon  Yavatmal 445204,Hospital activities,21,861,1,10-14
63483,Primary Health Centre,167 1   Pohandul  Mahagaon  Yavatmal 445205,Health Centre,21,861,1,10-14
63484,Smt Anusayabai J Eknath Vidyalaya,02   Pohandul  Mahagaon  Yavatmal 445205,Secondary Education,20,852,4,10-14
63485,Manoharrao Naik Vidyalaya,82   Gunj   Mahagaon  Yavatmal  445205,Secondary Education,20,852,4,30-99
63486,Z  P  U  P School,21    Dahisawali  Mahagaon  Yavatmal 445204,Primary education,20,851,1,10-14
63487,ZIlla Parishad Madhyamic School,Mahagaon   Mahagaon  Yavatmal  445205,Secondary Education,20,852,1,15-19
63488,M N Vidlaya,82  GUNJ   Mahagaon  Yavatmal  445205,Secondary Education,20,852,4,30-99
63489,M N Badhir School,80  GUNJ   Mahagaon  Yavatmal  445205,Primary education,20,851,4,10-14
63490,M N Badhir School,80   Gunj   Mahagaon  Yavatmal  445205,Primary education,20,851,4,10-14
63491,T G Deshmukh Madhyamik Vidalaya,149    Amani Bk mahagaon  Yavatmal 445205,Secondary Education,20,852,1,10-14
63492,M N Handicap School,81   Gunj   Mahagaon  Yavatmal  445205,Primary education,20,851,4,10-14
63493,Babasaheb Naik Cotton Production Sahakari sutgirini,01   Pimpalgao  KH  445205,Spinning  weaving and finishing of textiles,6,131,6,200-499
63494,Babasaheb Naik Cotton Production Sahakari Sutgirni,01   pimpal goan   mahagaon  yavatmal 445205,Spinning  weaving and finishing of textiles,6,131,6,200-499
63495,Bhausaheb Sudhakarrao Naik Vidlaya,40   Mohadi  mahagaon  yavatmal  445205,Secondary Education,20,852,4,10-14
63496,BhauSaheb Sudhakararao Naik Vidyalaya,40   Mohadi  mahagaon  yavatmal  445205,Secondary Education,20,852,4,10-14
63497,Vasantrao Naik Mahavdalaya,06   Kali dau  mahagaon  yavatmal  445204,Secondary Education,20,852,4,30-99
63498,Vasantrao Naik Mahavidyalaya,06    Kali Dau  mahagaon  yavatmal  445204,Secondary Education,20,852,4,30-99
63499,Azahar Mirza Ucch Mahyamik Vidyalaya,05   Kali Dau  mahagaon  yavatmal  445204,Secondary Education,20,852,4,10-14
63500,Vasantrao Naik Vidalaya,36  Manohar Nagar  Mahagaon  Yavatmal 445205,Secondary Education,20,852,1,10-14
63501,Vasantrao Naik Vidyalaya,36  Manohar Nagar  Mahagaon  Yavatmal 445205,Secondary Education,20,852,1,10-14
63502,VASANTRAO NAIK VIDALAYA,36   Malvakad  Mahagaon  Yavatmal 445205,Secondary Education,20,852,1,10-14
63503,Z P U P SCHOOL  ,01   MALVAKAD  Mahagaon  Yavatmal 445205,Primary education,20,851,1,10-14
63504,Z P U P School ,01  Malwakad  Mahagaon  Yavatmal 445205,Primary education,20,851,1,10-14
63505,Pandurang More Vidyalaya  Umari Kapeshwar,59   umri  arni  yavatmal 445001,Secondary Education,20,852,4,10-14
63506,Primary Health Centre,Sawali Sadoba   Arni  Yavatmal  445106,Health Services,21,861,1,15-19
63507,Late Vasantrao Naik Junior Mahavidyalaya Sawali Sadoba,242   sawali sa   arni  yavatmal  445106,Higher Education,20,853,6,25-29
63508,Z P C Marathi School,86   Sawali Sadoba   Arni  Yavatmal  445106,Primary Education,20,851,1,10-14
63509,Market Samiti Office Arni,61   Mahur Road  445103,Other education,19,821,1,10-14
63510,Hindusthan Petrol Pump,23   Arni  Yavatmal 445103,Retail sale of automotive fuel,12,473,2,10-14
63511,Shahid Bhagatsingh Vidyalaya Arni,154   Dabhadi Road 445103,Higher Education,20,853,4,20-24
63512,Shri M D Bharati Higher Secondary School Arni,13   Prabhag No 3  445103,Higher Education,20,853,4,30-99
63513,Shri M D Bharati Higher Secondary Kanya School Arni,14   Prabhag No 3  445103,Higher Education,20,853,4,30-99
63514,Late Uttamrao Deshmukh English Medium School ,32   Arni  Yavatmal 445103,Secondary Education,20,852,4,15-19
63515,Narayanlila English Medium School,167   Arni  Yavatmal 445103,Secondary Education,20,852,2,20-24
63516,Deorao Patil Vidyalaya ,240   Arni  Yavatmal 445103,Secondary Education,20,852,4,10-14
63517,Industrial Training Institute ,245   Arni  Yavatmal 445103,Techincal Education,20,854,1,15-19
63518,Dnyandeep Handicap Vidyalya ,155   Kopra Arni  Yavatmal  445001,Secondary Education with Hostel,20,852,4,10-14
63519,Late Ishwar Deshmukj Tribal Ashramshala ,156   Kopra Arni  Yavatmal  445001,Secondary Education and Niwas,20,852,4,10-14
63520,Uttamrao Deshmukh Secondary Vidyalaya,157   Kopra   Arni  Yavatmal  445001,Secondary Education,20,852,4,10-14
63521,S P M Vidyalaya ,200  Borgaon   Arni  Yavatmal  445103,Higher Education,20,853,7,20-24
63522,Abhijit Filing Centre Dattarampur Arni,136   Yavatmal Road 445103,Retail sale of automotive fuel,12,473,2,10-14
63523,Shivramji Moghe Primary Secondary Adiwasi Ashramshala x,01   dattrampur  Arni  Yavatmal  445103,Secondary Education,20,852,4,20-24
63524,Shri Gurudeo Vidya Mandir   Junior Mahavidyalaya ,157   Jawala  Arni  Yavatmal  445001,Secondary Education,20,852,4,30-99
63525,Manohar Naik Vidyalaya ,187    Mowada  Ghatanji  Yavatmal  445301,Secondary Education,20,852,4,15-19
63526,Z P Upper Primary School,129   Jarang   Ghatanji  Yavatmal  445301,Primary Education,20,851,1,10-14
63527,Z P Upper Primary School,1 1    Shivani   Ghatanji  Yavatmal  445301,Primary Education,20,851,1,10-14
63528,Late A Majid Patel High School   Junior College,137   Chikhalwardha  Ghatanji  Yavatmal 445301,Secondary and Higher Education,20,853,4,10-14
63529,Shri Seva VJNT Ashsramshala,85    Shivani  Ghatanji  Yavatmal  445301,Secondary Education,20,852,6,10-14
63530,Primary Health Centre ,129  Shiroli   Ghatanji  Yavatmal  445301,Medical Services,21,861,1,25-29
63531,Late Madhaorao Naik Vidyalaya,134    Shivani  Ghatanji  Yavatmal  445301,Secondary Education,20,852,4,10-14
63532,Dr Babasaheb Deshmukh Vidyalaya ,225   Shiroli  Ghatanji  Yavatmal  445301,Secondary Education,20,852,4,15-19
63533,Navoday Vidyalaya ,121 1    Belora  Ghatanji  Yavatmal  445301,Higher Education,20,853,1,30-99
63534,Dr Shyamaprasad Mukharji Vidyalaya ,278   Ghoti  Ghatanji  Yavatmal  445301,Secondary Education,20,852,4,15-19
63535,Vasant Vidyalaya ,44   Pardi  Naskari   Ghatanji  Yavatmal 445301,Secondary Education,20,852,4,10-14
63536,Government Tribal Ashramshala ,194  Rampur   Ghatanji  Yavatmal  445301,Secondary Education,20,852,1,20-24
63537,Gopi Mutyalwar ,05   Patanbori  kelapur  yevatmal  445302,Event catering and other food service activities,14,562,2,10-14
63538,Babasaheb Deshmukh Parvekar Vidyalaya ,60   Pahapal   kelapur  yevatmal  445302,Secondary Education,20,852,4,20-24
63539,Primary Health Centre ,324  Pahapal   Kelapur  Yavatmal  445302,Health Services,21,861,1,15-19
63540,Abasaheb Deshmukh Ashram School ,106    Pahapal  kelapur  yevatmal  445302,Secondary Education with Hostel,20,852,4,20-24
63541,Polytechnic ,04   Konghara  kelapur  yevatmal  445302,Techinical Institute,20,854,4,30-99
63542,I T I ,94    Sonbardi  kelapur  yevatmal  445302,Training,20,854,1,15-19
63543,Deoraoji Gedam Ashramshala ,01    Wagholi  kelapur  yevatmal  445302,Secondary Education,20,852,4,10-14
63544,Ajaysingh Parmar  Nagpur,Kothoda   Sahakar Nagar 440022,Soya Oil Extretion,6,107,2,30-99
63545,Aman Cloth Stores Karanj Road,22 1  Karanj Road   Main Road  445302,Retail Cloth Sales,12,477,2,10-14
63546,Mahatma Fule Mahavidyalaya ,157   Karanji Road  kelapur  yevatmal  445302,Higher Education,20,853,4,20-24
63547,Babasaheb Deshmukh Parvekar Vidyalaya ,20 1    Runza  kelapur  yevatmal  445302,Secondary Education,20,852,4,15-19
63548,Netaji High School ,121   Mohada  kelapur  yevatmal  445302,Secondary Education,20,852,4,15-19
63549,Survodya Madhyamic Vidyalaya and Junior College ,67   Ridhora  Ralegaon  Yavatmal   445402,Secondary Education,20,852,4,10-14
63550,Granted Ashram School ,86   Khairgaon Kasar  Ralegaon  Yavatmal  445402,Secondary Education,20,852,4,10-14
63551,Govt Post Basic Ashramshala,92  KinhiJawade  Ralegaon  Yavatmal  445308,Secondary Education,20,852,1,15-19
63552,Sai Polytechnic College,143    Kinhi Jawade  Ralegaon  Yavatmal  445308,Technical Education,20,854,4,30-99
63553,Lakhaji Maharaj Junior and Higher Secondary School ,214   Zadgaon  Ralegaon  Yavatmal   445402,Higher Education,20,853,4,20-24
63554,Primary Health Centre ,105 2  Dhanora   Ward 3 445402,Health Service,21,861,1,10-14
63555,Government Ashram School ,109    Jalaka   Ralegaon  Yavatmal   445402,Primary education,20,851,1,15-19
63556,Z P Primary Marathi School,81 3     Ralegaon  Yavatmal   445402,Primary Education,20,851,1,10-14
63557,Sant Gadgebaba Vidyalaya ,37   Antargaon  Ralegaon  Yavatmal   445402,Secondary Education,20,852,4,15-19
63558,Primary Health Centre Wadhona Bazar,216    Ralegaon  Yavatmal   445402,Health Service,21,861,1,15-19
63559,Backward Boys Government Hostel,211    Ralegaon  Yavatmal   445401,Hostel,14,559,1,10-14
63560,The Yavatmal Urban Cooperative Bank,196    Ralegaon  Yavatmal   445401,Bank,16,641,4,10-14
63561,Sanskruti Sanverdhan Secondary Kanya Vidyalaya,20 2     Ralegaon  Yavatmal   445401,Secondary School,20,852,4,10-14
63562,Netaji Vidyalaya  Ralegaon,13    Ralegaon  Yavatmal  445401,Secondary Education,20,852,4,15-19
63563,Panchrekha Petrolium,239    Ralegaon  Yavatmal   445401,Petrol Sales,12,473,2,10-14
63564,Arts and Commerce Mahavidyalaya,02    Ralegaon  Yavatmal  445402,Higher Education,20,853,4,10-14
63565,Indira Gandhi Mahavidyalaya,03    Ralegaon  Yavatmal  445402,Higher Education,20,853,4,20-24
63566,I T I ,10    Ralegaon  Yavatmal  445402,Technical Education,20,854,1,15-19
63567,M S E D C Ltd Sub Div ,254    Ralegaon  Yavatmal   445401,Electric power generation  transmission and distribution,7,351,1,15-19
63568,M S E D C Ltd Sub Station,255    Ralegaon  Yavatmal   445401,Electric power generation  transmission and distribution,7,351,1,10-14
63569,Virani Cotton Ginning Factory,01    Ralegaon  Yavatmal  445401,Spinning  weaving and finishing of textiles,6,131,4,20-24
63570,H P Industries,11    Ralegaon  Yavatmal  445401,Spinning  weaving and finishing of textiles,6,131,4,25-29
63571,M S R T C  Depot,12 1     Ralegaon  Yavatmal   445402,Other land transport,13,492,1,100-199
63572,Sant Bhojaji Maharaj Nagari Credit Societ,74 4     Ralegaon  Yavatmal   445401,Monetary intermediation,16,641,3,15-19
63573,State Bank of India,90    Ralegaon  Yavatmal  445402,Monetary intermediation,16,641,1,10-14
63574,Montensary Training Centre,21 1     Ralegaon  Yavatmal   445401,Other education,20,854,4,10-14
63575,Montensary Training Centre,21 1     Ralegaon  Yavatmal   445401,Other education,20,854,4,10-14
63576,Jagannath Maharaj High School,171    Ralegaon  Yavatmal   445303,Secondary Education,20,852,4,15-19
63577,ART   kala Science mahavidlaya,Maregaon yavatmal 445303,Higher education,20,853,4,30-99
63578,Art  Science Mahavidyalaya,210   Maregaon yavatmal 445303,Higher education,20,853,4,30-99
63579,Yugantar Vidyalaya,135   Maregaon yavatmal 445303,Higher education,20,853,4,25-29
63580,Central co operative Bank,18   Maregaon yavatmal 445303,Other financial service activities ,16,649,4,25-29
63581,Tulsiram Restarant Maregaon,4   Wani Road  445303,Restaurants and mobile food service activities,14,561,2,10-14
63582,Vidyaniketan Vidyalaya,125   Maregaon yavatmal 445303,Secondary Education,20,852,4,30-99
63583,VIdya Niketan,125   Maregaon yavatmal 445303,Secondary Education,20,852,4,30-99
63584,Maharashtra State Electricity Supply Company Ltd,137  Kanahalgaon Maregaon ya vatmal  445303,Electric power generation  transmission and distribution,7,351,1,10-14
63585,Central Cooperative Bank,18   Maregaon yavatmal 445303,Bank,16,641,4,25-29
63586,Tulsiram Restrant Maregaon,4   Wani Road  445303,Restaurants and mobile food service activities,14,561,2,10-14
63587,Chuna Bhatti Bhalewadi,119   Wani Road  445304,Chuna Batti,5,89,2,30-99
63588,Bhartiya Indhan Oil Bhalewadi,120   Wani Road  445303,Oil Mill,6,107,2,25-29
63589,Chuna Batti,119   Bhalewadi  Maregaon yavatmal 445303,Mining and quarrying n e c ,5,89,2,30-99
63590,Bharatiya Indane Oil,120   Bhalewadi  Maregaon yavatmal 445303,Extraction of crude petroleum,5,61,2,25-29
63591,M S E B SUPPLY COMPANY,137   KANHALGAON 445303,Electric power generation  transmission and distribution,7,351,1,10-14
63592,Adarsh High School,180    Mardi  Maregaon yavatmal 445303,Secondary Education,20,852,4,15-19
63593,Adarsh High School,180  Mardi   Maregaon  Yavatmal  445303,Secondary Education,20,852,4,15-19
63594,Rashtriya Vidyalaya Hiwara,10   Hiwara  Maregaon yavatmal 445403,Secondary Education,20,852,4,20-24
63595,Jagannath Maharaj High School,171   Wegaon  Maregaon  Yavatmal  445303,Secondary Education,20,852,4,15-19
63596,Rashtriya Vidyalaya,10   Hiwara Majara  Maregaon  Yavatmal 445303,Secondary Education,20,852,4,20-24
63597,Hemant Vishnuji Matte,186   Narsala  445303,Mining and quarrying n e c ,5,89,2,15-19
63598,VIJAY M VACHHNI,189   narsala  maregaon  yavatmal  445303,Mining and quarrying n e c ,5,89,2,10-14
63599,Baldeo Chhaganlal Khangar,185   narsala  maregaon  yavatmal  445303,Mining and quarrying n e c ,5,89,2,10-14
63600,Baldeo Chaganlal Khangar,185   Narsala  445303,Mining and quarrying n e c ,5,89,2,10-14
63601,Hemant Vishnuji Matte,186   narsala  maregaon  yavatmal  445303,Stone Thresher,5,89,2,15-19
63602,Vijay M Wacchani,189   narsala  maregaon  yavatmal  445303,Stone Gitti Thresher,5,89,2,10-14
63603,Z P Upper Primary School ,02  Matharjun   Zari  Jamani  445302,Primary Education,20,851,1,10-14
63604,Ginning Factory ,133   Mukutban  Zari  Jamani  yavatmal  445001,Other manufacturing n e c ,6,329,2,30-99
63605,Ginning Pressing Factory ,137   Mukutban  Zari  Jamani  yavatmal  445001,Other manufacturing n e c ,6,329,2,10-14
63606,Ginning Pressing Factory ,135   Mukutban  Zari  Jamani  yavatmal  445001,Other manufacturing n e c ,6,329,2,30-99
63607,Secondary High School Office,89   Kurai  wani  yavatmal 445307,Secondary Education,20,852,4,10-14
63608,Secondary High School,89   Kurai  wani  yavatmal 445307,Secondary Education,20,852,4,10-14
63609,Aadarsh High School,09   Sakhara Ko   wani  yavatmal  445307,Secondary Education,20,852,4,10-14
63610,Mungoli Open Cate,158  Mungoli   Wani  Yavatmal  445307,Mining and quarrying n e c ,5,89,1,>=500
63611,Vishal Construction Ghugus,243   Ghugus Road 445307,Repair of fabricated metal products ,6,331,2,10-14
63612,NOVA ENTERPRIJES SHINDOL A,245   Ghuggas Road 445307,Repair of fabricated metal products ,6,331,2,15-19
63613,Nova Enterprises Shindola,245   Ghugus Road 445307,Repair of fabricated metal products ,6,331,2,15-19
63614,Aavinas Logistics Private Ltd Company,282   Kalmana Road 445307,Transport Service,13,492,2,30-99
63615,ACC CEMENT COMPANY LIMITED SHINDOLA,113   MIDC  445307,Cement Factory,5,89,2,100-199
63616,Avinash Logistic private LImited Company,282   Kalmana Road 445307,Transport Service,13,492,2,30-99
63617,Parshav Minirals Construcation Company,283   Kalmana Road 445307,Transport Service,13,492,2,10-14
63618,ACC Cement Company Ltd Shindola,113   Coal Mines  445307,Cement Factory,5,89,2,100-199
63619,Nalanda Vidyalaya,01   Welabai  Wani  Yavatmal  445307,Secondary Education,20,852,4,10-14
63620,Z P U P School,10  Kayar   Wani  Yavatmal  445304,Primary Education,20,851,1,10-14
63621,Sameer Ahamad,100   Nawargaon  Wani  Yavatmal  445304,Ginning Factory,6,329,2,10-14
63622,Sameer Ahmad,100   Nawargaon  Wani  Yavatmal  445304,Other manufacturing n e c ,6,329,2,10-14
63623,Governemnt Ashramshala,20  Parsoda   Wani  Yavatmal  445304,Secondary Education,20,852,1,10-14
63624,Bhartiya Petrpl Pump,30   Parsoda  Wani  Yavatmal  445304,Petrol Sales,12,473,2,15-19
63625,Adarsh High School,Sakhara  Wani  Yavatmal 445307,Secondary Education,20,852,4,10-14
63626,Aadarsh High School and Junior Mahavidyalaya Ghonsa,40   Main Road  445430,Secondary Education,20,852,1,25-29
63627,Smt Laxmibai Rajgadkar Secondary Ashramshala,279   shirpur  wani  yavatmal  445304,Niwasi Secondary Education,20,852,4,10-14
63628,Smt Laxmibai Rajgadkar Primary Ashram School,278   shirpur  wani  yavatmal  445304,Nivasi Primary Education,20,851,4,10-14
63629,Smt Laxmibai Rajgadkar Madhyamic Ashram shala,279   shirpur  wani  yavatmal  445304,Nivasi Secondary Education,20,852,4,10-14
63630,Z P UPPAR PRIMARY SCHOOL,10   kenyar  Wani  Yavatmal  445304,Primary education,20,851,1,10-14
63631,Primary Health Centre,11   shirpur  wani  yavatmal  445304,Health Services,21,861,1,15-19
63632,Shri Gurudeo Vidyalaya,262   shirpur  wani  yavatmal  445304,Secondary Education,20,852,4,20-24
63633,WCL Water Filter,252   taroda  wani  yavatmal  445304,Water collection  treatment and supply,8,360,4,15-19
63634,Ukani Sub Area,05   Ukani  Wani  Yavatmal  445304,Office administrative and support activities,19,821,4,>=500
63635,Nalanda Vidyalaya,01    Welabai  Wani  Yavatmal  445307,Secondary Education,20,852,4,10-14
63636,Parshan Minarals Consturaction Ltd Shindola,283   Kalmana ROAD 445307,Coal Mines,5,51,2,10-14
63637,Navbharat High School,125   Wani  Yavatmal  Ukani  445304,Secondary Education,20,852,4,15-19
63638,General Managaer Office  Welhala,07   Coal Mines  445304,Ukani Khadan Office Service,19,821,4,100-199
63639,Hospital Bhalar Wasahat Welhala,27   Coal Mines  445304,Health Services,21,861,4,20-24
63640,Tukdoji Maharaj MNadhyamic School ,05   Wani  Yavatmal  Bhalar  445304,Secondary Education,20,852,4,10-14
63641,Vishal Constriction Ghugus,243   Ghugus Road 445307,Repair of fabricated metal products ,6,331,2,10-14
63642,Gulab Prem Agro Processor,246   nillapur  wani  yavatmal  445304,Spinning  weaving and finishing of textiles,6,131,2,10-14
63643,Aifaz Cotton Processor,247   nillapur  wani  yavatmal  445304,Spinning  weaving and finishing of textiles,6,131,2,15-19
63644,Vaibhav Cotton Gin,248   nillapur  wani  yavatmal  445304,Spinning  weaving and finishing of textiles,6,131,2,15-19
63645,Reddi Cotton Processor ,245   nillapur  wani  yavatmal  445304,Spinning  weaving and finishing of textiles,6,131,2,10-14
63646,MUNGOLI OPEN CAST,Mungoli   Wani  Yavatmal 445307,Mining and quarrying n e c ,5,89,1,>=500
63647,Indira Cotton Processor Nilapur,244   nillapur  wani  yavatmal  445304,Spinning  weaving and finishing of textiles,6,131,2,10-14
63648,Ramesh Sunkunwar Chikhalgaon,90   Sadhankar Wadi 445304,B C Deptt Contractor,9,410,2,30-99
63649,Nandini Hotel,98    Chikhalgaon  wani  yavatmal  445304,Event catering and other food service activities,14,562,2,20-24
63650,Akshara Bar and Restaurant,110    Chikhalgaon  wani  yavatmal  445304,Event catering and other food service activities,14,562,2,25-29
63651,Gram Sandharbha Mukti Trust Office  Chikhalgaon,58   Wani Road  445304,Other education,23,949,4,100-199
63652,Gram Sandarbha Mukti Trust Office  Chikhalgaon,58   Main Road  445304,Other education,23,949,4,100-199
63653,Dayal Cotton Mill Wanjari,205   Nandepera Road 445304,Other manufacturing n e c ,6,329,2,200-499
63654,Rasoya Prt Ltd Company Wanjari,200   Nandepera Road 445304,Manufacture of other food products,6,107,2,100-199
63655,Khadan Power Station,175   Bhandewada  Wani  Yavatmal  445303,Electric power generation  transmission and distribution,7,351,1,20-24
63656,Panchshil High School,15    Nandepera  Wani  Yavatmal  445304,Secondary Education,20,852,4,25-29
