S.No.,Name of the Establishment,Address,Major Activity Description,Broad Activity Code,NIC,Ownershi p Code,"Employm ent
Class
Interval"
1,SANSKRIT COLLEGE,28 SAMDONG ROAD EAST SIKKIM 737107,EDUCATION,20,853,1,10-14
2,SAMDONG GOVT  SEN  SEC  SCHOOL,17 1  SAMDONG ROAD EAST SIKKIM 737107,EDUCATION,20,852,1,30-99
3,GOVERNMENT SECONDARY SCHOOL,35 LOWER SAMDONG DIKCHU ROAD SAMDONG  EAST SIKKIM 737107,EDUCATION,20,852,1,15-19
4,TEESTA MODEL ACADEMY,69 SAMDONG DIKCHU SAMDONG ROAD EAST SIKKIM 737107,EDUCATION,20,852,1,10-14
5,VIDHYA BHARATI SCHOOL,43 SAMDONG DIKCHU ROAD EAST SIKKIM 737107,EDUCATION,20,852,1,10-14
6,GOVT  RALEY JHS,142 1  RALEY ROAD EAST SIKKIM 737107,EDUCATION,20,852,1,15-19
7,PHALAICHA DARA PRIMARY SCHOOL,14 RALEY KHESEY RALEY ROAD EAST SIKKIM 737107,EDUCATION,20,851,1,15-19
8,GOVT  SEC  SCHOOL,5 1  TUMIN ROAD EAST SIKKIM 737134,EDUCATION,20,852,1,25-29
9,GOVT  NAMRANG JHS,20 1  NAMRANG  TUMIN UPPER TUUMIN ROAD EAST SIKKIM 737134,EDUCATION,20,852,1,10-14
10,GOVERNMENT SURYADAYA JHS,48 TUMIN ROAD EAST SIKKIM 737134,EDUCATION,20,852,1,10-14
11,NAVA JYOTI SANGH,10 NAMRANG  TUMIN EAST SIKKIM 737134,MEMBERSHIP ORGANISATION,23,949,7,10-14
12,JUNIOR HIGH SCHOOL,40 1  SIMICK LINGZEY SIMICK ROAD EAST SIKKIM 737134,EDUCATION,20,852,1,15-19
13,CHADEY JUNIOR HIGH SCHOOL,68 1  PATUK ROAD EAST SIKKIM 737134,EDUCATION,20,852,1,10-14
14,NENAMMA INDUSTRIES,163 SINGBEL ROAD EAST SIKKIM 737138,RETAIL TRADE OF LPG,12,477,2,10-14
15,MAKHA SECONDARY SCHOOL,86 MAKHA ROAD EAST SIKKIM 737134,EDUCATION,20,852,1,20-24
16,BETHESTHA ACADEMY,77 MAKHA ROAD EAST SIKKIM 737134,EDUCATION,20,852,2,10-14
17,CHANDEY JUNIOR HIGH SCHOOL,85 1  PATUK KOKOLEY SINGTAM DIKCHU ROAD EAST SIKKIM 737134,EDUCATION,20,852,1,10-14
18,DUNGDUNG SENIOR SEC  SCHOOL,47 1  DUNGDUNG ROAD EAST SIKKIM 737107,EDUCATION,20,852,1,30-99
19,GOVT  PRIMARY SCHOOL,84 1  BYENG KHAMDONG ROAD EAST SIKKIM 737135,EDUCATION,20,851,1,15-19
20,KENDRIYA VIDYALAYA SCHOOL,25 1  LOWER KHAMDONG SINGTAM ROAD EAST SIKKIM 737134,EDUCATION,20,852,1,25-29
21,SPWD WORKSHOP,42 SIRWANI ROAD EAST SIKKIM 737134,CAR WORKSHOP,10,452,1,30-99
22,HOMAC TRANSFORMER   ELECTRICAL,105 1  SIRWANI ROAD EAST SIKKIM 737134,TRANSFORMER AND ELECTRICAL,6,271,2,15-19
23,SIRWANI GOVT  HIGH SCHOOL,149 SIRWANI ROAD EAST SIKKIM 737134,EDUCATION,20,852,1,25-29
24,SAKYONG MANGTHANG JR HIGH SCHOOL,23 1  SAKYONG SIRWANI SANG ROAD EAST SIKKIM 737107,EDUCATION,20,852,1,15-19
25,CHISOPANI GOVT  JR  HIGH SCHOOL,66 CHISOPANI ROAD EAST SIKKIM 737134,EDUCATION,20,852,1,10-14
26,RISING SUN ACADEMY,60 CHISOPANI ROAD EAST SIKKIM 737134,EDUCATION,20,852,3,10-14
27,GOVERNMENT PRESERVATIVE FACTORY,24 CHISOPANI NH 31A EAST SIKKIM 737134,MANUFACTURING OF JAMS,6,103,1,30-99
28,STP PHARMACEUTICAL PVT  LTD ,155 TSHALUMTHANG  SANGKHOLA NH 31A EAST SIKKIM 737134,MANUFACTURING OF MEDICINES,6,210,4,100-199
29,PTS PACKAGING PVT  LTD ,156 TSHALUMTHANG  SANGKHOLA NH 31A EAST SIKKIK 737134,PACKAGING,19,829,4,30-99
30,TSHALUMTHANG SECONDARY SCHOOL,113 1 _ TSHALUMTHANG ROAD EAST SIKKIM 737134,EDUCATION,20,852,1,20-24
31,SANG SENIOR SECONDARY SCHOOL,23 1  SANG ROAD EAST SIKKIM 737134,EDUCATION,20,852,1,30-99
32,CHILDREN WORLD ACADEMY SCHOOL,40 4  SANG ROAD EAST SIKKIM 737134,EDUCATION,20,852,2,10-14
33,SANG HOSPITAL,24 SANG ROAD EAST SIKKIM 737134,HEALTH ACTIVITIES,21,861,1,25-29
34,SANG SENIOR SECONDARY SCHOOL,35 SANG ROAD EAST SIKKIM 737134,EDUCATION,20,852,1,30-99
35,GOVERNMENT JR  HIGH SCHOOL,106 YANGTHANG UPPER MARTAM ROAD UPPER MARTAM 737134,EDUCATION,20,852,1,10-14
36,ST  JOSEPH SCHOOL MARTAM,67 MARTAM ST  JOSEPH MARTAM ROAD EAST SIKKIM 737134,EDUCATION,20,852,9,25-29
37,SITER ALICE,68 1  MARTAM ST  JOSEPH MARTAM ROAD EAST SIKKIM 737134,HOSTEL,14,559,9,10-14
38,LOWER SUMIN SECONDARY SCHOOL,29 SUMIN LOWER SUMIN ROAD EAST SIKKIM 737134,EDUCATION,20,852,1,25-29
39,GOVERNMENT JHS SUMIN,14 SUMIN  ROAD EAST SIKKIM 737134,EDUCATION,20,852,1,10-14
40,MADHYA BHARAT POWER CORPORATION LTD,4 LOWER SUMIN LOWER SUMIN ROAD EAST SIKKIM 737134,POWER SUPPLY,7,351,4,30-99
41,LOWER LINGZEY SECONDARY SCHOOL,69 LINGZEY LOWER LINGZEY ROAD EAST SIKKIM 737134,EDUCATION,20,852,1,20-24
42,FLEX ART FOIL LTD ,415 BARDANG ROAD EAST SIKKIM 737134,MANUFACTURING OF MEDICINAL FOILS,6,222,4,30-99
43,SUJAN GARAGE,256 GOITAR  SINGTAM NH 31A EAST SIKKIM 737134,MAINTENANCE AND REPAIR OF MOTOR VEHICLE,10,452,2,15-19
44,EAST POINT SENIOR SECONDARY SCHOOL,206 SINGTAM NH 31A EAST SIKKIM 737134,EDUCATION,20,852,3,25-29
45,DISTRICT HOSPITAL SINGTAM,160 SINGTAM PENDAM ROAD EAST SIKKIM 737134,HEALTH SERVICES,21,861,1,100-199
46,GOVT  SECONDARY SCHOOL,36 SHYAPLAY SARDARAY  WEST PENDAM WEST PENDAM ROAD EAST SIKKIM 737134,EDUCATION,20,852,1,25-29
47,SINGLEYBONG JUNIOR HIGH SCHOOL,35 WEST PENDAM WEST PENDAM ROAD EAST SIKKIM 737134,EDUCATION,20,852,1,10-14
48,ATTC COLLEGE,110 BARDANG  WEST PENDAM NH 31A EAST SIKKIM 737134,TECHNICAL COLLEGE,20,853,1,30-99
49,EDEN GARDEN ENGLISH SCHOOL,148 WEST PENDAM SINGTAM RANGPO ROAD EAST SIKKIM 737134,EDUCATION,20,852,2,10-14
50,BARDANG GOVT  JUNIOR HIGH SCHOOL,271 BARDANG  WEST PENDAM RANGPO ROAD EAST SIKKIM 737134,EDUCATION,20,852,1,15-19
51,GOVERNMENT SCHOOL,28  CENTRAL PENDAM CENTRAL PENDAM ROAD EAST SIKKIM 737132,EDUCATION,20,852,1,15-19
52,MADHYABHARAT PVT  LTD,118 CENTRAL PENDAM CENTRAL PENDAM ROAD EASST SIKKIM 737132,CONSTRUCTION COMPANY,9,410,2,30-99
53,GOVERNMENT SEN  SEC  SCHOOL,97 CENTRAL PENDAM SINGTAM PENDAM ROAD EAST SIKKIM 737135,EDUCATION,20,852,1,30-99
54,CENTRAL POINT ACADEMY,33 CENTRAL PENDAM CENTRAL PENDAM ROAD EAST SIKKIM 737132,EDUCATION,20,852,2,10-14
55,PADAM KUMARI SCHOOL,41 CENTRAL PENDAM CENTRAL PENDAM ROAD EAST SIKKIM 737132,EDUCATION,20,852,2,10-14
56,DUGA GOVT SCHOOL,141 1  DUGA  CENTRAL PENDAM DUGA ROAD EAST SIKKIM 737132,EDUCATION,20,852,1,30-99
57,M S CIPLA LTD ,150 KUMREK  RANGPO  RANGPO RORATHANG ROAD EAST SIKKIM 737132,MANUFACTURING OF PHARMACEUTICALS,6,210,2,>=500
58,ALKEM LABORATORIES,152 KUMREK RANGPO RORATHANG ROAD EAST SIKKIM 737132,MANUFACTURING OF PHARMACEUTICALS,6,210,4,>=500
59,INDICHEM HEALTH AND FACILITIES PVT LTD  ,151  KUMREK RANGPO ROAD EAST SIKKIM 737132,MANUFACTURING OF PHARMACEUTICALS,6,210,4,100-199
60,MIDDLE CAMP SECONDARY SCHOOL,17 1  NAMLI TUMLABONG NH 31A EAST SIKKIM 737135,EDUCATION,20,852,1,30-99
61,TORRENT PHARMACEUTICALS LTD ,95 NAMLI NH 31A EAST SIKKIM 737135,MANUFACTURING OF PHARMACEUTICALS,6,210,4,>=500
62,EPITOME PETRO CHEMICAL LTD ,23 1  TUMLABONG ROAD EAST SIKKIM 737135,MANUFACTURING OF BOTTLE,6,231,2,30-99
63,TUMLABONG JUNIOR HIGH SCHOOL,39 1  TUMLABONG ROAD EAST SIKKIM 737135,EDUCATION,20,852,1,15-19
64,RANIPOOL SENIOR SECONDARY SCHOOL,100 MARCHAK ROAD EAST SIKKIM 737135,EDUCATION,20,852,1,30-99
65,SAMLICK GOVT  JUNIOR HIGH SCHOOL,205 SAMLICK MARCHAK SAMLICK ROAD EAST SIKKIM 737135,EDUCATION,20,852,1,15-19
66,KARMA THINLAY BHUTIA PETROL PUMP,131 MARCHAK  RANIPOOL NH 31A EAST SIKKIM 737135,PETROL PUMP,12,473,2,10-14
67,COLLEGE OF AGRI  ENG  AND POST HARVEST TECHNOLOGY ,189 3   NH 31A MARCHAK  RANIPOOL  EAST SIKKIM 737135,HIGHER EDUCATION,20,853,1,100-199
68,GREENWAYS PVT  INDUSTRIAL GROWTH CENTRE,185  SAMLICK MARCHAK ROAD SAMLICK MARCHAK  EAST SIKKIM 737135,MANUFACTURING OF PAPER AND PAPER PRODUCTS,6,170,4,30-99
69,MARCHAK CHORTEN GOVT  PRIMARY SCHOOL,52  MARCHAK ROAD EAST SIKKIM 737135,EDUCATION,20,851,1,10-14
70,HOTEL MANAGEMENT COLLEGE,76 SAJONG  RUMTEK ROAD EAST SIKKIM 737135,EDUCATIONAL INSTITUTE,20,853,1,30-99
71,RUMTEK SENIOR SEC  SCHOOL,98 1  RUMTEK ROAD EAST SIKKIM 737135,EDUCATION,20,852,1,30-99
72,TINTALAY RESORT,4 1  SAJONG  RUMTEK ROAD EAST SIKKIM 737135,HOTEL,14,551,2,10-14
73,KARMA SHRI NALANDA INSTITUTE,42 RUMTEK ROAD EAST SIKKIM 737135,EDUCATIONAL INSTITUTE,20,853,7,10-14
74,KDCC SCHOOL,91 RUMTEK ROAD EAST SIKKIM 737135,EDUCATION,20,852,2,10-14
75,ADAMPOOL GOVT  JHS,56 ADAMPOOL RUMTEK ROAD EAST SIKKIM 737135,EDUCATION,20,852,1,15-19
76,GOVERNMENT SENIOR SEC SCHOOL,69 RANKA ROAD EAST SIKKIM 737101,EDUCATION,20,852,1,30-99
77,KANCHANJUNGA TOURIST VILLA,15 4  RANKA ROAD EAST SIKKIM 737101,HOTEL,14,551,1,30-99
78,GOVERNMENT PRIMARY SCHOOL,7 1  TEMPHYEK MINDU  TEMHYEK MINDU ROAD REY MINDU  EAST SIKKIM 737101,EDUCATION,20,851,1,10-14
79,REY GOVT  JHS,85 REY MINDU REY ROAD EAST SIKKIM 737101,EDUCATION,20,852,1,15-19
80,NAVYUG PUBLIC SCHOOL,44 REY MINDU REY ROAD EAST SIKKIM 737101,EDUCATION,20,852,2,10-14
81,SEEMA JUNIOR HIGH SCHOOL,47 LINGDUM ROAD EAST SIKKIM 737101,EDUCATION,20,852,1,15-19
82,GRACE ACADEMY SCHOOL,64 LINGDUM ROAD EAST SIKKIM 737101,EDUCATIONAL INSTITUTE,20,852,2,10-14
83,NAMPHONG GOVT  JUNIOR HIGH SCHOOL,70 1  NAMPHONG LINGDOK NAMPHONG ROAD EAST SIKKIM 737101,EDUCATION,20,852,1,10-14
84,GOVERNMENT SEN  SEC SCHOOL,10 LINGDOK ROAD EAST SIKKIM 737101,EDUCATION,20,852,1,30-99
85,TAKTSE INTERNATIONAL SCHOOL,55 TAKTSE  NAVEY SHOTAK TAKTSE ROAD EAST SIKKIM 737103,EDUCATION,20,852,2,30-99
86,PENLONG JUNIOR HIGH SCHOOL,101 PENLONG ROAD EAST SIKKIM 737103,EDUCATION,20,852,1,10-14
87,ENLIGHTENED JUNIOR HIGH SCHOOL,61 LUING ROAD LUING ROAD EAST SIKKIM 737103,EDUCATION,20,852,2,15-19
88,G B PANT INSTITUTE OF HIMALAYAN ENVIRONMENT AND DEVELOPMENT,51  PENLONG ROAD PENLONG  EAST SIKKIM 737103,MEMBERSHIP ORGANISATION,23,949,1,25-29
89,TAKTSE SHEDA,56 TAKTSE  NAVEY SHOTAK TAKTSE ROAD EAST SIKKIM 737103,EDUCATIONAL INSTITUTE,20,853,2,30-99
90,PANGTHANG GOVT  JHS,61 1  PANGTHANG ROAD EAST SIKKIM 737103,EDUCATION,20,852,1,20-24
91,PENLONG SECONDARY SCHOOL,11 PENLONG ROAD EAST SIKKIM 737103,EDUCATION,20,852,1,25-29
92,PANGTHANG PRIMARY SCHOOL,129 1  PANGTHANG ROAD EAST SIKKIM 737103,EDUCATION,20,852,1,10-14
93,GOVT  PRIMARY SCHOOL,41 LOWER LUING ROAD EAST SIKKIM 737101,EDUCATION,20,851,1,10-14
94,GOVT  JHS PERBING,65 1  LUING PERBING ROAD EAST SIKKIM 737101,EDUCATION,20,852,1,10-14
95,LUING GOVT  SECONDARY SCHOOL,63 LUING ROAD EAST SIKKIM 737101,EDUCATION,20,852,1,15-19
96,THAMIDARA GOVT  JHS,23 THAMIDARA  LUING PERBING LUING ROAD EAST SIKKIM 737101,EDUCATION,20,852,1,10-14
97,HOTEL ROYAL DEMAZONG,38 1  CHONGEYTAR  RONGYECK CHONGEY ROAD EAST SIKKIM 737101,HOTEL,14,551,2,30-99
98,PADMA ODZER CHOELING SCHOOL,44 CHONGEYTAR  RONGYEK BHUSUK ROAD EAST SIKKIM 737101,EDUCATION,20,852,7,30-99
99,NORLING SUMIT RESORT AND SPA,40 RONGYEK ROAD EAST SIKKIM 737101,HOTEL,14,551,2,10-14
100,UPPER SYARI GOVT  SCHOOL,12 1  SYARI UPPER SYARI ROAD EAST SIKKIM 737102,EDUCATION,20,852,1,10-14
101,GOVERNMENT JHS,41 KOPIBARI SYARI KOPIBARI SYARI EAST SIKKIM 737102,EDUCATION,20,852,1,30-99
102,LOWER SYARI GOVT  PRIMARY SCHOOL,14 SYARI ROAD EAST SIKKIM 737102,EDUCATION,20,851,1,10-14
103,KENDRIYA VIDYALAYA,40 LIBING  SYARI LIBING ROAD EAST SIKKIM 737102,EDUCATION,20,852,1,30-99
104,MOUNT CARMEL ACADEMY,77 3  TAMBOTAR  SARAMSA RANIPOOL SARAMSA ROAD EAST SIKKIM 737135,EDUCATION,20,852,2,10-14
105,SUNPHARMA DRUGS PVT  LTD ,93 SETHIPOOL  NANDOK RANIPOOL PAKYONG ROAD EAST SIKKIM 737135,MANUFACTURING OF PHARMACEUTICALS,6,210,4,>=500
106,ZEPHYUR FOOD PRODUCTS,65 RANIPOOL  NANDOK RANIPOOL NANDOK ROAD EAST SIKKIM 737135,RESTAURANT,14,561,2,15-19
107,LITTLE ANGEL PRIVATE SCHOOL,75 NANDOK  RANIPOOL NANDOK ROAD EAST SIKKIM 737135,EDUCATION,20,852,2,15-19
108,GOVERNMENT JHS,2 1  LOWER NANDOK RANIPOOL NANDOL ROAD EAST SIKKIM 737135,EDUCATION,20,852,1,20-24
109,GOVT  SECONDARY SCHOOL,1 1  NANDOK RANIPOOL NANDOK ROAD EAST SIKKIM 737135,EDUCATION,20,852,1,25-29
110,PABYUK SECONDARY SCHOOL,71 1  PABYUK  NANDOK NAITAM PABYUK ROAD EAST SIKKIM 737135,EDUCATION,20,852,1,15-19
111,AHO KISHAN JUNIOR HIGH SCHOOL,71 AHO ROAD EAST SIKKIK 737135,EDUCATION,20,852,1,30-99
112,BHUSUK JUNIOR HIGH SCHOOL,3 BHUSUK ROAD EAST SIKKIM 737101,EDUCATION,20,852,1,15-19
113,NAMOK GOVT  JHS,18 1  BHUSUK NAMOK ROAD EAST SIKKIM 737103,EDUCATION,20,852,1,20-24
114,BAHAI SENIOR SECONDARY SCHOOL,118 SARAMSA RANIPOOL SARAMSA ROAD EAST SIKKIM 737135,EDUCATION,20,852,1,30-99
115,ST  PATRICK SCHOOL,72 ASSAM LINGZEY ASSAM LINGZEY ROAD EAST SIKKIM 737135,EDUCATION,20,852,2,10-14
116,GAUCHARAN GOVT  JHS,36 1  GAUCGARAN  ASSAM LINGZEY ASSAM LINGZEY ROAD EAST SIKKIM 737135,EDUCATION,20,852,1,15-19
117,SAURENI GOVT  JHS,61 1  SAURENI  ASSAM LINGZEY SAURENI ROAD EAST SIKKIM 737135,EDUCATION,20,852,1,10-14
118,ASSAM LINGZEY SENIOR SEC SCHOOL,69 1  ASSAM LINGZEY ASSAM LINGZEY ROAD EAST SIKKIM 737135,EDUCATION,20,852,1,30-99
119,DE NOBILE ACADEMY,80 2  ASSAM LINGZEY ASSAM LINGZEY ROAD EAST SIKKIM 737135,EDUCATION,20,852,2,10-14
120,GOVERNMENT SECONDARY SCHOOL,11 1  BURTUK  GANGTOK BURTUK ROAD EAST SIKKIM 737101,EDUCATION,20,852,1,10-14
121,BURTUK GOVT  PRIMARY SCHOOL,1 2  BURTUK  GANGTOK  BURTUK EAST SIKKIM 737101,EDUCATION,20,851,1,10-14
122,DISTRICT INSTITUTION OF EDUCATION,16 1  AND TRAINING  BURTUK  GANGTOK BURTUK EAST SIKKIM 737101,EDUCATION,20,852,1,10-14
123,GOVT  LAW COLLEGE,53 BURTUK  GANGTOK BURTUK EAST SIKKIM 737101,EDUCATION,20,853,1,15-19
124,BURTUK JUNIOR HIGH SCHOOL,90 1  BURTUK  GANGTOK  BURTUK ROAD EAST SIKKIM 737101,EDUCATION,20,852,1,25-29
125,ST  JOHNS SCHOOL,5 3  BURTUK  GANGTOK BURTUK EAST SIKKIM 737101,PRIMARY EDUCATION,20,852,2,10-14
126,SUHIM PORTICO,2 LOWER SICHEY GANGTOK HELIPAD ROAD EAST SIKKIM 737101,HOTEL,14,551,2,20-24
127,ANNIES HOUSE SCHOOL,94 2  SICHEY  GANGTOK HELIPAD ROAD EAST SIKKIM 737101,PRIMARY EDUCATION,20,852,3,10-14
128,ICFAI COLLEGE,122 1  RANKA ROAD  LOWER SICHEY RANKA ROAD GANGTOK  EAST SIKKIM 737101,EDUCATION,20,853,9,30-99
129,NORTH POINT SCHOOL,52 2  BURTUK  GANGTOK  EAST SIKKIM BURTUK ROAD 737101,EDUCATION,20,852,2,10-14
130,RICE VALLEY RESIDENCY,64 SCIHEY  GANGTOK INDRA BYEPASS ROAD EAST SIKKIM 737101,HOTEL,14,551,2,10-14
131,SRI SATHYA SAI PRASHANTI VIDHYA MANDIR ,17 2   SICHEY INDIRA BYE PASS ROAD GANGTOK  EAST SIKKIM 737101,EDUCATION,20,852,9,15-19
132,SINGALILA MINGYUR,10 2  SICHEY  GANGTOK D C ROAD EAST SIKKIM 737101,HOTEL,14,551,2,10-14
133,SICHEY SECONDARY SCHOOL,7 1  SICHEY  GANGTOK BYE PASS ROAD EAST SIKKIM 737101,EDUCAION,20,852,1,30-99
134,SIBIN GROUP,69 SICHEY  GANGTOK INDIRA BYEPASS ROAD EAST SIKKIM 737101,VOCATIONAL EDUCATION,20,853,4,15-19
135,LINGDING JUNIOR HIGH SCHOOL,71 1  LLINGDING  LOWER SCICHEY LINDING ROAD EAST SIKKIM 737101,EDUCATION,20,852,1,15-19
136,SUBASH GARAGE,3 2  LOWER SICHEY  GANGTOK INDIRA BYE PASS EAST SIKKIM 737101,REPAIRING OF MOTOR VEHICLE,10,452,3,10-14
137,SIBIN GROUP,56 2  SICHEY  GANGTOK  EAST SIKKIM 737102,EDUCATION,20,853,4,30-99
138,SHRADHA AGENCY,56 7  LOWER SICHEY  GANGTOK INDIRA BYE PASS ROAD EAST SIKKIM 737102,WHOLE SALE TRADE OF GROCERY,11,463,2,15-19
139,CAESARS PALACE,37 1  BYE PASS  SICHEY INDIRA BYE PASS ROAD GANGTOK  EAST SIKKIM 737101,HOTEL,14,551,2,10-14
140,ESS ELL PEE GEE,37 2  LOWER SICHEY  BYE PASS INDIRA BYE PASS ROAD SICHEY  GANGTOK  EAST SIKKIM 737102,RETAIL TRADE OF LPG CYLINDER,12,477,1,10-14
141,TASHI NAMGYAL HIGHER SECONDARY SCHOOL ,44 1   UPPER SICHEY  GANGTOK  J T MARG EAST SIKKIM 737101,EDUCATION,20,852,1,30-99
142,THUMI SAMBHUTA TIBETAN SCHOOL,21 UPPER SICHEY  GANGTOK B R AMBEDKAR ROAD EAST SIKKIM 737101,EDUCATION,20,852,2,10-14
143,SAI RESIDENCY,20 UPPER SICHEY  GANGTOK INDIRA BYEPASS ROAD EAST SIKKIM 737101,HOTEL,14,551,2,10-14
144,KYI DE KHANG SCHOOL,17 UPPER SICHEY  GANGTOK INDIRA BYEPASS ROAD EAST SIKKIM 737101,EDUCATION,20,852,2,30-99
145,SIKKIM PEACE SURVEY GROUP,2 1  UPPER SICHEY  GANGTOK SICHEY CO  OPERATIVE ROAD EAST SIKKIM 737101,LAND SURVEY  TECHNICAL ACTIVITIES RELATED TO LAND SURVVEY,9,421,4,10-14
146,KIDDIES CORNER SCHOOL,40 UPPER SICHEY  GAGNTOK SICHEY ROAD EAST SIKKIM 737101,EDUCATION,20,852,2,10-14
147,DEAF SCHOOL,43 1  UPPER SICHEY  GAGNTOK SICHEY ROAD EAST SIKKIM 737101,EDUCATION,20,852,1,10-14
148,SIKKIM RETREAT,58 UPPER SICHEY  GANTOK B R AMBEDKAR ROAD EAST SIKKIM 737101,HOTEL,14,551,2,10-14
149,CROWN DE LA CRUZ RESIDENCY,17 UPPER SICHEY  GANGTOK B R AMBEDKAR EAST SIKKIM 737101,HOTEL,14,551,2,10-14
150,JAGRITI REHABILITATION CENTRE,36 2  UPPER SICHEY  GAGNTOK SICHEY ROAD EAST SIKKIM 737101,REHABILITATION AND HEALTH CARE CENTRE,21,861,7,10-14
151,HOTEL DEW POND,52 1  UPPER SICHEY  GAGNTOK P S ROAD EAST SIKKIM 737101,HOTEL,14,551,2,10-14
152,PALJOR STADIUM,42 UPPER SICHEY  GANGTOK P S ROAD EAST SIKKIM 737101,SPORTS ACTIVITY,22,931,1,10-14
153,NORKHILL HOTEL,44 UPPER SICHEY  GANGTOK P S ROAD EAST SIKKIM 737101,HOTEL,14,551,2,30-99
154,HIMALAYAN ZOOLOGICAL PARK,1 1  BULBULAY  CHANDMARI BULBULAY ROAD EAST SIKKIM 737103,WILDLIFE ZOO,22,910,1,15-19
155,ENCHEY SR  SEC  SCHOOL,90 CHANDMARI  GANGTOK J N ROAD EAST SIKKIM 737103,EDUCATION,20,852,1,30-99
156,M S CHANDMARI AUTOMOBILES,57 WORKSHOP  CHANDMARI  GANGTOK J N ROAD EAST SIKKIM 737103,REPAIR OF MOTOR VEHICLE,10,452,2,10-14
157,VINAYAKA MISSION NURSING COLLEGE,61 CHANDMARI  GANGTOK J N ROAD EAST SIKKIM 737103,HIGHER EDUCATION,20,853,9,15-19
158,GOVERNMENT CIRCUIT HOUSE,27 CHANDMARI  GANGTOK VIP COLONY ROAD EAST SIKKIM 737103,HOTEL,14,551,1,25-29
159,HOTEL MOUNT SINOLCHU,43 CHANDMARI  GANGTOK VIP COLONY ROAD EAST SIKKIM 737103,HOTEL,14,551,2,30-99
160,BSNL MICRO WEP MAINTENANCE,48 1  CHANDMARI  GANGTOK RAJ BHAWAN ROAD EAST SIKKIM 737103,INFORMATION AND COMMUNICATION SERVICES,15,611,1,10-14
161,ADMINISTRATIVE SECTION POST OFFICE,49 1  RAJ BHAWAN  CHANDMARI  GANGTOK RAJ BHAWAN ROAD EAST SIKKIM 737103,POST OFFICE,13,531,1,15-19
162,TASHI NAMGYAL ACADEMY,1 1  GANGTOK RAJ BHAWAN ROAD EAST SIKKIM 737103,EDUCATION,20,852,1,30-99
163,TASHI NAMGYAL ACADEMY HOSTEL,1 2  GANGTOK RAJ BHAWAN ROAD EAST SIKKIM 737103,HOSTEL,14,559,1,30-99
164,TINY KIDS ACADEMY,60 CHANDMARI  GANGTOK ENCHEY MONASTERY ROAD EAST SIKKIM 737103,PRIMARY EDUCATION,20,851,2,10-14
165,DOORDARSHAN KENDRA,26 CHANDMARI  GANGTOK ENCHEY MONASTERY ROAD EAST SIKKIM 737103,T V PROGRAMMING AND BROADCASTING,15,602,1,25-29
166,SIKKIM HANDLOOM AND HANDICRAFT DEVCORP  BOARD LTD ,54  NH 31A ZERO POINT  GANGTOK  EAST SIKKIM 737101,MANUFACTURING OF HANDLOOM AND HANDICRAFTS,6,139,1,200-499
167,DAFFODILS HOME SECONDARY SCHOOL,23 1  DEVELOPMENT AREA  GANGTOK J T MARG EAST SIKKIM 737101,EDUCATION,20,852,2,20-24
168,VAJRA CINEMA HALL,66 BALUWAKHANI  GANGTOK NH 31A EAST SIKKIM 737103,CINEMA HALL,22,900,2,20-24
169,HOTEL NETTLE AND FERN,54 1 ZERO POINT  GANGTOK NH 31A EAST SIKKIM 737101,HOTEL,14,551,2,15-19
170,STATE BANK OF INDIA,49 1  ZERO POINT  GAGNTOK NH 31A EAST SIKKIM 737101,FINANCIAL ACTIVITY,16,641,1,25-29
171,BSNL OFFICE,52 BALAUWAKHANI  GANGTOK NH 31A EAST SIKKIM 737103,INFORMATIONA AND TELECOMMUNICATION,15,611,1,200-499
172,ANNIES HOUSE PRIMARY SCHOOL,13 DEVELOPMENT AREA  GAGNTOK NH 31A EAST SIKKIM 737101,EDUCATION,20,851,2,10-14
173,HOTEL DENZONG REGENCY,2 2  DEVELOPMENT AREA  GAGNTOK NH 31A EAST SIKKIM 737101,HOTEL,14,551,2,30-99
174,LITTLE PIXIES INTERNATIONAL SCHOOL,40 3  DEVELOPMENT AREA J T MARG GANGTOK  EAST SIKKIM 737101,EDUCATION,20,852,2,15-19
175,SPASTIC SOCIETY,6 DEVELOPMENT AREA JEEWAN THEENG MARG GANGTOK  EAST SIKKIM 737101,EDUCATION,20,851,9,10-14
176,PALJOR NAMGYAL GIRLS SENIOR SEC SCHOOL ,1  GANGTOK DR BR AMBEDKAR ROAD EAST SIKKIM 737101,EDUCATION,20,852,1,30-99
177,STATE BANK OF SIKKIM,97 1  GANGTOK NH 31A SIKKIM 737101,FINANCIAL AND INSURANCE ACTIVITY,16,641,1,100-199
178,ST  THOMAS SCHOOL,25 1  GAGNTOK P S ROAD EAST SIKKIM 737101,EDUCATION,20,852,7,30-99
179,THE DELISSO ABODE,51 GANGTOK NH 31A EAST SIKKIM 737101,HOTEL,14,551,2,30-99
180,CENTRAL BANK OF INDIA,58 1  GANGTOK PS ROAD EAST SIKKIM 737101,FINANCIAL ACTIVITY,16,641,1,15-19
181,HOTEL TIBET,54 1  GAGNTOK PS ROAD SIKKIM 737101,HOTEL,14,551,6,30-99
182,HOTEL MT  JOPUNO,55 1  GAGNTOK PS ROAD EAST SIKKIM 737101,HOTEL,14,551,2,25-29
183,HOTEL MISTREE MOUNTAIN,64 1  GAGNTOK PS ROAD SIKKIM 737101,HOTEL,14,551,2,10-14
184,HOTEL MAYUR,57 1  GANGTOK PS ROAD SIKKIM 737101,HOTEL,14,551,2,30-99
185,POST OFFICE MAIN BRANCH,91 GANGTOK PS ROAD EAST SIKKIM 737101,POSTAL ACTIVITY,13,531,1,30-99
186,DIESEL POWER HOUSE,93 MECHANICAL DIVISION  DPH ROAD GAGNTOK  SIKKIM 737101,ELECTRIC POWER GENERATION,7,351,1,30-99
187,JANTA BHAWAN,16 GAGNTOK DPH ROAD EAST SIKKIM 737101,GUEST HOUSE,14,551,1,30-99
188,LE PRIMULA HOTEL,6 1  GANGTOK CHURCH ROAD SIKKIM 737101,HOTEL,14,551,2,15-19
189,NABARD BANK,8 3  GANGTOK CHURCH ROAD SIKKIM 737101,FINANCIAL ACTIVITY,16,641,1,15-19
190,VIJAYABANK,15 2  METRO POINT  NH 31A GANGTOK SIKKIM 737101,FINANCIAL AND INSURANCE ACTIVITY,16,641,1,10-14
191,EUREKA FORBES,17 7  METRO POINT  NH 31A GANGTOK SIKKIM 737101,WATER PURIFIER SERVICE CENTRE,23,952,4,15-19
192,NAYUMA WOMEN CO  OPERATIVE SOCIETY GROCERY UNIT ,51 UPPER ARITHANG NH 31A GANGTOK  SIKKIM 737101,RETAIL TRADE OF GROCERIES,12,471,6,15-19
193,SAGARIKA HOTEL,55 UPPER ARITHANG ROAD GANGTOK  SIKKIM 737101,HOTEL,14,551,2,10-14
194,ARITHANG JUNIOR HIGH SCHOOL,14 ARITHANG  GAGNTOK ARITHANG ROAD SIKKIM 737101,EDUCATION,20,852,1,30-99
195,HOTEL SILK ROUTE,16 1  ARITHANG  GANGTOK ARITHANG ROAD SIKKIM 737101,HOTEL,14,551,2,15-19
196,HOTEL CONTINENTAL,59 ARITHANG NH 31A GANGTOK  SIKKIM 737101,HOTEL,14,551,2,15-19
197,HOTEL GREENDALE,62 ARITHANG NH 31A GANGTOK  SIKKIM 737101,HOTEL,14,551,2,15-19
198,MAX VALUE FASHION BRAND,58 ARITHANG NH 31A GANGTOK  SIKKIM 737101,RETAIL TRADE OF GARMENTS,12,477,4,10-14
199,NIRMAN OFFSET PVT  LTD,69 INDIRA BYEPASS  ARITHANG  INDIRA BYE PASS ROAD GANGTOK  SIKKIM 737102,PRINTING ACTIVITIES,6,181,3,15-19
200,YES BANK LTD ,ARITHANG   NH 31A GANGTOK SIKKIM 737101,FINANCIAL ACTIVITY,16,641,4,10-14
201,IDBI BANK,44 3  ARITHANG  GANGT NH 31A GANGTOK SIKKIM 737101,FINANCIAL ACTIVITIES,16,641,4,15-19
202,DOMINO S,42 6  ARITHANG  GANGTOK NH 31A SIKKIM 737101,FOOD SERVICES,14,561,4,20-24
203,HOTEL HUNGRY JACK,42 2  ARITHANG  GANGTOK NH 31A SIKKIM 737101,HOTEL,14,551,2,20-24
204,DENZONG CINEMA HALL,43 1  LALL BAZAAR  LOWER M G MARG LALL BAZAAR ROAD GANGTOK  SIKKIM 737101,ENTERTAINTMENT ACTIVITY,22,900,2,15-19
205,CITIZEN BANK LTD ,147 NAMNANG  LOWER M G MARG NAMNANG ROAD GANGTOK  SIKKIM 737101,FINANCIAL ACTIVITY,16,641,2,20-24
206,HOTEL ANOLA,25 1  GANGTOK LOWER M G MARG SIKKIM 737101,RESTAURANT,14,561,2,25-29
207,DEY FAST FOOD,8 2  LOWER M G MARG LOWER M G MARG GANGTOK  SIKKIM 737101,RESTAURANT,14,561,2,15-19
208,BIG BAZAAR,47 1  NAMNANG  GANGTO NAMNANG ROAD GANGTOK SIKKIM 737101,RETAIL TRADE OF GROCERY,12,471,4,30-99
209,HAPPY HOURS SCHOOL,20 60  D C BUILDING  LALL BAZAAR LOWER M G MARG GANGTOK  SIKKIM 737101,EDUCATION,20,852,2,10-14
210,POTALA HOTEL,1 60  SUPER MARKET  LALL BAZAAR LOWER M G MARG GANGTOK  SIKKIM 737101,RESTAURANT,14,561,2,10-14
211,NAYUMA WOMEN S CO  OPERAVTIVE SCOIETY LTD  ,19 3  LALL BAZAAR  GANGTOK LALL BAZAAR ROAD SIKKIM 737101,MANUFACTURING OF WEARING APPAREL,6,141,6,25-29
212,HOTEL BAYUL  PEMA WANGCHUL ,1 M G MARG  GANGTOK M G MARG SIKKIM 737101,HOTEL,14,551,2,10-14
213,NARAYAN DAS SWEETS  MRS CHANDRAWATI GUPTA ,4 3    M G MARG  GANGTOK M G MARG SIKKIM 737101,RESTAURANT,14,561,2,15-19
214,SCRAP STORE  BAIJU PRASAD ,28 3  M G MARG  GANGTOK M G MARG SIKKIM 737101,SCRAP STORE,8,383,2,10-14
215,HOTEL POTALA  TASHI THENDUP ,18 12  M G MARG  GANGTOK M G MARG SIKKIM 737101,RESTAURANT,14,561,2,10-14
216,BANK OF BARODA,8 5  NEW MARKET  GANGTOK M G MARG SIKKIM 737101,FINANCIAL ACTIVITY,16,641,1,10-14
217,MANJUSRI PUBLIC SCHOOL,41 1  NEW MARKET  GANGTOK M G MARG SIKKIM 737101,EDUCATION,20,851,2,30-99
218,HOTEL ORIENTAL,13 1  NEW MARKET  GANGTOK M G MARG SIKKIM 737101,RESTAURANT,14,561,2,10-14
219,ANNA S BRIDAL BOUTIQUE,45 2  RUBEN CHAMLING  GANGTOK M G MARG SIKKIM 737101,BOUTIQUE,18,741,2,10-14
220,MASALA RESTAURANT  RAKESH SARDA ,30 1  M G MARG  GANGTOK M G MARG SIKKIM 737101,RESTAURANT,14,561,2,10-14
221,AXIS BANK,8 3  M G MARG MG MARG GANGTOK  SIKKIM 737101,FINANCIAL ACTIVITY,16,641,4,25-29
222,PARIVAR RESTAURANT  SURENDRA KR AGARWAL ,44 1    MG MARG  MG MARG SIKKIM 737101,RESTAURANT,14,561,2,10-14
223,GOODWILL SERVICES VIKAS PRASAD ,41 MG MARG  GANGTOK MG MARG SIKKIM 737101,RETAIL SALE OF TELECOMMUNICATION EQUIPMENT,12,474,2,10-14
224,HOTEL DOMA PALACE,18 1  NAMNANG  GANGTOK NAMNANG ROAD SIKKIM 737101,HOTEL,14,551,2,20-24
225,STATE BANK OF INDIA,12 9  REGIONAL OFFICE SONAM GYATSO MARG   ARCADE SHOPPING COMPLEX  KAZI ROAD  GANGTOK  SIKKIM 737101,FINANCIAL ACTIVITY,16,641,1,15-19
226,LIFE INSURANCE CORPORATION OF INDIA,4 3  NEW MARKET  GANGTOK M G MARG SIKKIM 737101,INSURANCE ACTIVITY,16,651,1,30-99
227,BANK OF INDIA,7 3  NEW MARKET  GANGTOK M G MARG SIKKIM 737101,FINANCIAL ACTIVITY,16,641,1,10-14
228,HOTEL SOYANG,8 NEW MARKET  GANGTOK MG MARG SIKKIM 737101,HOTEL,14,551,2,15-19
229,KIDS PARADISE,17 2  BELOW POWER DEPTT   KAZI ROAD SONAM GYATSO MARG GANGTOK  SIKKIM 737101,EDUCATION,20,851,2,10-14
230,HDFC BANK,82 MG MARG  GANGTOK MG MARG SIKKIM 737101,FINANCIAL ACTIVITY,16,641,4,10-14
231,ALLENS KITCHEN,73 BELOW HOTEL BAYUL  MG MARG  GANGTOK MG MARG SIKKIM 737101,BAR AND RESTAURANT,14,563,2,10-14
232,STNM HOSPITAL,31 GANGTOK  NH 31A SIKKIM 737101,HEALTH SERVICES,21,861,1,>=500
233,NAYUMA ENTERTAINTMENT PVT  LTD,10 2  TIBET ROAD TIBET ROAD GANGTOK  SIKKIM 737101,TELEVISION PROGRAMMING,15,591,2,100-199
234,SIDICO BANK,21 TIBET ROAD TIBET ROAD GANGTOK  SIKKIM 737101,FINANCIAL ACTIVITY,16,641,4,30-99
235,HOTEL SNOW LION,4 2  TIBET ROAD TIBET ROAD GANGTOK  SIKKIM 737101,HOTEL,14,551,2,10-14
236,HOTEL HERITAGE,7 1  TIBET ROAD TIBET ROAD GANGTOK  SIKKIM 737101,HOTEL,14,551,2,10-14
237,KEEPSA RESIDENCY,15 KAZI ROAD  GANGTOK SONAM GYATSO MARG SIKKIM 737101,HOTEL,14,551,2,30-99
238,CHUMBI RESIDENCY,46 TIBET ROAD TIBET ROAD GANGTOK  SIKKIM 737101,HOTEL,14,551,2,30-99
239,SBI GANGTOK BRANCH,9 6  GANGTOK  MG MARG SIKKIM 737101,FINANCIAL SERVICES,16,641,1,30-99
240,CAFE LIVE   LOUD,22 2  TIBET ROAD  GANGTOK TIBET ROAD SIKKIM 737101,BAR AND RESTAURANT,14,563,2,15-19
241,RUCHI DIAGNOSTICS,2 1  TIBET ROAD TIBET ROAD GANGTOK  SIKKIM 737101,HEALTH ACTIVITY,21,869,2,10-14
242,BSNL  TELEPHONE EXCHANGE,5 GANGTOK NH 31A SIKKIM 737101,TELECOMMUNICATION SERVICES,15,612,1,30-99
243,INDIRA GANDHI MEMORIAL SCHOOL,22 8  GANGTOK SONAM GYATSO MARG SIKKIM 737101,PRIMARY EDUCATION,20,851,9,10-14
244,TRAVEL LODGE,2 7  TIBET ROAD TIBET ROAD GANGTOK  SIKKIM 737101,HOTEL,14,551,2,10-14
245,CPCA ARCHITECT CONSULTANCY PVT LTD,34 2  KAZI ROAD  GANGTOK SONAM GYATSO MARG SIKKIM 737101,ARCHITECT CONSULTANCY,18,711,4,30-99
246,POWER DEPTT  REVENUE SECTION,35 2  GOVT  OF SIKKIM  KAZI ROAD SONAM GYATSO MARG GANGTOK  SIKKIM 737101,GENERAL PUBLIC SERVICE ACTIVITIES,19,821,1,100-199
247,HOTEL HERUKA,34 1 DEORALI  GANGTOK NH 31A SIKKIM 737102,HOTEL,14,551,2,10-14
248,TRIPTIS ENTERPRISES,44 2  PANI HOUSE  DEORALI NH 31A SIKKIM 737102,MANUFACTURING OF BAKERY PRODUCTS,6,107,2,100-199
249,STCS,19 1  DEORALI  GANGTOK NH 31A SIKKIM 737102,RETAIL TRADE OF FILLED IN NATURAL GAS,12,477,1,30-99
250,DEORALI GOVERMENT SEN  SEC  SCHOOL,9 1  DEORALI  GANGTOK DEORALI SIKKIM 737102,EDUCATION,20,852,1,100-199
251,BAHAI SCHOOL,18 1  GANGTOK BAHAI SCHOOL ROAD SIKKIM 737102,EDUCATION,20,852,1,15-19
252,BLACK CAT ARMY PRE  PRIMARY SCHOOL ,46 LIBING  GANGTOK LIBING ROAD SIKKIM 737102,EDUCATION,20,851,7,10-14
253,ARMY PUBLIC SCHOOL,45 LIBING  GANGTOK LIBING ROAD SIKKIM 737102,EDUCATION,20,852,7,30-99
254,KRISHNA COMPANY,26 2 GANGTOK NH 31A SIKKIM 737102,WHOLE SALE OF GROCERIES,11,463,4,15-19
255,SCISSORS BEAUTY PARLOUR,58 2  BELOW ANIMAL HUSBANDRY NH 31A GANGTOK SIKKIM 737102,HAIR AND BEAUTY PARLOUR,23,960,2,10-14
256,LYRICS KARAOKE BAR AND RESTAURANT ,67 BELOW ANIMAL HUSBANDRY DEPTT  NH 31A GANGTOK  SIKKIM 737102,BAR   RESTAURANT,14,563,2,10-14
257,SAHARSH FORD,80 TADONG  GANGTOK NH 31A SIKKIM 737101,RETAIL TRADE OF MOTOR VEHICLE,10,451,2,10-14
258,PURPLE WINE   DINE,81 2 JIGMEE N  LACHUNGPA  DARAGAON NH 31A GANGTOK  SIKKIM 737102,RESTAURANT,14,561,2,10-14
259,KAALLOS HAIR SALOON,81 3 SANGEETA PRADHAN  DARAGAON NH 31A GANGTOK  SIKKIM 737102,HAIR AND BEAUTY SALOON,23,960,2,10-14
260,THE SIKKIM CO  OPERATIVE MILK PRODUCERS UNION LTD,9    5TH MILE  TADONG LUMSAY ROAD SIKKIM 737102,MANUFACTURING OF MILK AND MILK PRODUCTS,6,105,6,30-99
261,THOMSON DIGITAL INDIA LTD ,69 BYEPASS  DARAGA NH 31A ON  GANGTOK  SIKKIM 737102,PUBLISHING ACTIVITY,15,581,4,30-99
262,EXTRUDER FOOD PLANT,42 LUMSAY  DARAGAON LUMSASY ROAD GANGTOK  SIKKIM 737102,MANUFACTURING OF WHEAT FLOUR,6,106,4,30-99
263,BAJAJ ALLIANZ LIFE INSURANCE,79 3  DARAGAON  TADONG NH 31A SIKKIM 737102,INSURANCE ACTIVITY,16,651,4,25-29
264,JOYBELLS SCHOOL,40 2  DARAGAON NH 31A TADONG  SIKKIM 737102,EDUCATION,20,852,2,10-14
265,TOUCHWOOD,45 3  DARAGAON  TADNG NH 31A SIKKIM 737102,RETAIL TRADE OF HOME FURNISHING,12,475,4,15-19
266,ICICI PRUDENTIAL LIC LTD ,GEETA LAXMI BUI NH 31A LDING  DARAGAON GANGTOK  SIKKIM 737102,INSURANCE ACTIVITY,16,651,4,10-14
267,LUMSAY GOVT  JUNIOR HIGH SCHOOL,51 1  LUMSAY  TADONG  LUMSAY ROAD SIKKIM 737102,EDUCATION,20,852,1,10-14
268,SIKKIM SECURITY FORCE,87 3  ALLIED MANAGEMENT LTD  LUMSAY ROAD LUMSAY  TADONG  SIKKIM 737102,SECURITY AGENCY,19,801,2,30-99
269,STATE TRADING CORPORATION OF SIKKIM,90 LUMSSAY  TADONG LUMSAY ROAD SIKKIM 737102,RETAIL SALE OF LPG CYLINDERS,12,477,1,10-14
270,GURUKOOL ACADEMY SCHOOL,40 1  NEAR GOVT  COLLEGE  TADONG LUMSAY ROAD SIKKIM 737102,EDUCATION,20,852,2,20-24
271,SNOWLION AUTMOBILES,46 1  LUMSAY  TADONG LUMSAY ROAD SIKKIM 737102,REPAIRING OF MOTOR VEHICLES,10,452,2,10-14
272,IGNOU REGIONAL OFFICE,37 2  5TH MILE  TADON NH 31A GANGTOK SIKKIM 737102,HIGHER EDUCATION,20,853,1,15-19
273,SIKKIM MANIPAL UNIVERSITY,2 1  SIKKIM MANIPAL INSTITUTE OF MEDICAL NH 31A SCIENCE  TADONG  SIKKIM 737102,ADMINISTRATIVE OFFICE,19,821,1,30-99
274,SIKKIM MANIPAL UNIVERSITY,2 3  TADONG NH 31A SIKKIM 737102,ADMINISTRATIVE AND SUPPORT SERVICE,19,821,1,25-29
275,MANIPAL CENTRAL REFERAL HOSPITAL,2 4  5TH MILE  TADONG NH 31A SIKKIM 737102,HUMAN HEALTH SERVICE,21,861,1,30-99
276,SIKKIM GOVERNMENT COLLEGE,7 TADONG  NH 31A SIKKIM 737102,HIGHER EDUCATION,20,853,1,100-199
277,GREENDALE SR  SEC  SCHOOL,1 DARAGAON  TADONG GREEN DALE SCHOOL ROAD SIKKIM 737102,EDUCATION,20,852,2,20-24
278,ITS LTD ,1 1  DARAGAON  TADONG NH 31A SIKKIM 737102,ADMINISTRATIVE OFFICE,19,821,2,30-99
279,SIKKIM UNIVERSITY COLLEGE,25 1  6TH MILE  TADONG NH 31A SIKKIM 737101,EDUCATION,20,853,1,30-99
280,GEN X MOTORS ,8 JOREDHARA  TADONG NH 31A SIKKIM 737102,RETAIL TRADE OF MOTOR VEHICLES,10,451,2,10-14
281,ENTEL MOTORS PVT  LTD,69 1  6TH MILE  TADONG NH 31A SIKKIM 737102,RETAIL TRADE OF MOTOR VEHICLE,10,451,4,30-99
282,ENTEL MOTORS SERVICE CENTRE,69 2  6TH MILE  TADONG NH 31A SIKKIM 737102,REPAIR AND MAINTENANCE OF MOTOR VEHICLES,10,452,4,30-99
283,MAHINDRA AND MAHINDRA FINANCIAL SERVICES LTD,74   6TH NHN NH31A MILE  TADONG SIKKIM 737102,FINANCIAL SERVICES,16,641,4,10-14
284,SIKKIM MOTORS LTD ,75 6TH MILE  TADONG NH 31A SIKKIM 737102,RETAIL SALE OF MOTOR VEHICLES,10,451,2,10-14
285,HARKA MAYA COLLEGE OF EDUCATION,56 1  6TH MILE  TADONG NH 31A SIKKIM 737102,HIGHER EDUCATION,20,853,2,25-29
286,SIKKIM UNIVERSITY,1 1  6TH MILE  TADONG NH 31A SIKKIM 737102,HIGHER EDUCATION,20,853,1,100-199
287,HOLY CROSS SCHOOL,9 1  6TH MILE  TADONG  NH 31A SIKKIM 737102,EDUCATION,20,852,2,30-99
288,SIKKIM MOTORS  MAHINDRA SHOW ROOM,4 3  6TH MILE  TADONG NH 31A SIKKIM 737102,RETAIL SALE OF MOTOR VEHICLES,10,451,4,25-29
289,KAJLA FUEL  K K AGARWAL ,67 TADONG NH 31A SIKKIM 737102,RETAIL TRADE PETROL FILLING STATION,12,473,2,15-19
290,VINAYAK MISSION UNIVERSITY SIKKIM,86 METRO  TADONG NH 31A SIKKIM 737102,HIGHER EDUCATION,20,853,2,30-99
291,SIKKIM HYUNDAI LTD ,87 1  METRO  TADONG NH 31A SIKKIM 737102,RETAIL SALE OF MOTOR VEHICLES,10,451,4,30-99
292,D ZENGA AUTOMOBILES TATA SERVICE CE,88 2  ENTRE  NH 31A METRO  TADONG  SIKKIM 737102,REPAIR AND SERVICE CENTRE,10,452,4,20-24
293,D ZENGA AUTOMOBILES TATA SHOWROOM,89 2  METRO  TADONG NH 31A SIKKIM 737102,RETAIL SALE OF MOTOR VEHICLES,10,451,4,10-14
294,SIKKIM STATE CO  OPERATIVE BANK LTD ,83 1  TADONG  SIKKIM NH 31A  737102,FINANCIAL ACTIVITY,16,641,6,30-99
295,TADONG GOVERNMNET SENIOR SEC  SCHOOL,57 1  TADONG NH 31A SIKKIM 737102,EDUCATION,20,852,1,30-99
296,MID DAY MEAL,57 2  TADONG SCHOOL  TADONG NH 31A SIKKIM 737102,FOOD SERVICES,14,562,3,10-14
297,SIKKIM MOTORS  MAHINDRA SERVICE CENTRE,3  ADAMPOOL  RUMTEK ROAD SIKKIM 737135,REPAIR AND SERVICE CENTRE OF MOTOR VEHICLES,10,452,2,30-99
298,GEN X MOTORS  CHEVROLET SERVICE CENTRE,35 10  SAMDUR  RANIPOOL NH 31A SIKKIM 737135,REPAIR AND SERVICE CENTRE OF MOTOR VEHICLES,10,452,2,20-24
299,ORANGE VILLAGE RESORT,38 SAMDUR  RANIPOOL NH 31A SIKKIM 737135,HOTEL,14,551,2,25-29
300,SIKKIM UNIVERSITY,97 SAMDUR  RANIPOOL NH 31A SIKKIM 737102,HIGHER EDUCATION,20,853,1,100-199
301,MAY FAIR HOTEL,3 1  SAMDUR  RANIPOOL NH 31A SIKKIM 737102,HOTEL,14,551,2,200-499
302,INDRAKIL VIDYALAYA RANIPOOL SCHOOL,10 2  RANIPOOL BAZAAR RANIPOOL ROAD SIKKIM 737135,EDUCATION,20,852,1,10-14
303,RONGYEK JUNIOR HIGH SCHOOL,13 3  RONGYEK  BHUSUK ROAD SIKKIM 737101,EDUCATION,20,852,1,25-29
304,SIDLON RESIDENCY,46 TATHANGCHEN J N ROAD GANGTOK  SIKKIM 737103,HOTEL,14,551,2,25-29
305,TAMARIND,47 TATHANGCHEN  GANGTOK J N ROAD SIKKIM 737103,HOTEL,14,551,2,30-99
306,MODERN SECONDARY SCHOOL,2 TATHANGCHEN  GANGTOK TATHANGCHEN ROAD SIKKIM 737103,EDUCATION,20,852,1,30-99
307,WEST POINT SENIOR SEC SCHOOL,14 TATHANGCHEN GANGT OK TATHANGCHEN ROAD SIKKIM 737103,EDUCATION,20,852,1,30-99
308,STATE BANK OF SIKKIM,68 4  TAHANGCHEN  GANGTOK TASHILING SECRETAARIAT SIKKIM 737101,FINANCIAL ACTIVITIES,16,641,1,10-14
309,STATE BANK OF SIKKIM,12 1  GANGTOK NH 31A SIKKIM 737101,FINANCIAL ACTIVITIES,16,641,1,10-14
310,STATE BANK OF INDIA,38 28  GANGTOK NH 31A SIKKIM 737102,FINACNIAL ACTIVITY,16,641,1,10-14
311,SHEDA SCHOOL,7 2  SYARI DEORALI CHORTEN GUMPA ROAD GANGTOK  SIKKIM 737102,EDUCATION,20,852,1,20-24
312,THINLAY NERPA,4 SYARI DEORALI  GANGTOK CHORTEN ROAD SIKKIM 737102,HOSTEL,14,559,2,10-14
313,DAMODAR ROPEWAY,22 SYARI DEORALI CHORTEN ROAD GANGTOK  SIKKIM 737102,TRANSPORTATION,13,522,4,20-24
314,HOTLIX,22 SYARI DEORALI  GANGTOK CHORTEN ROAD SIKKIM 737101,HOTEL,14,551,2,10-14
315,PADAM CHETTRI,8 2  NITHAYA SAMAI  SYARI DEORALI SYARI ROAD GANGTOK  SIKKIM 737101,PRINTING PRESS,6,181,2,10-14
316,EUPHORIA ENGINEERING SOLUTION,24 8  SYARI  GANGTOK SYARI ROAD SIKKIM 737102,INSTALLATION OF MACHINERY,6,332,4,20-24
317,THE ROYAL PLAZA,23 1  SYARI  GANGTOK SYARI ROAD SIKKIM 737102,HOTEL,14,551,2,100-199
318,GOVT  SEN  SEC  SCHOOL SINGTAM,14 SINGTAM ROAD EAST SIKKIM 737134,EDUCATION,20,852,1,30-99
319,PRISTINE LIFE SCIENCE,18 SINGTAM BHANU PARK EAST SIKKIM 737134,MANUFACTURING OF PHARMACEUTICALS,6,210,4,30-99
320,INTAS PHARMACY,38 1 3  MAZITAR  RANGPO NH 31A EAST SIKKIM 737132,MANUFACTURING OF PHARMACEUTICALS,6,210,3,200-499
321,SHEELA FOAM,39 1 6  MAZITAR  RANGPO NH 31A EAST SIKKIM 737132,MANUFACTURING OF OTHER TEXTILES,6,139,2,25-29
322,MAYELL AND FRESER OFFICE,77 29  MAZITAR  RANGPO NH 31A EAST SIKKIM 737132,MANUFACTURE OF GLASS AND GLASS PROD,6,231,2,30-99
323,INDIAN OIL LTD ,75 1 MAZITAR  RANGPO  EAST SIKKIM 737132,WAREHOUSING AND STORAGE,13,521,1,15-19
324,ZYDUS LTD ,84 1 3  MAZITAR  RANGPO NH 31A EAST SIKKIM 737132,MANUFACTURING OF PHARMACEUTICALS,6,210,2,>=500
325,UNICHEM PLANT,81 1 4  MAZITAR  RANGPO NH 31A EAST SIKKIM 737132,MANUFACTURING OF PHARMACEUTICALS,6,210,9,200-499
326,HIMALAYAN PHARMACY INSTITUTE,21 1  MAZITAR  RANGPO  NH 31A EAST SIKKIM 737136,EDUCATIONAL INSTITUTE,20,853,2,30-99
327,MAZITAR GOVT  JUNIOR HIGH SCHOOL,1 1  MAZITAR  RANGPO NH 31A EAST SIKKIM 737136,EDUCATION,20,852,1,25-29
328,MOUNT DISTILLERIES,85 14  MAZITAR  RANGPO MAZITAR EAST SIKKIM 737136,MANUFACTURING OF LIQUORS,6,110,9,15-19
329,SIKKIM MANIPAL UNIVERSITY,21 MAZITAR  RANGPO NH 31A EAST SIKKIM 737136,EDUCATION,20,853,1,200-499
330,C G FOOD INDIA PVT  LTD ,103 1  SMC  RANGPO NAMTHANG ROAD EAST SIKKIM 737132,MANUFACTURE OF NOODLES,6,107,2,100-199
331,SQUARE HOTEL,4 RANGPO NH 31A EAST SIKKIM 737132,RESTAURANT,14,561,2,10-14
332,AXIS BANK,15 1  RANGPO BAZAAR NH 31A EAST SIKKIM 737132,FINANCIAL SERVICES,16,641,4,15-19
333,OLD MID POINT,20 2  RANGPO EAST SIKKIM 737132,RESTAURANT,14,561,2,10-14
334,UTTAM FAST FOOD,21 1  RANGPO BAZAAR NH 31A EAST SIKKIM 737132,RESTAURANT,14,561,2,15-19
335,SHREE RAM FAST FOOD,22 1  RANGPO NH 31A EAST SIKKIM 737132,RESTAURANT,14,561,2,10-14
336,RANGPO TOURIST LODGE,42 1  RANGPO NH 31A EAST SIKKIM 737132,LODGE,14,551,2,10-14
337,HDFC BANK,81 2  RANGPO BAZAAR NH 31A EAST SIKKIM 737132,FINANCIAL SERVICES,16,641,4,10-14
338,RANGPO GOVT  JHS,21 1  CHANATAR  RANGPO DUGA ROAD EAST SIKKIM 737132,EDUCATION,20,852,1,30-99
339,SIKKIM DISTILLERIES LTD ,38 CHANATAR  RANGPO KUMREK ROAD EAST SIKKIM 737132,SECURITY ACTIVITIES,19,801,4,15-19
340,SIKKIM DISTILLERIES LTD ,39 CHANATAR  RANGPO KUMREK ROAD EAST SIKKIM 737132,STORAGE,13,521,4,30-99
341,SIKKIM DISTILLERIES LTD ,40 CHANATAR  RANGPO CHANATAR EAST SIKKIM 737132,STORAGE,13,521,4,25-29
342,SIKKIM DISTILLERIES LTD ,41 CHANATAR  RANGPO  RANGPO KUMREK ROAD EAST SIKKIM 737132,STORAGE,13,521,4,25-29
343,SIKKIM DISTILLERIES LTD ,42 CHANATAR  RANGPO  RANGPO KUMREK ROAD EAST SIKKIM 737132,REPAIR AND MAINTENANCE OF MACHINERY,6,331,4,20-24
344,SIKKIM DISTILLERIES LTD ,43 CHANTAR  RANGPO  RANGPO KUMREK ROAD EAST SIKKIM 737132,REPAIR AND MAINTENANCE OF MOTOR CARS,10,452,4,10-14
345,SIKKIM DISTILLERIES LTD ,44 CHANTAR  RANGPO KUMREK ROAD EAST SIKKIM 737132,STORAGE,13,521,4,10-14
346,RANGPO PRIMARY HEALTH CENTRE,79 RANGPO NH 31A EAST SIKKIM 737132,HEALTH SERVICES,21,861,1,30-99
347,GOVERNMENT SECONDARY SCHOOL,86 1 MINING SMC  RANGPO NAMTHANG ROAD EAST SIKKIM 737132,EDUCATION,20,852,1,30-99
348,TINY TOTS SCHOOL,112 IBM   RANGPO NH 31A EAST SIKKIM 737132,EDUCATION,20,851,2,15-19
349,HIMALAYAN DISTILLERIES,104 MAZITAR  RANGPO MAZITAR EAST SIKKIM 737136,MANUFACTURE OF LIQUORS,6,110,3,30-99
350,UGEN AGGREGATES   DOLOMITES,107 MAZITAR  RANGPO NH 31A EAST SIKKIM 737132,CONSTRUCTION ACTIVITIES,9,410,2,10-14
351,INDANE BOTTLING PLANT LTD ,102 MAZITAR  RANGPO NH 31A EAST SIKKIM 737136,DISTRIBUTION OF OIL AND NATURAL GAS,7,352,1,30-99
352,SUN PACKMET,103 BAGEYKHOLA  RANGPO NH 31A EAST SIKKIM 737132,PACKAGING ACTIVITIES,19,829,2,10-14
353,NEXTGEN PRINTERS PVT  LTD ,105 MAZITAR  RANGPO NH 31A EAST SIKKIM 737132,PRINTING ACTIVITY,6,181,2,30-99
354,SARAMSA RESORT,159 CHOTA SINGTAM ASSAM LINGZEY ROAD EAT SIKKIM 737135,HOTEL,14,551,2,20-24
355,CHANGEY GOVT  SEC SCHOOL,89 1  CHANGEY SENTI CHANGEY SENTI ROAD EAST SIKKIM 737135,EDUCATION,20,852,1,30-99
356,PACHEY SAMSING GOVT  JHS,27 PACHEY SAMSING ROAD EAST SIKKIM 737106,EDUCATION,20,852,1,10-14
357,BAPTIST ENGLISH SCHOOL,54 2  NIMTAR  NAMCHEYBONG NIMTAR ROAD EAST SIKKIM 737106,EDUCATION,20,852,2,10-14
358,NIMTAR GOVT  JHS,23 NIMTAR  NAMCHEYBONG NIMTAR ROAD EAST SIKKIM 737106,EDUCATION,20,852,1,15-19
359,SIKKIM REHABILITATION CENTRE,88 NIMTAR  NAMCHEYBONG NIMTAR ROAD EAST SIKKIM 737106,HUMAN HEALTH SERVICE,21,861,7,15-19
360,GOVT  SECONDARY SCHOOL,18 NAMCHEYBONG ROAD EAST SIKKIM 737106,EDUCATION,20,852,1,30-99
361,RAIGAON GOVT  JHS,39 RAI GAON  NAMCHEYBONG RAI GAON ROAD EAST SIKKIM 737106,EDUCATION,20,852,1,15-19
362,JNV SCHOOL,68 PAKYONG ROAD EAST SIKKIM 737106,EDUCATION,20,852,1,20-24
363,SAI GURUKUL ACADEMY,46 NAMCHEYBONG EAST SIKKIM 737106,EDUCATIONAL INSTITUTION,20,852,2,10-14
364,PRIMARY HEALTH CENTRE,32 PAKYONG ROAD EAST SIKKIM 737135,HEALTH CARE SERVICE,21,861,1,30-99
365,PAKIM PALATINE COLLEGE,61 2  PAKYONG ROAD EAST SIKKIM 737135,EDUCATION,20,853,2,20-24
366,ST JOHNS SCHOOL,100 1  PAKYONG BASILAKHA ROAD EAST SIKKIM 737135,EDUCATION,20,852,2,10-14
367,PACHAK GOVT  JHS,30 PACHAK ROAD EAST SIKKIM 737132,EDUCATION,20,852,1,15-19
368,BHASMEY JUNIOR HIGH SCOOL,37 BHASMEY ROAD EAST SIKKIM 737132,EDUCATION,20,852,1,10-14
369,KANCAHANJUNGA PAPER FACTORY,135 BHASMEY KUMREK ROAD EAST SIKKIM 737132,MANUFACTURING OF PAPER PRODUCTS,6,170,2,10-14
370,GATI INFRASTRUCTURE LTD ,104 KAMAREY BHASAMEY RORATHANG RANGPO ROAD EAST SIKKIM 737132,ELECTRICITY POWER GENERATION  TRANSMISSION AND DISTRIBUTION,7,351,2,30-99
371,PADAMCHEY SEC SCHOOL,1523 PADAMCHEY ROAD EAST SIKKIM 737132,EDUCATION,20,852,1,20-24
372,DIKLING GOVT  SEN  SEC  SCHOOL,32 1  DIKLING ROAD EAST SIKKIM 737106,EDUCATION,20,852,1,30-99
373,DAMLAKHA GOVT  SCHOOL,7 1  DAMLAKHA  DIKLING DAMLAKHA EAST SIKKIM 737106,EDUCATION,20,852,1,15-19
374,PBN CONSTRUCTION,1 2 CHALAMTHANG  CHALAMTHANG PAKYONG EAST SIKKIM 737106,CONSTRUCTION,9,410,3,30-99
375,KARTHOK GOVT  PRIMARY SCHOOL,28 1 KARTHOK  PAKYONG KARTHOK EAST SIKKIM 737106,EDUCATION,20,851,1,10-14
376,PUNJ LLOYD LTD ,SIKKIM AIR PORT CHURCH ROAD   CHURCH ROAD  KARTHOK  PAKYONG  EAST SIKKIM 737106,CONSTRUCTION,9,410,4,200-499
377,ST  XAVIERS SCHOOL,93 1 PAKYONG SAMSING EAST SIKKIM 737106,EDUCATION,20,852,2,30-99
378,ST  XAVIERS SCHOOL,93 2 PAKYONG SAMSING ROAD EAST SIKKIM 737106,HOSTEL,14,559,2,20-24
379,STATE BANK OF INDIA,86 1 NAV GAON  PAKYONG SAMSING ROAD EAST SIKKIM 737106,FINANCIAL ACTIVITIES,16,641,1,10-14
380,PAKYONG GOVT  JUNIOR HIGH SCHOOL,27 1 PAKYONG KARTHOK EAST SIKKIM 737106,EDUCATION,20,852,1,25-29
381,BHUPATI CONSTRUCTION COMPANY,88 PAKYONG ROAD EAST SIKKIM 737106,CONSTRUCTION,9,410,4,100-199
382,DUGALAKHA JUNIOR HIGH SCHOOL,103 1 DUGALAKHA ROAD EAST SIKKIM 737106,EDUCATION,20,852,1,15-19
383,PUSPANJALI VIDHYALAYA,15 1 CHALAMTHANG EAST SIKKIM 737106,EDUCATION,20,852,7,15-19
384,PACHEYKHANI GOVT SCHOOL,54 3 PACHEYKHANI ROAD EAST SIKKIM 737106,EDUCATION,20,852,1,15-19
385,DUGALAKHA JUNIOR HIGH SCHOOL,40 1 DUGALAKHA ROAD EAST SIKKIM 737106,EDUCATION,20,852,1,15-19
386,GANCHUNG SCHOOL,73 2  TAZA GANCHUNG ROAD EAST SIKKIM 737106,EDUCATION,20,852,1,20-24
387,MAMRING SENIOR SEC  SCHOOL,16 1 AMBA MAMRING ROAD EAST SIKKIM 737106,EDUCATION,20,852,1,30-99
388,AMBA GOVT  JUNIOR HIGH SCHOOL,115 AMBA ROAD EAST SIKKIM 737133,EDUCATION,20,852,1,10-14
389,TAREYTHANG JUNIOR HIGH SCHOOL,59 1 TAREYTHANG TARETHANG EAST SIKKIM 737106,EDUCATION,20,852,1,10-14
390,BERING GOVT JHS,36 1 BERING ROAD EAST SIKKIM 737106,EDUCATION,20,852,1,10-14
391,LINKEY GOVT  SCHOOL,18 1 LINKEY PAKYONG LINKEY ROAD EAST SIKKIM 737106,EDUCATION,20,852,1,20-24
392,MACHONG GOVT  SENIOR SEC SCHOOL,24 MACHONG EAST SIKKIM 737106,EDUCATION,20,852,1,15-19
393,BARAPATHING JHS,14 1 BARAPATHING ROAD EAST SIKKIM 737106,EDUCATION,20,852,1,15-19
394,GOVERNMENT PRIMARY SCHOOL,17 PHERI CHUCHENPHERI ROAD EAST SIKKIM 737106,EDUCATION,20,851,1,10-14
395,LINGTAM SECONDARY SCHOOL,95 1 LINGTAM ROAD EAST SIKKIM 737131,EDUCATION,20,852,1,15-19
396,ROLEP SECONDARY SCHOOL,52 ROLEP ROAD EAST SIKKIM 737131,EDUCATION,20,852,1,20-24
397,PHADAMCHEN GOVT  SECONDARY SCHOOL,35 1 PHADAMCHEN ROAD EAST SIKKIM 737131,EDUCATION,20,852,1,20-24
398,REGU GOVT  JUNIOR HIGH SCHOOL,82 REGU  REGU ROAD EAST SIKKIM 737131,EDUCATION,20,852,1,10-14
399,GOVT  JUNIOR HIGH SCHOOL,36 TALKHARGA  REGU TALKHARGA EAST SIKKIM 737131,EDUCATION,20,852,1,15-19
400,ENERGY   POWER DEPTT ,82 CHUJACHEN RONGLI ROAD EAST SIKKI 737131,ELECTRIC POWER GENERATION  TRANSMISSION AND DISTRIBUTION,7,351,1,30-99
401,GATI PRIVATE LTD  COMPANY,70 CHUJACHEN ROAD EAST SIKKIM 737131,ELECTRIC POWER GENERATION,7,351,4,200-499
402,HOSPITAL,163 CHUJACHEN ROAD EAST SIKKIM 737131,HOSPITAL,21,861,1,100-199
403,CHUJACHEN GOVT  SENIOR SEC SCHOOL,19 1 CHUJACHEN REWLAKHA ROAD EAST SIKKIM 737133,EDUCATION,20,852,1,30-99
404,RONGLI GOVT  JUNIOR HIGH SCHOOL,69 1 RONGLI ROAD EAST SIKKIM 737131,EDUCATION,20,852,1,20-24
405,RIVERINE ELEMENTARY SCHOOL,136 5 RONGLI ROAD EAST SIKKIM 737131,EDUCATION,20,852,2,10-14
406,SUNRISE MODEL SCHOOL,61 RONGLI ROAD EAST SIKKIM 737131,EDUCATION,20,852,2,10-14
407,DALAPCHAND SENIOR SEC SCHOOL,18 DALAPCHAND ARITAR ROAD EAST SIKKIM 737106,EDUCATION,20,852,1,20-24
408,SUDUNGLAKHA GOVT  SECONDARY SCHOOL,66 SUDUNGLAKHA EAST SIKKIM 737131,EDUCATION,20,852,1,15-19
409,MULUKAY JR  HIGH SCHOOL,22 1 MULUKAY EAST SIKKIM 737121,EDUCATION,20,852,1,10-14
410,DENZONG ALBREW PVT  LTD ,28 MULUKAY RONGLI ROAD EAST SIKKIM 737131,MANUFACTURE OF LIQUOR,6,110,4,30-99
411,DONALD MEMORIAL ACADEMY,37 RHENOCK ROAD EAST SIKKIM 737133,EDUCATION,20,852,1,10-14
412,CIPLA LTD ,32 LOWER TARPIN RANGPO RORATHANG ROAD EAST SIKKIM 737132,MANUFACTURING OF PHARMACEUTICALS,6,210,4,>=500
413,SEVENTH DAY ADVENTIST MISSION SCHOOL,36 L CHALISAY ROAD RHENOCK  EAST SIKKIM 737121,EDUCATION,20,852,2,10-14
414,PRIMARY HEALTH CENTRE,18 RHENCOK BAZAAR RHENOCK ROAD EAST SIKKIM 737133,HEALTH SERVICE ACTIVITY,21,861,1,20-24
415,GOVERNMENT JUNIOR HIGH SCHOOL,3 RHENOCK ARITAR ROAD EAST SIKKIM 737133,EDUCATION,20,852,1,15-19
416,RHENOCK GOVT  SENIOR SECONDARY SCHOOL,51  ARITAR ROAD ARITAR  EAST SIKKIM 737131,EDUCATION,20,852,1,30-99
417,GOVERNMENT SECONDARY SCHOOL,19 ARITAR ROAD EAST SIKKIM 737131,EDUCATION,20,852,1,25-29
418,MIDDLE ARITAR GOVERNMENT PRIMARY,18 SCHOOL  MIDDLE ARITAR KHAMDONG ROAD EAST SIKKIM 737131,EDUCATION,20,852,1,15-19
419,UPPER KHAMDONG GOVT  PRIMARY SCHOOL,31 UPPER KHAMDONG  ARITAR KHAMDONG ROAD EAST SIKKIM 737131,EDUCATION,20,851,1,10-14
420,KHAMDONG GOVERNMENT JUNIOR HIGH SCH,67 OOL KHMADONG ROAD   KHAMDONG ARITAR  EAST SIKKIM 737131,EDUCATION,20,852,1,15-19
421,ECO TOURISM AND CONSERVATION SOCIETY OF SIKKIM  ECOSS ,53  DARRAGAON NH 31A TADONG  SIKKIM 737102,MEMBERSHIP ORGANISATION,23,949,7,10-14
422,M S TRIO VENTURES PVT  LTD,3 2  CASINO MAHJONG   MAYFAIR  NH 31A RANIPOOL  SIKKIM 737135,GAMBLING AND BETTING ACTIVITIES,22,920,4,200-499
423,SONAM TOPGAY BHUTIA  YARLAM PORTICO,59 JHORE DHARA  5TH MILE  TADONG NH 31A SIKKIM 737102,HOTEL,14,551,2,20-24
424,STATE BANK OF INDIA,20 3  SINGTAM BAZAAR SINGTAM BAZAAR ROAD EAST SIKKIM 737121,FINANCIAL ACTIVITY,16,641,1,20-24
425,SEWERAGE SUB DIVISION WS PHE DEPTT ,80 INDIRA BYEPASS ROAD INDIRA BYE PASS ROAD GANGTOK  SIKKIM 737102,WATER SUPPLY AND SEWERAGE,8,370,1,100-199
426,SUBASH AND SAMUEL GARAGE,66 LOWER SICHEY INDIRA BYE PASS GANGTOK 737102,REPAIR OF MOTOR VEHICLES,10,452,3,10-14
427,GLENMARK PHARMACEUTICALS LTD INDUSTRIES,140   SAMLIK MARCHAK 737135,MANUFACTURING OF PHARMACEUTICALS,6,210,4,100-199
428,SK MOTORS,72 LOWER SICHEY INDIRA BYEPASS GANGTOK 737101,REPAIR OF MOTOR VEHICLES,10,452,2,10-14
429,RAMUDAMU AUTO WORKSHOP,74 LOWER SICHEY INDIRA BYE PASS GANGTOK 737102,REPAIR OF MOTOR VEHICLES,10,452,2,10-14
430,SMILE LAND,204 SAMLIK MARCHAK 31ANH EAST SIKKIM 737135,ACCOMMODATION AND FOOD SERVICES,14,551,2,10-14
431,VOLUNTARY HEALTH ASSOCIATION OF SIKKIM,60   VHAS  BAHAI SCHOOL ROAD TADONG  GANGTOK  EAST SIKKIM 737102,ADMINISTRATIVE OFFICE,19,821,1,10-14
432,LADAKHI CONSTRUCTION PVT LTD,4 117  BALUWAKHANI GANGTOK EAST SIKKIM NH31A  737101,RETAIL SALE OF HARDWARE,12,475,2,20-24
433,RHENDEZVOUS PVT LTD,16 GANGTOK EAST SIKKIM 31ANH  737101,HOTEL,14,551,2,15-19
434,HDFC LIFE NAYA BAZAR,48 GANGTOK EAST SIKKIM MG MARG 737101,FINANCIAL AND INSURANCE ACTIVITY,16,651,4,10-14
